%!PS-Adobe-3.0 EPSF-3.0
%%Creator: (MATLAB, The Mathworks, Inc. Version 8.6.0.267246 \(R2015b\). Operating System: Windows 8)
%%Title: (C:/Users/Daniel/OneDrive - CertiCon a.s/Documents/skola/CVUT/Semester_8/Bakalarska_Praca/Bachelor thesis/Figures/models/Snake6_model.eps)
%%CreationDate: 2016-05-14T14:57:04
%%Pages: (atend)
%%BoundingBox: 0 0 420 315
%%LanguageLevel: 2
%%EndComments
%%BeginProlog
%%BeginResource: procset (Apache XML Graphics Std ProcSet) 1.2 0
%%Version: 1.2 0
%%Copyright: (Copyright 2001-2003,2010 The Apache Software Foundation. License terms: http://www.apache.org/licenses/LICENSE-2.0)
/bd{bind def}bind def
/ld{load def}bd
/GR/grestore ld
/M/moveto ld
/LJ/setlinejoin ld
/C/curveto ld
/f/fill ld
/LW/setlinewidth ld
/GC/setgray ld
/t/show ld
/N/newpath ld
/CT/concat ld
/cp/closepath ld
/S/stroke ld
/L/lineto ld
/CC/setcmykcolor ld
/A/ashow ld
/GS/gsave ld
/RC/setrgbcolor ld
/RM/rmoveto ld
/ML/setmiterlimit ld
/re {4 2 roll M
1 index 0 rlineto
0 exch rlineto
neg 0 rlineto
cp } bd
/_ctm matrix def
/_tm matrix def
/BT { _ctm currentmatrix pop matrix _tm copy pop 0 0 moveto } bd
/ET { _ctm setmatrix } bd
/iTm { _ctm setmatrix _tm concat } bd
/Tm { _tm astore pop iTm 0 0 moveto } bd
/ux 0.0 def
/uy 0.0 def
/F {
  /Tp exch def
  /Tf exch def
  Tf findfont Tp scalefont setfont
  /cf Tf def  /cs Tp def
} bd
/ULS {currentpoint /uy exch def /ux exch def} bd
/ULE {
  /Tcx currentpoint pop def
  gsave
  newpath
  cf findfont cs scalefont dup
  /FontMatrix get 0 get /Ts exch def /FontInfo get dup
  /UnderlinePosition get Ts mul /To exch def
  /UnderlineThickness get Ts mul /Tt exch def
  ux uy To add moveto  Tcx uy To add lineto
  Tt setlinewidth stroke
  grestore
} bd
/OLE {
  /Tcx currentpoint pop def
  gsave
  newpath
  cf findfont cs scalefont dup
  /FontMatrix get 0 get /Ts exch def /FontInfo get dup
  /UnderlinePosition get Ts mul /To exch def
  /UnderlineThickness get Ts mul /Tt exch def
  ux uy To add cs add moveto Tcx uy To add cs add lineto
  Tt setlinewidth stroke
  grestore
} bd
/SOE {
  /Tcx currentpoint pop def
  gsave
  newpath
  cf findfont cs scalefont dup
  /FontMatrix get 0 get /Ts exch def /FontInfo get dup
  /UnderlinePosition get Ts mul /To exch def
  /UnderlineThickness get Ts mul /Tt exch def
  ux uy To add cs 10 mul 26 idiv add moveto Tcx uy To add cs 10 mul 26 idiv add lineto
  Tt setlinewidth stroke
  grestore
} bd
/QT {
/Y22 exch store
/X22 exch store
/Y21 exch store
/X21 exch store
currentpoint
/Y21 load 2 mul add 3 div exch
/X21 load 2 mul add 3 div exch
/X21 load 2 mul /X22 load add 3 div
/Y21 load 2 mul /Y22 load add 3 div
/X22 load /Y22 load curveto
} bd
/SSPD {
dup length /d exch dict def
{
/v exch def
/k exch def
currentpagedevice k known {
/cpdv currentpagedevice k get def
v cpdv ne {
/upd false def
/nullv v type /nulltype eq def
/nullcpdv cpdv type /nulltype eq def
nullv nullcpdv or
{
/upd true def
} {
/sametype v type cpdv type eq def
sametype {
v type /arraytype eq {
/vlen v length def
/cpdvlen cpdv length def
vlen cpdvlen eq {
0 1 vlen 1 sub {
/i exch def
/obj v i get def
/cpdobj cpdv i get def
obj cpdobj ne {
/upd true def
exit
} if
} for
} {
/upd true def
} ifelse
} {
v type /dicttype eq {
v {
/dv exch def
/dk exch def
/cpddv cpdv dk get def
dv cpddv ne {
/upd true def
exit
} if
} forall
} {
/upd true def
} ifelse
} ifelse
} if
} ifelse
upd true eq {
d k v put
} if
} if
} if
} forall
d length 0 gt {
d setpagedevice
} if
} bd
%%EndResource
%%BeginResource: procset (Apache XML Graphics EPS ProcSet) 1.0 0
%%Version: 1.0 0
%%Copyright: (Copyright 2002-2003 The Apache Software Foundation. License terms: http://www.apache.org/licenses/LICENSE-2.0)
/BeginEPSF { %def
/b4_Inc_state save def         % Save state for cleanup
/dict_count countdictstack def % Count objects on dict stack
/op_count count 1 sub def      % Count objects on operand stack
userdict begin                 % Push userdict on dict stack
/showpage { } def              % Redefine showpage, { } = null proc
0 setgray 0 setlinecap         % Prepare graphics state
1 setlinewidth 0 setlinejoin
10 setmiterlimit [ ] 0 setdash newpath
/languagelevel where           % If level not equal to 1 then
{pop languagelevel             % set strokeadjust and
1 ne                           % overprint to their defaults.
{false setstrokeadjust false setoverprint
} if
} if
} bd
/EndEPSF { %def
count op_count sub {pop} repeat            % Clean up stacks
countdictstack dict_count sub {end} repeat
b4_Inc_state restore
} bd
%%EndResource
%FOPBeginFontDict
%%IncludeResource: font Courier-Bold
%%IncludeResource: font Helvetica
%%IncludeResource: font Courier-BoldOblique
%%IncludeResource: font Courier-Oblique
%%IncludeResource: font Times-Roman
%%IncludeResource: font Helvetica-BoldOblique
%%IncludeResource: font Helvetica-Bold
%%IncludeResource: font Helvetica-Oblique
%%IncludeResource: font Times-BoldItalic
%%IncludeResource: font Courier
%%IncludeResource: font Times-Italic
%%IncludeResource: font Times-Bold
%%IncludeResource: font Symbol
%%IncludeResource: font ZapfDingbats
%FOPEndFontDict
%%BeginResource: encoding WinAnsiEncoding
/WinAnsiEncoding [
/.notdef /.notdef /.notdef /.notdef /.notdef
/.notdef /.notdef /.notdef /.notdef /.notdef
/.notdef /.notdef /.notdef /.notdef /.notdef
/.notdef /.notdef /.notdef /.notdef /.notdef
/.notdef /.notdef /.notdef /.notdef /.notdef
/.notdef /.notdef /.notdef /.notdef /.notdef
/.notdef /.notdef /space /exclam /quotedbl
/numbersign /dollar /percent /ampersand /quotesingle
/parenleft /parenright /asterisk /plus /comma
/hyphen /period /slash /zero /one
/two /three /four /five /six
/seven /eight /nine /colon /semicolon
/less /equal /greater /question /at
/A /B /C /D /E
/F /G /H /I /J
/K /L /M /N /O
/P /Q /R /S /T
/U /V /W /X /Y
/Z /bracketleft /backslash /bracketright /asciicircum
/underscore /quoteleft /a /b /c
/d /e /f /g /h
/i /j /k /l /m
/n /o /p /q /r
/s /t /u /v /w
/x /y /z /braceleft /bar
/braceright /asciitilde /bullet /Euro /bullet
/quotesinglbase /florin /quotedblbase /ellipsis /dagger
/daggerdbl /circumflex /perthousand /Scaron /guilsinglleft
/OE /bullet /Zcaron /bullet /bullet
/quoteleft /quoteright /quotedblleft /quotedblright /bullet
/endash /emdash /asciitilde /trademark /scaron
/guilsinglright /oe /bullet /zcaron /Ydieresis
/space /exclamdown /cent /sterling /currency
/yen /brokenbar /section /dieresis /copyright
/ordfeminine /guillemotleft /logicalnot /sfthyphen /registered
/macron /degree /plusminus /twosuperior /threesuperior
/acute /mu /paragraph /middot /cedilla
/onesuperior /ordmasculine /guillemotright /onequarter /onehalf
/threequarters /questiondown /Agrave /Aacute /Acircumflex
/Atilde /Adieresis /Aring /AE /Ccedilla
/Egrave /Eacute /Ecircumflex /Edieresis /Igrave
/Iacute /Icircumflex /Idieresis /Eth /Ntilde
/Ograve /Oacute /Ocircumflex /Otilde /Odieresis
/multiply /Oslash /Ugrave /Uacute /Ucircumflex
/Udieresis /Yacute /Thorn /germandbls /agrave
/aacute /acircumflex /atilde /adieresis /aring
/ae /ccedilla /egrave /eacute /ecircumflex
/edieresis /igrave /iacute /icircumflex /idieresis
/eth /ntilde /ograve /oacute /ocircumflex
/otilde /odieresis /divide /oslash /ugrave
/uacute /ucircumflex /udieresis /yacute /thorn
/ydieresis
] def
%%EndResource
%FOPBeginFontReencode
/Courier-Bold findfont
dup length dict begin
  {1 index /FID ne {def} {pop pop} ifelse} forall
  /Encoding WinAnsiEncoding def
  currentdict
end
/Courier-Bold exch definefont pop
/Helvetica findfont
dup length dict begin
  {1 index /FID ne {def} {pop pop} ifelse} forall
  /Encoding WinAnsiEncoding def
  currentdict
end
/Helvetica exch definefont pop
/Courier-BoldOblique findfont
dup length dict begin
  {1 index /FID ne {def} {pop pop} ifelse} forall
  /Encoding WinAnsiEncoding def
  currentdict
end
/Courier-BoldOblique exch definefont pop
/Courier-Oblique findfont
dup length dict begin
  {1 index /FID ne {def} {pop pop} ifelse} forall
  /Encoding WinAnsiEncoding def
  currentdict
end
/Courier-Oblique exch definefont pop
/Times-Roman findfont
dup length dict begin
  {1 index /FID ne {def} {pop pop} ifelse} forall
  /Encoding WinAnsiEncoding def
  currentdict
end
/Times-Roman exch definefont pop
/Helvetica-BoldOblique findfont
dup length dict begin
  {1 index /FID ne {def} {pop pop} ifelse} forall
  /Encoding WinAnsiEncoding def
  currentdict
end
/Helvetica-BoldOblique exch definefont pop
/Helvetica-Bold findfont
dup length dict begin
  {1 index /FID ne {def} {pop pop} ifelse} forall
  /Encoding WinAnsiEncoding def
  currentdict
end
/Helvetica-Bold exch definefont pop
/Helvetica-Oblique findfont
dup length dict begin
  {1 index /FID ne {def} {pop pop} ifelse} forall
  /Encoding WinAnsiEncoding def
  currentdict
end
/Helvetica-Oblique exch definefont pop
/Times-BoldItalic findfont
dup length dict begin
  {1 index /FID ne {def} {pop pop} ifelse} forall
  /Encoding WinAnsiEncoding def
  currentdict
end
/Times-BoldItalic exch definefont pop
/Courier findfont
dup length dict begin
  {1 index /FID ne {def} {pop pop} ifelse} forall
  /Encoding WinAnsiEncoding def
  currentdict
end
/Courier exch definefont pop
/Times-Italic findfont
dup length dict begin
  {1 index /FID ne {def} {pop pop} ifelse} forall
  /Encoding WinAnsiEncoding def
  currentdict
end
/Times-Italic exch definefont pop
/Times-Bold findfont
dup length dict begin
  {1 index /FID ne {def} {pop pop} ifelse} forall
  /Encoding WinAnsiEncoding def
  currentdict
end
/Times-Bold exch definefont pop
%FOPEndFontReencode
%%EndProlog
%%Page: 1 1
%%PageBoundingBox: 0 0 420 315
%%BeginPageSetup
[1 0 0 -1 0 315] CT
%%EndPageSetup
GS
[0.3 0 0 0.3 0 0] CT
1 GC
N
0 0 1400 1050 re
f
GR
GS
[0.3 0 0 0.3 0 0] CT
1 GC
N
0 0 1400 1050 re
f
GR
GS
[0.3 0 0 0.3 0 0] CT
1 0 0 RC
[1 3] 0 setdash
2 LJ
1.667 LW
N
272.417 542.125 M
272.417 328.375 L
S
GR
GS
[0.3 0 0 0.3 77.9275 130.575] CT
/Helvetica 47 F
GS
[1 0 0 1 0 0] CT
0 18.5 moveto 
1 -1 scale
(0) t 
GR
GR
GS
[0.3 0 0 0.3 0 0] CT
0 1 1 RC
N
218.167 392.5 M
182 364 L
182 506.5 L
cp
f
GR
GS
[0.3 0 0 0.3 0 0] CT
0 1 1 RC
N
218.167 392.5 M
182 506.5 L
218.167 506.5 L
cp
f
GR
GS
[0.3 0 0 0.3 0 0] CT
0 1 1 RC
N
326.667 392.5 M
326.667 364 L
218.167 392.5 L
cp
f
GR
GS
[0.3 0 0 0.3 0 0] CT
0 1 1 RC
N
326.667 364 M
182 364 L
218.167 392.5 L
cp
f
GR
GS
[0.3 0 0 0.3 0 0] CT
2 setlinecap
10.0 ML
3.333 LW
N
182 506.5 M
182 364 L
326.667 364 L
326.667 392.5 L
218.167 392.5 L
218.167 506.5 L
182 506.5 L
S
GR
GS
[0.3 0 0 0.3 0 0] CT
0 0 1 RC
N
218.167 478 M
218.167 506.5 L
326.667 478 L
cp
f
GR
GS
[0.3 0 0 0.3 0 0] CT
0 0 1 RC
N
326.667 364 M
326.667 478 L
362.833 364 L
cp
f
GR
GS
[0.3 0 0 0.3 0 0] CT
0 0 1 RC
N
326.667 478 M
362.833 506.5 L
362.833 364 L
cp
f
GR
GS
[0.3 0 0 0.3 0 0] CT
0 0 1 RC
N
326.667 478 M
218.167 506.5 L
362.833 506.5 L
cp
f
GR
GS
[0.3 0 0 0.3 0 0] CT
2 setlinecap
10.0 ML
3.333 LW
N
218.167 506.5 M
362.833 506.5 L
362.833 364 L
326.667 364 L
326.667 478 L
218.167 478 L
218.167 506.5 L
S
GR
GS
[0.3 0 0 0.3 0 0] CT
1 LJ
1.667 LW
N
200.083 535 M
200.087 535.214 L
200.098 535.427 L
200.116 535.641 L
200.141 535.855 L
200.174 536.068 L
200.214 536.282 L
200.26 536.495 L
200.315 536.708 L
200.376 536.921 L
200.445 537.134 L
200.521 537.347 L
200.604 537.559 L
200.694 537.771 L
200.791 537.983 L
200.896 538.194 L
201.007 538.405 L
201.126 538.616 L
201.252 538.827 L
201.385 539.037 L
201.525 539.247 L
201.672 539.456 L
201.827 539.665 L
201.988 539.873 L
202.157 540.081 L
202.332 540.288 L
202.514 540.495 L
202.704 540.701 L
202.9 540.907 L
203.104 541.112 L
203.314 541.317 L
203.531 541.521 L
203.755 541.724 L
203.986 541.926 L
204.224 542.128 L
204.469 542.329 L
204.72 542.53 L
204.978 542.73 L
205.243 542.928 L
205.515 543.127 L
205.793 543.324 L
206.078 543.52 L
206.37 543.716 L
206.668 543.911 L
206.973 544.104 L
207.284 544.297 L
207.602 544.489 L
207.927 544.68 L
208.257 544.871 L
208.595 545.06 L
S
GR
GS
[0.3 0 0 0.3 0 0] CT
1 LJ
1.667 LW
N
208.257 544.871 M
208.595 545.06 L
208.938 545.248 L
209.288 545.435 L
209.644 545.621 L
210.007 545.806 L
210.376 545.99 L
210.751 546.172 L
211.132 546.354 L
211.519 546.535 L
211.913 546.714 L
212.312 546.892 L
212.717 547.069 L
213.129 547.245 L
213.546 547.42 L
213.969 547.593 L
214.398 547.765 L
214.833 547.936 L
215.274 548.105 L
215.72 548.274 L
216.172 548.44 L
216.63 548.606 L
217.093 548.77 L
217.562 548.933 L
218.036 549.094 L
218.516 549.254 L
219.001 549.413 L
219.491 549.57 L
219.987 549.726 L
220.488 549.88 L
220.994 550.033 L
221.505 550.184 L
222.022 550.333 L
222.543 550.482 L
223.069 550.628 L
223.601 550.773 L
224.137 550.917 L
224.678 551.059 L
225.224 551.199 L
225.774 551.338 L
226.329 551.475 L
226.889 551.61 L
227.454 551.744 L
228.022 551.876 L
228.596 552.006 L
229.173 552.135 L
229.755 552.262 L
230.342 552.387 L
230.932 552.51 L
231.527 552.632 L
232.125 552.752 L
232.728 552.87 L
S
GR
GS
[0.3 0 0 0.3 0 0] CT
1 LJ
1.667 LW
N
232.125 552.752 M
232.728 552.87 L
233.335 552.986 L
233.945 553.101 L
234.56 553.214 L
235.178 553.325 L
235.8 553.434 L
236.426 553.541 L
237.055 553.647 L
237.688 553.75 L
238.324 553.852 L
238.964 553.952 L
239.607 554.05 L
240.253 554.146 L
240.902 554.24 L
241.555 554.332 L
242.211 554.422 L
242.869 554.51 L
243.531 554.597 L
244.196 554.681 L
244.863 554.763 L
245.533 554.844 L
246.206 554.922 L
246.882 554.999 L
247.56 555.073 L
248.24 555.146 L
248.923 555.216 L
249.608 555.285 L
250.296 555.351 L
250.986 555.415 L
251.678 555.478 L
252.372 555.538 L
253.068 555.596 L
253.766 555.652 L
254.465 555.706 L
255.167 555.758 L
255.87 555.808 L
256.575 555.856 L
257.282 555.902 L
257.99 555.946 L
258.699 555.987 L
259.41 556.027 L
260.122 556.064 L
260.836 556.099 L
261.55 556.132 L
262.266 556.163 L
262.983 556.192 L
263.7 556.219 L
264.419 556.244 L
265.138 556.267 L
265.858 556.287 L
266.579 556.305 L
S
GR
GS
[0.3 0 0 0.3 0 0] CT
1 LJ
1.667 LW
N
265.858 556.287 M
266.579 556.305 L
267.3 556.321 L
268.022 556.336 L
268.744 556.347 L
269.467 556.357 L
270.189 556.365 L
270.913 556.37 L
271.636 556.374 L
272.359 556.375 L
273.082 556.374 L
273.806 556.371 L
274.529 556.366 L
275.252 556.359 L
275.974 556.349 L
276.697 556.338 L
277.418 556.324 L
278.14 556.308 L
278.861 556.29 L
279.581 556.27 L
280.3 556.248 L
281.019 556.223 L
281.736 556.197 L
282.453 556.168 L
283.169 556.138 L
283.884 556.105 L
284.597 556.07 L
285.31 556.033 L
286.021 555.994 L
286.731 555.952 L
287.439 555.909 L
288.146 555.864 L
288.851 555.816 L
289.555 555.766 L
290.256 555.715 L
290.956 555.661 L
291.655 555.605 L
292.351 555.547 L
293.045 555.487 L
293.738 555.425 L
294.428 555.361 L
295.116 555.295 L
295.801 555.227 L
296.485 555.157 L
297.165 555.085 L
297.844 555.011 L
298.52 554.935 L
299.193 554.857 L
299.864 554.776 L
300.532 554.694 L
301.197 554.61 L
301.859 554.524 L
S
GR
GS
[0.3 0 0 0.3 0 0] CT
1 LJ
1.667 LW
N
301.197 554.61 M
301.859 554.524 L
302.518 554.436 L
303.174 554.346 L
303.827 554.254 L
304.477 554.161 L
305.124 554.065 L
305.768 553.967 L
306.408 553.868 L
307.045 553.766 L
307.678 553.663 L
308.308 553.558 L
308.934 553.451 L
309.556 553.342 L
310.175 553.232 L
310.79 553.119 L
311.402 553.005 L
312.009 552.889 L
312.612 552.771 L
313.212 552.651 L
313.807 552.53 L
314.398 552.407 L
314.985 552.282 L
315.568 552.155 L
316.146 552.027 L
316.72 551.897 L
317.289 551.765 L
317.855 551.631 L
318.415 551.496 L
318.971 551.359 L
319.522 551.221 L
320.069 551.081 L
320.611 550.939 L
321.148 550.796 L
321.68 550.651 L
322.207 550.505 L
322.729 550.357 L
323.246 550.208 L
323.758 550.057 L
324.265 549.904 L
324.767 549.75 L
325.264 549.595 L
325.755 549.438 L
326.241 549.28 L
326.721 549.12 L
327.196 548.959 L
327.666 548.796 L
328.13 548.632 L
328.589 548.467 L
329.041 548.3 L
329.489 548.132 L
329.93 547.963 L
S
GR
GS
[0.3 0 0 0.3 0 0] CT
1 LJ
1.667 LW
N
329.489 548.132 M
329.93 547.963 L
330.366 547.792 L
330.796 547.62 L
331.22 547.447 L
331.638 547.273 L
332.051 547.097 L
332.457 546.921 L
332.858 546.742 L
333.252 546.563 L
333.64 546.383 L
334.022 546.201 L
334.398 546.019 L
334.768 545.835 L
335.132 545.65 L
335.489 545.464 L
335.84 545.278 L
336.184 545.09 L
336.523 544.901 L
336.855 544.711 L
337.18 544.52 L
337.499 544.328 L
337.811 544.135 L
338.117 543.942 L
338.416 543.747 L
338.709 543.551 L
338.995 543.355 L
339.275 543.158 L
339.547 542.96 L
339.813 542.761 L
340.073 542.562 L
340.325 542.361 L
340.571 542.16 L
340.81 541.959 L
341.042 541.756 L
341.267 541.553 L
341.485 541.349 L
341.697 541.145 L
341.901 540.94 L
342.099 540.734 L
342.289 540.528 L
342.473 540.321 L
342.649 540.114 L
342.819 539.906 L
342.981 539.698 L
343.137 539.489 L
343.285 539.28 L
343.426 539.07 L
343.561 538.86 L
343.688 538.65 L
343.808 538.439 L
343.92 538.228 L
S
GR
GS
[0.3 0 0 0.3 0 0] CT
1 LJ
1.667 LW
N
343.808 538.439 M
343.92 538.228 L
344.026 538.016 L
344.125 537.805 L
344.216 537.593 L
344.3 537.38 L
344.377 537.168 L
344.447 536.955 L
344.509 536.742 L
344.565 536.529 L
344.613 536.316 L
344.654 536.102 L
344.687 535.889 L
344.714 535.675 L
344.733 535.461 L
344.745 535.248 L
344.75 535.034 L
344.747 534.82 L
344.738 534.607 L
344.721 534.393 L
344.697 534.179 L
344.665 533.966 L
344.627 533.752 L
344.581 533.539 L
344.528 533.326 L
344.467 533.113 L
344.4 532.9 L
344.325 532.687 L
344.244 532.475 L
344.154 532.263 L
344.058 532.051 L
343.955 531.839 L
343.844 531.628 L
343.727 531.417 L
343.602 531.207 L
343.47 530.997 L
343.331 530.787 L
343.185 530.578 L
343.032 530.369 L
342.871 530.16 L
342.704 529.952 L
342.53 529.745 L
342.348 529.538 L
342.16 529.331 L
341.965 529.126 L
341.762 528.92 L
341.553 528.716 L
341.337 528.512 L
341.114 528.308 L
340.884 528.106 L
340.648 527.904 L
340.404 527.703 L
S
GR
GS
[0.3 0 0 0.3 0 0] CT
1 LJ
1.667 LW
N
340.648 527.904 M
340.404 527.703 L
340.154 527.502 L
339.897 527.302 L
339.633 527.103 L
339.362 526.905 L
339.085 526.708 L
338.801 526.511 L
338.51 526.315 L
338.213 526.12 L
337.909 525.926 L
337.599 525.733 L
337.282 525.541 L
336.959 525.35 L
336.629 525.16 L
336.293 524.97 L
335.95 524.782 L
335.601 524.595 L
335.246 524.409 L
334.885 524.224 L
334.517 524.04 L
334.143 523.857 L
333.763 523.675 L
333.376 523.494 L
332.984 523.314 L
332.585 523.136 L
332.181 522.959 L
331.77 522.783 L
331.354 522.608 L
330.932 522.435 L
330.504 522.262 L
330.07 522.091 L
329.63 521.922 L
329.185 521.753 L
328.733 521.586 L
328.277 521.42 L
327.814 521.256 L
327.347 521.093 L
326.873 520.931 L
326.394 520.771 L
325.91 520.612 L
325.421 520.455 L
324.926 520.299 L
324.426 520.145 L
323.92 519.992 L
323.41 519.84 L
322.894 519.69 L
322.374 519.542 L
321.848 519.395 L
321.318 519.25 L
320.782 519.106 L
320.242 518.964 L
S
GR
GS
[0.3 0 0 0.3 0 0] CT
1 LJ
1.667 LW
N
320.782 519.106 M
320.242 518.964 L
319.697 518.823 L
319.147 518.684 L
318.593 518.547 L
318.034 518.411 L
317.47 518.278 L
316.902 518.145 L
316.329 518.015 L
315.752 517.886 L
315.171 517.759 L
314.585 517.633 L
313.996 517.509 L
313.402 517.387 L
312.804 517.267 L
312.202 517.149 L
311.595 517.032 L
310.985 516.917 L
310.372 516.804 L
309.754 516.693 L
309.133 516.583 L
308.508 516.476 L
307.879 516.37 L
307.247 516.266 L
306.611 516.164 L
305.972 516.064 L
305.329 515.966 L
304.684 515.87 L
304.035 515.775 L
303.383 515.683 L
302.727 515.592 L
302.069 515.504 L
301.408 515.417 L
300.744 515.332 L
300.077 515.25 L
299.407 515.169 L
298.735 515.09 L
298.059 515.013 L
297.382 514.938 L
296.702 514.866 L
296.019 514.795 L
295.334 514.726 L
294.647 514.659 L
293.958 514.595 L
293.266 514.532 L
292.572 514.472 L
291.877 514.413 L
291.179 514.357 L
290.48 514.302 L
289.778 514.25 L
289.075 514.2 L
288.371 514.151 L
S
GR
GS
[0.3 0 0 0.3 0 0] CT
1 LJ
1.667 LW
N
289.075 514.2 M
288.371 514.151 L
287.664 514.105 L
286.956 514.061 L
286.247 514.019 L
285.536 513.979 L
284.824 513.942 L
284.111 513.906 L
283.397 513.873 L
282.681 513.841 L
281.965 513.812 L
281.247 513.785 L
280.529 513.76 L
279.81 513.737 L
279.09 513.716 L
278.369 513.698 L
277.648 513.681 L
276.927 513.667 L
276.204 513.654 L
275.482 513.644 L
274.759 513.636 L
274.036 513.63 L
273.313 513.627 L
272.589 513.625 L
S
GR
GS
[0.3 0 0 0.3 0 0] CT
1 LJ
1.667 LW
N
272.417 513.625 M
317.625 506.5 L
S
GR
GS
[0.3 0 0 0.3 0 0] CT
1 LJ
1.667 LW
N
272.417 513.625 M
317.625 535 L
S
GR
GS
[0.3 0 0 0.3 0 0] CT
1 0 0 RC
[1 3] 0 setdash
2 LJ
1.667 LW
N
453.25 542.125 M
453.25 328.375 L
S
GR
GS
[0.3 0 0 0.3 132.17749 130.575] CT
/Helvetica 47 F
GS
[1 0 0 1 0 0] CT
0 18.5 moveto 
1 -1 scale
(1) t 
GR
GR
GS
[0.3 0 0 0.3 0 0] CT
0 1 1 RC
N
399 392.5 M
362.833 364 L
362.833 506.5 L
cp
f
GR
GS
[0.3 0 0 0.3 0 0] CT
0 1 1 RC
N
399 392.5 M
362.833 506.5 L
399 506.5 L
cp
f
GR
GS
[0.3 0 0 0.3 0 0] CT
0 1 1 RC
N
507.5 392.5 M
507.5 364 L
399 392.5 L
cp
f
GR
GS
[0.3 0 0 0.3 0 0] CT
0 1 1 RC
N
507.5 364 M
362.833 364 L
399 392.5 L
cp
f
GR
GS
[0.3 0 0 0.3 0 0] CT
2 setlinecap
10.0 ML
3.333 LW
N
362.833 506.5 M
362.833 364 L
507.5 364 L
507.5 392.5 L
399 392.5 L
399 506.5 L
362.833 506.5 L
S
GR
GS
[0.3 0 0 0.3 0 0] CT
0 0 1 RC
N
399 478 M
399 506.5 L
507.5 478 L
cp
f
GR
GS
[0.3 0 0 0.3 0 0] CT
0 0 1 RC
N
507.5 364 M
507.5 478 L
543.667 364 L
cp
f
GR
GS
[0.3 0 0 0.3 0 0] CT
0 0 1 RC
N
507.5 478 M
543.667 506.5 L
543.667 364 L
cp
f
GR
GS
[0.3 0 0 0.3 0 0] CT
0 0 1 RC
N
507.5 478 M
399 506.5 L
543.667 506.5 L
cp
f
GR
GS
[0.3 0 0 0.3 0 0] CT
2 setlinecap
10.0 ML
3.333 LW
N
399 506.5 M
543.667 506.5 L
543.667 364 L
507.5 364 L
507.5 478 L
399 478 L
399 506.5 L
S
GR
GS
[0.3 0 0 0.3 0 0] CT
1 LJ
1.667 LW
N
380.917 535 M
380.92 535.214 L
380.931 535.427 L
380.949 535.641 L
380.975 535.855 L
381.007 536.068 L
381.047 536.282 L
381.094 536.495 L
381.148 536.708 L
381.209 536.921 L
381.278 537.134 L
381.354 537.347 L
381.437 537.559 L
381.527 537.771 L
381.624 537.983 L
381.729 538.194 L
381.841 538.405 L
381.959 538.616 L
382.085 538.827 L
382.218 539.037 L
382.359 539.247 L
382.506 539.456 L
382.66 539.665 L
382.821 539.873 L
382.99 540.081 L
383.165 540.288 L
383.348 540.495 L
383.537 540.701 L
383.734 540.907 L
383.937 541.112 L
384.147 541.317 L
384.365 541.521 L
384.589 541.724 L
384.82 541.926 L
385.057 542.128 L
385.302 542.329 L
385.553 542.53 L
385.812 542.73 L
386.077 542.928 L
386.348 543.127 L
386.627 543.324 L
386.912 543.52 L
387.203 543.716 L
387.501 543.911 L
387.806 544.104 L
388.118 544.297 L
388.436 544.489 L
388.76 544.68 L
389.091 544.871 L
389.428 545.06 L
S
GR
GS
[0.3 0 0 0.3 0 0] CT
1 LJ
1.667 LW
N
389.091 544.871 M
389.428 545.06 L
389.772 545.248 L
390.121 545.435 L
390.478 545.621 L
390.84 545.806 L
391.209 545.99 L
391.584 546.172 L
391.965 546.354 L
392.353 546.535 L
392.746 546.714 L
393.145 546.892 L
393.551 547.069 L
393.962 547.245 L
394.379 547.42 L
394.803 547.593 L
395.232 547.765 L
395.667 547.936 L
396.107 548.105 L
396.554 548.274 L
397.006 548.44 L
397.463 548.606 L
397.926 548.77 L
398.395 548.933 L
398.869 549.094 L
399.349 549.254 L
399.834 549.413 L
400.325 549.57 L
400.82 549.726 L
401.321 549.88 L
401.827 550.033 L
402.339 550.184 L
402.855 550.333 L
403.376 550.482 L
403.903 550.628 L
404.434 550.773 L
404.97 550.917 L
405.511 551.059 L
406.057 551.199 L
406.608 551.338 L
407.163 551.475 L
407.723 551.61 L
408.287 551.744 L
408.856 551.876 L
409.429 552.006 L
410.007 552.135 L
410.589 552.262 L
411.175 552.387 L
411.765 552.51 L
412.36 552.632 L
412.959 552.752 L
413.561 552.87 L
S
GR
GS
[0.3 0 0 0.3 0 0] CT
1 LJ
1.667 LW
N
412.959 552.752 M
413.561 552.87 L
414.168 552.986 L
414.779 553.101 L
415.393 553.214 L
416.011 553.325 L
416.633 553.434 L
417.259 553.541 L
417.888 553.647 L
418.521 553.75 L
419.157 553.852 L
419.797 553.952 L
420.44 554.05 L
421.086 554.146 L
421.736 554.24 L
422.388 554.332 L
423.044 554.422 L
423.703 554.51 L
424.364 554.597 L
425.029 554.681 L
425.696 554.763 L
426.367 554.844 L
427.039 554.922 L
427.715 554.999 L
428.393 555.073 L
429.073 555.146 L
429.756 555.216 L
430.442 555.285 L
431.129 555.351 L
431.819 555.415 L
432.511 555.478 L
433.205 555.538 L
433.901 555.596 L
434.599 555.652 L
435.299 555.706 L
436 555.758 L
436.704 555.808 L
437.409 555.856 L
438.115 555.902 L
438.823 555.946 L
439.533 555.987 L
440.244 556.027 L
440.956 556.064 L
441.669 556.099 L
442.384 556.132 L
443.099 556.163 L
443.816 556.192 L
444.534 556.219 L
445.252 556.244 L
445.971 556.267 L
446.691 556.287 L
447.412 556.305 L
S
GR
GS
[0.3 0 0 0.3 0 0] CT
1 LJ
1.667 LW
N
446.691 556.287 M
447.412 556.305 L
448.133 556.321 L
448.855 556.336 L
449.577 556.347 L
450.3 556.357 L
451.023 556.365 L
451.746 556.37 L
452.469 556.374 L
453.192 556.375 L
453.916 556.374 L
454.639 556.371 L
455.362 556.366 L
456.085 556.359 L
456.808 556.349 L
457.53 556.338 L
458.252 556.324 L
458.973 556.308 L
459.694 556.29 L
460.414 556.27 L
461.133 556.248 L
461.852 556.223 L
462.57 556.197 L
463.287 556.168 L
464.002 556.138 L
464.717 556.105 L
465.431 556.07 L
466.143 556.033 L
466.854 555.994 L
467.564 555.952 L
468.272 555.909 L
468.979 555.864 L
469.684 555.816 L
470.388 555.766 L
471.09 555.715 L
471.79 555.661 L
472.488 555.605 L
473.184 555.547 L
473.879 555.487 L
474.571 555.425 L
475.261 555.361 L
475.949 555.295 L
476.635 555.227 L
477.318 555.157 L
477.999 555.085 L
478.677 555.011 L
479.353 554.935 L
480.026 554.857 L
480.697 554.776 L
481.365 554.694 L
482.03 554.61 L
482.692 554.524 L
S
GR
GS
[0.3 0 0 0.3 0 0] CT
1 LJ
1.667 LW
N
482.03 554.61 M
482.692 554.524 L
483.351 554.436 L
484.008 554.346 L
484.661 554.254 L
485.311 554.161 L
485.957 554.065 L
486.601 553.967 L
487.241 553.868 L
487.878 553.766 L
488.511 553.663 L
489.141 553.558 L
489.767 553.451 L
490.39 553.342 L
491.009 553.232 L
491.624 553.119 L
492.235 553.005 L
492.842 552.889 L
493.446 552.771 L
494.045 552.651 L
494.64 552.53 L
495.231 552.407 L
495.818 552.282 L
496.401 552.155 L
496.979 552.027 L
497.553 551.897 L
498.123 551.765 L
498.688 551.631 L
499.248 551.496 L
499.804 551.359 L
500.356 551.221 L
500.902 551.081 L
501.444 550.939 L
501.981 550.796 L
502.513 550.651 L
503.04 550.505 L
503.562 550.357 L
504.08 550.208 L
504.592 550.057 L
505.099 549.904 L
505.6 549.75 L
506.097 549.595 L
506.588 549.438 L
507.074 549.28 L
507.555 549.12 L
508.03 548.959 L
508.499 548.796 L
508.963 548.632 L
509.422 548.467 L
509.875 548.3 L
510.322 548.132 L
510.764 547.963 L
S
GR
GS
[0.3 0 0 0.3 0 0] CT
1 LJ
1.667 LW
N
510.322 548.132 M
510.764 547.963 L
511.199 547.792 L
511.629 547.62 L
512.054 547.447 L
512.472 547.273 L
512.884 547.097 L
513.291 546.921 L
513.691 546.742 L
514.085 546.563 L
514.474 546.383 L
514.856 546.201 L
515.232 546.019 L
515.601 545.835 L
515.965 545.65 L
516.322 545.464 L
516.673 545.278 L
517.018 545.09 L
517.356 544.901 L
517.688 544.711 L
518.013 544.52 L
518.332 544.328 L
518.645 544.135 L
518.95 543.942 L
519.25 543.747 L
519.542 543.551 L
519.828 543.355 L
520.108 543.158 L
520.381 542.96 L
520.647 542.761 L
520.906 542.562 L
521.158 542.361 L
521.404 542.16 L
521.643 541.959 L
521.875 541.756 L
522.1 541.553 L
522.319 541.349 L
522.53 541.145 L
522.734 540.94 L
522.932 540.734 L
523.122 540.528 L
523.306 540.321 L
523.483 540.114 L
523.652 539.906 L
523.815 539.698 L
523.97 539.489 L
524.119 539.28 L
524.26 539.07 L
524.394 538.86 L
524.521 538.65 L
524.641 538.439 L
524.754 538.228 L
S
GR
GS
[0.3 0 0 0.3 0 0] CT
1 LJ
1.667 LW
N
524.641 538.439 M
524.754 538.228 L
524.859 538.016 L
524.958 537.805 L
525.049 537.593 L
525.133 537.38 L
525.21 537.168 L
525.28 536.955 L
525.343 536.742 L
525.398 536.529 L
525.446 536.316 L
525.487 536.102 L
525.521 535.889 L
525.547 535.675 L
525.566 535.461 L
525.578 535.248 L
525.583 535.034 L
525.581 534.82 L
525.571 534.607 L
525.554 534.393 L
525.53 534.179 L
525.499 533.966 L
525.46 533.752 L
525.414 533.539 L
525.361 533.326 L
525.301 533.113 L
525.233 532.9 L
525.159 532.687 L
525.077 532.475 L
524.988 532.263 L
524.892 532.051 L
524.788 531.839 L
524.678 531.628 L
524.56 531.417 L
524.435 531.207 L
524.303 530.997 L
524.164 530.787 L
524.018 530.578 L
523.865 530.369 L
523.705 530.16 L
523.537 529.952 L
523.363 529.745 L
523.182 529.538 L
522.993 529.331 L
522.798 529.126 L
522.596 528.92 L
522.387 528.716 L
522.171 528.512 L
521.948 528.308 L
521.718 528.106 L
521.481 527.904 L
521.237 527.703 L
S
GR
GS
[0.3 0 0 0.3 0 0] CT
1 LJ
1.667 LW
N
521.481 527.904 M
521.237 527.703 L
520.987 527.502 L
520.73 527.302 L
520.466 527.103 L
520.195 526.905 L
519.918 526.708 L
519.634 526.511 L
519.344 526.315 L
519.046 526.12 L
518.743 525.926 L
518.432 525.733 L
518.116 525.541 L
517.792 525.35 L
517.462 525.16 L
517.126 524.97 L
516.784 524.782 L
516.435 524.595 L
516.079 524.409 L
515.718 524.224 L
515.35 524.04 L
514.976 523.857 L
514.596 523.675 L
514.21 523.494 L
513.817 523.314 L
513.419 523.136 L
513.014 522.959 L
512.604 522.783 L
512.187 522.608 L
511.765 522.435 L
511.337 522.262 L
510.903 522.091 L
510.463 521.922 L
510.018 521.753 L
509.567 521.586 L
509.11 521.42 L
508.648 521.256 L
508.18 521.093 L
507.707 520.931 L
507.228 520.771 L
506.743 520.612 L
506.254 520.455 L
505.759 520.299 L
505.259 520.145 L
504.754 519.992 L
504.243 519.84 L
503.728 519.69 L
503.207 519.542 L
502.681 519.395 L
502.151 519.25 L
501.616 519.106 L
501.075 518.964 L
S
GR
GS
[0.3 0 0 0.3 0 0] CT
1 LJ
1.667 LW
N
501.616 519.106 M
501.075 518.964 L
500.53 518.823 L
499.98 518.684 L
499.426 518.547 L
498.867 518.411 L
498.303 518.278 L
497.735 518.145 L
497.163 518.015 L
496.586 517.886 L
496.004 517.759 L
495.419 517.633 L
494.829 517.509 L
494.235 517.387 L
493.637 517.267 L
493.035 517.149 L
492.429 517.032 L
491.819 516.917 L
491.205 516.804 L
490.587 516.693 L
489.966 516.583 L
489.341 516.476 L
488.712 516.37 L
488.08 516.266 L
487.444 516.164 L
486.805 516.064 L
486.163 515.966 L
485.517 515.87 L
484.868 515.775 L
484.216 515.683 L
483.561 515.592 L
482.902 515.504 L
482.241 515.417 L
481.577 515.332 L
480.91 515.25 L
480.24 515.169 L
479.568 515.09 L
478.893 515.013 L
478.215 514.938 L
477.535 514.866 L
476.853 514.795 L
476.168 514.726 L
475.48 514.659 L
474.791 514.595 L
474.099 514.532 L
473.406 514.472 L
472.71 514.413 L
472.012 514.357 L
471.313 514.302 L
470.612 514.25 L
469.909 514.2 L
469.204 514.151 L
S
GR
GS
[0.3 0 0 0.3 0 0] CT
1 LJ
1.667 LW
N
469.909 514.2 M
469.204 514.151 L
468.498 514.105 L
467.79 514.061 L
467.08 514.019 L
466.37 513.979 L
465.658 513.942 L
464.945 513.906 L
464.23 513.873 L
463.515 513.841 L
462.798 513.812 L
462.081 513.785 L
461.362 513.76 L
460.643 513.737 L
459.923 513.716 L
459.203 513.698 L
458.482 513.681 L
457.76 513.667 L
457.038 513.654 L
456.315 513.644 L
455.592 513.636 L
454.869 513.63 L
454.146 513.627 L
453.423 513.625 L
S
GR
GS
[0.3 0 0 0.3 0 0] CT
1 LJ
1.667 LW
N
453.25 513.625 M
498.458 506.5 L
S
GR
GS
[0.3 0 0 0.3 0 0] CT
1 LJ
1.667 LW
N
453.25 513.625 M
498.458 535 L
S
GR
GS
[0.3 0 0 0.3 0 0] CT
1 0 0 RC
[1 3] 0 setdash
2 LJ
1.667 LW
N
634.083 542.125 M
634.083 328.375 L
S
GR
GS
[0.3 0 0 0.3 186.4275 130.575] CT
/Helvetica 47 F
GS
[1 0 0 1 0 0] CT
0 18.5 moveto 
1 -1 scale
(2) t 
GR
GR
GS
[0.3 0 0 0.3 0 0] CT
0 1 1 RC
N
579.833 392.5 M
543.667 364 L
543.667 506.5 L
cp
f
GR
GS
[0.3 0 0 0.3 0 0] CT
0 1 1 RC
N
579.833 392.5 M
543.667 506.5 L
579.833 506.5 L
cp
f
GR
GS
[0.3 0 0 0.3 0 0] CT
0 1 1 RC
N
688.333 392.5 M
688.333 364 L
579.833 392.5 L
cp
f
GR
GS
[0.3 0 0 0.3 0 0] CT
0 1 1 RC
N
688.333 364 M
543.667 364 L
579.833 392.5 L
cp
f
GR
GS
[0.3 0 0 0.3 0 0] CT
2 setlinecap
10.0 ML
3.333 LW
N
543.667 506.5 M
543.667 364 L
688.333 364 L
688.333 392.5 L
579.833 392.5 L
579.833 506.5 L
543.667 506.5 L
S
GR
GS
[0.3 0 0 0.3 0 0] CT
0 0 1 RC
N
579.833 478 M
579.833 506.5 L
688.333 478 L
cp
f
GR
GS
[0.3 0 0 0.3 0 0] CT
0 0 1 RC
N
688.333 364 M
688.333 478 L
724.5 364 L
cp
f
GR
GS
[0.3 0 0 0.3 0 0] CT
0 0 1 RC
N
688.333 478 M
724.5 506.5 L
724.5 364 L
cp
f
GR
GS
[0.3 0 0 0.3 0 0] CT
0 0 1 RC
N
688.333 478 M
579.833 506.5 L
724.5 506.5 L
cp
f
GR
GS
[0.3 0 0 0.3 0 0] CT
2 setlinecap
10.0 ML
3.333 LW
N
579.833 506.5 M
724.5 506.5 L
724.5 364 L
688.333 364 L
688.333 478 L
579.833 478 L
579.833 506.5 L
S
GR
GS
[0.3 0 0 0.3 0 0] CT
1 LJ
1.667 LW
N
561.75 535 M
561.754 535.214 L
561.764 535.427 L
561.783 535.641 L
561.808 535.855 L
561.84 536.068 L
561.88 536.282 L
561.927 536.495 L
561.981 536.708 L
562.043 536.921 L
562.111 537.134 L
562.187 537.347 L
562.27 537.559 L
562.36 537.771 L
562.458 537.983 L
562.562 538.194 L
562.674 538.405 L
562.793 538.616 L
562.919 538.827 L
563.052 539.037 L
563.192 539.247 L
563.339 539.456 L
563.493 539.665 L
563.655 539.873 L
563.823 540.081 L
563.999 540.288 L
564.181 540.495 L
564.371 540.701 L
564.567 540.907 L
564.77 541.112 L
564.981 541.317 L
565.198 541.521 L
565.422 541.724 L
565.653 541.926 L
565.891 542.128 L
566.135 542.329 L
566.387 542.53 L
566.645 542.73 L
566.91 542.928 L
567.182 543.127 L
567.46 543.324 L
567.745 543.52 L
568.037 543.716 L
568.335 543.911 L
568.64 544.104 L
568.951 544.297 L
569.269 544.489 L
569.593 544.68 L
569.924 544.871 L
570.261 545.06 L
S
GR
GS
[0.3 0 0 0.3 0 0] CT
1 LJ
1.667 LW
N
569.924 544.871 M
570.261 545.06 L
570.605 545.248 L
570.955 545.435 L
571.311 545.621 L
571.674 545.806 L
572.042 545.99 L
572.417 546.172 L
572.799 546.354 L
573.186 546.535 L
573.579 546.714 L
573.979 546.892 L
574.384 547.069 L
574.795 547.245 L
575.213 547.42 L
575.636 547.593 L
576.065 547.765 L
576.5 547.936 L
576.941 548.105 L
577.387 548.274 L
577.839 548.44 L
578.297 548.606 L
578.76 548.77 L
579.229 548.933 L
579.703 549.094 L
580.182 549.254 L
580.667 549.413 L
581.158 549.57 L
581.654 549.726 L
582.154 549.88 L
582.661 550.033 L
583.172 550.184 L
583.688 550.333 L
584.21 550.482 L
584.736 550.628 L
585.267 550.773 L
585.804 550.917 L
586.345 551.059 L
586.89 551.199 L
587.441 551.338 L
587.996 551.475 L
588.556 551.61 L
589.12 551.744 L
589.689 551.876 L
590.262 552.006 L
590.84 552.135 L
591.422 552.262 L
592.008 552.387 L
592.599 552.51 L
593.193 552.632 L
593.792 552.752 L
594.395 552.87 L
S
GR
GS
[0.3 0 0 0.3 0 0] CT
1 LJ
1.667 LW
N
593.792 552.752 M
594.395 552.87 L
595.001 552.986 L
595.612 553.101 L
596.227 553.214 L
596.845 553.325 L
597.467 553.434 L
598.092 553.541 L
598.722 553.647 L
599.354 553.75 L
599.991 553.852 L
600.63 553.952 L
601.273 554.05 L
601.919 554.146 L
602.569 554.24 L
603.222 554.332 L
603.877 554.422 L
604.536 554.51 L
605.198 554.597 L
605.862 554.681 L
606.53 554.763 L
607.2 554.844 L
607.873 554.922 L
608.548 554.999 L
609.226 555.073 L
609.907 555.146 L
610.59 555.216 L
611.275 555.285 L
611.963 555.351 L
612.652 555.415 L
613.344 555.478 L
614.038 555.538 L
614.734 555.596 L
615.432 555.652 L
616.132 555.706 L
616.834 555.758 L
617.537 555.808 L
618.242 555.856 L
618.948 555.902 L
619.656 555.946 L
620.366 555.987 L
621.077 556.027 L
621.789 556.064 L
622.503 556.099 L
623.217 556.132 L
623.933 556.163 L
624.649 556.192 L
625.367 556.219 L
626.085 556.244 L
626.805 556.267 L
627.525 556.287 L
628.245 556.305 L
S
GR
GS
[0.3 0 0 0.3 0 0] CT
1 LJ
1.667 LW
N
627.525 556.287 M
628.245 556.305 L
628.967 556.321 L
629.688 556.336 L
630.411 556.347 L
631.133 556.357 L
631.856 556.365 L
632.579 556.37 L
633.302 556.374 L
634.026 556.375 L
634.749 556.374 L
635.472 556.371 L
636.195 556.366 L
636.918 556.359 L
637.641 556.349 L
638.363 556.338 L
639.085 556.324 L
639.806 556.308 L
640.527 556.29 L
641.247 556.27 L
641.967 556.248 L
642.685 556.223 L
643.403 556.197 L
644.12 556.168 L
644.836 556.138 L
645.55 556.105 L
646.264 556.07 L
646.976 556.033 L
647.688 555.994 L
648.397 555.952 L
649.106 555.909 L
649.812 555.864 L
650.518 555.816 L
651.221 555.766 L
651.923 555.715 L
652.623 555.661 L
653.321 555.605 L
654.018 555.547 L
654.712 555.487 L
655.404 555.425 L
656.094 555.361 L
656.782 555.295 L
657.468 555.227 L
658.151 555.157 L
658.832 555.085 L
659.511 555.011 L
660.186 554.935 L
660.86 554.857 L
661.53 554.776 L
662.198 554.694 L
662.863 554.61 L
663.525 554.524 L
S
GR
GS
[0.3 0 0 0.3 0 0] CT
1 LJ
1.667 LW
N
662.863 554.61 M
663.525 554.524 L
664.185 554.436 L
664.841 554.346 L
665.494 554.254 L
666.144 554.161 L
666.791 554.065 L
667.434 553.967 L
668.074 553.868 L
668.711 553.766 L
669.345 553.663 L
669.974 553.558 L
670.601 553.451 L
671.223 553.342 L
671.842 553.232 L
672.457 553.119 L
673.068 553.005 L
673.676 552.889 L
674.279 552.771 L
674.878 552.651 L
675.474 552.53 L
676.065 552.407 L
676.652 552.282 L
677.234 552.155 L
677.813 552.027 L
678.387 551.897 L
678.956 551.765 L
679.521 551.631 L
680.082 551.496 L
680.638 551.359 L
681.189 551.221 L
681.735 551.081 L
682.277 550.939 L
682.814 550.796 L
683.346 550.651 L
683.874 550.505 L
684.396 550.357 L
684.913 550.208 L
685.425 550.057 L
685.932 549.904 L
686.434 549.75 L
686.93 549.595 L
687.421 549.438 L
687.907 549.28 L
688.388 549.12 L
688.863 548.959 L
689.333 548.796 L
689.797 548.632 L
690.255 548.467 L
690.708 548.3 L
691.155 548.132 L
691.597 547.963 L
S
GR
GS
[0.3 0 0 0.3 0 0] CT
1 LJ
1.667 LW
N
691.155 548.132 M
691.597 547.963 L
692.033 547.792 L
692.463 547.62 L
692.887 547.447 L
693.305 547.273 L
693.717 547.097 L
694.124 546.921 L
694.524 546.742 L
694.919 546.563 L
695.307 546.383 L
695.689 546.201 L
696.065 546.019 L
696.435 545.835 L
696.798 545.65 L
697.156 545.464 L
697.506 545.278 L
697.851 545.09 L
698.189 544.901 L
698.521 544.711 L
698.847 544.52 L
699.165 544.328 L
699.478 544.135 L
699.784 543.942 L
700.083 543.747 L
700.376 543.551 L
700.662 543.355 L
700.941 543.158 L
701.214 542.96 L
701.48 542.761 L
701.739 542.562 L
701.992 542.361 L
702.237 542.16 L
702.476 541.959 L
702.708 541.756 L
702.934 541.553 L
703.152 541.349 L
703.363 541.145 L
703.568 540.94 L
703.765 540.734 L
703.956 540.528 L
704.139 540.321 L
704.316 540.114 L
704.486 539.906 L
704.648 539.698 L
704.803 539.489 L
704.952 539.28 L
705.093 539.07 L
705.227 538.86 L
705.354 538.65 L
705.474 538.439 L
705.587 538.228 L
S
GR
GS
[0.3 0 0 0.3 0 0] CT
1 LJ
1.667 LW
N
705.474 538.439 M
705.587 538.228 L
705.693 538.016 L
705.791 537.805 L
705.883 537.593 L
705.967 537.38 L
706.044 537.168 L
706.113 536.955 L
706.176 536.742 L
706.231 536.529 L
706.279 536.316 L
706.32 536.102 L
706.354 535.889 L
706.381 535.675 L
706.4 535.461 L
706.412 535.248 L
706.417 535.034 L
706.414 534.82 L
706.404 534.607 L
706.388 534.393 L
706.363 534.179 L
706.332 533.966 L
706.293 533.752 L
706.247 533.539 L
706.194 533.326 L
706.134 533.113 L
706.067 532.9 L
705.992 532.687 L
705.91 532.475 L
705.821 532.263 L
705.725 532.051 L
705.622 531.839 L
705.511 531.628 L
705.393 531.417 L
705.269 531.207 L
705.137 530.997 L
704.998 530.787 L
704.852 530.578 L
704.698 530.369 L
704.538 530.16 L
704.371 529.952 L
704.196 529.745 L
704.015 529.538 L
703.827 529.331 L
703.631 529.126 L
703.429 528.92 L
703.22 528.716 L
703.004 528.512 L
702.781 528.308 L
702.551 528.106 L
702.314 527.904 L
702.071 527.703 L
S
GR
GS
[0.3 0 0 0.3 0 0] CT
1 LJ
1.667 LW
N
702.314 527.904 M
702.071 527.703 L
701.82 527.502 L
701.563 527.302 L
701.299 527.103 L
701.029 526.905 L
700.752 526.708 L
700.468 526.511 L
700.177 526.315 L
699.88 526.12 L
699.576 525.926 L
699.266 525.733 L
698.949 525.541 L
698.626 525.35 L
698.296 525.16 L
697.96 524.97 L
697.617 524.782 L
697.268 524.595 L
696.913 524.409 L
696.551 524.224 L
696.183 524.04 L
695.809 523.857 L
695.429 523.675 L
695.043 523.494 L
694.651 523.314 L
694.252 523.136 L
693.848 522.959 L
693.437 522.783 L
693.021 522.608 L
692.598 522.435 L
692.17 522.262 L
691.736 522.091 L
691.297 521.922 L
690.851 521.753 L
690.4 521.586 L
689.943 521.42 L
689.481 521.256 L
689.013 521.093 L
688.54 520.931 L
688.061 520.771 L
687.577 520.612 L
687.087 520.455 L
686.592 520.299 L
686.092 520.145 L
685.587 519.992 L
685.077 519.84 L
684.561 519.69 L
684.04 519.542 L
683.515 519.395 L
682.984 519.25 L
682.449 519.106 L
681.909 518.964 L
S
GR
GS
[0.3 0 0 0.3 0 0] CT
1 LJ
1.667 LW
N
682.449 519.106 M
681.909 518.964 L
681.364 518.823 L
680.814 518.684 L
680.259 518.547 L
679.7 518.411 L
679.137 518.278 L
678.569 518.145 L
677.996 518.015 L
677.419 517.886 L
676.838 517.759 L
676.252 517.633 L
675.662 517.509 L
675.068 517.387 L
674.47 517.267 L
673.868 517.149 L
673.262 517.032 L
672.652 516.917 L
672.038 516.804 L
671.421 516.693 L
670.799 516.583 L
670.174 516.476 L
669.546 516.37 L
668.913 516.266 L
668.278 516.164 L
667.639 516.064 L
666.996 515.966 L
666.35 515.87 L
665.701 515.775 L
665.049 515.683 L
664.394 515.592 L
663.736 515.504 L
663.074 515.417 L
662.41 515.332 L
661.743 515.25 L
661.074 515.169 L
660.401 515.09 L
659.726 515.013 L
659.049 514.938 L
658.368 514.866 L
657.686 514.795 L
657.001 514.726 L
656.314 514.659 L
655.624 514.595 L
654.933 514.532 L
654.239 514.472 L
653.543 514.413 L
652.846 514.357 L
652.146 514.302 L
651.445 514.25 L
650.742 514.2 L
650.037 514.151 L
S
GR
GS
[0.3 0 0 0.3 0 0] CT
1 LJ
1.667 LW
N
650.742 514.2 M
650.037 514.151 L
649.331 514.105 L
648.623 514.061 L
647.914 514.019 L
647.203 513.979 L
646.491 513.942 L
645.778 513.906 L
645.064 513.873 L
644.348 513.841 L
643.632 513.812 L
642.914 513.785 L
642.196 513.76 L
641.477 513.737 L
640.757 513.716 L
640.036 513.698 L
639.315 513.681 L
638.593 513.667 L
637.871 513.654 L
637.149 513.644 L
636.426 513.636 L
635.703 513.63 L
634.979 513.627 L
634.256 513.625 L
S
GR
GS
[0.3 0 0 0.3 0 0] CT
1 LJ
1.667 LW
N
634.083 513.625 M
679.292 506.5 L
S
GR
GS
[0.3 0 0 0.3 0 0] CT
1 LJ
1.667 LW
N
634.083 513.625 M
679.292 535 L
S
GR
GS
[0.3 0 0 0.3 0 0] CT
1 0 0 RC
[1 3] 0 setdash
2 LJ
1.667 LW
N
814.917 542.125 M
814.917 328.375 L
S
GR
GS
[0.3 0 0 0.3 240.67751 130.575] CT
/Helvetica 47 F
GS
[1 0 0 1 0 0] CT
0 18.5 moveto 
1 -1 scale
(3) t 
GR
GR
GS
[0.3 0 0 0.3 0 0] CT
0 1 1 RC
N
760.667 392.5 M
724.5 364 L
724.5 506.5 L
cp
f
GR
GS
[0.3 0 0 0.3 0 0] CT
0 1 1 RC
N
760.667 392.5 M
724.5 506.5 L
760.667 506.5 L
cp
f
GR
GS
[0.3 0 0 0.3 0 0] CT
0 1 1 RC
N
869.167 392.5 M
869.167 364 L
760.667 392.5 L
cp
f
GR
GS
[0.3 0 0 0.3 0 0] CT
0 1 1 RC
N
869.167 364 M
724.5 364 L
760.667 392.5 L
cp
f
GR
GS
[0.3 0 0 0.3 0 0] CT
2 setlinecap
10.0 ML
3.333 LW
N
724.5 506.5 M
724.5 364 L
869.167 364 L
869.167 392.5 L
760.667 392.5 L
760.667 506.5 L
724.5 506.5 L
S
GR
GS
[0.3 0 0 0.3 0 0] CT
0 0 1 RC
N
760.667 478 M
760.667 506.5 L
869.167 478 L
cp
f
GR
GS
[0.3 0 0 0.3 0 0] CT
0 0 1 RC
N
869.167 364 M
869.167 478 L
905.333 364 L
cp
f
GR
GS
[0.3 0 0 0.3 0 0] CT
0 0 1 RC
N
869.167 478 M
905.333 506.5 L
905.333 364 L
cp
f
GR
GS
[0.3 0 0 0.3 0 0] CT
0 0 1 RC
N
869.167 478 M
760.667 506.5 L
905.333 506.5 L
cp
f
GR
GS
[0.3 0 0 0.3 0 0] CT
2 setlinecap
10.0 ML
3.333 LW
N
760.667 506.5 M
905.333 506.5 L
905.333 364 L
869.167 364 L
869.167 478 L
760.667 478 L
760.667 506.5 L
S
GR
GS
[0.3 0 0 0.3 0 0] CT
1 LJ
1.667 LW
N
742.583 535 M
742.587 535.214 L
742.598 535.427 L
742.616 535.641 L
742.641 535.855 L
742.674 536.068 L
742.714 536.282 L
742.76 536.495 L
742.815 536.708 L
742.876 536.921 L
742.945 537.134 L
743.021 537.347 L
743.104 537.559 L
743.194 537.771 L
743.291 537.983 L
743.396 538.194 L
743.507 538.405 L
743.626 538.616 L
743.752 538.827 L
743.885 539.037 L
744.025 539.247 L
744.172 539.456 L
744.327 539.665 L
744.488 539.873 L
744.657 540.081 L
744.832 540.288 L
745.014 540.495 L
745.204 540.701 L
745.4 540.907 L
745.604 541.112 L
745.814 541.317 L
746.031 541.521 L
746.255 541.724 L
746.486 541.926 L
746.724 542.128 L
746.969 542.329 L
747.22 542.53 L
747.478 542.73 L
747.743 542.928 L
748.015 543.127 L
748.293 543.324 L
748.578 543.52 L
748.87 543.716 L
749.168 543.911 L
749.473 544.104 L
749.784 544.297 L
750.102 544.489 L
750.427 544.68 L
750.757 544.871 L
751.095 545.06 L
S
GR
GS
[0.3 0 0 0.3 0 0] CT
1 LJ
1.667 LW
N
750.757 544.871 M
751.095 545.06 L
751.438 545.248 L
751.788 545.435 L
752.144 545.621 L
752.507 545.806 L
752.876 545.99 L
753.251 546.172 L
753.632 546.354 L
754.019 546.535 L
754.413 546.714 L
754.812 546.892 L
755.217 547.069 L
755.629 547.245 L
756.046 547.42 L
756.469 547.593 L
756.898 547.765 L
757.333 547.936 L
757.774 548.105 L
758.22 548.274 L
758.672 548.44 L
759.13 548.606 L
759.593 548.77 L
760.062 548.933 L
760.536 549.094 L
761.016 549.254 L
761.501 549.413 L
761.991 549.57 L
762.487 549.726 L
762.988 549.88 L
763.494 550.033 L
764.005 550.184 L
764.522 550.333 L
765.043 550.482 L
765.569 550.628 L
766.101 550.773 L
766.637 550.917 L
767.178 551.059 L
767.724 551.199 L
768.274 551.338 L
768.829 551.475 L
769.389 551.61 L
769.954 551.744 L
770.522 551.876 L
771.096 552.006 L
771.673 552.135 L
772.255 552.262 L
772.842 552.387 L
773.432 552.51 L
774.027 552.632 L
774.625 552.752 L
775.228 552.87 L
S
GR
GS
[0.3 0 0 0.3 0 0] CT
1 LJ
1.667 LW
N
774.625 552.752 M
775.228 552.87 L
775.835 552.986 L
776.445 553.101 L
777.06 553.214 L
777.678 553.325 L
778.3 553.434 L
778.926 553.541 L
779.555 553.647 L
780.188 553.75 L
780.824 553.852 L
781.464 553.952 L
782.107 554.05 L
782.753 554.146 L
783.402 554.24 L
784.055 554.332 L
784.711 554.422 L
785.369 554.51 L
786.031 554.597 L
786.696 554.681 L
787.363 554.763 L
788.033 554.844 L
788.706 554.922 L
789.382 554.999 L
790.06 555.073 L
790.74 555.146 L
791.423 555.216 L
792.108 555.285 L
792.796 555.351 L
793.486 555.415 L
794.178 555.478 L
794.872 555.538 L
795.568 555.596 L
796.266 555.652 L
796.965 555.706 L
797.667 555.758 L
798.37 555.808 L
799.075 555.856 L
799.782 555.902 L
800.49 555.946 L
801.199 555.987 L
801.91 556.027 L
802.622 556.064 L
803.336 556.099 L
804.05 556.132 L
804.766 556.163 L
805.483 556.192 L
806.2 556.219 L
806.919 556.244 L
807.638 556.267 L
808.358 556.287 L
809.079 556.305 L
S
GR
GS
[0.3 0 0 0.3 0 0] CT
1 LJ
1.667 LW
N
808.358 556.287 M
809.079 556.305 L
809.8 556.321 L
810.522 556.336 L
811.244 556.347 L
811.967 556.357 L
812.689 556.365 L
813.412 556.37 L
814.136 556.374 L
814.859 556.375 L
815.582 556.374 L
816.306 556.371 L
817.029 556.366 L
817.752 556.359 L
818.474 556.349 L
819.197 556.338 L
819.918 556.324 L
820.64 556.308 L
821.36 556.29 L
822.081 556.27 L
822.8 556.248 L
823.519 556.223 L
824.236 556.197 L
824.953 556.168 L
825.669 556.138 L
826.384 556.105 L
827.097 556.07 L
827.81 556.033 L
828.521 555.994 L
829.231 555.952 L
829.939 555.909 L
830.646 555.864 L
831.351 555.816 L
832.055 555.766 L
832.756 555.715 L
833.456 555.661 L
834.155 555.605 L
834.851 555.547 L
835.545 555.487 L
836.238 555.425 L
836.928 555.361 L
837.616 555.295 L
838.301 555.227 L
838.985 555.157 L
839.666 555.085 L
840.344 555.011 L
841.02 554.935 L
841.693 554.857 L
842.364 554.776 L
843.031 554.694 L
843.697 554.61 L
844.359 554.524 L
S
GR
GS
[0.3 0 0 0.3 0 0] CT
1 LJ
1.667 LW
N
843.697 554.61 M
844.359 554.524 L
845.018 554.436 L
845.674 554.346 L
846.327 554.254 L
846.977 554.161 L
847.624 554.065 L
848.268 553.967 L
848.908 553.868 L
849.545 553.766 L
850.178 553.663 L
850.808 553.558 L
851.434 553.451 L
852.056 553.342 L
852.675 553.232 L
853.29 553.119 L
853.902 553.005 L
854.509 552.889 L
855.112 552.771 L
855.712 552.651 L
856.307 552.53 L
856.898 552.407 L
857.485 552.282 L
858.068 552.155 L
858.646 552.027 L
859.22 551.897 L
859.789 551.765 L
860.355 551.631 L
860.915 551.496 L
861.471 551.359 L
862.022 551.221 L
862.569 551.081 L
863.111 550.939 L
863.648 550.796 L
864.18 550.651 L
864.707 550.505 L
865.229 550.357 L
865.746 550.208 L
866.258 550.057 L
866.765 549.904 L
867.267 549.75 L
867.764 549.595 L
868.255 549.438 L
868.741 549.28 L
869.221 549.12 L
869.696 548.959 L
870.166 548.796 L
870.63 548.632 L
871.089 548.467 L
871.542 548.3 L
871.989 548.132 L
872.43 547.963 L
S
GR
GS
[0.3 0 0 0.3 0 0] CT
1 LJ
1.667 LW
N
871.989 548.132 M
872.43 547.963 L
872.866 547.792 L
873.296 547.62 L
873.72 547.447 L
874.138 547.273 L
874.551 547.097 L
874.957 546.921 L
875.358 546.742 L
875.752 546.563 L
876.14 546.383 L
876.522 546.201 L
876.898 546.019 L
877.268 545.835 L
877.632 545.65 L
877.989 545.464 L
878.34 545.278 L
878.684 545.09 L
879.023 544.901 L
879.355 544.711 L
879.68 544.52 L
879.999 544.328 L
880.311 544.135 L
880.617 543.942 L
880.916 543.747 L
881.209 543.551 L
881.495 543.355 L
881.775 543.158 L
882.047 542.96 L
882.313 542.761 L
882.573 542.562 L
882.825 542.361 L
883.071 542.16 L
883.31 541.959 L
883.542 541.756 L
883.767 541.553 L
883.985 541.349 L
884.197 541.145 L
884.401 540.94 L
884.599 540.734 L
884.789 540.528 L
884.973 540.321 L
885.149 540.114 L
885.319 539.906 L
885.481 539.698 L
885.637 539.489 L
885.785 539.28 L
885.926 539.07 L
886.061 538.86 L
886.188 538.65 L
886.308 538.439 L
886.421 538.228 L
S
GR
GS
[0.3 0 0 0.3 0 0] CT
1 LJ
1.667 LW
N
886.308 538.439 M
886.421 538.228 L
886.526 538.016 L
886.625 537.805 L
886.716 537.593 L
886.8 537.38 L
886.877 537.168 L
886.947 536.955 L
887.009 536.742 L
887.065 536.529 L
887.113 536.316 L
887.154 536.102 L
887.187 535.889 L
887.214 535.675 L
887.233 535.461 L
887.245 535.248 L
887.25 535.034 L
887.247 534.82 L
887.238 534.607 L
887.221 534.393 L
887.197 534.179 L
887.165 533.966 L
887.127 533.752 L
887.081 533.539 L
887.028 533.326 L
886.968 533.113 L
886.9 532.9 L
886.825 532.687 L
886.744 532.475 L
886.655 532.263 L
886.558 532.051 L
886.455 531.839 L
886.344 531.628 L
886.227 531.417 L
886.102 531.207 L
885.97 530.997 L
885.831 530.787 L
885.685 530.578 L
885.532 530.369 L
885.371 530.16 L
885.204 529.952 L
885.03 529.745 L
884.848 529.538 L
884.66 529.331 L
884.465 529.126 L
884.262 528.92 L
884.053 528.716 L
883.837 528.512 L
883.614 528.308 L
883.384 528.106 L
883.148 527.904 L
882.904 527.703 L
S
GR
GS
[0.3 0 0 0.3 0 0] CT
1 LJ
1.667 LW
N
883.148 527.904 M
882.904 527.703 L
882.654 527.502 L
882.397 527.302 L
882.133 527.103 L
881.862 526.905 L
881.585 526.708 L
881.301 526.511 L
881.01 526.315 L
880.713 526.12 L
880.409 525.926 L
880.099 525.733 L
879.782 525.541 L
879.459 525.35 L
879.129 525.16 L
878.793 524.97 L
878.45 524.782 L
878.101 524.595 L
877.746 524.409 L
877.385 524.224 L
877.017 524.04 L
876.643 523.857 L
876.263 523.675 L
875.876 523.494 L
875.484 523.314 L
875.085 523.136 L
874.681 522.959 L
874.27 522.783 L
873.854 522.608 L
873.432 522.435 L
873.004 522.262 L
872.57 522.091 L
872.13 521.922 L
871.685 521.753 L
871.234 521.586 L
870.777 521.42 L
870.314 521.256 L
869.846 521.093 L
869.373 520.931 L
868.894 520.771 L
868.41 520.612 L
867.921 520.455 L
867.426 520.299 L
866.926 520.145 L
866.42 519.992 L
865.91 519.84 L
865.394 519.69 L
864.874 519.542 L
864.348 519.395 L
863.818 519.25 L
863.282 519.106 L
862.742 518.964 L
S
GR
GS
[0.3 0 0 0.3 0 0] CT
1 LJ
1.667 LW
N
863.282 519.106 M
862.742 518.964 L
862.197 518.823 L
861.647 518.684 L
861.093 518.547 L
860.534 518.411 L
859.97 518.278 L
859.402 518.145 L
858.829 518.015 L
858.252 517.886 L
857.671 517.759 L
857.085 517.633 L
856.496 517.509 L
855.902 517.387 L
855.304 517.267 L
854.702 517.149 L
854.095 517.032 L
853.485 516.917 L
852.872 516.804 L
852.254 516.693 L
851.633 516.583 L
851.008 516.476 L
850.379 516.37 L
849.747 516.266 L
849.111 516.164 L
848.472 516.064 L
847.829 515.966 L
847.184 515.87 L
846.535 515.775 L
845.883 515.683 L
845.227 515.592 L
844.569 515.504 L
843.908 515.417 L
843.244 515.332 L
842.577 515.25 L
841.907 515.169 L
841.235 515.09 L
840.56 515.013 L
839.882 514.938 L
839.202 514.866 L
838.519 514.795 L
837.834 514.726 L
837.147 514.659 L
836.458 514.595 L
835.766 514.532 L
835.072 514.472 L
834.377 514.413 L
833.679 514.357 L
832.98 514.302 L
832.278 514.25 L
831.575 514.2 L
830.87 514.151 L
S
GR
GS
[0.3 0 0 0.3 0 0] CT
1 LJ
1.667 LW
N
831.575 514.2 M
830.87 514.151 L
830.164 514.105 L
829.456 514.061 L
828.747 514.019 L
828.036 513.979 L
827.324 513.942 L
826.611 513.906 L
825.897 513.873 L
825.181 513.841 L
824.465 513.812 L
823.747 513.785 L
823.029 513.76 L
822.31 513.737 L
821.59 513.716 L
820.869 513.698 L
820.148 513.681 L
819.427 513.667 L
818.704 513.654 L
817.982 513.644 L
817.259 513.636 L
816.536 513.63 L
815.813 513.627 L
815.089 513.625 L
S
GR
GS
[0.3 0 0 0.3 0 0] CT
1 LJ
1.667 LW
N
814.917 513.625 M
860.125 506.5 L
S
GR
GS
[0.3 0 0 0.3 0 0] CT
1 LJ
1.667 LW
N
814.917 513.625 M
860.125 535 L
S
GR
GS
[0.3 0 0 0.3 0 0] CT
1 0 0 RC
[1 3] 0 setdash
2 LJ
1.667 LW
N
995.75 542.125 M
995.75 328.375 L
S
GR
GS
[0.3 0 0 0.3 294.92748 130.575] CT
/Helvetica 47 F
GS
[1 0 0 1 0 0] CT
0 18.5 moveto 
1 -1 scale
(4) t 
GR
GR
GS
[0.3 0 0 0.3 0 0] CT
0 1 1 RC
N
941.5 392.5 M
905.333 364 L
905.333 506.5 L
cp
f
GR
GS
[0.3 0 0 0.3 0 0] CT
0 1 1 RC
N
941.5 392.5 M
905.333 506.5 L
941.5 506.5 L
cp
f
GR
GS
[0.3 0 0 0.3 0 0] CT
0 1 1 RC
N
1050 392.5 M
1050 364 L
941.5 392.5 L
cp
f
GR
GS
[0.3 0 0 0.3 0 0] CT
0 1 1 RC
N
1050 364 M
905.333 364 L
941.5 392.5 L
cp
f
GR
GS
[0.3 0 0 0.3 0 0] CT
2 setlinecap
10.0 ML
3.333 LW
N
905.333 506.5 M
905.333 364 L
1050 364 L
1050 392.5 L
941.5 392.5 L
941.5 506.5 L
905.333 506.5 L
S
GR
GS
[0.3 0 0 0.3 0 0] CT
0 0 1 RC
N
941.5 478 M
941.5 506.5 L
1050 478 L
cp
f
GR
GS
[0.3 0 0 0.3 0 0] CT
0 0 1 RC
N
1050 364 M
1050 478 L
1086.167 364 L
cp
f
GR
GS
[0.3 0 0 0.3 0 0] CT
0 0 1 RC
N
1050 478 M
1086.167 506.5 L
1086.167 364 L
cp
f
GR
GS
[0.3 0 0 0.3 0 0] CT
0 0 1 RC
N
1050 478 M
941.5 506.5 L
1086.167 506.5 L
cp
f
GR
GS
[0.3 0 0 0.3 0 0] CT
2 setlinecap
10.0 ML
3.333 LW
N
941.5 506.5 M
1086.167 506.5 L
1086.167 364 L
1050 364 L
1050 478 L
941.5 478 L
941.5 506.5 L
S
GR
GS
[0.3 0 0 0.3 0 0] CT
1 LJ
1.667 LW
N
923.417 535 M
923.42 535.214 L
923.431 535.427 L
923.449 535.641 L
923.474 535.855 L
923.507 536.068 L
923.547 536.282 L
923.594 536.495 L
923.648 536.708 L
923.709 536.921 L
923.778 537.134 L
923.854 537.347 L
923.937 537.559 L
924.027 537.771 L
924.124 537.983 L
924.229 538.194 L
924.341 538.405 L
924.459 538.616 L
924.585 538.827 L
924.718 539.037 L
924.859 539.247 L
925.006 539.456 L
925.16 539.665 L
925.321 539.873 L
925.49 540.081 L
925.665 540.288 L
925.848 540.495 L
926.037 540.701 L
926.234 540.907 L
926.437 541.112 L
926.647 541.317 L
926.865 541.521 L
927.089 541.724 L
927.32 541.926 L
927.557 542.128 L
927.802 542.329 L
928.053 542.53 L
928.312 542.73 L
928.577 542.928 L
928.848 543.127 L
929.127 543.324 L
929.412 543.52 L
929.703 543.716 L
930.001 543.911 L
930.306 544.104 L
930.618 544.297 L
930.936 544.489 L
931.26 544.68 L
931.591 544.871 L
931.928 545.06 L
S
GR
GS
[0.3 0 0 0.3 0 0] CT
1 LJ
1.667 LW
N
931.591 544.871 M
931.928 545.06 L
932.271 545.248 L
932.622 545.435 L
932.978 545.621 L
933.34 545.806 L
933.709 545.99 L
934.084 546.172 L
934.465 546.354 L
934.852 546.535 L
935.246 546.714 L
935.645 546.892 L
936.051 547.069 L
936.462 547.245 L
936.879 547.42 L
937.303 547.593 L
937.732 547.765 L
938.167 547.936 L
938.607 548.105 L
939.054 548.274 L
939.506 548.44 L
939.963 548.606 L
940.426 548.77 L
940.895 548.933 L
941.369 549.094 L
941.849 549.254 L
942.334 549.413 L
942.825 549.57 L
943.32 549.726 L
943.821 549.88 L
944.327 550.033 L
944.839 550.184 L
945.355 550.333 L
945.876 550.482 L
946.403 550.628 L
946.934 550.773 L
947.47 550.917 L
948.011 551.059 L
948.557 551.199 L
949.108 551.338 L
949.663 551.475 L
950.223 551.61 L
950.787 551.744 L
951.356 551.876 L
951.929 552.006 L
952.507 552.135 L
953.089 552.262 L
953.675 552.387 L
954.265 552.51 L
954.86 552.632 L
955.459 552.752 L
956.061 552.87 L
S
GR
GS
[0.3 0 0 0.3 0 0] CT
1 LJ
1.667 LW
N
955.459 552.752 M
956.061 552.87 L
956.668 552.986 L
957.279 553.101 L
957.893 553.214 L
958.511 553.325 L
959.133 553.434 L
959.759 553.541 L
960.388 553.647 L
961.021 553.75 L
961.657 553.852 L
962.297 553.952 L
962.94 554.05 L
963.586 554.146 L
964.236 554.24 L
964.888 554.332 L
965.544 554.422 L
966.203 554.51 L
966.864 554.597 L
967.529 554.681 L
968.196 554.763 L
968.867 554.844 L
969.539 554.922 L
970.215 554.999 L
970.893 555.073 L
971.573 555.146 L
972.256 555.216 L
972.942 555.285 L
973.629 555.351 L
974.319 555.415 L
975.011 555.478 L
975.705 555.538 L
976.401 555.596 L
977.099 555.652 L
977.799 555.706 L
978.5 555.758 L
979.204 555.808 L
979.909 555.856 L
980.615 555.902 L
981.323 555.946 L
982.033 555.987 L
982.744 556.027 L
983.456 556.064 L
984.169 556.099 L
984.884 556.132 L
985.599 556.163 L
986.316 556.192 L
987.034 556.219 L
987.752 556.244 L
988.471 556.267 L
989.191 556.287 L
989.912 556.305 L
S
GR
GS
[0.3 0 0 0.3 0 0] CT
1 LJ
1.667 LW
N
989.191 556.287 M
989.912 556.305 L
990.633 556.321 L
991.355 556.336 L
992.077 556.347 L
992.8 556.357 L
993.523 556.365 L
994.246 556.37 L
994.969 556.374 L
995.692 556.375 L
996.416 556.374 L
997.139 556.371 L
997.862 556.366 L
998.585 556.359 L
999.308 556.349 L
1000.03 556.338 L
1000.752 556.324 L
1001.473 556.308 L
1002.194 556.29 L
1002.914 556.27 L
1003.633 556.248 L
1004.352 556.223 L
1005.07 556.197 L
1005.787 556.168 L
1006.502 556.138 L
1007.217 556.105 L
1007.931 556.07 L
1008.643 556.033 L
1009.354 555.994 L
1010.064 555.952 L
1010.772 555.909 L
1011.479 555.864 L
1012.184 555.816 L
1012.888 555.766 L
1013.59 555.715 L
1014.29 555.661 L
1014.988 555.605 L
1015.684 555.547 L
1016.379 555.487 L
1017.071 555.425 L
1017.761 555.361 L
1018.449 555.295 L
1019.135 555.227 L
1019.818 555.157 L
1020.499 555.085 L
1021.177 555.011 L
1021.853 554.935 L
1022.526 554.857 L
1023.197 554.776 L
1023.865 554.694 L
1024.53 554.61 L
1025.192 554.524 L
S
GR
GS
[0.3 0 0 0.3 0 0] CT
1 LJ
1.667 LW
N
1024.53 554.61 M
1025.192 554.524 L
1025.851 554.436 L
1026.507 554.346 L
1027.161 554.254 L
1027.811 554.161 L
1028.457 554.065 L
1029.101 553.967 L
1029.741 553.868 L
1030.378 553.766 L
1031.011 553.663 L
1031.641 553.558 L
1032.267 553.451 L
1032.89 553.342 L
1033.509 553.232 L
1034.124 553.119 L
1034.735 553.005 L
1035.342 552.889 L
1035.946 552.771 L
1036.545 552.651 L
1037.14 552.53 L
1037.731 552.407 L
1038.318 552.282 L
1038.901 552.155 L
1039.479 552.027 L
1040.053 551.897 L
1040.623 551.765 L
1041.188 551.631 L
1041.748 551.496 L
1042.304 551.359 L
1042.856 551.221 L
1043.402 551.081 L
1043.944 550.939 L
1044.481 550.796 L
1045.013 550.651 L
1045.54 550.505 L
1046.062 550.357 L
1046.58 550.208 L
1047.092 550.057 L
1047.599 549.904 L
1048.1 549.75 L
1048.597 549.595 L
1049.088 549.438 L
1049.574 549.28 L
1050.055 549.12 L
1050.53 548.959 L
1050.999 548.796 L
1051.463 548.632 L
1051.922 548.467 L
1052.375 548.3 L
1052.822 548.132 L
1053.264 547.963 L
S
GR
GS
[0.3 0 0 0.3 0 0] CT
1 LJ
1.667 LW
N
1052.822 548.132 M
1053.264 547.963 L
1053.699 547.792 L
1054.129 547.62 L
1054.554 547.447 L
1054.972 547.273 L
1055.384 547.097 L
1055.791 546.921 L
1056.191 546.742 L
1056.585 546.563 L
1056.974 546.383 L
1057.356 546.201 L
1057.732 546.019 L
1058.101 545.835 L
1058.465 545.65 L
1058.822 545.464 L
1059.173 545.278 L
1059.518 545.09 L
1059.856 544.901 L
1060.188 544.711 L
1060.513 544.52 L
1060.832 544.328 L
1061.145 544.135 L
1061.45 543.942 L
1061.75 543.747 L
1062.042 543.551 L
1062.328 543.355 L
1062.608 543.158 L
1062.881 542.96 L
1063.147 542.761 L
1063.406 542.562 L
1063.658 542.361 L
1063.904 542.16 L
1064.143 541.959 L
1064.375 541.756 L
1064.6 541.553 L
1064.818 541.349 L
1065.03 541.145 L
1065.234 540.94 L
1065.432 540.734 L
1065.622 540.528 L
1065.806 540.321 L
1065.983 540.114 L
1066.152 539.906 L
1066.315 539.698 L
1066.47 539.489 L
1066.619 539.28 L
1066.76 539.07 L
1066.894 538.86 L
1067.021 538.65 L
1067.141 538.439 L
1067.254 538.228 L
S
GR
GS
[0.3 0 0 0.3 0 0] CT
1 LJ
1.667 LW
N
1067.141 538.439 M
1067.254 538.228 L
1067.359 538.016 L
1067.458 537.805 L
1067.549 537.593 L
1067.633 537.38 L
1067.71 537.168 L
1067.78 536.955 L
1067.843 536.742 L
1067.898 536.529 L
1067.946 536.316 L
1067.987 536.102 L
1068.021 535.889 L
1068.047 535.675 L
1068.066 535.461 L
1068.078 535.248 L
1068.083 535.034 L
1068.081 534.82 L
1068.071 534.607 L
1068.054 534.393 L
1068.03 534.179 L
1067.999 533.966 L
1067.96 533.752 L
1067.914 533.539 L
1067.861 533.326 L
1067.801 533.113 L
1067.733 532.9 L
1067.659 532.687 L
1067.577 532.475 L
1067.488 532.263 L
1067.392 532.051 L
1067.288 531.839 L
1067.178 531.628 L
1067.06 531.417 L
1066.935 531.207 L
1066.803 530.997 L
1066.664 530.787 L
1066.518 530.578 L
1066.365 530.369 L
1066.205 530.16 L
1066.037 529.952 L
1065.863 529.745 L
1065.682 529.538 L
1065.493 529.331 L
1065.298 529.126 L
1065.096 528.92 L
1064.887 528.716 L
1064.671 528.512 L
1064.448 528.308 L
1064.218 528.106 L
1063.981 527.904 L
1063.737 527.703 L
S
GR
GS
[0.3 0 0 0.3 0 0] CT
1 LJ
1.667 LW
N
1063.981 527.904 M
1063.737 527.703 L
1063.487 527.502 L
1063.23 527.302 L
1062.966 527.103 L
1062.695 526.905 L
1062.418 526.708 L
1062.134 526.511 L
1061.844 526.315 L
1061.547 526.12 L
1061.243 525.926 L
1060.932 525.733 L
1060.615 525.541 L
1060.292 525.35 L
1059.962 525.16 L
1059.626 524.97 L
1059.284 524.782 L
1058.935 524.595 L
1058.579 524.409 L
1058.218 524.224 L
1057.85 524.04 L
1057.476 523.857 L
1057.096 523.675 L
1056.71 523.494 L
1056.317 523.314 L
1055.919 523.136 L
1055.514 522.959 L
1055.104 522.783 L
1054.687 522.608 L
1054.265 522.435 L
1053.837 522.262 L
1053.403 522.091 L
1052.963 521.922 L
1052.518 521.753 L
1052.067 521.586 L
1051.61 521.42 L
1051.148 521.256 L
1050.68 521.093 L
1050.207 520.931 L
1049.728 520.771 L
1049.244 520.612 L
1048.754 520.455 L
1048.259 520.299 L
1047.759 520.145 L
1047.254 519.992 L
1046.743 519.84 L
1046.228 519.69 L
1045.707 519.542 L
1045.182 519.395 L
1044.651 519.25 L
1044.116 519.106 L
1043.575 518.964 L
S
GR
GS
[0.3 0 0 0.3 0 0] CT
1 LJ
1.667 LW
N
1044.116 519.106 M
1043.575 518.964 L
1043.03 518.823 L
1042.48 518.684 L
1041.926 518.547 L
1041.367 518.411 L
1040.803 518.278 L
1040.235 518.145 L
1039.663 518.015 L
1039.086 517.886 L
1038.504 517.759 L
1037.919 517.633 L
1037.329 517.509 L
1036.735 517.387 L
1036.137 517.267 L
1035.535 517.149 L
1034.929 517.032 L
1034.319 516.917 L
1033.705 516.804 L
1033.087 516.693 L
1032.466 516.583 L
1031.841 516.476 L
1031.212 516.37 L
1030.58 516.266 L
1029.944 516.164 L
1029.305 516.064 L
1028.663 515.966 L
1028.017 515.87 L
1027.368 515.775 L
1026.716 515.683 L
1026.061 515.592 L
1025.402 515.504 L
1024.741 515.417 L
1024.077 515.332 L
1023.41 515.25 L
1022.74 515.169 L
1022.068 515.09 L
1021.393 515.013 L
1020.715 514.938 L
1020.035 514.866 L
1019.353 514.795 L
1018.668 514.726 L
1017.98 514.659 L
1017.291 514.595 L
1016.599 514.532 L
1015.906 514.472 L
1015.21 514.413 L
1014.512 514.357 L
1013.813 514.302 L
1013.112 514.25 L
1012.409 514.2 L
1011.704 514.151 L
S
GR
GS
[0.3 0 0 0.3 0 0] CT
1 LJ
1.667 LW
N
1012.409 514.2 M
1011.704 514.151 L
1010.998 514.105 L
1010.29 514.061 L
1009.58 514.019 L
1008.87 513.979 L
1008.158 513.942 L
1007.445 513.906 L
1006.73 513.873 L
1006.015 513.841 L
1005.298 513.812 L
1004.581 513.785 L
1003.862 513.76 L
1003.143 513.737 L
1002.423 513.716 L
1001.703 513.698 L
1000.982 513.681 L
1000.26 513.667 L
999.538 513.654 L
998.815 513.644 L
998.092 513.636 L
997.369 513.63 L
996.646 513.627 L
995.923 513.625 L
S
GR
GS
[0.3 0 0 0.3 0 0] CT
1 LJ
1.667 LW
N
995.75 513.625 M
1040.958 506.5 L
S
GR
GS
[0.3 0 0 0.3 0 0] CT
1 LJ
1.667 LW
N
995.75 513.625 M
1040.958 535 L
S
GR
GS
[0.3 0 0 0.3 0 0] CT
1 0 0 RC
[1 3] 0 setdash
2 LJ
1.667 LW
N
1176.583 542.125 M
1176.583 328.375 L
S
GR
GS
[0.3 0 0 0.3 349.17748 130.575] CT
/Helvetica 47 F
GS
[1 0 0 1 0 0] CT
0 18.5 moveto 
1 -1 scale
(5) t 
GR
GR
GS
[0.3 0 0 0.3 0 0] CT
0 1 1 RC
N
1122.333 392.5 M
1086.167 364 L
1086.167 506.5 L
cp
f
GR
GS
[0.3 0 0 0.3 0 0] CT
0 1 1 RC
N
1122.333 392.5 M
1086.167 506.5 L
1122.333 506.5 L
cp
f
GR
GS
[0.3 0 0 0.3 0 0] CT
0 1 1 RC
N
1230.833 392.5 M
1230.833 364 L
1122.333 392.5 L
cp
f
GR
GS
[0.3 0 0 0.3 0 0] CT
0 1 1 RC
N
1230.833 364 M
1086.167 364 L
1122.333 392.5 L
cp
f
GR
GS
[0.3 0 0 0.3 0 0] CT
2 setlinecap
10.0 ML
3.333 LW
N
1086.167 506.5 M
1086.167 364 L
1230.833 364 L
1230.833 392.5 L
1122.333 392.5 L
1122.333 506.5 L
1086.167 506.5 L
S
GR
GS
[0.3 0 0 0.3 0 0] CT
0 0 1 RC
N
1122.333 478 M
1122.333 506.5 L
1230.833 478 L
cp
f
GR
GS
[0.3 0 0 0.3 0 0] CT
0 0 1 RC
N
1230.833 364 M
1230.833 478 L
1267 364 L
cp
f
GR
GS
[0.3 0 0 0.3 0 0] CT
0 0 1 RC
N
1230.833 478 M
1267 506.5 L
1267 364 L
cp
f
GR
GS
[0.3 0 0 0.3 0 0] CT
0 0 1 RC
N
1230.833 478 M
1122.333 506.5 L
1267 506.5 L
cp
f
GR
GS
[0.3 0 0 0.3 0 0] CT
2 setlinecap
10.0 ML
3.333 LW
N
1122.333 506.5 M
1267 506.5 L
1267 364 L
1230.833 364 L
1230.833 478 L
1122.333 478 L
1122.333 506.5 L
S
GR
GS
[0.3 0 0 0.3 0 0] CT
1 LJ
1.667 LW
N
1104.25 535 M
1104.254 535.214 L
1104.265 535.427 L
1104.283 535.641 L
1104.308 535.855 L
1104.34 536.068 L
1104.38 536.282 L
1104.427 536.495 L
1104.481 536.708 L
1104.543 536.921 L
1104.611 537.134 L
1104.687 537.347 L
1104.77 537.559 L
1104.86 537.771 L
1104.958 537.983 L
1105.062 538.194 L
1105.174 538.405 L
1105.293 538.616 L
1105.419 538.827 L
1105.552 539.037 L
1105.692 539.247 L
1105.839 539.456 L
1105.993 539.665 L
1106.155 539.873 L
1106.323 540.081 L
1106.499 540.288 L
1106.681 540.495 L
1106.87 540.701 L
1107.067 540.907 L
1107.27 541.112 L
1107.481 541.317 L
1107.698 541.521 L
1107.922 541.724 L
1108.153 541.926 L
1108.391 542.128 L
1108.635 542.329 L
1108.887 542.53 L
1109.145 542.73 L
1109.41 542.928 L
1109.682 543.127 L
1109.96 543.324 L
1110.245 543.52 L
1110.536 543.716 L
1110.835 543.911 L
1111.14 544.104 L
1111.451 544.297 L
1111.769 544.489 L
1112.093 544.68 L
1112.424 544.871 L
1112.761 545.06 L
S
GR
GS
[0.3 0 0 0.3 0 0] CT
1 LJ
1.667 LW
N
1112.424 544.871 M
1112.761 545.06 L
1113.105 545.248 L
1113.455 545.435 L
1113.811 545.621 L
1114.174 545.806 L
1114.542 545.99 L
1114.917 546.172 L
1115.299 546.354 L
1115.686 546.535 L
1116.079 546.714 L
1116.479 546.892 L
1116.884 547.069 L
1117.295 547.245 L
1117.713 547.42 L
1118.136 547.593 L
1118.565 547.765 L
1119 547.936 L
1119.441 548.105 L
1119.887 548.274 L
1120.339 548.44 L
1120.797 548.606 L
1121.26 548.77 L
1121.729 548.933 L
1122.203 549.094 L
1122.682 549.254 L
1123.167 549.413 L
1123.658 549.57 L
1124.153 549.726 L
1124.654 549.88 L
1125.161 550.033 L
1125.672 550.184 L
1126.188 550.333 L
1126.71 550.482 L
1127.236 550.628 L
1127.767 550.773 L
1128.304 550.917 L
1128.845 551.059 L
1129.39 551.199 L
1129.941 551.338 L
1130.496 551.475 L
1131.056 551.61 L
1131.62 551.744 L
1132.189 551.876 L
1132.762 552.006 L
1133.34 552.135 L
1133.922 552.262 L
1134.508 552.387 L
1135.099 552.51 L
1135.693 552.632 L
1136.292 552.752 L
1136.895 552.87 L
S
GR
GS
[0.3 0 0 0.3 0 0] CT
1 LJ
1.667 LW
N
1136.292 552.752 M
1136.895 552.87 L
1137.501 552.986 L
1138.112 553.101 L
1138.727 553.214 L
1139.345 553.325 L
1139.967 553.434 L
1140.592 553.541 L
1141.222 553.647 L
1141.854 553.75 L
1142.491 553.852 L
1143.13 553.952 L
1143.773 554.05 L
1144.419 554.146 L
1145.069 554.24 L
1145.722 554.332 L
1146.377 554.422 L
1147.036 554.51 L
1147.698 554.597 L
1148.362 554.681 L
1149.03 554.763 L
1149.7 554.844 L
1150.373 554.922 L
1151.048 554.999 L
1151.726 555.073 L
1152.407 555.146 L
1153.09 555.216 L
1153.775 555.285 L
1154.463 555.351 L
1155.152 555.415 L
1155.844 555.478 L
1156.538 555.538 L
1157.234 555.596 L
1157.932 555.652 L
1158.632 555.706 L
1159.334 555.758 L
1160.037 555.808 L
1160.742 555.856 L
1161.448 555.902 L
1162.156 555.946 L
1162.866 555.987 L
1163.577 556.027 L
1164.289 556.064 L
1165.002 556.099 L
1165.717 556.132 L
1166.433 556.163 L
1167.149 556.192 L
1167.867 556.219 L
1168.585 556.244 L
1169.305 556.267 L
1170.025 556.287 L
1170.745 556.305 L
S
GR
GS
[0.3 0 0 0.3 0 0] CT
1 LJ
1.667 LW
N
1170.025 556.287 M
1170.745 556.305 L
1171.467 556.321 L
1172.188 556.336 L
1172.911 556.347 L
1173.633 556.357 L
1174.356 556.365 L
1175.079 556.37 L
1175.802 556.374 L
1176.526 556.375 L
1177.249 556.374 L
1177.972 556.371 L
1178.695 556.366 L
1179.418 556.359 L
1180.141 556.349 L
1180.863 556.338 L
1181.585 556.324 L
1182.306 556.308 L
1183.027 556.29 L
1183.747 556.27 L
1184.467 556.248 L
1185.185 556.223 L
1185.903 556.197 L
1186.62 556.168 L
1187.336 556.138 L
1188.05 556.105 L
1188.764 556.07 L
1189.476 556.033 L
1190.188 555.994 L
1190.897 555.952 L
1191.606 555.909 L
1192.312 555.864 L
1193.018 555.816 L
1193.721 555.766 L
1194.423 555.715 L
1195.123 555.661 L
1195.821 555.605 L
1196.518 555.547 L
1197.212 555.487 L
1197.904 555.425 L
1198.594 555.361 L
1199.282 555.295 L
1199.968 555.227 L
1200.651 555.157 L
1201.332 555.085 L
1202.011 555.011 L
1202.686 554.935 L
1203.36 554.857 L
1204.03 554.776 L
1204.698 554.694 L
1205.363 554.61 L
1206.025 554.524 L
S
GR
GS
[0.3 0 0 0.3 0 0] CT
1 LJ
1.667 LW
N
1205.363 554.61 M
1206.025 554.524 L
1206.685 554.436 L
1207.341 554.346 L
1207.994 554.254 L
1208.644 554.161 L
1209.291 554.065 L
1209.934 553.967 L
1210.574 553.868 L
1211.211 553.766 L
1211.845 553.663 L
1212.474 553.558 L
1213.101 553.451 L
1213.723 553.342 L
1214.342 553.232 L
1214.957 553.119 L
1215.568 553.005 L
1216.176 552.889 L
1216.779 552.771 L
1217.378 552.651 L
1217.974 552.53 L
1218.565 552.407 L
1219.152 552.282 L
1219.734 552.155 L
1220.313 552.027 L
1220.887 551.897 L
1221.456 551.765 L
1222.021 551.631 L
1222.582 551.496 L
1223.138 551.359 L
1223.689 551.221 L
1224.236 551.081 L
1224.777 550.939 L
1225.314 550.796 L
1225.846 550.651 L
1226.374 550.505 L
1226.896 550.357 L
1227.413 550.208 L
1227.925 550.057 L
1228.432 549.904 L
1228.934 549.75 L
1229.43 549.595 L
1229.922 549.438 L
1230.407 549.28 L
1230.888 549.12 L
1231.363 548.959 L
1231.833 548.796 L
1232.297 548.632 L
1232.755 548.467 L
1233.208 548.3 L
1233.655 548.132 L
1234.097 547.963 L
S
GR
GS
[0.3 0 0 0.3 0 0] CT
1 LJ
1.667 LW
N
1233.655 548.132 M
1234.097 547.963 L
1234.533 547.792 L
1234.963 547.62 L
1235.387 547.447 L
1235.805 547.273 L
1236.217 547.097 L
1236.624 546.921 L
1237.024 546.742 L
1237.419 546.563 L
1237.807 546.383 L
1238.189 546.201 L
1238.565 546.019 L
1238.935 545.835 L
1239.298 545.65 L
1239.656 545.464 L
1240.006 545.278 L
1240.351 545.09 L
1240.689 544.901 L
1241.021 544.711 L
1241.347 544.52 L
1241.666 544.328 L
1241.978 544.135 L
1242.284 543.942 L
1242.583 543.747 L
1242.876 543.551 L
1243.162 543.355 L
1243.441 543.158 L
1243.714 542.96 L
1243.98 542.761 L
1244.239 542.562 L
1244.492 542.361 L
1244.737 542.16 L
1244.976 541.959 L
1245.208 541.756 L
1245.434 541.553 L
1245.652 541.349 L
1245.863 541.145 L
1246.068 540.94 L
1246.265 540.734 L
1246.456 540.528 L
1246.639 540.321 L
1246.816 540.114 L
1246.985 539.906 L
1247.148 539.698 L
1247.303 539.489 L
1247.452 539.28 L
1247.593 539.07 L
1247.727 538.86 L
1247.854 538.65 L
1247.974 538.439 L
1248.087 538.228 L
S
GR
GS
[0.3 0 0 0.3 0 0] CT
1 LJ
1.667 LW
N
1247.974 538.439 M
1248.087 538.228 L
1248.193 538.016 L
1248.291 537.805 L
1248.383 537.593 L
1248.467 537.38 L
1248.544 537.168 L
1248.614 536.955 L
1248.676 536.742 L
1248.731 536.529 L
1248.78 536.316 L
1248.82 536.102 L
1248.854 535.889 L
1248.881 535.675 L
1248.9 535.461 L
1248.912 535.248 L
1248.917 535.034 L
1248.914 534.82 L
1248.904 534.607 L
1248.887 534.393 L
1248.863 534.179 L
1248.832 533.966 L
1248.793 533.752 L
1248.748 533.539 L
1248.694 533.326 L
1248.634 533.113 L
1248.567 532.9 L
1248.492 532.687 L
1248.41 532.475 L
1248.321 532.263 L
1248.225 532.051 L
1248.122 531.839 L
1248.011 531.628 L
1247.893 531.417 L
1247.769 531.207 L
1247.637 530.997 L
1247.498 530.787 L
1247.351 530.578 L
1247.198 530.369 L
1247.038 530.16 L
1246.871 529.952 L
1246.696 529.745 L
1246.515 529.538 L
1246.327 529.331 L
1246.131 529.126 L
1245.929 528.92 L
1245.72 528.716 L
1245.504 528.512 L
1245.281 528.308 L
1245.051 528.106 L
1244.814 527.904 L
1244.571 527.703 L
S
GR
GS
[0.3 0 0 0.3 0 0] CT
1 LJ
1.667 LW
N
1244.814 527.904 M
1244.571 527.703 L
1244.32 527.502 L
1244.063 527.302 L
1243.799 527.103 L
1243.529 526.905 L
1243.251 526.708 L
1242.968 526.511 L
1242.677 526.315 L
1242.38 526.12 L
1242.076 525.926 L
1241.766 525.733 L
1241.449 525.541 L
1241.125 525.35 L
1240.796 525.16 L
1240.459 524.97 L
1240.117 524.782 L
1239.768 524.595 L
1239.413 524.409 L
1239.051 524.224 L
1238.683 524.04 L
1238.309 523.857 L
1237.929 523.675 L
1237.543 523.494 L
1237.151 523.314 L
1236.752 523.136 L
1236.348 522.959 L
1235.937 522.783 L
1235.521 522.608 L
1235.099 522.435 L
1234.67 522.262 L
1234.236 522.091 L
1233.797 521.922 L
1233.351 521.753 L
1232.9 521.586 L
1232.443 521.42 L
1231.981 521.256 L
1231.513 521.093 L
1231.04 520.931 L
1230.561 520.771 L
1230.077 520.612 L
1229.587 520.455 L
1229.092 520.299 L
1228.592 520.145 L
1228.087 519.992 L
1227.577 519.84 L
1227.061 519.69 L
1226.54 519.542 L
1226.015 519.395 L
1225.484 519.25 L
1224.949 519.106 L
1224.409 518.964 L
S
GR
GS
[0.3 0 0 0.3 0 0] CT
1 LJ
1.667 LW
N
1224.949 519.106 M
1224.409 518.964 L
1223.864 518.823 L
1223.314 518.684 L
1222.759 518.547 L
1222.2 518.411 L
1221.637 518.278 L
1221.068 518.145 L
1220.496 518.015 L
1219.919 517.886 L
1219.338 517.759 L
1218.752 517.633 L
1218.162 517.509 L
1217.568 517.387 L
1216.97 517.267 L
1216.368 517.149 L
1215.762 517.032 L
1215.152 516.917 L
1214.538 516.804 L
1213.921 516.693 L
1213.299 516.583 L
1212.674 516.476 L
1212.046 516.37 L
1211.413 516.266 L
1210.778 516.164 L
1210.139 516.064 L
1209.496 515.966 L
1208.85 515.87 L
1208.201 515.775 L
1207.549 515.683 L
1206.894 515.592 L
1206.236 515.504 L
1205.574 515.417 L
1204.91 515.332 L
1204.243 515.25 L
1203.574 515.169 L
1202.901 515.09 L
1202.226 515.013 L
1201.548 514.938 L
1200.868 514.866 L
1200.186 514.795 L
1199.501 514.726 L
1198.814 514.659 L
1198.124 514.595 L
1197.433 514.532 L
1196.739 514.472 L
1196.043 514.413 L
1195.346 514.357 L
1194.646 514.302 L
1193.945 514.25 L
1193.242 514.2 L
1192.537 514.151 L
S
GR
GS
[0.3 0 0 0.3 0 0] CT
1 LJ
1.667 LW
N
1193.242 514.2 M
1192.537 514.151 L
1191.831 514.105 L
1191.123 514.061 L
1190.414 514.019 L
1189.703 513.979 L
1188.991 513.942 L
1188.278 513.906 L
1187.563 513.873 L
1186.848 513.841 L
1186.132 513.812 L
1185.414 513.785 L
1184.696 513.76 L
1183.977 513.737 L
1183.257 513.716 L
1182.536 513.698 L
1181.815 513.681 L
1181.093 513.667 L
1180.371 513.654 L
1179.649 513.644 L
1178.926 513.636 L
1178.203 513.63 L
1177.479 513.627 L
1176.756 513.625 L
S
GR
GS
[0.3 0 0 0.3 0 0] CT
1 LJ
1.667 LW
N
1176.583 513.625 M
1221.792 506.5 L
S
GR
GS
[0.3 0 0 0.3 0 0] CT
1 LJ
1.667 LW
N
1176.583 513.625 M
1221.792 535 L
S
GR
%%Trailer
%%Pages: 1
%%EOF
