%!PS-Adobe-3.0 EPSF-3.0
%%Creator: (MATLAB, The Mathworks, Inc. Version 8.6.0.267246 \(R2015b\). Operating System: Windows 8)
%%Title: (C:/Users/Daniel/OneDrive - CertiCon a.s/Documents/skola/CVUT/Semester_8/Bakalarska_Praca/Bachelor thesis/Figures/models/Srobot_model.eps)
%%CreationDate: 2016-05-14T15:02:59
%%Pages: (atend)
%%BoundingBox: 0 0 420 315
%%LanguageLevel: 2
%%EndComments
%%BeginProlog
%%BeginResource: procset (Apache XML Graphics Std ProcSet) 1.2 0
%%Version: 1.2 0
%%Copyright: (Copyright 2001-2003,2010 The Apache Software Foundation. License terms: http://www.apache.org/licenses/LICENSE-2.0)
/bd{bind def}bind def
/ld{load def}bd
/GR/grestore ld
/M/moveto ld
/LJ/setlinejoin ld
/C/curveto ld
/f/fill ld
/LW/setlinewidth ld
/GC/setgray ld
/t/show ld
/N/newpath ld
/CT/concat ld
/cp/closepath ld
/S/stroke ld
/L/lineto ld
/CC/setcmykcolor ld
/A/ashow ld
/GS/gsave ld
/RC/setrgbcolor ld
/RM/rmoveto ld
/ML/setmiterlimit ld
/re {4 2 roll M
1 index 0 rlineto
0 exch rlineto
neg 0 rlineto
cp } bd
/_ctm matrix def
/_tm matrix def
/BT { _ctm currentmatrix pop matrix _tm copy pop 0 0 moveto } bd
/ET { _ctm setmatrix } bd
/iTm { _ctm setmatrix _tm concat } bd
/Tm { _tm astore pop iTm 0 0 moveto } bd
/ux 0.0 def
/uy 0.0 def
/F {
  /Tp exch def
  /Tf exch def
  Tf findfont Tp scalefont setfont
  /cf Tf def  /cs Tp def
} bd
/ULS {currentpoint /uy exch def /ux exch def} bd
/ULE {
  /Tcx currentpoint pop def
  gsave
  newpath
  cf findfont cs scalefont dup
  /FontMatrix get 0 get /Ts exch def /FontInfo get dup
  /UnderlinePosition get Ts mul /To exch def
  /UnderlineThickness get Ts mul /Tt exch def
  ux uy To add moveto  Tcx uy To add lineto
  Tt setlinewidth stroke
  grestore
} bd
/OLE {
  /Tcx currentpoint pop def
  gsave
  newpath
  cf findfont cs scalefont dup
  /FontMatrix get 0 get /Ts exch def /FontInfo get dup
  /UnderlinePosition get Ts mul /To exch def
  /UnderlineThickness get Ts mul /Tt exch def
  ux uy To add cs add moveto Tcx uy To add cs add lineto
  Tt setlinewidth stroke
  grestore
} bd
/SOE {
  /Tcx currentpoint pop def
  gsave
  newpath
  cf findfont cs scalefont dup
  /FontMatrix get 0 get /Ts exch def /FontInfo get dup
  /UnderlinePosition get Ts mul /To exch def
  /UnderlineThickness get Ts mul /Tt exch def
  ux uy To add cs 10 mul 26 idiv add moveto Tcx uy To add cs 10 mul 26 idiv add lineto
  Tt setlinewidth stroke
  grestore
} bd
/QT {
/Y22 exch store
/X22 exch store
/Y21 exch store
/X21 exch store
currentpoint
/Y21 load 2 mul add 3 div exch
/X21 load 2 mul add 3 div exch
/X21 load 2 mul /X22 load add 3 div
/Y21 load 2 mul /Y22 load add 3 div
/X22 load /Y22 load curveto
} bd
/SSPD {
dup length /d exch dict def
{
/v exch def
/k exch def
currentpagedevice k known {
/cpdv currentpagedevice k get def
v cpdv ne {
/upd false def
/nullv v type /nulltype eq def
/nullcpdv cpdv type /nulltype eq def
nullv nullcpdv or
{
/upd true def
} {
/sametype v type cpdv type eq def
sametype {
v type /arraytype eq {
/vlen v length def
/cpdvlen cpdv length def
vlen cpdvlen eq {
0 1 vlen 1 sub {
/i exch def
/obj v i get def
/cpdobj cpdv i get def
obj cpdobj ne {
/upd true def
exit
} if
} for
} {
/upd true def
} ifelse
} {
v type /dicttype eq {
v {
/dv exch def
/dk exch def
/cpddv cpdv dk get def
dv cpddv ne {
/upd true def
exit
} if
} forall
} {
/upd true def
} ifelse
} ifelse
} if
} ifelse
upd true eq {
d k v put
} if
} if
} if
} forall
d length 0 gt {
d setpagedevice
} if
} bd
%%EndResource
%%BeginResource: procset (Apache XML Graphics EPS ProcSet) 1.0 0
%%Version: 1.0 0
%%Copyright: (Copyright 2002-2003 The Apache Software Foundation. License terms: http://www.apache.org/licenses/LICENSE-2.0)
/BeginEPSF { %def
/b4_Inc_state save def         % Save state for cleanup
/dict_count countdictstack def % Count objects on dict stack
/op_count count 1 sub def      % Count objects on operand stack
userdict begin                 % Push userdict on dict stack
/showpage { } def              % Redefine showpage, { } = null proc
0 setgray 0 setlinecap         % Prepare graphics state
1 setlinewidth 0 setlinejoin
10 setmiterlimit [ ] 0 setdash newpath
/languagelevel where           % If level not equal to 1 then
{pop languagelevel             % set strokeadjust and
1 ne                           % overprint to their defaults.
{false setstrokeadjust false setoverprint
} if
} if
} bd
/EndEPSF { %def
count op_count sub {pop} repeat            % Clean up stacks
countdictstack dict_count sub {end} repeat
b4_Inc_state restore
} bd
%%EndResource
%FOPBeginFontDict
%%IncludeResource: font Courier-Bold
%%IncludeResource: font Helvetica
%%IncludeResource: font Courier-BoldOblique
%%IncludeResource: font Courier-Oblique
%%IncludeResource: font Times-Roman
%%IncludeResource: font Helvetica-BoldOblique
%%IncludeResource: font Helvetica-Bold
%%IncludeResource: font Helvetica-Oblique
%%IncludeResource: font Times-BoldItalic
%%IncludeResource: font Courier
%%IncludeResource: font Times-Italic
%%IncludeResource: font Times-Bold
%%IncludeResource: font Symbol
%%IncludeResource: font ZapfDingbats
%FOPEndFontDict
%%BeginResource: encoding WinAnsiEncoding
/WinAnsiEncoding [
/.notdef /.notdef /.notdef /.notdef /.notdef
/.notdef /.notdef /.notdef /.notdef /.notdef
/.notdef /.notdef /.notdef /.notdef /.notdef
/.notdef /.notdef /.notdef /.notdef /.notdef
/.notdef /.notdef /.notdef /.notdef /.notdef
/.notdef /.notdef /.notdef /.notdef /.notdef
/.notdef /.notdef /space /exclam /quotedbl
/numbersign /dollar /percent /ampersand /quotesingle
/parenleft /parenright /asterisk /plus /comma
/hyphen /period /slash /zero /one
/two /three /four /five /six
/seven /eight /nine /colon /semicolon
/less /equal /greater /question /at
/A /B /C /D /E
/F /G /H /I /J
/K /L /M /N /O
/P /Q /R /S /T
/U /V /W /X /Y
/Z /bracketleft /backslash /bracketright /asciicircum
/underscore /quoteleft /a /b /c
/d /e /f /g /h
/i /j /k /l /m
/n /o /p /q /r
/s /t /u /v /w
/x /y /z /braceleft /bar
/braceright /asciitilde /bullet /Euro /bullet
/quotesinglbase /florin /quotedblbase /ellipsis /dagger
/daggerdbl /circumflex /perthousand /Scaron /guilsinglleft
/OE /bullet /Zcaron /bullet /bullet
/quoteleft /quoteright /quotedblleft /quotedblright /bullet
/endash /emdash /asciitilde /trademark /scaron
/guilsinglright /oe /bullet /zcaron /Ydieresis
/space /exclamdown /cent /sterling /currency
/yen /brokenbar /section /dieresis /copyright
/ordfeminine /guillemotleft /logicalnot /sfthyphen /registered
/macron /degree /plusminus /twosuperior /threesuperior
/acute /mu /paragraph /middot /cedilla
/onesuperior /ordmasculine /guillemotright /onequarter /onehalf
/threequarters /questiondown /Agrave /Aacute /Acircumflex
/Atilde /Adieresis /Aring /AE /Ccedilla
/Egrave /Eacute /Ecircumflex /Edieresis /Igrave
/Iacute /Icircumflex /Idieresis /Eth /Ntilde
/Ograve /Oacute /Ocircumflex /Otilde /Odieresis
/multiply /Oslash /Ugrave /Uacute /Ucircumflex
/Udieresis /Yacute /Thorn /germandbls /agrave
/aacute /acircumflex /atilde /adieresis /aring
/ae /ccedilla /egrave /eacute /ecircumflex
/edieresis /igrave /iacute /icircumflex /idieresis
/eth /ntilde /ograve /oacute /ocircumflex
/otilde /odieresis /divide /oslash /ugrave
/uacute /ucircumflex /udieresis /yacute /thorn
/ydieresis
] def
%%EndResource
%FOPBeginFontReencode
/Courier-Bold findfont
dup length dict begin
  {1 index /FID ne {def} {pop pop} ifelse} forall
  /Encoding WinAnsiEncoding def
  currentdict
end
/Courier-Bold exch definefont pop
/Helvetica findfont
dup length dict begin
  {1 index /FID ne {def} {pop pop} ifelse} forall
  /Encoding WinAnsiEncoding def
  currentdict
end
/Helvetica exch definefont pop
/Courier-BoldOblique findfont
dup length dict begin
  {1 index /FID ne {def} {pop pop} ifelse} forall
  /Encoding WinAnsiEncoding def
  currentdict
end
/Courier-BoldOblique exch definefont pop
/Courier-Oblique findfont
dup length dict begin
  {1 index /FID ne {def} {pop pop} ifelse} forall
  /Encoding WinAnsiEncoding def
  currentdict
end
/Courier-Oblique exch definefont pop
/Times-Roman findfont
dup length dict begin
  {1 index /FID ne {def} {pop pop} ifelse} forall
  /Encoding WinAnsiEncoding def
  currentdict
end
/Times-Roman exch definefont pop
/Helvetica-BoldOblique findfont
dup length dict begin
  {1 index /FID ne {def} {pop pop} ifelse} forall
  /Encoding WinAnsiEncoding def
  currentdict
end
/Helvetica-BoldOblique exch definefont pop
/Helvetica-Bold findfont
dup length dict begin
  {1 index /FID ne {def} {pop pop} ifelse} forall
  /Encoding WinAnsiEncoding def
  currentdict
end
/Helvetica-Bold exch definefont pop
/Helvetica-Oblique findfont
dup length dict begin
  {1 index /FID ne {def} {pop pop} ifelse} forall
  /Encoding WinAnsiEncoding def
  currentdict
end
/Helvetica-Oblique exch definefont pop
/Times-BoldItalic findfont
dup length dict begin
  {1 index /FID ne {def} {pop pop} ifelse} forall
  /Encoding WinAnsiEncoding def
  currentdict
end
/Times-BoldItalic exch definefont pop
/Courier findfont
dup length dict begin
  {1 index /FID ne {def} {pop pop} ifelse} forall
  /Encoding WinAnsiEncoding def
  currentdict
end
/Courier exch definefont pop
/Times-Italic findfont
dup length dict begin
  {1 index /FID ne {def} {pop pop} ifelse} forall
  /Encoding WinAnsiEncoding def
  currentdict
end
/Times-Italic exch definefont pop
/Times-Bold findfont
dup length dict begin
  {1 index /FID ne {def} {pop pop} ifelse} forall
  /Encoding WinAnsiEncoding def
  currentdict
end
/Times-Bold exch definefont pop
%FOPEndFontReencode
%%EndProlog
%%Page: 1 1
%%PageBoundingBox: 0 0 420 315
%%BeginPageSetup
[1 0 0 -1 0 315] CT
%%EndPageSetup
GS
[0.3 0 0 0.3 0 0] CT
1 GC
N
0 0 1400 1050 re
f
GR
GS
[0.3 0 0 0.3 0 0] CT
1 GC
N
0 0 1400 1050 re
f
GR
GS
[0.3 0 0 0.3 0 0] CT
1 0 0 RC
[1 3] 0 setdash
2 LJ
1.667 LW
N
769.708 292.75 M
1040.958 292.75 L
S
GR
GS
[0.3 0 0 0.3 0 0] CT
0 0 1 RC
N
851.083 250 M
814.917 250 L
851.083 335.5 L
cp
f
GR
GS
[0.3 0 0 0.3 0 0] CT
0 0 1 RC
N
814.917 250 M
814.917 364 L
851.083 335.5 L
cp
f
GR
GS
[0.3 0 0 0.3 0 0] CT
0 0 1 RC
N
995.75 364 M
995.75 335.5 L
851.083 335.5 L
cp
f
GR
GS
[0.3 0 0 0.3 0 0] CT
0 0 1 RC
N
814.917 364 M
995.75 364 L
851.083 335.5 L
cp
f
GR
GS
[0.3 0 0 0.3 0 0] CT
2 setlinecap
10.0 ML
3.333 LW
N
995.75 364 M
814.917 364 L
814.917 250 L
851.083 250 L
851.083 335.5 L
995.75 335.5 L
995.75 364 L
S
GR
GS
[0.3 0 0 0.3 0 0] CT
0 1 1 RC
N
959.583 250 M
959.583 335.5 L
995.75 335.5 L
cp
f
GR
GS
[0.3 0 0 0.3 0 0] CT
0 1 1 RC
N
814.917 250 M
959.583 250 L
814.917 221.5 L
cp
f
GR
GS
[0.3 0 0 0.3 0 0] CT
0 1 1 RC
N
814.917 221.5 M
959.583 250 L
995.75 221.5 L
cp
f
GR
GS
[0.3 0 0 0.3 0 0] CT
0 1 1 RC
N
959.583 250 M
995.75 335.5 L
995.75 221.5 L
cp
f
GR
GS
[0.3 0 0 0.3 0 0] CT
2 setlinecap
10.0 ML
3.333 LW
N
995.75 335.5 M
995.75 221.5 L
814.917 221.5 L
814.917 250 L
959.583 250 L
959.583 335.5 L
995.75 335.5 L
S
GR
GS
[0.3 0 0 0.3 0 0] CT
1 LJ
1.667 LW
N
778.75 349.75 M
779.021 349.747 L
779.292 349.739 L
779.564 349.724 L
779.835 349.704 L
780.106 349.679 L
780.377 349.647 L
780.647 349.61 L
780.918 349.568 L
781.188 349.519 L
781.458 349.465 L
781.728 349.406 L
781.997 349.34 L
782.266 349.269 L
782.535 349.192 L
782.804 349.11 L
783.072 349.022 L
783.339 348.928 L
783.606 348.829 L
783.873 348.724 L
784.139 348.614 L
784.404 348.498 L
784.669 348.376 L
784.934 348.249 L
785.198 348.116 L
785.461 347.978 L
785.723 347.834 L
785.985 347.685 L
786.246 347.53 L
786.506 347.37 L
786.766 347.204 L
787.025 347.033 L
787.283 346.856 L
787.54 346.674 L
787.796 346.487 L
788.051 346.294 L
788.305 346.096 L
788.559 345.893 L
788.811 345.684 L
789.063 345.47 L
789.313 345.25 L
789.562 345.026 L
789.81 344.796 L
790.058 344.561 L
790.304 344.321 L
790.548 344.076 L
790.792 343.825 L
791.035 343.569 L
791.276 343.309 L
791.516 343.043 L
S
GR
GS
[0.3 0 0 0.3 0 0] CT
1 LJ
1.667 LW
N
791.276 343.309 M
791.516 343.043 L
791.754 342.772 L
791.992 342.496 L
792.228 342.216 L
792.463 341.93 L
792.696 341.639 L
792.928 341.344 L
793.158 341.044 L
793.388 340.738 L
793.615 340.428 L
793.841 340.114 L
794.066 339.794 L
794.289 339.47 L
794.511 339.141 L
794.731 338.808 L
794.949 338.469 L
795.166 338.127 L
795.381 337.78 L
795.594 337.428 L
795.806 337.072 L
796.016 336.711 L
796.224 336.346 L
796.431 335.977 L
796.636 335.603 L
796.839 335.225 L
797.04 334.843 L
797.239 334.456 L
797.437 334.066 L
797.633 333.671 L
797.826 333.272 L
798.018 332.869 L
798.208 332.462 L
798.396 332.051 L
798.582 331.637 L
798.766 331.218 L
798.948 330.795 L
799.128 330.369 L
799.307 329.939 L
799.482 329.505 L
799.656 329.068 L
799.828 328.626 L
799.998 328.182 L
800.165 327.733 L
800.331 327.282 L
800.494 326.827 L
800.655 326.368 L
800.814 325.906 L
800.971 325.441 L
801.125 324.972 L
801.277 324.5 L
801.427 324.025 L
S
GR
GS
[0.3 0 0 0.3 0 0] CT
1 LJ
1.667 LW
N
801.277 324.5 M
801.427 324.025 L
801.575 323.547 L
801.72 323.066 L
801.863 322.582 L
802.004 322.095 L
802.143 321.605 L
802.279 321.112 L
802.413 320.616 L
802.544 320.117 L
802.673 319.616 L
802.8 319.112 L
802.924 318.605 L
803.046 318.096 L
803.165 317.584 L
803.282 317.07 L
803.397 316.553 L
803.509 316.034 L
803.618 315.512 L
803.725 314.989 L
803.83 314.463 L
803.932 313.935 L
804.032 313.404 L
804.129 312.872 L
804.223 312.338 L
804.315 311.802 L
804.404 311.263 L
804.491 310.723 L
804.575 310.182 L
804.657 309.638 L
804.736 309.093 L
804.813 308.546 L
804.887 307.997 L
804.958 307.447 L
805.026 306.896 L
805.092 306.343 L
805.156 305.789 L
805.216 305.233 L
805.275 304.677 L
805.33 304.119 L
805.383 303.56 L
805.433 302.999 L
805.48 302.438 L
805.525 301.876 L
805.567 301.313 L
805.607 300.749 L
805.643 300.184 L
805.677 299.619 L
805.709 299.052 L
805.737 298.486 L
805.763 297.918 L
805.786 297.35 L
S
GR
GS
[0.3 0 0 0.3 0 0] CT
1 LJ
1.667 LW
N
805.763 297.918 M
805.786 297.35 L
805.807 296.782 L
805.825 296.213 L
805.84 295.644 L
805.852 295.075 L
805.862 294.505 L
805.869 293.935 L
805.873 293.365 L
805.875 292.795 L
805.874 292.225 L
805.87 291.655 L
805.863 291.086 L
805.854 290.516 L
805.842 289.947 L
805.828 289.377 L
805.81 288.809 L
805.79 288.24 L
805.767 287.672 L
805.742 287.105 L
805.713 286.538 L
805.682 285.971 L
805.649 285.406 L
805.613 284.841 L
805.574 284.277 L
805.532 283.714 L
805.488 283.151 L
805.441 282.59 L
805.391 282.03 L
805.339 281.47 L
805.284 280.912 L
805.226 280.355 L
805.166 279.799 L
805.103 279.245 L
805.037 278.692 L
804.969 278.14 L
804.898 277.59 L
804.825 277.041 L
804.749 276.494 L
804.67 275.949 L
804.589 275.405 L
804.505 274.863 L
804.418 274.322 L
804.329 273.784 L
804.238 273.247 L
804.144 272.713 L
804.047 272.18 L
803.948 271.65 L
803.846 271.121 L
803.742 270.595 L
803.635 270.071 L
803.526 269.549 L
S
GR
GS
[0.3 0 0 0.3 0 0] CT
1 LJ
1.667 LW
N
803.635 270.071 M
803.526 269.549 L
803.415 269.03 L
803.301 268.513 L
803.184 267.998 L
803.065 267.486 L
802.944 266.976 L
802.82 266.469 L
802.693 265.964 L
802.565 265.463 L
802.434 264.964 L
802.3 264.467 L
802.165 263.974 L
802.026 263.483 L
801.886 262.996 L
801.743 262.511 L
801.598 262.029 L
801.451 261.551 L
801.301 261.075 L
801.149 260.603 L
800.995 260.134 L
800.839 259.668 L
800.68 259.205 L
800.52 258.746 L
800.357 258.291 L
800.192 257.838 L
800.025 257.389 L
799.855 256.944 L
799.684 256.502 L
799.51 256.064 L
799.335 255.63 L
799.157 255.199 L
798.977 254.772 L
798.796 254.349 L
798.612 253.93 L
798.426 253.514 L
798.238 253.103 L
798.049 252.695 L
797.857 252.292 L
797.664 251.892 L
797.468 251.497 L
797.271 251.106 L
797.072 250.719 L
796.871 250.336 L
796.668 249.957 L
796.464 249.583 L
796.257 249.213 L
796.049 248.847 L
795.84 248.486 L
795.628 248.129 L
795.415 247.776 L
795.2 247.428 L
S
GR
GS
[0.3 0 0 0.3 0 0] CT
1 LJ
1.667 LW
N
795.415 247.776 M
795.2 247.428 L
794.984 247.085 L
794.765 246.746 L
794.546 246.412 L
794.324 246.082 L
794.102 245.757 L
793.877 245.437 L
793.651 245.121 L
793.424 244.811 L
793.195 244.505 L
792.965 244.204 L
792.733 243.907 L
792.5 243.616 L
792.265 243.329 L
792.029 243.048 L
791.792 242.771 L
791.554 242.5 L
791.314 242.233 L
791.073 241.972 L
790.831 241.715 L
790.587 241.464 L
790.343 241.218 L
790.097 240.977 L
789.85 240.741 L
789.602 240.51 L
789.353 240.285 L
789.103 240.065 L
788.851 239.85 L
788.599 239.64 L
788.346 239.436 L
788.092 239.237 L
787.837 239.043 L
787.581 238.855 L
787.324 238.672 L
787.066 238.495 L
786.807 238.323 L
786.548 238.156 L
786.288 237.995 L
786.027 237.839 L
785.765 237.689 L
785.503 237.545 L
785.24 237.405 L
784.976 237.272 L
784.712 237.144 L
784.447 237.021 L
784.181 236.904 L
783.915 236.793 L
783.649 236.687 L
783.382 236.587 L
783.114 236.493 L
782.846 236.404 L
S
GR
GS
[0.3 0 0 0.3 0 0] CT
1 LJ
1.667 LW
N
783.114 236.493 M
782.846 236.404 L
782.578 236.32 L
782.309 236.243 L
782.04 236.171 L
781.771 236.105 L
781.501 236.044 L
781.231 235.989 L
780.961 235.94 L
780.69 235.896 L
780.42 235.858 L
780.149 235.826 L
779.878 235.799 L
779.607 235.778 L
779.336 235.763 L
779.064 235.754 L
778.793 235.75 L
778.522 235.752 L
778.251 235.76 L
777.98 235.773 L
777.708 235.792 L
777.438 235.817 L
777.167 235.847 L
776.896 235.883 L
776.625 235.925 L
776.355 235.973 L
776.085 236.026 L
775.815 236.085 L
775.546 236.149 L
775.276 236.219 L
775.008 236.295 L
774.739 236.377 L
774.471 236.464 L
774.204 236.556 L
773.936 236.655 L
773.67 236.759 L
773.403 236.868 L
773.138 236.983 L
772.873 237.104 L
772.608 237.23 L
772.344 237.362 L
772.081 237.5 L
771.818 237.643 L
771.557 237.791 L
771.295 237.945 L
771.035 238.104 L
770.775 238.269 L
770.516 238.439 L
770.258 238.615 L
770.001 238.796 L
769.745 238.983 L
769.49 239.175 L
S
GR
GS
[0.3 0 0 0.3 0 0] CT
1 LJ
1.667 LW
N
769.745 238.983 M
769.49 239.175 L
769.235 239.372 L
768.981 239.575 L
768.729 239.783 L
768.477 239.996 L
768.227 240.214 L
767.977 240.438 L
767.729 240.667 L
767.482 240.901 L
767.235 241.141 L
766.99 241.385 L
766.747 241.635 L
766.504 241.89 L
766.263 242.149 L
766.022 242.414 L
765.784 242.684 L
765.546 242.959 L
765.31 243.239 L
765.075 243.524 L
764.841 243.814 L
764.609 244.109 L
764.378 244.408 L
764.149 244.713 L
763.921 245.022 L
763.695 245.336 L
763.47 245.655 L
763.246 245.978 L
763.025 246.306 L
762.804 246.639 L
762.586 246.976 L
762.369 247.318 L
762.153 247.665 L
761.94 248.016 L
761.728 248.371 L
761.517 248.731 L
761.309 249.096 L
761.102 249.464 L
760.897 249.837 L
760.693 250.215 L
760.492 250.596 L
760.292 250.982 L
760.094 251.372 L
759.898 251.766 L
759.704 252.164 L
759.512 252.566 L
759.322 252.973 L
759.134 253.383 L
758.947 253.797 L
758.763 254.215 L
758.58 254.637 L
758.4 255.063 L
S
GR
GS
[0.3 0 0 0.3 0 0] CT
1 LJ
1.667 LW
N
758.58 254.637 M
758.4 255.063 L
758.222 255.492 L
758.045 255.926 L
757.871 256.362 L
757.699 256.803 L
757.529 257.247 L
757.361 257.695 L
757.195 258.146 L
757.032 258.601 L
756.87 259.059 L
756.711 259.52 L
756.554 259.985 L
756.399 260.453 L
756.247 260.924 L
756.097 261.399 L
755.948 261.876 L
755.803 262.357 L
755.659 262.841 L
755.518 263.328 L
755.379 263.817 L
755.243 264.31 L
755.109 264.805 L
754.977 265.303 L
754.847 265.804 L
754.72 266.308 L
754.596 266.814 L
754.473 267.323 L
754.354 267.834 L
754.236 268.348 L
754.121 268.865 L
754.009 269.383 L
753.899 269.904 L
753.792 270.428 L
753.687 270.953 L
753.584 271.481 L
753.484 272.011 L
753.387 272.543 L
753.292 273.077 L
753.199 273.613 L
753.11 274.151 L
753.022 274.69 L
752.938 275.232 L
752.856 275.775 L
752.776 276.32 L
752.699 276.867 L
752.625 277.415 L
752.553 277.965 L
752.484 278.516 L
752.418 279.069 L
752.354 279.623 L
752.293 280.178 L
S
GR
GS
[0.3 0 0 0.3 0 0] CT
1 LJ
1.667 LW
N
752.354 279.623 M
752.293 280.178 L
752.234 280.735 L
752.179 281.292 L
752.125 281.851 L
752.075 282.411 L
752.027 282.972 L
751.982 283.534 L
751.939 284.097 L
751.9 284.661 L
751.862 285.226 L
751.828 285.791 L
751.796 286.357 L
751.767 286.924 L
751.741 287.491 L
751.717 288.059 L
751.696 288.627 L
751.678 289.196 L
751.662 289.765 L
751.649 290.335 L
751.639 290.904 L
751.632 291.474 L
751.627 292.044 L
751.625 292.614 L
S
GR
GS
[0.3 0 0 0.3 0 0] CT
1 LJ
1.667 LW
N
751.625 292.75 M
742.583 257.125 L
S
GR
GS
[0.3 0 0 0.3 0 0] CT
1 LJ
1.667 LW
N
751.625 292.75 M
769.708 257.125 L
S
GR
GS
[0.3 0 0 0.3 0 0] CT
1 0 0 RC
[1 3] 0 setdash
2 LJ
1.667 LW
N
227.208 577.75 M
498.458 577.75 L
S
GR
GS
[0.3 0 0 0.3 0 0] CT
0 1 1 RC
N
308.583 535 M
272.417 535 L
308.583 620.5 L
cp
f
GR
GS
[0.3 0 0 0.3 0 0] CT
0 1 1 RC
N
272.417 535 M
272.417 649 L
308.583 620.5 L
cp
f
GR
GS
[0.3 0 0 0.3 0 0] CT
0 1 1 RC
N
453.25 649 M
453.25 620.5 L
308.583 620.5 L
cp
f
GR
GS
[0.3 0 0 0.3 0 0] CT
0 1 1 RC
N
272.417 649 M
453.25 649 L
308.583 620.5 L
cp
f
GR
GS
[0.3 0 0 0.3 0 0] CT
2 setlinecap
10.0 ML
3.333 LW
N
453.25 649 M
272.417 649 L
272.417 535 L
308.583 535 L
308.583 620.5 L
453.25 620.5 L
453.25 649 L
S
GR
GS
[0.3 0 0 0.3 0 0] CT
0 0 1 RC
N
417.083 535 M
417.083 620.5 L
453.25 620.5 L
cp
f
GR
GS
[0.3 0 0 0.3 0 0] CT
0 0 1 RC
N
272.417 535 M
417.083 535 L
272.417 506.5 L
cp
f
GR
GS
[0.3 0 0 0.3 0 0] CT
0 0 1 RC
N
272.417 506.5 M
417.083 535 L
453.25 506.5 L
cp
f
GR
GS
[0.3 0 0 0.3 0 0] CT
0 0 1 RC
N
417.083 535 M
453.25 620.5 L
453.25 506.5 L
cp
f
GR
GS
[0.3 0 0 0.3 0 0] CT
2 setlinecap
10.0 ML
3.333 LW
N
453.25 620.5 M
453.25 506.5 L
272.417 506.5 L
272.417 535 L
417.083 535 L
417.083 620.5 L
453.25 620.5 L
S
GR
GS
[0.3 0 0 0.3 0 0] CT
1 LJ
1.667 LW
N
236.25 634.75 M
236.521 634.747 L
236.792 634.739 L
237.064 634.724 L
237.335 634.704 L
237.606 634.679 L
237.877 634.647 L
238.147 634.61 L
238.418 634.568 L
238.688 634.519 L
238.958 634.465 L
239.228 634.406 L
239.497 634.34 L
239.766 634.269 L
240.035 634.192 L
240.304 634.11 L
240.572 634.022 L
240.839 633.928 L
241.106 633.829 L
241.373 633.724 L
241.639 633.614 L
241.904 633.498 L
242.169 633.376 L
242.434 633.249 L
242.698 633.116 L
242.961 632.978 L
243.223 632.834 L
243.485 632.685 L
243.746 632.53 L
244.006 632.37 L
244.266 632.204 L
244.525 632.033 L
244.783 631.856 L
245.04 631.674 L
245.296 631.487 L
245.551 631.294 L
245.805 631.096 L
246.059 630.893 L
246.311 630.684 L
246.563 630.47 L
246.813 630.25 L
247.062 630.026 L
247.311 629.796 L
247.558 629.561 L
247.804 629.321 L
248.048 629.076 L
248.292 628.825 L
248.535 628.569 L
248.776 628.309 L
249.016 628.043 L
S
GR
GS
[0.3 0 0 0.3 0 0] CT
1 LJ
1.667 LW
N
248.776 628.309 M
249.016 628.043 L
249.254 627.772 L
249.492 627.496 L
249.728 627.216 L
249.963 626.93 L
250.196 626.639 L
250.428 626.344 L
250.658 626.044 L
250.888 625.738 L
251.115 625.428 L
251.341 625.114 L
251.566 624.794 L
251.789 624.47 L
252.011 624.141 L
252.231 623.808 L
252.449 623.469 L
252.666 623.127 L
252.881 622.78 L
253.094 622.428 L
253.306 622.072 L
253.516 621.711 L
253.724 621.346 L
253.931 620.977 L
254.136 620.603 L
254.339 620.225 L
254.54 619.843 L
254.739 619.456 L
254.937 619.066 L
255.133 618.671 L
255.326 618.272 L
255.518 617.869 L
255.708 617.462 L
255.896 617.051 L
256.082 616.637 L
256.266 616.218 L
256.448 615.795 L
256.628 615.369 L
256.806 614.939 L
256.982 614.505 L
257.156 614.068 L
257.328 613.626 L
257.498 613.182 L
257.665 612.734 L
257.831 612.282 L
257.994 611.827 L
258.155 611.368 L
258.314 610.906 L
258.471 610.441 L
258.625 609.972 L
258.777 609.5 L
258.927 609.025 L
S
GR
GS
[0.3 0 0 0.3 0 0] CT
1 LJ
1.667 LW
N
258.777 609.5 M
258.927 609.025 L
259.075 608.547 L
259.22 608.066 L
259.363 607.582 L
259.504 607.095 L
259.643 606.605 L
259.779 606.112 L
259.913 605.616 L
260.044 605.117 L
260.173 604.616 L
260.3 604.112 L
260.424 603.605 L
260.546 603.096 L
260.665 602.584 L
260.782 602.07 L
260.897 601.553 L
261.009 601.034 L
261.118 600.512 L
261.225 599.989 L
261.33 599.463 L
261.432 598.935 L
261.532 598.404 L
261.629 597.872 L
261.723 597.338 L
261.815 596.802 L
261.904 596.263 L
261.991 595.723 L
262.075 595.182 L
262.157 594.638 L
262.236 594.093 L
262.313 593.546 L
262.387 592.997 L
262.458 592.447 L
262.526 591.896 L
262.592 591.343 L
262.656 590.789 L
262.716 590.233 L
262.775 589.677 L
262.83 589.119 L
262.883 588.56 L
262.933 587.999 L
262.98 587.438 L
263.025 586.876 L
263.067 586.313 L
263.107 585.749 L
263.143 585.184 L
263.177 584.619 L
263.209 584.052 L
263.237 583.486 L
263.263 582.918 L
263.286 582.35 L
S
GR
GS
[0.3 0 0 0.3 0 0] CT
1 LJ
1.667 LW
N
263.263 582.918 M
263.286 582.35 L
263.307 581.782 L
263.325 581.213 L
263.34 580.644 L
263.352 580.075 L
263.362 579.505 L
263.369 578.935 L
263.373 578.365 L
263.375 577.795 L
263.374 577.225 L
263.37 576.655 L
263.363 576.086 L
263.354 575.516 L
263.342 574.947 L
263.327 574.377 L
263.31 573.809 L
263.29 573.24 L
263.267 572.672 L
263.242 572.105 L
263.213 571.538 L
263.183 570.971 L
263.149 570.406 L
263.113 569.841 L
263.074 569.277 L
263.032 568.714 L
262.988 568.151 L
262.941 567.59 L
262.891 567.03 L
262.839 566.47 L
262.784 565.912 L
262.726 565.355 L
262.666 564.799 L
262.603 564.245 L
262.537 563.692 L
262.469 563.14 L
262.398 562.59 L
262.325 562.041 L
262.249 561.494 L
262.17 560.949 L
262.089 560.405 L
262.005 559.863 L
261.918 559.323 L
261.829 558.784 L
261.738 558.247 L
261.644 557.713 L
261.547 557.18 L
261.448 556.65 L
261.346 556.121 L
261.242 555.595 L
261.135 555.071 L
261.026 554.549 L
S
GR
GS
[0.3 0 0 0.3 0 0] CT
1 LJ
1.667 LW
N
261.135 555.071 M
261.026 554.549 L
260.915 554.03 L
260.801 553.513 L
260.684 552.998 L
260.565 552.486 L
260.444 551.976 L
260.32 551.469 L
260.193 550.964 L
260.065 550.463 L
259.934 549.964 L
259.8 549.467 L
259.665 548.974 L
259.526 548.483 L
259.386 547.996 L
259.243 547.511 L
259.098 547.029 L
258.951 546.551 L
258.801 546.075 L
258.649 545.603 L
258.495 545.134 L
258.339 544.668 L
258.18 544.205 L
258.02 543.746 L
257.857 543.291 L
257.692 542.838 L
257.525 542.389 L
257.355 541.944 L
257.184 541.502 L
257.01 541.064 L
256.835 540.63 L
256.657 540.199 L
256.477 539.772 L
256.296 539.349 L
256.112 538.93 L
255.926 538.514 L
255.738 538.103 L
255.549 537.695 L
255.357 537.292 L
255.164 536.892 L
254.968 536.497 L
254.771 536.106 L
254.572 535.719 L
254.371 535.336 L
254.168 534.957 L
253.964 534.583 L
253.757 534.213 L
253.549 533.847 L
253.34 533.486 L
253.128 533.129 L
252.915 532.776 L
252.7 532.428 L
S
GR
GS
[0.3 0 0 0.3 0 0] CT
1 LJ
1.667 LW
N
252.915 532.776 M
252.7 532.428 L
252.484 532.085 L
252.265 531.746 L
252.046 531.412 L
251.824 531.082 L
251.602 530.757 L
251.377 530.437 L
251.151 530.121 L
250.924 529.811 L
250.695 529.505 L
250.465 529.204 L
250.233 528.907 L
250 528.616 L
249.765 528.329 L
249.529 528.048 L
249.292 527.771 L
249.054 527.5 L
248.814 527.233 L
248.573 526.972 L
248.331 526.715 L
248.087 526.464 L
247.843 526.218 L
247.597 525.977 L
247.35 525.741 L
247.102 525.51 L
246.853 525.285 L
246.603 525.065 L
246.351 524.85 L
246.099 524.64 L
245.846 524.436 L
245.592 524.237 L
245.337 524.043 L
245.081 523.855 L
244.824 523.672 L
244.566 523.495 L
244.307 523.323 L
244.048 523.156 L
243.788 522.995 L
243.527 522.839 L
243.265 522.689 L
243.003 522.545 L
242.74 522.405 L
242.476 522.272 L
242.212 522.144 L
241.947 522.021 L
241.681 521.904 L
241.415 521.793 L
241.149 521.687 L
240.882 521.587 L
240.614 521.493 L
240.346 521.404 L
S
GR
GS
[0.3 0 0 0.3 0 0] CT
1 LJ
1.667 LW
N
240.614 521.493 M
240.346 521.404 L
240.078 521.32 L
239.809 521.243 L
239.54 521.171 L
239.271 521.105 L
239.001 521.044 L
238.731 520.989 L
238.461 520.94 L
238.19 520.896 L
237.92 520.858 L
237.649 520.826 L
237.378 520.799 L
237.107 520.778 L
236.836 520.763 L
236.564 520.754 L
236.293 520.75 L
236.022 520.752 L
235.751 520.76 L
235.48 520.773 L
235.208 520.792 L
234.937 520.817 L
234.667 520.847 L
234.396 520.883 L
234.125 520.925 L
233.855 520.973 L
233.585 521.026 L
233.315 521.085 L
233.046 521.149 L
232.777 521.219 L
232.508 521.295 L
232.239 521.377 L
231.971 521.464 L
231.704 521.556 L
231.436 521.655 L
231.17 521.759 L
230.903 521.868 L
230.638 521.983 L
230.373 522.104 L
230.108 522.23 L
229.844 522.362 L
229.581 522.5 L
229.318 522.643 L
229.057 522.791 L
228.795 522.945 L
228.535 523.104 L
228.275 523.269 L
228.016 523.439 L
227.758 523.615 L
227.501 523.796 L
227.245 523.983 L
226.989 524.175 L
S
GR
GS
[0.3 0 0 0.3 0 0] CT
1 LJ
1.667 LW
N
227.245 523.983 M
226.989 524.175 L
226.735 524.372 L
226.481 524.575 L
226.229 524.783 L
225.977 524.996 L
225.727 525.214 L
225.477 525.438 L
225.229 525.667 L
224.982 525.901 L
224.735 526.141 L
224.49 526.385 L
224.247 526.635 L
224.004 526.89 L
223.763 527.149 L
223.522 527.414 L
223.284 527.684 L
223.046 527.959 L
222.81 528.239 L
222.575 528.524 L
222.341 528.814 L
222.109 529.109 L
221.878 529.408 L
221.649 529.713 L
221.421 530.022 L
221.195 530.336 L
220.97 530.655 L
220.746 530.978 L
220.525 531.306 L
220.304 531.639 L
220.086 531.976 L
219.869 532.318 L
219.653 532.665 L
219.44 533.016 L
219.228 533.371 L
219.017 533.731 L
218.809 534.096 L
218.602 534.464 L
218.397 534.837 L
218.193 535.215 L
217.992 535.596 L
217.792 535.982 L
217.594 536.372 L
217.398 536.766 L
217.204 537.164 L
217.012 537.566 L
216.822 537.973 L
216.634 538.383 L
216.447 538.797 L
216.263 539.215 L
216.08 539.637 L
215.9 540.063 L
S
GR
GS
[0.3 0 0 0.3 0 0] CT
1 LJ
1.667 LW
N
216.08 539.637 M
215.9 540.063 L
215.722 540.492 L
215.545 540.926 L
215.371 541.362 L
215.199 541.803 L
215.029 542.247 L
214.861 542.695 L
214.695 543.146 L
214.532 543.601 L
214.37 544.059 L
214.211 544.52 L
214.054 544.985 L
213.899 545.453 L
213.747 545.924 L
213.597 546.399 L
213.448 546.876 L
213.303 547.357 L
213.159 547.841 L
213.018 548.328 L
212.879 548.817 L
212.743 549.31 L
212.609 549.805 L
212.477 550.303 L
212.347 550.804 L
212.22 551.308 L
212.096 551.814 L
211.973 552.323 L
211.854 552.834 L
211.736 553.348 L
211.621 553.865 L
211.509 554.383 L
211.399 554.904 L
211.292 555.428 L
211.187 555.953 L
211.084 556.481 L
210.984 557.011 L
210.887 557.543 L
210.792 558.077 L
210.699 558.613 L
210.61 559.151 L
210.522 559.69 L
210.438 560.232 L
210.356 560.775 L
210.276 561.32 L
210.199 561.867 L
210.125 562.415 L
210.053 562.965 L
209.984 563.516 L
209.918 564.069 L
209.854 564.623 L
209.793 565.178 L
S
GR
GS
[0.3 0 0 0.3 0 0] CT
1 LJ
1.667 LW
N
209.854 564.623 M
209.793 565.178 L
209.734 565.735 L
209.679 566.292 L
209.625 566.851 L
209.575 567.411 L
209.527 567.972 L
209.482 568.534 L
209.439 569.097 L
209.4 569.661 L
209.362 570.226 L
209.328 570.791 L
209.296 571.357 L
209.267 571.924 L
209.241 572.491 L
209.217 573.059 L
209.196 573.627 L
209.178 574.196 L
209.162 574.765 L
209.149 575.335 L
209.139 575.904 L
209.132 576.474 L
209.127 577.044 L
209.125 577.614 L
S
GR
GS
[0.3 0 0 0.3 0 0] CT
1 LJ
1.667 LW
N
209.125 577.75 M
200.083 542.125 L
S
GR
GS
[0.3 0 0 0.3 0 0] CT
1 LJ
1.667 LW
N
209.125 577.75 M
227.208 542.125 L
S
GR
GS
[0.3 0 0 0.3 0 0] CT
1 0 0 RC
[1 3] 0 setdash
2 LJ
1.667 LW
N
362.833 542.125 M
362.833 328.375 L
S
GR
GS
[0.3 0 0 0.3 105.0525 130.575] CT
/Helvetica 47 F
GS
[1 0 0 1 0 0] CT
0 18.5 moveto 
1 -1 scale
(0) t 
GR
GR
GS
[0.3 0 0 0.3 0 0] CT
0 1 1 RC
N
308.583 392.5 M
272.417 364 L
272.417 506.5 L
cp
f
GR
GS
[0.3 0 0 0.3 0 0] CT
0 1 1 RC
N
308.583 392.5 M
272.417 506.5 L
308.583 506.5 L
cp
f
GR
GS
[0.3 0 0 0.3 0 0] CT
0 1 1 RC
N
417.083 392.5 M
417.083 364 L
308.583 392.5 L
cp
f
GR
GS
[0.3 0 0 0.3 0 0] CT
0 1 1 RC
N
417.083 364 M
272.417 364 L
308.583 392.5 L
cp
f
GR
GS
[0.3 0 0 0.3 0 0] CT
2 setlinecap
10.0 ML
3.333 LW
N
272.417 506.5 M
272.417 364 L
417.083 364 L
417.083 392.5 L
308.583 392.5 L
308.583 506.5 L
272.417 506.5 L
S
GR
GS
[0.3 0 0 0.3 0 0] CT
0 0 1 RC
N
308.583 478 M
308.583 506.5 L
417.083 478 L
cp
f
GR
GS
[0.3 0 0 0.3 0 0] CT
0 0 1 RC
N
417.083 364 M
417.083 478 L
453.25 364 L
cp
f
GR
GS
[0.3 0 0 0.3 0 0] CT
0 0 1 RC
N
417.083 478 M
453.25 506.5 L
453.25 364 L
cp
f
GR
GS
[0.3 0 0 0.3 0 0] CT
0 0 1 RC
N
417.083 478 M
308.583 506.5 L
453.25 506.5 L
cp
f
GR
GS
[0.3 0 0 0.3 0 0] CT
2 setlinecap
10.0 ML
3.333 LW
N
308.583 506.5 M
453.25 506.5 L
453.25 364 L
417.083 364 L
417.083 478 L
308.583 478 L
308.583 506.5 L
S
GR
GS
[0.3 0 0 0.3 0 0] CT
1 LJ
1.667 LW
N
290.5 535 M
290.504 535.214 L
290.514 535.427 L
290.533 535.641 L
290.558 535.855 L
290.59 536.068 L
290.63 536.282 L
290.677 536.495 L
290.731 536.708 L
290.793 536.921 L
290.861 537.134 L
290.937 537.347 L
291.02 537.559 L
291.11 537.771 L
291.208 537.983 L
291.312 538.194 L
291.424 538.405 L
291.543 538.616 L
291.669 538.827 L
291.802 539.037 L
291.942 539.247 L
292.089 539.456 L
292.243 539.665 L
292.405 539.873 L
292.573 540.081 L
292.749 540.288 L
292.931 540.495 L
293.121 540.701 L
293.317 540.907 L
293.52 541.112 L
293.731 541.317 L
293.948 541.521 L
294.172 541.724 L
294.403 541.926 L
294.641 542.128 L
294.885 542.329 L
295.137 542.53 L
295.395 542.73 L
295.66 542.928 L
295.932 543.127 L
296.21 543.324 L
296.495 543.52 L
296.787 543.716 L
297.085 543.911 L
297.39 544.104 L
297.701 544.297 L
298.019 544.489 L
298.343 544.68 L
298.674 544.871 L
299.011 545.06 L
S
GR
GS
[0.3 0 0 0.3 0 0] CT
1 LJ
1.667 LW
N
298.674 544.871 M
299.011 545.06 L
299.355 545.248 L
299.705 545.435 L
300.061 545.621 L
300.424 545.806 L
300.792 545.99 L
301.167 546.172 L
301.549 546.354 L
301.936 546.535 L
302.329 546.714 L
302.729 546.892 L
303.134 547.069 L
303.545 547.245 L
303.963 547.42 L
304.386 547.593 L
304.815 547.765 L
305.25 547.936 L
305.691 548.105 L
306.137 548.274 L
306.589 548.44 L
307.047 548.606 L
307.51 548.77 L
307.978 548.933 L
308.453 549.094 L
308.932 549.254 L
309.417 549.413 L
309.908 549.57 L
310.404 549.726 L
310.904 549.88 L
311.411 550.033 L
311.922 550.184 L
312.438 550.333 L
312.96 550.482 L
313.486 550.628 L
314.017 550.773 L
314.554 550.917 L
315.095 551.059 L
315.64 551.199 L
316.191 551.338 L
316.746 551.475 L
317.306 551.61 L
317.87 551.744 L
318.439 551.876 L
319.012 552.006 L
319.59 552.135 L
320.172 552.262 L
320.758 552.387 L
321.349 552.51 L
321.943 552.632 L
322.542 552.752 L
323.145 552.87 L
S
GR
GS
[0.3 0 0 0.3 0 0] CT
1 LJ
1.667 LW
N
322.542 552.752 M
323.145 552.87 L
323.751 552.986 L
324.362 553.101 L
324.977 553.214 L
325.595 553.325 L
326.217 553.434 L
326.842 553.541 L
327.472 553.647 L
328.104 553.75 L
328.741 553.852 L
329.38 553.952 L
330.023 554.05 L
330.669 554.146 L
331.319 554.24 L
331.972 554.332 L
332.627 554.422 L
333.286 554.51 L
333.948 554.597 L
334.612 554.681 L
335.28 554.763 L
335.95 554.844 L
336.623 554.922 L
337.298 554.999 L
337.976 555.073 L
338.657 555.146 L
339.34 555.216 L
340.025 555.285 L
340.713 555.351 L
341.402 555.415 L
342.094 555.478 L
342.788 555.538 L
343.484 555.596 L
344.182 555.652 L
344.882 555.706 L
345.584 555.758 L
346.287 555.808 L
346.992 555.856 L
347.698 555.902 L
348.406 555.946 L
349.116 555.987 L
349.827 556.027 L
350.539 556.064 L
351.252 556.099 L
351.967 556.132 L
352.683 556.163 L
353.399 556.192 L
354.117 556.219 L
354.835 556.244 L
355.555 556.267 L
356.275 556.287 L
356.995 556.305 L
S
GR
GS
[0.3 0 0 0.3 0 0] CT
1 LJ
1.667 LW
N
356.275 556.287 M
356.995 556.305 L
357.717 556.321 L
358.438 556.336 L
359.161 556.347 L
359.883 556.357 L
360.606 556.365 L
361.329 556.37 L
362.052 556.374 L
362.776 556.375 L
363.499 556.374 L
364.222 556.371 L
364.945 556.366 L
365.668 556.359 L
366.391 556.349 L
367.113 556.338 L
367.835 556.324 L
368.556 556.308 L
369.277 556.29 L
369.997 556.27 L
370.717 556.248 L
371.435 556.223 L
372.153 556.197 L
372.87 556.168 L
373.586 556.138 L
374.3 556.105 L
375.014 556.07 L
375.726 556.033 L
376.438 555.994 L
377.147 555.952 L
377.856 555.909 L
378.562 555.864 L
379.268 555.816 L
379.971 555.766 L
380.673 555.715 L
381.373 555.661 L
382.071 555.605 L
382.768 555.547 L
383.462 555.487 L
384.154 555.425 L
384.844 555.361 L
385.532 555.295 L
386.218 555.227 L
386.901 555.157 L
387.582 555.085 L
388.261 555.011 L
388.936 554.935 L
389.61 554.857 L
390.28 554.776 L
390.948 554.694 L
391.613 554.61 L
392.275 554.524 L
S
GR
GS
[0.3 0 0 0.3 0 0] CT
1 LJ
1.667 LW
N
391.613 554.61 M
392.275 554.524 L
392.935 554.436 L
393.591 554.346 L
394.244 554.254 L
394.894 554.161 L
395.541 554.065 L
396.184 553.967 L
396.824 553.868 L
397.461 553.766 L
398.095 553.663 L
398.724 553.558 L
399.351 553.451 L
399.973 553.342 L
400.592 553.232 L
401.207 553.119 L
401.818 553.005 L
402.426 552.889 L
403.029 552.771 L
403.628 552.651 L
404.224 552.53 L
404.815 552.407 L
405.402 552.282 L
405.984 552.155 L
406.563 552.027 L
407.137 551.897 L
407.706 551.765 L
408.271 551.631 L
408.832 551.496 L
409.388 551.359 L
409.939 551.221 L
410.486 551.081 L
411.027 550.939 L
411.564 550.796 L
412.096 550.651 L
412.624 550.505 L
413.146 550.357 L
413.663 550.208 L
414.175 550.057 L
414.682 549.904 L
415.184 549.75 L
415.68 549.595 L
416.171 549.438 L
416.657 549.28 L
417.138 549.12 L
417.613 548.959 L
418.083 548.796 L
418.547 548.632 L
419.005 548.467 L
419.458 548.3 L
419.905 548.132 L
420.347 547.963 L
S
GR
GS
[0.3 0 0 0.3 0 0] CT
1 LJ
1.667 LW
N
419.905 548.132 M
420.347 547.963 L
420.783 547.792 L
421.213 547.62 L
421.637 547.447 L
422.055 547.273 L
422.467 547.097 L
422.874 546.921 L
423.274 546.742 L
423.669 546.563 L
424.057 546.383 L
424.439 546.201 L
424.815 546.019 L
425.185 545.835 L
425.548 545.65 L
425.906 545.464 L
426.257 545.278 L
426.601 545.09 L
426.939 544.901 L
427.271 544.711 L
427.597 544.52 L
427.915 544.328 L
428.228 544.135 L
428.534 543.942 L
428.833 543.747 L
429.126 543.551 L
429.412 543.355 L
429.691 543.158 L
429.964 542.96 L
430.23 542.761 L
430.489 542.562 L
430.742 542.361 L
430.987 542.16 L
431.226 541.959 L
431.458 541.756 L
431.684 541.553 L
431.902 541.349 L
432.113 541.145 L
432.318 540.94 L
432.515 540.734 L
432.706 540.528 L
432.889 540.321 L
433.066 540.114 L
433.236 539.906 L
433.398 539.698 L
433.553 539.489 L
433.702 539.28 L
433.843 539.07 L
433.977 538.86 L
434.104 538.65 L
434.224 538.439 L
434.337 538.228 L
S
GR
GS
[0.3 0 0 0.3 0 0] CT
1 LJ
1.667 LW
N
434.224 538.439 M
434.337 538.228 L
434.443 538.016 L
434.541 537.805 L
434.633 537.593 L
434.717 537.38 L
434.794 537.168 L
434.863 536.955 L
434.926 536.742 L
434.981 536.529 L
435.03 536.316 L
435.07 536.102 L
435.104 535.889 L
435.131 535.675 L
435.15 535.461 L
435.162 535.248 L
435.167 535.034 L
435.164 534.82 L
435.154 534.607 L
435.137 534.393 L
435.113 534.179 L
435.082 533.966 L
435.043 533.752 L
434.997 533.539 L
434.944 533.326 L
434.884 533.113 L
434.817 532.9 L
434.742 532.687 L
434.66 532.475 L
434.571 532.263 L
434.475 532.051 L
434.372 531.839 L
434.261 531.628 L
434.143 531.417 L
434.019 531.207 L
433.887 530.997 L
433.748 530.787 L
433.602 530.578 L
433.448 530.369 L
433.288 530.16 L
433.121 529.952 L
432.946 529.745 L
432.765 529.538 L
432.577 529.331 L
432.381 529.126 L
432.179 528.92 L
431.97 528.716 L
431.754 528.512 L
431.531 528.308 L
431.301 528.106 L
431.064 527.904 L
430.821 527.703 L
S
GR
GS
[0.3 0 0 0.3 0 0] CT
1 LJ
1.667 LW
N
431.064 527.904 M
430.821 527.703 L
430.57 527.502 L
430.313 527.302 L
430.049 527.103 L
429.779 526.905 L
429.502 526.708 L
429.218 526.511 L
428.927 526.315 L
428.63 526.12 L
428.326 525.926 L
428.016 525.733 L
427.699 525.541 L
427.376 525.35 L
427.046 525.16 L
426.71 524.97 L
426.367 524.782 L
426.018 524.595 L
425.663 524.409 L
425.301 524.224 L
424.933 524.04 L
424.559 523.857 L
424.179 523.675 L
423.793 523.494 L
423.401 523.314 L
423.002 523.136 L
422.598 522.959 L
422.187 522.783 L
421.771 522.608 L
421.348 522.435 L
420.92 522.262 L
420.486 522.091 L
420.047 521.922 L
419.601 521.753 L
419.15 521.586 L
418.693 521.42 L
418.231 521.256 L
417.763 521.093 L
417.29 520.931 L
416.811 520.771 L
416.327 520.612 L
415.837 520.455 L
415.342 520.299 L
414.842 520.145 L
414.337 519.992 L
413.827 519.84 L
413.311 519.69 L
412.79 519.542 L
412.265 519.395 L
411.734 519.25 L
411.199 519.106 L
410.659 518.964 L
S
GR
GS
[0.3 0 0 0.3 0 0] CT
1 LJ
1.667 LW
N
411.199 519.106 M
410.659 518.964 L
410.114 518.823 L
409.564 518.684 L
409.009 518.547 L
408.45 518.411 L
407.887 518.278 L
407.319 518.145 L
406.746 518.015 L
406.169 517.886 L
405.588 517.759 L
405.002 517.633 L
404.412 517.509 L
403.818 517.387 L
403.22 517.267 L
402.618 517.149 L
402.012 517.032 L
401.402 516.917 L
400.788 516.804 L
400.171 516.693 L
399.549 516.583 L
398.924 516.476 L
398.296 516.37 L
397.663 516.266 L
397.028 516.164 L
396.389 516.064 L
395.746 515.966 L
395.1 515.87 L
394.451 515.775 L
393.799 515.683 L
393.144 515.592 L
392.486 515.504 L
391.824 515.417 L
391.16 515.332 L
390.493 515.25 L
389.824 515.169 L
389.151 515.09 L
388.476 515.013 L
387.799 514.938 L
387.118 514.866 L
386.436 514.795 L
385.751 514.726 L
385.064 514.659 L
384.374 514.595 L
383.683 514.532 L
382.989 514.472 L
382.293 514.413 L
381.596 514.357 L
380.896 514.302 L
380.195 514.25 L
379.492 514.2 L
378.787 514.151 L
S
GR
GS
[0.3 0 0 0.3 0 0] CT
1 LJ
1.667 LW
N
379.492 514.2 M
378.787 514.151 L
378.081 514.105 L
377.373 514.061 L
376.664 514.019 L
375.953 513.979 L
375.241 513.942 L
374.528 513.906 L
373.814 513.873 L
373.098 513.841 L
372.382 513.812 L
371.664 513.785 L
370.946 513.76 L
370.227 513.737 L
369.507 513.716 L
368.786 513.698 L
368.065 513.681 L
367.343 513.667 L
366.621 513.654 L
365.899 513.644 L
365.176 513.636 L
364.453 513.63 L
363.729 513.627 L
363.006 513.625 L
S
GR
GS
[0.3 0 0 0.3 0 0] CT
1 LJ
1.667 LW
N
362.833 513.625 M
408.042 506.5 L
S
GR
GS
[0.3 0 0 0.3 0 0] CT
1 LJ
1.667 LW
N
362.833 513.625 M
408.042 535 L
S
GR
GS
[0.3 0 0 0.3 0 0] CT
1 0 0 RC
[1 3] 0 setdash
2 LJ
1.667 LW
N
543.667 542.125 M
543.667 328.375 L
S
GR
GS
[0.3 0 0 0.3 159.30251 130.575] CT
/Helvetica 47 F
GS
[1 0 0 1 0 0] CT
0 18.5 moveto 
1 -1 scale
(1) t 
GR
GR
GS
[0.3 0 0 0.3 0 0] CT
0 1 1 RC
N
489.417 392.5 M
453.25 364 L
453.25 506.5 L
cp
f
GR
GS
[0.3 0 0 0.3 0 0] CT
0 1 1 RC
N
489.417 392.5 M
453.25 506.5 L
489.417 506.5 L
cp
f
GR
GS
[0.3 0 0 0.3 0 0] CT
0 1 1 RC
N
597.917 392.5 M
597.917 364 L
489.417 392.5 L
cp
f
GR
GS
[0.3 0 0 0.3 0 0] CT
0 1 1 RC
N
597.917 364 M
453.25 364 L
489.417 392.5 L
cp
f
GR
GS
[0.3 0 0 0.3 0 0] CT
2 setlinecap
10.0 ML
3.333 LW
N
453.25 506.5 M
453.25 364 L
597.917 364 L
597.917 392.5 L
489.417 392.5 L
489.417 506.5 L
453.25 506.5 L
S
GR
GS
[0.3 0 0 0.3 0 0] CT
0 0 1 RC
N
489.417 478 M
489.417 506.5 L
597.917 478 L
cp
f
GR
GS
[0.3 0 0 0.3 0 0] CT
0 0 1 RC
N
597.917 364 M
597.917 478 L
634.083 364 L
cp
f
GR
GS
[0.3 0 0 0.3 0 0] CT
0 0 1 RC
N
597.917 478 M
634.083 506.5 L
634.083 364 L
cp
f
GR
GS
[0.3 0 0 0.3 0 0] CT
0 0 1 RC
N
597.917 478 M
489.417 506.5 L
634.083 506.5 L
cp
f
GR
GS
[0.3 0 0 0.3 0 0] CT
2 setlinecap
10.0 ML
3.333 LW
N
489.417 506.5 M
634.083 506.5 L
634.083 364 L
597.917 364 L
597.917 478 L
489.417 478 L
489.417 506.5 L
S
GR
GS
[0.3 0 0 0.3 0 0] CT
1 LJ
1.667 LW
N
471.333 535 M
471.337 535.214 L
471.348 535.427 L
471.366 535.641 L
471.391 535.855 L
471.424 536.068 L
471.463 536.282 L
471.51 536.495 L
471.565 536.708 L
471.626 536.921 L
471.695 537.134 L
471.77 537.347 L
471.854 537.559 L
471.944 537.771 L
472.041 537.983 L
472.146 538.194 L
472.257 538.405 L
472.376 538.616 L
472.502 538.827 L
472.635 539.037 L
472.775 539.247 L
472.922 539.456 L
473.077 539.665 L
473.238 539.873 L
473.407 540.081 L
473.582 540.288 L
473.764 540.495 L
473.954 540.701 L
474.15 540.907 L
474.354 541.112 L
474.564 541.317 L
474.781 541.521 L
475.005 541.724 L
475.236 541.926 L
475.474 542.128 L
475.719 542.329 L
475.97 542.53 L
476.228 542.73 L
476.493 542.928 L
476.765 543.127 L
477.043 543.324 L
477.328 543.52 L
477.62 543.716 L
477.918 543.911 L
478.223 544.104 L
478.534 544.297 L
478.852 544.489 L
479.177 544.68 L
479.507 544.871 L
479.845 545.06 L
S
GR
GS
[0.3 0 0 0.3 0 0] CT
1 LJ
1.667 LW
N
479.507 544.871 M
479.845 545.06 L
480.188 545.248 L
480.538 545.435 L
480.894 545.621 L
481.257 545.806 L
481.626 545.99 L
482.001 546.172 L
482.382 546.354 L
482.769 546.535 L
483.163 546.714 L
483.562 546.892 L
483.967 547.069 L
484.379 547.245 L
484.796 547.42 L
485.219 547.593 L
485.648 547.765 L
486.083 547.936 L
486.524 548.105 L
486.97 548.274 L
487.422 548.44 L
487.88 548.606 L
488.343 548.77 L
488.812 548.933 L
489.286 549.094 L
489.766 549.254 L
490.251 549.413 L
490.741 549.57 L
491.237 549.726 L
491.738 549.88 L
492.244 550.033 L
492.755 550.184 L
493.272 550.333 L
493.793 550.482 L
494.319 550.628 L
494.851 550.773 L
495.387 550.917 L
495.928 551.059 L
496.474 551.199 L
497.024 551.338 L
497.579 551.475 L
498.139 551.61 L
498.704 551.744 L
499.272 551.876 L
499.846 552.006 L
500.423 552.135 L
501.005 552.262 L
501.592 552.387 L
502.182 552.51 L
502.777 552.632 L
503.375 552.752 L
503.978 552.87 L
S
GR
GS
[0.3 0 0 0.3 0 0] CT
1 LJ
1.667 LW
N
503.375 552.752 M
503.978 552.87 L
504.585 552.986 L
505.195 553.101 L
505.81 553.214 L
506.428 553.325 L
507.05 553.434 L
507.676 553.541 L
508.305 553.647 L
508.938 553.75 L
509.574 553.852 L
510.214 553.952 L
510.857 554.05 L
511.503 554.146 L
512.152 554.24 L
512.805 554.332 L
513.461 554.422 L
514.119 554.51 L
514.781 554.597 L
515.446 554.681 L
516.113 554.763 L
516.783 554.844 L
517.456 554.922 L
518.132 554.999 L
518.81 555.073 L
519.49 555.146 L
520.173 555.216 L
520.858 555.285 L
521.546 555.351 L
522.236 555.415 L
522.928 555.478 L
523.622 555.538 L
524.318 555.596 L
525.016 555.652 L
525.715 555.706 L
526.417 555.758 L
527.12 555.808 L
527.825 555.856 L
528.532 555.902 L
529.24 555.946 L
529.949 555.987 L
530.66 556.027 L
531.372 556.064 L
532.086 556.099 L
532.8 556.132 L
533.516 556.163 L
534.233 556.192 L
534.95 556.219 L
535.669 556.244 L
536.388 556.267 L
537.108 556.287 L
537.829 556.305 L
S
GR
GS
[0.3 0 0 0.3 0 0] CT
1 LJ
1.667 LW
N
537.108 556.287 M
537.829 556.305 L
538.55 556.321 L
539.272 556.336 L
539.994 556.347 L
540.717 556.357 L
541.439 556.365 L
542.162 556.37 L
542.886 556.374 L
543.609 556.375 L
544.332 556.374 L
545.056 556.371 L
545.779 556.366 L
546.502 556.359 L
547.224 556.349 L
547.947 556.338 L
548.668 556.324 L
549.39 556.308 L
550.111 556.29 L
550.831 556.27 L
551.55 556.248 L
552.269 556.223 L
552.986 556.197 L
553.703 556.168 L
554.419 556.138 L
555.134 556.105 L
555.847 556.07 L
556.56 556.033 L
557.271 555.994 L
557.981 555.952 L
558.689 555.909 L
559.396 555.864 L
560.101 555.816 L
560.805 555.766 L
561.506 555.715 L
562.206 555.661 L
562.905 555.605 L
563.601 555.547 L
564.295 555.487 L
564.988 555.425 L
565.678 555.361 L
566.366 555.295 L
567.051 555.227 L
567.735 555.157 L
568.416 555.085 L
569.094 555.011 L
569.77 554.935 L
570.443 554.857 L
571.114 554.776 L
571.782 554.694 L
572.447 554.61 L
573.109 554.524 L
S
GR
GS
[0.3 0 0 0.3 0 0] CT
1 LJ
1.667 LW
N
572.447 554.61 M
573.109 554.524 L
573.768 554.436 L
574.424 554.346 L
575.077 554.254 L
575.727 554.161 L
576.374 554.065 L
577.018 553.967 L
577.658 553.868 L
578.295 553.766 L
578.928 553.663 L
579.558 553.558 L
580.184 553.451 L
580.806 553.342 L
581.425 553.232 L
582.04 553.119 L
582.652 553.005 L
583.259 552.889 L
583.862 552.771 L
584.462 552.651 L
585.057 552.53 L
585.648 552.407 L
586.235 552.282 L
586.818 552.155 L
587.396 552.027 L
587.97 551.897 L
588.539 551.765 L
589.105 551.631 L
589.665 551.496 L
590.221 551.359 L
590.772 551.221 L
591.319 551.081 L
591.861 550.939 L
592.398 550.796 L
592.93 550.651 L
593.457 550.505 L
593.979 550.357 L
594.496 550.208 L
595.008 550.057 L
595.515 549.904 L
596.017 549.75 L
596.514 549.595 L
597.005 549.438 L
597.491 549.28 L
597.971 549.12 L
598.446 548.959 L
598.916 548.796 L
599.38 548.632 L
599.839 548.467 L
600.292 548.3 L
600.739 548.132 L
601.18 547.963 L
S
GR
GS
[0.3 0 0 0.3 0 0] CT
1 LJ
1.667 LW
N
600.739 548.132 M
601.18 547.963 L
601.616 547.792 L
602.046 547.62 L
602.47 547.447 L
602.888 547.273 L
603.301 547.097 L
603.707 546.921 L
604.108 546.742 L
604.502 546.563 L
604.89 546.383 L
605.272 546.201 L
605.648 546.019 L
606.018 545.835 L
606.382 545.65 L
606.739 545.464 L
607.09 545.278 L
607.434 545.09 L
607.773 544.901 L
608.104 544.711 L
608.43 544.52 L
608.749 544.328 L
609.061 544.135 L
609.367 543.942 L
609.666 543.747 L
609.959 543.551 L
610.245 543.355 L
610.525 543.158 L
610.797 542.96 L
611.063 542.761 L
611.323 542.562 L
611.575 542.361 L
611.821 542.16 L
612.06 541.959 L
612.292 541.756 L
612.517 541.553 L
612.735 541.349 L
612.947 541.145 L
613.151 540.94 L
613.349 540.734 L
613.539 540.528 L
613.723 540.321 L
613.899 540.114 L
614.069 539.906 L
614.231 539.698 L
614.387 539.489 L
614.535 539.28 L
614.676 539.07 L
614.811 538.86 L
614.938 538.65 L
615.058 538.439 L
615.17 538.228 L
S
GR
GS
[0.3 0 0 0.3 0 0] CT
1 LJ
1.667 LW
N
615.058 538.439 M
615.17 538.228 L
615.276 538.016 L
615.375 537.805 L
615.466 537.593 L
615.55 537.38 L
615.627 537.168 L
615.697 536.955 L
615.759 536.742 L
615.815 536.529 L
615.863 536.316 L
615.904 536.102 L
615.937 535.889 L
615.964 535.675 L
615.983 535.461 L
615.995 535.248 L
616 535.034 L
615.997 534.82 L
615.988 534.607 L
615.971 534.393 L
615.947 534.179 L
615.915 533.966 L
615.877 533.752 L
615.831 533.539 L
615.778 533.326 L
615.717 533.113 L
615.65 532.9 L
615.575 532.687 L
615.494 532.475 L
615.404 532.263 L
615.308 532.051 L
615.205 531.839 L
615.094 531.628 L
614.977 531.417 L
614.852 531.207 L
614.72 530.997 L
614.581 530.787 L
614.435 530.578 L
614.282 530.369 L
614.121 530.16 L
613.954 529.952 L
613.78 529.745 L
613.598 529.538 L
613.41 529.331 L
613.215 529.126 L
613.012 528.92 L
612.803 528.716 L
612.587 528.512 L
612.364 528.308 L
612.134 528.106 L
611.898 527.904 L
611.654 527.703 L
S
GR
GS
[0.3 0 0 0.3 0 0] CT
1 LJ
1.667 LW
N
611.898 527.904 M
611.654 527.703 L
611.404 527.502 L
611.147 527.302 L
610.883 527.103 L
610.612 526.905 L
610.335 526.708 L
610.051 526.511 L
609.76 526.315 L
609.463 526.12 L
609.159 525.926 L
608.849 525.733 L
608.532 525.541 L
608.209 525.35 L
607.879 525.16 L
607.543 524.97 L
607.2 524.782 L
606.851 524.595 L
606.496 524.409 L
606.135 524.224 L
605.767 524.04 L
605.393 523.857 L
605.013 523.675 L
604.626 523.494 L
604.234 523.314 L
603.835 523.136 L
603.431 522.959 L
603.02 522.783 L
602.604 522.608 L
602.182 522.435 L
601.754 522.262 L
601.32 522.091 L
600.88 521.922 L
600.435 521.753 L
599.983 521.586 L
599.527 521.42 L
599.064 521.256 L
598.596 521.093 L
598.123 520.931 L
597.644 520.771 L
597.16 520.612 L
596.671 520.455 L
596.176 520.299 L
595.676 520.145 L
595.17 519.992 L
594.66 519.84 L
594.144 519.69 L
593.624 519.542 L
593.098 519.395 L
592.568 519.25 L
592.032 519.106 L
591.492 518.964 L
S
GR
GS
[0.3 0 0 0.3 0 0] CT
1 LJ
1.667 LW
N
592.032 519.106 M
591.492 518.964 L
590.947 518.823 L
590.397 518.684 L
589.843 518.547 L
589.284 518.411 L
588.72 518.278 L
588.152 518.145 L
587.579 518.015 L
587.002 517.886 L
586.421 517.759 L
585.835 517.633 L
585.246 517.509 L
584.652 517.387 L
584.054 517.267 L
583.452 517.149 L
582.845 517.032 L
582.235 516.917 L
581.622 516.804 L
581.004 516.693 L
580.383 516.583 L
579.758 516.476 L
579.129 516.37 L
578.497 516.266 L
577.861 516.164 L
577.222 516.064 L
576.579 515.966 L
575.934 515.87 L
575.285 515.775 L
574.633 515.683 L
573.977 515.592 L
573.319 515.504 L
572.658 515.417 L
571.994 515.332 L
571.327 515.25 L
570.657 515.169 L
569.985 515.09 L
569.31 515.013 L
568.632 514.938 L
567.952 514.866 L
567.269 514.795 L
566.584 514.726 L
565.897 514.659 L
565.208 514.595 L
564.516 514.532 L
563.822 514.472 L
563.127 514.413 L
562.429 514.357 L
561.73 514.302 L
561.028 514.25 L
560.325 514.2 L
559.621 514.151 L
S
GR
GS
[0.3 0 0 0.3 0 0] CT
1 LJ
1.667 LW
N
560.325 514.2 M
559.621 514.151 L
558.914 514.105 L
558.206 514.061 L
557.497 514.019 L
556.786 513.979 L
556.074 513.942 L
555.361 513.906 L
554.647 513.873 L
553.931 513.841 L
553.215 513.812 L
552.497 513.785 L
551.779 513.76 L
551.06 513.737 L
550.34 513.716 L
549.619 513.698 L
548.898 513.681 L
548.177 513.667 L
547.454 513.654 L
546.732 513.644 L
546.009 513.636 L
545.286 513.63 L
544.563 513.627 L
543.839 513.625 L
S
GR
GS
[0.3 0 0 0.3 0 0] CT
1 LJ
1.667 LW
N
543.667 513.625 M
588.875 506.5 L
S
GR
GS
[0.3 0 0 0.3 0 0] CT
1 LJ
1.667 LW
N
543.667 513.625 M
588.875 535 L
S
GR
GS
[0.3 0 0 0.3 0 0] CT
1 0 0 RC
[1 3] 0 setdash
2 LJ
1.667 LW
N
724.5 542.125 M
724.5 328.375 L
S
GR
GS
[0.3 0 0 0.3 213.5525 130.575] CT
/Helvetica 47 F
GS
[1 0 0 1 0 0] CT
0 18.5 moveto 
1 -1 scale
(2) t 
GR
GR
GS
[0.3 0 0 0.3 0 0] CT
0 1 1 RC
N
670.25 392.5 M
634.083 364 L
634.083 506.5 L
cp
f
GR
GS
[0.3 0 0 0.3 0 0] CT
0 1 1 RC
N
670.25 392.5 M
634.083 506.5 L
670.25 506.5 L
cp
f
GR
GS
[0.3 0 0 0.3 0 0] CT
0 1 1 RC
N
778.75 392.5 M
778.75 364 L
670.25 392.5 L
cp
f
GR
GS
[0.3 0 0 0.3 0 0] CT
0 1 1 RC
N
778.75 364 M
634.083 364 L
670.25 392.5 L
cp
f
GR
GS
[0.3 0 0 0.3 0 0] CT
2 setlinecap
10.0 ML
3.333 LW
N
634.083 506.5 M
634.083 364 L
778.75 364 L
778.75 392.5 L
670.25 392.5 L
670.25 506.5 L
634.083 506.5 L
S
GR
GS
[0.3 0 0 0.3 0 0] CT
0 0 1 RC
N
670.25 478 M
670.25 506.5 L
778.75 478 L
cp
f
GR
GS
[0.3 0 0 0.3 0 0] CT
0 0 1 RC
N
778.75 364 M
778.75 478 L
814.917 364 L
cp
f
GR
GS
[0.3 0 0 0.3 0 0] CT
0 0 1 RC
N
778.75 478 M
814.917 506.5 L
814.917 364 L
cp
f
GR
GS
[0.3 0 0 0.3 0 0] CT
0 0 1 RC
N
778.75 478 M
670.25 506.5 L
814.917 506.5 L
cp
f
GR
GS
[0.3 0 0 0.3 0 0] CT
2 setlinecap
10.0 ML
3.333 LW
N
670.25 506.5 M
814.917 506.5 L
814.917 364 L
778.75 364 L
778.75 478 L
670.25 478 L
670.25 506.5 L
S
GR
GS
[0.3 0 0 0.3 0 0] CT
1 LJ
1.667 LW
N
652.167 535 M
652.17 535.214 L
652.181 535.427 L
652.199 535.641 L
652.224 535.855 L
652.257 536.068 L
652.297 536.282 L
652.344 536.495 L
652.398 536.708 L
652.459 536.921 L
652.528 537.134 L
652.604 537.347 L
652.687 537.559 L
652.777 537.771 L
652.874 537.983 L
652.979 538.194 L
653.091 538.405 L
653.209 538.616 L
653.335 538.827 L
653.468 539.037 L
653.609 539.247 L
653.756 539.456 L
653.91 539.665 L
654.071 539.873 L
654.24 540.081 L
654.415 540.288 L
654.598 540.495 L
654.787 540.701 L
654.984 540.907 L
655.187 541.112 L
655.397 541.317 L
655.615 541.521 L
655.839 541.724 L
656.07 541.926 L
656.307 542.128 L
656.552 542.329 L
656.803 542.53 L
657.062 542.73 L
657.327 542.928 L
657.598 543.127 L
657.877 543.324 L
658.162 543.52 L
658.453 543.716 L
658.752 543.911 L
659.056 544.104 L
659.368 544.297 L
659.686 544.489 L
660.01 544.68 L
660.341 544.871 L
660.678 545.06 L
S
GR
GS
[0.3 0 0 0.3 0 0] CT
1 LJ
1.667 LW
N
660.341 544.871 M
660.678 545.06 L
661.022 545.248 L
661.372 545.435 L
661.728 545.621 L
662.09 545.806 L
662.459 545.99 L
662.834 546.172 L
663.215 546.354 L
663.603 546.535 L
663.996 546.714 L
664.395 546.892 L
664.801 547.069 L
665.212 547.245 L
665.629 547.42 L
666.053 547.593 L
666.482 547.765 L
666.917 547.936 L
667.357 548.105 L
667.804 548.274 L
668.256 548.44 L
668.713 548.606 L
669.176 548.77 L
669.645 548.933 L
670.119 549.094 L
670.599 549.254 L
671.084 549.413 L
671.575 549.57 L
672.07 549.726 L
672.571 549.88 L
673.077 550.033 L
673.589 550.184 L
674.105 550.333 L
674.626 550.482 L
675.153 550.628 L
675.684 550.773 L
676.22 550.917 L
676.761 551.059 L
677.307 551.199 L
677.858 551.338 L
678.413 551.475 L
678.973 551.61 L
679.537 551.744 L
680.106 551.876 L
680.679 552.006 L
681.257 552.135 L
681.839 552.262 L
682.425 552.387 L
683.015 552.51 L
683.61 552.632 L
684.209 552.752 L
684.811 552.87 L
S
GR
GS
[0.3 0 0 0.3 0 0] CT
1 LJ
1.667 LW
N
684.209 552.752 M
684.811 552.87 L
685.418 552.986 L
686.029 553.101 L
686.643 553.214 L
687.261 553.325 L
687.883 553.434 L
688.509 553.541 L
689.138 553.647 L
689.771 553.75 L
690.407 553.852 L
691.047 553.952 L
691.69 554.05 L
692.336 554.146 L
692.986 554.24 L
693.638 554.332 L
694.294 554.422 L
694.953 554.51 L
695.614 554.597 L
696.279 554.681 L
696.946 554.763 L
697.617 554.844 L
698.289 554.922 L
698.965 554.999 L
699.643 555.073 L
700.323 555.146 L
701.006 555.216 L
701.692 555.285 L
702.379 555.351 L
703.069 555.415 L
703.761 555.478 L
704.455 555.538 L
705.151 555.596 L
705.849 555.652 L
706.549 555.706 L
707.25 555.758 L
707.954 555.808 L
708.659 555.856 L
709.365 555.902 L
710.073 555.946 L
710.783 555.987 L
711.494 556.027 L
712.206 556.064 L
712.919 556.099 L
713.634 556.132 L
714.349 556.163 L
715.066 556.192 L
715.784 556.219 L
716.502 556.244 L
717.221 556.267 L
717.941 556.287 L
718.662 556.305 L
S
GR
GS
[0.3 0 0 0.3 0 0] CT
1 LJ
1.667 LW
N
717.941 556.287 M
718.662 556.305 L
719.383 556.321 L
720.105 556.336 L
720.827 556.347 L
721.55 556.357 L
722.273 556.365 L
722.996 556.37 L
723.719 556.374 L
724.442 556.375 L
725.166 556.374 L
725.889 556.371 L
726.612 556.366 L
727.335 556.359 L
728.058 556.349 L
728.78 556.338 L
729.502 556.324 L
730.223 556.308 L
730.944 556.29 L
731.664 556.27 L
732.383 556.248 L
733.102 556.223 L
733.82 556.197 L
734.537 556.168 L
735.252 556.138 L
735.967 556.105 L
736.681 556.07 L
737.393 556.033 L
738.104 555.994 L
738.814 555.952 L
739.522 555.909 L
740.229 555.864 L
740.934 555.816 L
741.638 555.766 L
742.34 555.715 L
743.04 555.661 L
743.738 555.605 L
744.434 555.547 L
745.129 555.487 L
745.821 555.425 L
746.511 555.361 L
747.199 555.295 L
747.885 555.227 L
748.568 555.157 L
749.249 555.085 L
749.927 555.011 L
750.603 554.935 L
751.276 554.857 L
751.947 554.776 L
752.615 554.694 L
753.28 554.61 L
753.942 554.524 L
S
GR
GS
[0.3 0 0 0.3 0 0] CT
1 LJ
1.667 LW
N
753.28 554.61 M
753.942 554.524 L
754.601 554.436 L
755.258 554.346 L
755.911 554.254 L
756.561 554.161 L
757.207 554.065 L
757.851 553.967 L
758.491 553.868 L
759.128 553.766 L
759.761 553.663 L
760.391 553.558 L
761.017 553.451 L
761.64 553.342 L
762.259 553.232 L
762.874 553.119 L
763.485 553.005 L
764.092 552.889 L
764.696 552.771 L
765.295 552.651 L
765.89 552.53 L
766.481 552.407 L
767.068 552.282 L
767.651 552.155 L
768.229 552.027 L
768.803 551.897 L
769.373 551.765 L
769.938 551.631 L
770.498 551.496 L
771.054 551.359 L
771.606 551.221 L
772.152 551.081 L
772.694 550.939 L
773.231 550.796 L
773.763 550.651 L
774.29 550.505 L
774.812 550.357 L
775.33 550.208 L
775.842 550.057 L
776.349 549.904 L
776.85 549.75 L
777.347 549.595 L
777.838 549.438 L
778.324 549.28 L
778.805 549.12 L
779.28 548.959 L
779.749 548.796 L
780.213 548.632 L
780.672 548.467 L
781.125 548.3 L
781.572 548.132 L
782.014 547.963 L
S
GR
GS
[0.3 0 0 0.3 0 0] CT
1 LJ
1.667 LW
N
781.572 548.132 M
782.014 547.963 L
782.449 547.792 L
782.879 547.62 L
783.304 547.447 L
783.722 547.273 L
784.134 547.097 L
784.541 546.921 L
784.941 546.742 L
785.335 546.563 L
785.724 546.383 L
786.106 546.201 L
786.482 546.019 L
786.851 545.835 L
787.215 545.65 L
787.572 545.464 L
787.923 545.278 L
788.268 545.09 L
788.606 544.901 L
788.938 544.711 L
789.263 544.52 L
789.582 544.328 L
789.895 544.135 L
790.2 543.942 L
790.5 543.747 L
790.792 543.551 L
791.078 543.355 L
791.358 543.158 L
791.631 542.96 L
791.897 542.761 L
792.156 542.562 L
792.408 542.361 L
792.654 542.16 L
792.893 541.959 L
793.125 541.756 L
793.35 541.553 L
793.569 541.349 L
793.78 541.145 L
793.984 540.94 L
794.182 540.734 L
794.372 540.528 L
794.556 540.321 L
794.733 540.114 L
794.902 539.906 L
795.065 539.698 L
795.22 539.489 L
795.369 539.28 L
795.51 539.07 L
795.644 538.86 L
795.771 538.65 L
795.891 538.439 L
796.004 538.228 L
S
GR
GS
[0.3 0 0 0.3 0 0] CT
1 LJ
1.667 LW
N
795.891 538.439 M
796.004 538.228 L
796.109 538.016 L
796.208 537.805 L
796.299 537.593 L
796.383 537.38 L
796.46 537.168 L
796.53 536.955 L
796.593 536.742 L
796.648 536.529 L
796.696 536.316 L
796.737 536.102 L
796.771 535.889 L
796.797 535.675 L
796.816 535.461 L
796.828 535.248 L
796.833 535.034 L
796.831 534.82 L
796.821 534.607 L
796.804 534.393 L
796.78 534.179 L
796.749 533.966 L
796.71 533.752 L
796.664 533.539 L
796.611 533.326 L
796.551 533.113 L
796.483 532.9 L
796.409 532.687 L
796.327 532.475 L
796.238 532.263 L
796.142 532.051 L
796.038 531.839 L
795.928 531.628 L
795.81 531.417 L
795.685 531.207 L
795.553 530.997 L
795.414 530.787 L
795.268 530.578 L
795.115 530.369 L
794.955 530.16 L
794.787 529.952 L
794.613 529.745 L
794.432 529.538 L
794.243 529.331 L
794.048 529.126 L
793.846 528.92 L
793.637 528.716 L
793.421 528.512 L
793.198 528.308 L
792.968 528.106 L
792.731 527.904 L
792.487 527.703 L
S
GR
GS
[0.3 0 0 0.3 0 0] CT
1 LJ
1.667 LW
N
792.731 527.904 M
792.487 527.703 L
792.237 527.502 L
791.98 527.302 L
791.716 527.103 L
791.445 526.905 L
791.168 526.708 L
790.884 526.511 L
790.594 526.315 L
790.296 526.12 L
789.993 525.926 L
789.682 525.733 L
789.366 525.541 L
789.042 525.35 L
788.712 525.16 L
788.376 524.97 L
788.034 524.782 L
787.685 524.595 L
787.329 524.409 L
786.968 524.224 L
786.6 524.04 L
786.226 523.857 L
785.846 523.675 L
785.46 523.494 L
785.067 523.314 L
784.669 523.136 L
784.264 522.959 L
783.854 522.783 L
783.437 522.608 L
783.015 522.435 L
782.587 522.262 L
782.153 522.091 L
781.713 521.922 L
781.268 521.753 L
780.817 521.586 L
780.36 521.42 L
779.898 521.256 L
779.43 521.093 L
778.956 520.931 L
778.478 520.771 L
777.994 520.612 L
777.504 520.455 L
777.009 520.299 L
776.509 520.145 L
776.004 519.992 L
775.493 519.84 L
774.978 519.69 L
774.457 519.542 L
773.931 519.395 L
773.401 519.25 L
772.866 519.106 L
772.325 518.964 L
S
GR
GS
[0.3 0 0 0.3 0 0] CT
1 LJ
1.667 LW
N
772.866 519.106 M
772.325 518.964 L
771.78 518.823 L
771.23 518.684 L
770.676 518.547 L
770.117 518.411 L
769.553 518.278 L
768.985 518.145 L
768.413 518.015 L
767.836 517.886 L
767.254 517.759 L
766.669 517.633 L
766.079 517.509 L
765.485 517.387 L
764.887 517.267 L
764.285 517.149 L
763.679 517.032 L
763.069 516.917 L
762.455 516.804 L
761.837 516.693 L
761.216 516.583 L
760.591 516.476 L
759.962 516.37 L
759.33 516.266 L
758.694 516.164 L
758.055 516.064 L
757.413 515.966 L
756.767 515.87 L
756.118 515.775 L
755.466 515.683 L
754.811 515.592 L
754.152 515.504 L
753.491 515.417 L
752.827 515.332 L
752.16 515.25 L
751.49 515.169 L
750.818 515.09 L
750.143 515.013 L
749.465 514.938 L
748.785 514.866 L
748.103 514.795 L
747.418 514.726 L
746.73 514.659 L
746.041 514.595 L
745.349 514.532 L
744.656 514.472 L
743.96 514.413 L
743.262 514.357 L
742.563 514.302 L
741.862 514.25 L
741.159 514.2 L
740.454 514.151 L
S
GR
GS
[0.3 0 0 0.3 0 0] CT
1 LJ
1.667 LW
N
741.159 514.2 M
740.454 514.151 L
739.748 514.105 L
739.04 514.061 L
738.33 514.019 L
737.62 513.979 L
736.908 513.942 L
736.195 513.906 L
735.48 513.873 L
734.765 513.841 L
734.048 513.812 L
733.331 513.785 L
732.612 513.76 L
731.893 513.737 L
731.173 513.716 L
730.453 513.698 L
729.732 513.681 L
729.01 513.667 L
728.288 513.654 L
727.565 513.644 L
726.842 513.636 L
726.119 513.63 L
725.396 513.627 L
724.673 513.625 L
S
GR
GS
[0.3 0 0 0.3 0 0] CT
1 LJ
1.667 LW
N
724.5 513.625 M
769.708 506.5 L
S
GR
GS
[0.3 0 0 0.3 0 0] CT
1 LJ
1.667 LW
N
724.5 513.625 M
769.708 535 L
S
GR
GS
[0.3 0 0 0.3 0 0] CT
1 0 0 RC
[1 3] 0 setdash
2 LJ
1.667 LW
N
905.333 542.125 M
905.333 328.375 L
S
GR
GS
[0.3 0 0 0.3 267.8025 130.575] CT
/Helvetica 47 F
GS
[1 0 0 1 0 0] CT
0 18.5 moveto 
1 -1 scale
(3) t 
GR
GR
GS
[0.3 0 0 0.3 0 0] CT
0 1 1 RC
N
851.083 392.5 M
814.917 364 L
814.917 506.5 L
cp
f
GR
GS
[0.3 0 0 0.3 0 0] CT
0 1 1 RC
N
851.083 392.5 M
814.917 506.5 L
851.083 506.5 L
cp
f
GR
GS
[0.3 0 0 0.3 0 0] CT
0 1 1 RC
N
959.583 392.5 M
959.583 364 L
851.083 392.5 L
cp
f
GR
GS
[0.3 0 0 0.3 0 0] CT
0 1 1 RC
N
959.583 364 M
814.917 364 L
851.083 392.5 L
cp
f
GR
GS
[0.3 0 0 0.3 0 0] CT
2 setlinecap
10.0 ML
3.333 LW
N
814.917 506.5 M
814.917 364 L
959.583 364 L
959.583 392.5 L
851.083 392.5 L
851.083 506.5 L
814.917 506.5 L
S
GR
GS
[0.3 0 0 0.3 0 0] CT
0 0 1 RC
N
851.083 478 M
851.083 506.5 L
959.583 478 L
cp
f
GR
GS
[0.3 0 0 0.3 0 0] CT
0 0 1 RC
N
959.583 364 M
959.583 478 L
995.75 364 L
cp
f
GR
GS
[0.3 0 0 0.3 0 0] CT
0 0 1 RC
N
959.583 478 M
995.75 506.5 L
995.75 364 L
cp
f
GR
GS
[0.3 0 0 0.3 0 0] CT
0 0 1 RC
N
959.583 478 M
851.083 506.5 L
995.75 506.5 L
cp
f
GR
GS
[0.3 0 0 0.3 0 0] CT
2 setlinecap
10.0 ML
3.333 LW
N
851.083 506.5 M
995.75 506.5 L
995.75 364 L
959.583 364 L
959.583 478 L
851.083 478 L
851.083 506.5 L
S
GR
GS
[0.3 0 0 0.3 0 0] CT
1 LJ
1.667 LW
N
833 535 M
833.004 535.214 L
833.014 535.427 L
833.033 535.641 L
833.058 535.855 L
833.09 536.068 L
833.13 536.282 L
833.177 536.495 L
833.231 536.708 L
833.293 536.921 L
833.361 537.134 L
833.437 537.347 L
833.52 537.559 L
833.61 537.771 L
833.708 537.983 L
833.812 538.194 L
833.924 538.405 L
834.043 538.616 L
834.169 538.827 L
834.302 539.037 L
834.442 539.247 L
834.589 539.456 L
834.743 539.665 L
834.905 539.873 L
835.073 540.081 L
835.249 540.288 L
835.431 540.495 L
835.621 540.701 L
835.817 540.907 L
836.02 541.112 L
836.231 541.317 L
836.448 541.521 L
836.672 541.724 L
836.903 541.926 L
837.141 542.128 L
837.385 542.329 L
837.637 542.53 L
837.895 542.73 L
838.16 542.928 L
838.432 543.127 L
838.71 543.324 L
838.995 543.52 L
839.286 543.716 L
839.585 543.911 L
839.89 544.104 L
840.201 544.297 L
840.519 544.489 L
840.843 544.68 L
841.174 544.871 L
841.511 545.06 L
S
GR
GS
[0.3 0 0 0.3 0 0] CT
1 LJ
1.667 LW
N
841.174 544.871 M
841.511 545.06 L
841.855 545.248 L
842.205 545.435 L
842.561 545.621 L
842.924 545.806 L
843.292 545.99 L
843.667 546.172 L
844.049 546.354 L
844.436 546.535 L
844.829 546.714 L
845.229 546.892 L
845.634 547.069 L
846.045 547.245 L
846.463 547.42 L
846.886 547.593 L
847.315 547.765 L
847.75 547.936 L
848.19 548.105 L
848.637 548.274 L
849.089 548.44 L
849.547 548.606 L
850.01 548.77 L
850.479 548.933 L
850.953 549.094 L
851.432 549.254 L
851.917 549.413 L
852.408 549.57 L
852.904 549.726 L
853.404 549.88 L
853.911 550.033 L
854.422 550.184 L
854.938 550.333 L
855.46 550.482 L
855.986 550.628 L
856.517 550.773 L
857.054 550.917 L
857.595 551.059 L
858.14 551.199 L
858.691 551.338 L
859.246 551.475 L
859.806 551.61 L
860.37 551.744 L
860.939 551.876 L
861.512 552.006 L
862.09 552.135 L
862.672 552.262 L
863.258 552.387 L
863.849 552.51 L
864.443 552.632 L
865.042 552.752 L
865.645 552.87 L
S
GR
GS
[0.3 0 0 0.3 0 0] CT
1 LJ
1.667 LW
N
865.042 552.752 M
865.645 552.87 L
866.252 552.986 L
866.862 553.101 L
867.477 553.214 L
868.095 553.325 L
868.717 553.434 L
869.342 553.541 L
869.972 553.647 L
870.604 553.75 L
871.241 553.852 L
871.88 553.952 L
872.523 554.05 L
873.169 554.146 L
873.819 554.24 L
874.472 554.332 L
875.127 554.422 L
875.786 554.51 L
876.448 554.597 L
877.112 554.681 L
877.78 554.763 L
878.45 554.844 L
879.123 554.922 L
879.798 554.999 L
880.476 555.073 L
881.157 555.146 L
881.84 555.216 L
882.525 555.285 L
883.213 555.351 L
883.902 555.415 L
884.594 555.478 L
885.288 555.538 L
885.984 555.596 L
886.682 555.652 L
887.382 555.706 L
888.084 555.758 L
888.787 555.808 L
889.492 555.856 L
890.198 555.902 L
890.906 555.946 L
891.616 555.987 L
892.327 556.027 L
893.039 556.064 L
893.753 556.099 L
894.467 556.132 L
895.183 556.163 L
895.899 556.192 L
896.617 556.219 L
897.335 556.244 L
898.055 556.267 L
898.775 556.287 L
899.495 556.305 L
S
GR
GS
[0.3 0 0 0.3 0 0] CT
1 LJ
1.667 LW
N
898.775 556.287 M
899.495 556.305 L
900.217 556.321 L
900.938 556.336 L
901.661 556.347 L
902.383 556.357 L
903.106 556.365 L
903.829 556.37 L
904.552 556.374 L
905.276 556.375 L
905.999 556.374 L
906.722 556.371 L
907.445 556.366 L
908.168 556.359 L
908.891 556.349 L
909.613 556.338 L
910.335 556.324 L
911.056 556.308 L
911.777 556.29 L
912.497 556.27 L
913.217 556.248 L
913.935 556.223 L
914.653 556.197 L
915.37 556.168 L
916.086 556.138 L
916.8 556.105 L
917.514 556.07 L
918.227 556.033 L
918.938 555.994 L
919.647 555.952 L
920.356 555.909 L
921.062 555.864 L
921.768 555.816 L
922.471 555.766 L
923.173 555.715 L
923.873 555.661 L
924.571 555.605 L
925.268 555.547 L
925.962 555.487 L
926.654 555.425 L
927.344 555.361 L
928.032 555.295 L
928.718 555.227 L
929.401 555.157 L
930.082 555.085 L
930.761 555.011 L
931.436 554.935 L
932.11 554.857 L
932.78 554.776 L
933.448 554.694 L
934.113 554.61 L
934.775 554.524 L
S
GR
GS
[0.3 0 0 0.3 0 0] CT
1 LJ
1.667 LW
N
934.113 554.61 M
934.775 554.524 L
935.435 554.436 L
936.091 554.346 L
936.744 554.254 L
937.394 554.161 L
938.041 554.065 L
938.684 553.967 L
939.324 553.868 L
939.961 553.766 L
940.595 553.663 L
941.224 553.558 L
941.851 553.451 L
942.473 553.342 L
943.092 553.232 L
943.707 553.119 L
944.318 553.005 L
944.926 552.889 L
945.529 552.771 L
946.128 552.651 L
946.724 552.53 L
947.315 552.407 L
947.902 552.282 L
948.484 552.155 L
949.063 552.027 L
949.637 551.897 L
950.206 551.765 L
950.771 551.631 L
951.332 551.496 L
951.888 551.359 L
952.439 551.221 L
952.986 551.081 L
953.527 550.939 L
954.064 550.796 L
954.596 550.651 L
955.124 550.505 L
955.646 550.357 L
956.163 550.208 L
956.675 550.057 L
957.182 549.904 L
957.684 549.75 L
958.18 549.595 L
958.672 549.438 L
959.157 549.28 L
959.638 549.12 L
960.113 548.959 L
960.583 548.796 L
961.047 548.632 L
961.505 548.467 L
961.958 548.3 L
962.405 548.132 L
962.847 547.963 L
S
GR
GS
[0.3 0 0 0.3 0 0] CT
1 LJ
1.667 LW
N
962.405 548.132 M
962.847 547.963 L
963.283 547.792 L
963.713 547.62 L
964.137 547.447 L
964.555 547.273 L
964.967 547.097 L
965.374 546.921 L
965.774 546.742 L
966.169 546.563 L
966.557 546.383 L
966.939 546.201 L
967.315 546.019 L
967.685 545.835 L
968.048 545.65 L
968.406 545.464 L
968.756 545.278 L
969.101 545.09 L
969.439 544.901 L
969.771 544.711 L
970.097 544.52 L
970.416 544.328 L
970.728 544.135 L
971.034 543.942 L
971.333 543.747 L
971.626 543.551 L
971.912 543.355 L
972.191 543.158 L
972.464 542.96 L
972.73 542.761 L
972.989 542.562 L
973.242 542.361 L
973.487 542.16 L
973.726 541.959 L
973.958 541.756 L
974.184 541.553 L
974.402 541.349 L
974.613 541.145 L
974.818 540.94 L
975.015 540.734 L
975.206 540.528 L
975.389 540.321 L
975.566 540.114 L
975.736 539.906 L
975.898 539.698 L
976.053 539.489 L
976.202 539.28 L
976.343 539.07 L
976.477 538.86 L
976.604 538.65 L
976.724 538.439 L
976.837 538.228 L
S
GR
GS
[0.3 0 0 0.3 0 0] CT
1 LJ
1.667 LW
N
976.724 538.439 M
976.837 538.228 L
976.943 538.016 L
977.041 537.805 L
977.133 537.593 L
977.217 537.38 L
977.294 537.168 L
977.364 536.955 L
977.426 536.742 L
977.481 536.529 L
977.529 536.316 L
977.57 536.102 L
977.604 535.889 L
977.631 535.675 L
977.65 535.461 L
977.662 535.248 L
977.667 535.034 L
977.664 534.82 L
977.654 534.607 L
977.637 534.393 L
977.613 534.179 L
977.582 533.966 L
977.543 533.752 L
977.497 533.539 L
977.444 533.326 L
977.384 533.113 L
977.317 532.9 L
977.242 532.687 L
977.16 532.475 L
977.071 532.263 L
976.975 532.051 L
976.872 531.839 L
976.761 531.628 L
976.643 531.417 L
976.519 531.207 L
976.387 530.997 L
976.248 530.787 L
976.102 530.578 L
975.948 530.369 L
975.788 530.16 L
975.621 529.952 L
975.446 529.745 L
975.265 529.538 L
975.077 529.331 L
974.881 529.126 L
974.679 528.92 L
974.47 528.716 L
974.254 528.512 L
974.031 528.308 L
973.801 528.106 L
973.564 527.904 L
973.321 527.703 L
S
GR
GS
[0.3 0 0 0.3 0 0] CT
1 LJ
1.667 LW
N
973.564 527.904 M
973.321 527.703 L
973.07 527.502 L
972.813 527.302 L
972.549 527.103 L
972.279 526.905 L
972.002 526.708 L
971.718 526.511 L
971.427 526.315 L
971.13 526.12 L
970.826 525.926 L
970.516 525.733 L
970.199 525.541 L
969.876 525.35 L
969.546 525.16 L
969.21 524.97 L
968.867 524.782 L
968.518 524.595 L
968.163 524.409 L
967.801 524.224 L
967.433 524.04 L
967.059 523.857 L
966.679 523.675 L
966.293 523.494 L
965.901 523.314 L
965.502 523.136 L
965.098 522.959 L
964.687 522.783 L
964.271 522.608 L
963.848 522.435 L
963.42 522.262 L
962.986 522.091 L
962.547 521.922 L
962.101 521.753 L
961.65 521.586 L
961.193 521.42 L
960.731 521.256 L
960.263 521.093 L
959.79 520.931 L
959.311 520.771 L
958.827 520.612 L
958.337 520.455 L
957.842 520.299 L
957.342 520.145 L
956.837 519.992 L
956.327 519.84 L
955.811 519.69 L
955.29 519.542 L
954.765 519.395 L
954.234 519.25 L
953.699 519.106 L
953.159 518.964 L
S
GR
GS
[0.3 0 0 0.3 0 0] CT
1 LJ
1.667 LW
N
953.699 519.106 M
953.159 518.964 L
952.614 518.823 L
952.064 518.684 L
951.509 518.547 L
950.95 518.411 L
950.387 518.278 L
949.818 518.145 L
949.246 518.015 L
948.669 517.886 L
948.088 517.759 L
947.502 517.633 L
946.912 517.509 L
946.318 517.387 L
945.72 517.267 L
945.118 517.149 L
944.512 517.032 L
943.902 516.917 L
943.288 516.804 L
942.671 516.693 L
942.049 516.583 L
941.424 516.476 L
940.796 516.37 L
940.163 516.266 L
939.528 516.164 L
938.889 516.064 L
938.246 515.966 L
937.6 515.87 L
936.951 515.775 L
936.299 515.683 L
935.644 515.592 L
934.986 515.504 L
934.325 515.417 L
933.66 515.332 L
932.993 515.25 L
932.324 515.169 L
931.651 515.09 L
930.976 515.013 L
930.299 514.938 L
929.618 514.866 L
928.936 514.795 L
928.251 514.726 L
927.564 514.659 L
926.874 514.595 L
926.183 514.532 L
925.489 514.472 L
924.793 514.413 L
924.096 514.357 L
923.396 514.302 L
922.695 514.25 L
921.992 514.2 L
921.287 514.151 L
S
GR
GS
[0.3 0 0 0.3 0 0] CT
1 LJ
1.667 LW
N
921.992 514.2 M
921.287 514.151 L
920.581 514.105 L
919.873 514.061 L
919.164 514.019 L
918.453 513.979 L
917.741 513.942 L
917.028 513.906 L
916.314 513.873 L
915.598 513.841 L
914.882 513.812 L
914.164 513.785 L
913.446 513.76 L
912.727 513.737 L
912.007 513.716 L
911.286 513.698 L
910.565 513.681 L
909.843 513.667 L
909.121 513.654 L
908.399 513.644 L
907.676 513.636 L
906.953 513.63 L
906.229 513.627 L
905.506 513.625 L
S
GR
GS
[0.3 0 0 0.3 0 0] CT
1 LJ
1.667 LW
N
905.333 513.625 M
950.542 506.5 L
S
GR
GS
[0.3 0 0 0.3 0 0] CT
1 LJ
1.667 LW
N
905.333 513.625 M
950.542 535 L
S
GR
GS
[0.3 0 0 0.3 105.0525 173.325] CT
/Helvetica 47 F
GS
[1 0 0 1 0 0] CT
0 18.5 moveto 
1 -1 scale
(5) t 
GR
GR
GS
[0.3 0 0 0.3 267.8025 87.825] CT
/Helvetica 47 F
GS
[1 0 0 1 0 0] CT
0 18.5 moveto 
1 -1 scale
(4) t 
GR
GR
%%Trailer
%%Pages: 1
%%EOF
