%!PS-Adobe-3.0 EPSF-3.0
%%Creator: (MATLAB, The Mathworks, Inc. Version 8.6.0.267246 \(R2015b\). Operating System: Windows 8)
%%Title: (C:/Users/Daniel/OneDrive - CertiCon a.s/Documents/skola/CVUT/Semester_8/Bakalarska_Praca/Bachelor thesis/Figures/BasicRRT500_3D.eps)
%%CreationDate: 2016-05-01T13:13:21
%%Pages: (atend)
%%BoundingBox: 0 0 420 315
%%LanguageLevel: 2
%%EndComments
%%BeginProlog
%%BeginResource: procset (Apache XML Graphics Std ProcSet) 1.2 0
%%Version: 1.2 0
%%Copyright: (Copyright 2001-2003,2010 The Apache Software Foundation. License terms: http://www.apache.org/licenses/LICENSE-2.0)
/bd{bind def}bind def
/ld{load def}bd
/GR/grestore ld
/M/moveto ld
/LJ/setlinejoin ld
/C/curveto ld
/f/fill ld
/LW/setlinewidth ld
/GC/setgray ld
/t/show ld
/N/newpath ld
/CT/concat ld
/cp/closepath ld
/S/stroke ld
/L/lineto ld
/CC/setcmykcolor ld
/A/ashow ld
/GS/gsave ld
/RC/setrgbcolor ld
/RM/rmoveto ld
/ML/setmiterlimit ld
/re {4 2 roll M
1 index 0 rlineto
0 exch rlineto
neg 0 rlineto
cp } bd
/_ctm matrix def
/_tm matrix def
/BT { _ctm currentmatrix pop matrix _tm copy pop 0 0 moveto } bd
/ET { _ctm setmatrix } bd
/iTm { _ctm setmatrix _tm concat } bd
/Tm { _tm astore pop iTm 0 0 moveto } bd
/ux 0.0 def
/uy 0.0 def
/F {
  /Tp exch def
  /Tf exch def
  Tf findfont Tp scalefont setfont
  /cf Tf def  /cs Tp def
} bd
/ULS {currentpoint /uy exch def /ux exch def} bd
/ULE {
  /Tcx currentpoint pop def
  gsave
  newpath
  cf findfont cs scalefont dup
  /FontMatrix get 0 get /Ts exch def /FontInfo get dup
  /UnderlinePosition get Ts mul /To exch def
  /UnderlineThickness get Ts mul /Tt exch def
  ux uy To add moveto  Tcx uy To add lineto
  Tt setlinewidth stroke
  grestore
} bd
/OLE {
  /Tcx currentpoint pop def
  gsave
  newpath
  cf findfont cs scalefont dup
  /FontMatrix get 0 get /Ts exch def /FontInfo get dup
  /UnderlinePosition get Ts mul /To exch def
  /UnderlineThickness get Ts mul /Tt exch def
  ux uy To add cs add moveto Tcx uy To add cs add lineto
  Tt setlinewidth stroke
  grestore
} bd
/SOE {
  /Tcx currentpoint pop def
  gsave
  newpath
  cf findfont cs scalefont dup
  /FontMatrix get 0 get /Ts exch def /FontInfo get dup
  /UnderlinePosition get Ts mul /To exch def
  /UnderlineThickness get Ts mul /Tt exch def
  ux uy To add cs 10 mul 26 idiv add moveto Tcx uy To add cs 10 mul 26 idiv add lineto
  Tt setlinewidth stroke
  grestore
} bd
/QT {
/Y22 exch store
/X22 exch store
/Y21 exch store
/X21 exch store
currentpoint
/Y21 load 2 mul add 3 div exch
/X21 load 2 mul add 3 div exch
/X21 load 2 mul /X22 load add 3 div
/Y21 load 2 mul /Y22 load add 3 div
/X22 load /Y22 load curveto
} bd
/SSPD {
dup length /d exch dict def
{
/v exch def
/k exch def
currentpagedevice k known {
/cpdv currentpagedevice k get def
v cpdv ne {
/upd false def
/nullv v type /nulltype eq def
/nullcpdv cpdv type /nulltype eq def
nullv nullcpdv or
{
/upd true def
} {
/sametype v type cpdv type eq def
sametype {
v type /arraytype eq {
/vlen v length def
/cpdvlen cpdv length def
vlen cpdvlen eq {
0 1 vlen 1 sub {
/i exch def
/obj v i get def
/cpdobj cpdv i get def
obj cpdobj ne {
/upd true def
exit
} if
} for
} {
/upd true def
} ifelse
} {
v type /dicttype eq {
v {
/dv exch def
/dk exch def
/cpddv cpdv dk get def
dv cpddv ne {
/upd true def
exit
} if
} forall
} {
/upd true def
} ifelse
} ifelse
} if
} ifelse
upd true eq {
d k v put
} if
} if
} if
} forall
d length 0 gt {
d setpagedevice
} if
} bd
%%EndResource
%%BeginResource: procset (Apache XML Graphics EPS ProcSet) 1.0 0
%%Version: 1.0 0
%%Copyright: (Copyright 2002-2003 The Apache Software Foundation. License terms: http://www.apache.org/licenses/LICENSE-2.0)
/BeginEPSF { %def
/b4_Inc_state save def         % Save state for cleanup
/dict_count countdictstack def % Count objects on dict stack
/op_count count 1 sub def      % Count objects on operand stack
userdict begin                 % Push userdict on dict stack
/showpage { } def              % Redefine showpage, { } = null proc
0 setgray 0 setlinecap         % Prepare graphics state
1 setlinewidth 0 setlinejoin
10 setmiterlimit [ ] 0 setdash newpath
/languagelevel where           % If level not equal to 1 then
{pop languagelevel             % set strokeadjust and
1 ne                           % overprint to their defaults.
{false setstrokeadjust false setoverprint
} if
} if
} bd
/EndEPSF { %def
count op_count sub {pop} repeat            % Clean up stacks
countdictstack dict_count sub {end} repeat
b4_Inc_state restore
} bd
%%EndResource
%FOPBeginFontDict
%%IncludeResource: font Courier-Bold
%%IncludeResource: font Helvetica
%%IncludeResource: font Courier-BoldOblique
%%IncludeResource: font Courier-Oblique
%%IncludeResource: font Times-Roman
%%IncludeResource: font Helvetica-BoldOblique
%%IncludeResource: font Helvetica-Bold
%%IncludeResource: font Helvetica-Oblique
%%IncludeResource: font Times-BoldItalic
%%IncludeResource: font Courier
%%IncludeResource: font Times-Italic
%%IncludeResource: font Times-Bold
%%IncludeResource: font Symbol
%%IncludeResource: font ZapfDingbats
%FOPEndFontDict
%%BeginResource: encoding WinAnsiEncoding
/WinAnsiEncoding [
/.notdef /.notdef /.notdef /.notdef /.notdef
/.notdef /.notdef /.notdef /.notdef /.notdef
/.notdef /.notdef /.notdef /.notdef /.notdef
/.notdef /.notdef /.notdef /.notdef /.notdef
/.notdef /.notdef /.notdef /.notdef /.notdef
/.notdef /.notdef /.notdef /.notdef /.notdef
/.notdef /.notdef /space /exclam /quotedbl
/numbersign /dollar /percent /ampersand /quotesingle
/parenleft /parenright /asterisk /plus /comma
/hyphen /period /slash /zero /one
/two /three /four /five /six
/seven /eight /nine /colon /semicolon
/less /equal /greater /question /at
/A /B /C /D /E
/F /G /H /I /J
/K /L /M /N /O
/P /Q /R /S /T
/U /V /W /X /Y
/Z /bracketleft /backslash /bracketright /asciicircum
/underscore /quoteleft /a /b /c
/d /e /f /g /h
/i /j /k /l /m
/n /o /p /q /r
/s /t /u /v /w
/x /y /z /braceleft /bar
/braceright /asciitilde /bullet /Euro /bullet
/quotesinglbase /florin /quotedblbase /ellipsis /dagger
/daggerdbl /circumflex /perthousand /Scaron /guilsinglleft
/OE /bullet /Zcaron /bullet /bullet
/quoteleft /quoteright /quotedblleft /quotedblright /bullet
/endash /emdash /asciitilde /trademark /scaron
/guilsinglright /oe /bullet /zcaron /Ydieresis
/space /exclamdown /cent /sterling /currency
/yen /brokenbar /section /dieresis /copyright
/ordfeminine /guillemotleft /logicalnot /sfthyphen /registered
/macron /degree /plusminus /twosuperior /threesuperior
/acute /mu /paragraph /middot /cedilla
/onesuperior /ordmasculine /guillemotright /onequarter /onehalf
/threequarters /questiondown /Agrave /Aacute /Acircumflex
/Atilde /Adieresis /Aring /AE /Ccedilla
/Egrave /Eacute /Ecircumflex /Edieresis /Igrave
/Iacute /Icircumflex /Idieresis /Eth /Ntilde
/Ograve /Oacute /Ocircumflex /Otilde /Odieresis
/multiply /Oslash /Ugrave /Uacute /Ucircumflex
/Udieresis /Yacute /Thorn /germandbls /agrave
/aacute /acircumflex /atilde /adieresis /aring
/ae /ccedilla /egrave /eacute /ecircumflex
/edieresis /igrave /iacute /icircumflex /idieresis
/eth /ntilde /ograve /oacute /ocircumflex
/otilde /odieresis /divide /oslash /ugrave
/uacute /ucircumflex /udieresis /yacute /thorn
/ydieresis
] def
%%EndResource
%FOPBeginFontReencode
/Courier-Bold findfont
dup length dict begin
  {1 index /FID ne {def} {pop pop} ifelse} forall
  /Encoding WinAnsiEncoding def
  currentdict
end
/Courier-Bold exch definefont pop
/Helvetica findfont
dup length dict begin
  {1 index /FID ne {def} {pop pop} ifelse} forall
  /Encoding WinAnsiEncoding def
  currentdict
end
/Helvetica exch definefont pop
/Courier-BoldOblique findfont
dup length dict begin
  {1 index /FID ne {def} {pop pop} ifelse} forall
  /Encoding WinAnsiEncoding def
  currentdict
end
/Courier-BoldOblique exch definefont pop
/Courier-Oblique findfont
dup length dict begin
  {1 index /FID ne {def} {pop pop} ifelse} forall
  /Encoding WinAnsiEncoding def
  currentdict
end
/Courier-Oblique exch definefont pop
/Times-Roman findfont
dup length dict begin
  {1 index /FID ne {def} {pop pop} ifelse} forall
  /Encoding WinAnsiEncoding def
  currentdict
end
/Times-Roman exch definefont pop
/Helvetica-BoldOblique findfont
dup length dict begin
  {1 index /FID ne {def} {pop pop} ifelse} forall
  /Encoding WinAnsiEncoding def
  currentdict
end
/Helvetica-BoldOblique exch definefont pop
/Helvetica-Bold findfont
dup length dict begin
  {1 index /FID ne {def} {pop pop} ifelse} forall
  /Encoding WinAnsiEncoding def
  currentdict
end
/Helvetica-Bold exch definefont pop
/Helvetica-Oblique findfont
dup length dict begin
  {1 index /FID ne {def} {pop pop} ifelse} forall
  /Encoding WinAnsiEncoding def
  currentdict
end
/Helvetica-Oblique exch definefont pop
/Times-BoldItalic findfont
dup length dict begin
  {1 index /FID ne {def} {pop pop} ifelse} forall
  /Encoding WinAnsiEncoding def
  currentdict
end
/Times-BoldItalic exch definefont pop
/Courier findfont
dup length dict begin
  {1 index /FID ne {def} {pop pop} ifelse} forall
  /Encoding WinAnsiEncoding def
  currentdict
end
/Courier exch definefont pop
/Times-Italic findfont
dup length dict begin
  {1 index /FID ne {def} {pop pop} ifelse} forall
  /Encoding WinAnsiEncoding def
  currentdict
end
/Times-Italic exch definefont pop
/Times-Bold findfont
dup length dict begin
  {1 index /FID ne {def} {pop pop} ifelse} forall
  /Encoding WinAnsiEncoding def
  currentdict
end
/Times-Bold exch definefont pop
%FOPEndFontReencode
%%EndProlog
%%Page: 1 1
%%PageBoundingBox: 0 0 420 315
%%BeginPageSetup
[1 0 0 -1 0 315] CT
%%EndPageSetup
GS
[0.3 0 0 0.3 0 0] CT
1 GC
N
0 0 1400 1050 re
f
GR
GS
[0.3 0 0 0.3 0 0] CT
1 GC
N
0 0 1400 1050 re
f
GR
GS
[0.3 0 0 0.3 0 0] CT
1 GC
N
145 880.016 M
710.395 934 L
1275 879.941 L
709.605 825.957 L
cp
f
GR
GS
[0.3 0 0 0.3 0 0] CT
1 GC
N
709.605 825.957 M
1275 879.941 L
1275 132.984 L
709.605 79 L
cp
f
GR
GS
[0.3 0 0 0.3 0 0] CT
1 GC
N
145 880.016 M
709.605 825.957 L
709.605 79 L
145 133.059 L
cp
f
GR
GS
[0.3 0 0 0.3 0 0] CT
0.873 GC
1 LJ
1.667 LW
N
145 880.016 M
709.605 825.957 L
S
GR
GS
[0.3 0 0 0.3 0 0] CT
0.873 GC
1 LJ
1.667 LW
N
258.079 890.813 M
822.684 836.754 L
S
GR
GS
[0.3 0 0 0.3 0 0] CT
0.873 GC
1 LJ
1.667 LW
N
371.158 901.61 M
935.763 847.55 L
S
GR
GS
[0.3 0 0 0.3 0 0] CT
0.873 GC
1 LJ
1.667 LW
N
484.237 912.406 M
1048.842 858.347 L
S
GR
GS
[0.3 0 0 0.3 0 0] CT
0.873 GC
1 LJ
1.667 LW
N
597.316 923.203 M
1161.921 869.144 L
S
GR
GS
[0.3 0 0 0.3 0 0] CT
0.873 GC
1 LJ
1.667 LW
N
710.395 934 M
1275 879.941 L
S
GR
GS
[0.3 0 0 0.3 0 0] CT
0.873 GC
1 LJ
1.667 LW
N
709.605 825.957 M
709.605 79 L
S
GR
GS
[0.3 0 0 0.3 0 0] CT
0.873 GC
1 LJ
1.667 LW
N
822.684 836.754 M
822.684 89.797 L
S
GR
GS
[0.3 0 0 0.3 0 0] CT
0.873 GC
1 LJ
1.667 LW
N
935.763 847.55 M
935.763 100.593 L
S
GR
GS
[0.3 0 0 0.3 0 0] CT
0.873 GC
1 LJ
1.667 LW
N
1048.842 858.347 M
1048.842 111.39 L
S
GR
GS
[0.3 0 0 0.3 0 0] CT
0.873 GC
1 LJ
1.667 LW
N
1161.921 869.144 M
1161.921 122.187 L
S
GR
GS
[0.3 0 0 0.3 0 0] CT
0.873 GC
1 LJ
1.667 LW
N
1275 879.941 M
1275 132.984 L
S
GR
GS
[0.3 0 0 0.3 0 0] CT
0.873 GC
1 LJ
1.667 LW
N
710.395 934 M
145 880.016 L
S
GR
GS
[0.3 0 0 0.3 0 0] CT
0.873 GC
1 LJ
1.667 LW
N
823.316 923.188 M
257.921 869.204 L
S
GR
GS
[0.3 0 0 0.3 0 0] CT
0.873 GC
1 LJ
1.667 LW
N
936.237 912.376 M
370.842 858.393 L
S
GR
GS
[0.3 0 0 0.3 0 0] CT
0.873 GC
1 LJ
1.667 LW
N
1049.158 901.564 M
483.763 847.581 L
S
GR
GS
[0.3 0 0 0.3 0 0] CT
0.873 GC
1 LJ
1.667 LW
N
1162.079 890.753 M
596.684 836.769 L
S
GR
GS
[0.3 0 0 0.3 0 0] CT
0.873 GC
1 LJ
1.667 LW
N
1275 879.941 M
709.605 825.957 L
S
GR
GS
[0.3 0 0 0.3 0 0] CT
0.873 GC
1 LJ
1.667 LW
N
145 880.016 M
145 133.059 L
S
GR
GS
[0.3 0 0 0.3 0 0] CT
0.873 GC
1 LJ
1.667 LW
N
257.921 869.204 M
257.921 122.247 L
S
GR
GS
[0.3 0 0 0.3 0 0] CT
0.873 GC
1 LJ
1.667 LW
N
370.842 858.393 M
370.842 111.436 L
S
GR
GS
[0.3 0 0 0.3 0 0] CT
0.873 GC
1 LJ
1.667 LW
N
483.763 847.581 M
483.763 100.624 L
S
GR
GS
[0.3 0 0 0.3 0 0] CT
0.873 GC
1 LJ
1.667 LW
N
596.684 836.769 M
596.684 89.812 L
S
GR
GS
[0.3 0 0 0.3 0 0] CT
0.873 GC
1 LJ
1.667 LW
N
709.605 825.957 M
709.605 79 L
S
GR
GS
[0.3 0 0 0.3 0 0] CT
0.873 GC
1 LJ
1.667 LW
N
1275 879.941 M
709.605 825.957 L
S
GR
GS
[0.3 0 0 0.3 0 0] CT
0.873 GC
1 LJ
1.667 LW
N
1275 730.549 M
709.605 676.566 L
S
GR
GS
[0.3 0 0 0.3 0 0] CT
0.873 GC
1 LJ
1.667 LW
N
1275 581.158 M
709.605 527.174 L
S
GR
GS
[0.3 0 0 0.3 0 0] CT
0.873 GC
1 LJ
1.667 LW
N
1275 431.767 M
709.605 377.783 L
S
GR
GS
[0.3 0 0 0.3 0 0] CT
0.873 GC
1 LJ
1.667 LW
N
1275 282.375 M
709.605 228.391 L
S
GR
GS
[0.3 0 0 0.3 0 0] CT
0.873 GC
1 LJ
1.667 LW
N
1275 132.984 M
709.605 79 L
S
GR
GS
[0.3 0 0 0.3 0 0] CT
0.873 GC
1 LJ
1.667 LW
N
709.605 825.957 M
145 880.016 L
S
GR
GS
[0.3 0 0 0.3 0 0] CT
0.873 GC
1 LJ
1.667 LW
N
709.605 676.566 M
145 730.625 L
S
GR
GS
[0.3 0 0 0.3 0 0] CT
0.873 GC
1 LJ
1.667 LW
N
709.605 527.174 M
145 581.233 L
S
GR
GS
[0.3 0 0 0.3 0 0] CT
0.873 GC
1 LJ
1.667 LW
N
709.605 377.783 M
145 431.842 L
S
GR
GS
[0.3 0 0 0.3 0 0] CT
0.873 GC
1 LJ
1.667 LW
N
709.605 228.391 M
145 282.451 L
S
GR
GS
[0.3 0 0 0.3 0 0] CT
0.873 GC
1 LJ
1.667 LW
N
709.605 79 M
145 133.059 L
S
GR
GS
[0.3 0 0 0.3 0 0] CT
1 0 0 RC
1 LJ
1.667 LW
N
754.868 722.554 M
726.575 716.613 L
S
GR
GS
[0.3 0 0 0.3 0 0] CT
1 0 0 RC
1 LJ
1.667 LW
N
732.26 579.553 M
754.837 583.78 L
S
GR
GS
[0.3 0 0 0.3 0 0] CT
1 0 0 RC
1 LJ
1.667 LW
N
754.837 583.78 M
766.145 569.92 L
S
GR
GS
[0.3 0 0 0.3 0 0] CT
1 0 0 RC
1 LJ
1.667 LW
N
602.338 725.265 M
636.206 818.046 L
S
GR
GS
[0.3 0 0 0.3 0 0] CT
1 0 0 RC
1 LJ
1.667 LW
N
692.714 378.418 M
732.221 335.125 L
S
GR
GS
[0.3 0 0 0.3 0 0] CT
1 0 0 RC
1 LJ
1.667 LW
N
737.985 806.434 M
754.868 722.554 L
S
GR
GS
[0.3 0 0 0.3 0 0] CT
1 0 0 RC
1 LJ
1.667 LW
N
732.26 579.553 M
777.468 588.1 L
S
GR
GS
[0.3 0 0 0.3 0 0] CT
1 0 0 RC
1 LJ
1.667 LW
N
811.392 591.339 M
732.26 579.553 L
S
GR
GS
[0.3 0 0 0.3 0 0] CT
1 0 0 RC
1 LJ
1.667 LW
N
783.209 212.107 M
743.545 211.383 L
S
GR
GS
[0.3 0 0 0.3 0 0] CT
1 0 0 RC
1 LJ
1.667 LW
N
562.816 699.171 M
602.338 725.265 L
S
GR
GS
[0.3 0 0 0.3 0 0] CT
1 0 0 RC
1 LJ
1.667 LW
N
777.61 465.626 M
692.714 378.418 L
S
GR
GS
[0.3 0 0 0.3 0 0] CT
1 0 0 RC
1 LJ
1.667 LW
N
692.714 378.418 M
641.916 325.687 L
S
GR
GS
[0.3 0 0 0.3 0 0] CT
1 0 0 RC
1 LJ
1.667 LW
N
811.392 591.339 M
811.4 487.846 L
S
GR
GS
[0.3 0 0 0.3 0 0] CT
1 0 0 RC
1 LJ
1.667 LW
N
687.132 536.993 M
811.392 591.339 L
S
GR
GS
[0.3 0 0 0.3 0 0] CT
1 0 0 RC
1 LJ
1.667 LW
N
822.755 726.964 M
856.608 675.662 L
S
GR
GS
[0.3 0 0 0.3 0 0] CT
1 0 0 RC
1 LJ
1.667 LW
N
608.024 349.179 M
607.984 343.776 L
S
GR
GS
[0.3 0 0 0.3 0 0] CT
1 0 0 RC
1 LJ
1.667 LW
N
641.916 325.687 M
658.83 283.476 L
S
GR
GS
[0.3 0 0 0.3 0 0] CT
1 0 0 RC
1 LJ
1.667 LW
N
545.925 617.641 M
562.816 699.171 L
S
GR
GS
[0.3 0 0 0.3 0 0] CT
1 0 0 RC
1 LJ
1.667 LW
N
811.4 487.846 M
867.916 542.29 L
S
GR
GS
[0.3 0 0 0.3 0 0] CT
1 0 0 RC
1 LJ
1.667 LW
N
737.985 806.434 M
715.378 827.764 L
S
GR
GS
[0.3 0 0 0.3 0 0] CT
1 0 0 RC
1 LJ
1.667 LW
N
715.378 827.764 M
715.378 812.825 L
S
GR
GS
[0.3 0 0 0.3 0 0] CT
1 0 0 RC
1 LJ
1.667 LW
N
715.378 827.764 M
743.647 845.402 L
S
GR
GS
[0.3 0 0 0.3 0 0] CT
1 0 0 RC
1 LJ
1.667 LW
N
822.755 726.964 M
850.978 753.059 L
S
GR
GS
[0.3 0 0 0.3 0 0] CT
1 0 0 RC
1 LJ
1.667 LW
N
737.985 806.434 M
749.325 804.366 L
S
GR
GS
[0.3 0 0 0.3 0 0] CT
1 0 0 RC
1 LJ
1.667 LW
N
551.658 778.376 M
737.985 806.434 L
S
GR
GS
[0.3 0 0 0.3 0 0] CT
1 0 0 RC
1 LJ
1.667 LW
N
737.985 806.434 M
822.755 726.964 L
S
GR
GS
[0.3 0 0 0.3 0 0] CT
1 0 0 RC
1 LJ
1.667 LW
N
867.916 542.29 M
856.655 555.162 L
S
GR
GS
[0.3 0 0 0.3 0 0] CT
1 0 0 RC
1 LJ
1.667 LW
N
653.224 580.732 M
687.132 536.993 L
S
GR
GS
[0.3 0 0 0.3 0 0] CT
1 0 0 RC
1 LJ
1.667 LW
N
653.224 580.732 M
698.439 672.525 L
S
GR
GS
[0.3 0 0 0.3 0 0] CT
1 0 0 RC
1 LJ
1.667 LW
N
534.593 568.502 M
653.224 580.732 L
S
GR
GS
[0.3 0 0 0.3 0 0] CT
1 0 0 RC
1 LJ
1.667 LW
N
698.439 672.525 M
738.017 609.078 L
S
GR
GS
[0.3 0 0 0.3 0 0] CT
1 0 0 RC
1 LJ
1.667 LW
N
641.916 325.687 M
636.278 319.839 L
S
GR
GS
[0.3 0 0 0.3 0 0] CT
1 0 0 RC
1 LJ
1.667 LW
N
641.916 325.687 M
613.717 235.607 L
S
GR
GS
[0.3 0 0 0.3 0 0] CT
1 0 0 RC
1 LJ
1.667 LW
N
641.916 325.687 M
608.024 349.179 L
S
GR
GS
[0.3 0 0 0.3 0 0] CT
1 0 0 RC
1 LJ
1.667 LW
N
534.593 568.502 M
545.925 617.641 L
S
GR
GS
[0.3 0 0 0.3 0 0] CT
1 0 0 RC
1 LJ
1.667 LW
N
534.593 568.502 M
387.836 617.838 L
S
GR
GS
[0.3 0 0 0.3 0 0] CT
1 0 0 RC
1 LJ
1.667 LW
N
777.61 465.626 M
534.593 568.502 L
S
GR
GS
[0.3 0 0 0.3 0 0] CT
1 0 0 RC
1 LJ
1.667 LW
N
472.471 759.027 M
495.071 759.026 L
S
GR
GS
[0.3 0 0 0.3 0 0] CT
1 0 0 RC
1 LJ
1.667 LW
N
461.195 844.434 M
472.471 759.027 L
S
GR
GS
[0.3 0 0 0.3 0 0] CT
1 0 0 RC
1 LJ
1.667 LW
N
738.017 609.078 M
715.441 597.381 L
S
GR
GS
[0.3 0 0 0.3 0 0] CT
1 0 0 RC
1 LJ
1.667 LW
N
551.531 118.706 M
506.379 132.661 L
S
GR
GS
[0.3 0 0 0.3 0 0] CT
1 0 0 RC
1 LJ
1.667 LW
N
574.266 114.663 M
551.531 118.706 L
S
GR
GS
[0.3 0 0 0.3 0 0] CT
1 0 0 RC
1 LJ
1.667 LW
N
777.61 465.626 M
738.009 451.136 L
S
GR
GS
[0.3 0 0 0.3 0 0] CT
1 0 0 RC
1 LJ
1.667 LW
N
545.925 617.641 M
540.287 626.731 L
S
GR
GS
[0.3 0 0 0.3 0 0] CT
1 0 0 RC
1 LJ
1.667 LW
N
545.925 617.641 M
574.211 600.092 L
S
GR
GS
[0.3 0 0 0.3 0 0] CT
1 0 0 RC
1 LJ
1.667 LW
N
557.209 406.331 M
545.933 476.799 L
S
GR
GS
[0.3 0 0 0.3 0 0] CT
1 0 0 RC
1 LJ
1.667 LW
N
466.825 333.802 M
557.209 406.331 L
S
GR
GS
[0.3 0 0 0.3 0 0] CT
1 0 0 RC
1 LJ
1.667 LW
N
749.317 272.946 M
732.347 232.898 L
S
GR
GS
[0.3 0 0 0.3 0 0] CT
1 0 0 RC
1 LJ
1.667 LW
N
551.658 778.376 M
461.195 844.434 L
S
GR
GS
[0.3 0 0 0.3 0 0] CT
1 0 0 RC
1 LJ
1.667 LW
N
738.072 721.215 M
743.687 716.352 L
S
GR
GS
[0.3 0 0 0.3 0 0] CT
1 0 0 RC
1 LJ
1.667 LW
N
783.209 212.107 M
856.647 135.786 L
S
GR
GS
[0.3 0 0 0.3 0 0] CT
1 0 0 RC
1 LJ
1.667 LW
N
856.647 135.786 M
918.817 220.648 L
S
GR
GS
[0.3 0 0 0.3 0 0] CT
1 0 0 RC
1 LJ
1.667 LW
N
517.734 655.624 M
500.741 694.5 L
S
GR
GS
[0.3 0 0 0.3 0 0] CT
1 0 0 RC
1 LJ
1.667 LW
N
466.825 333.802 M
500.717 347.659 L
S
GR
GS
[0.3 0 0 0.3 0 0] CT
1 0 0 RC
1 LJ
1.667 LW
N
783.209 212.107 M
749.317 272.946 L
S
GR
GS
[0.3 0 0 0.3 0 0] CT
1 0 0 RC
1 LJ
1.667 LW
N
913.25 142.358 M
783.209 212.107 L
S
GR
GS
[0.3 0 0 0.3 0 0] CT
1 0 0 RC
1 LJ
1.667 LW
N
783.209 212.107 M
754.995 216.971 L
S
GR
GS
[0.3 0 0 0.3 0 0] CT
1 0 0 RC
1 LJ
1.667 LW
N
749.317 272.946 M
788.879 356.73 L
S
GR
GS
[0.3 0 0 0.3 0 0] CT
1 0 0 RC
1 LJ
1.667 LW
N
545.933 476.799 M
523.357 472.572 L
S
GR
GS
[0.3 0 0 0.3 0 0] CT
1 0 0 RC
1 LJ
1.667 LW
N
613.717 235.607 M
579.833 185.484 L
S
GR
GS
[0.3 0 0 0.3 0 0] CT
1 0 0 RC
1 LJ
1.667 LW
N
613.717 235.607 M
574.187 268.189 L
S
GR
GS
[0.3 0 0 0.3 0 0] CT
1 0 0 RC
1 LJ
1.667 LW
N
399.08 251.735 M
466.825 333.802 L
S
GR
GS
[0.3 0 0 0.3 0 0] CT
1 0 0 RC
1 LJ
1.667 LW
N
918.817 220.648 M
924.503 188.162 L
S
GR
GS
[0.3 0 0 0.3 0 0] CT
1 0 0 RC
1 LJ
1.667 LW
N
732.426 811.39 M
738.072 721.215 L
S
GR
GS
[0.3 0 0 0.3 0 0] CT
1 0 0 RC
1 LJ
1.667 LW
N
749.428 803.473 M
732.426 811.39 L
S
GR
GS
[0.3 0 0 0.3 0 0] CT
1 0 0 RC
1 LJ
1.667 LW
N
574.211 600.092 M
630.742 514.775 L
S
GR
GS
[0.3 0 0 0.3 0 0] CT
1 0 0 RC
1 LJ
1.667 LW
N
574.211 600.092 M
562.95 620.434 L
S
GR
GS
[0.3 0 0 0.3 0 0] CT
1 0 0 RC
1 LJ
1.667 LW
N
777.61 465.626 M
794.557 532.311 L
S
GR
GS
[0.3 0 0 0.3 0 0] CT
1 0 0 RC
1 LJ
1.667 LW
N
574.187 268.189 M
642.026 348.283 L
S
GR
GS
[0.3 0 0 0.3 0 0] CT
1 0 0 RC
1 LJ
1.667 LW
N
574.187 268.189 M
613.78 259.19 L
S
GR
GS
[0.3 0 0 0.3 0 0] CT
1 0 0 RC
1 LJ
1.667 LW
N
512.064 615.575 M
500.788 559.061 L
S
GR
GS
[0.3 0 0 0.3 0 0] CT
1 0 0 RC
1 LJ
1.667 LW
N
517.734 655.624 M
512.064 615.575 L
S
GR
GS
[0.3 0 0 0.3 0 0] CT
1 0 0 RC
1 LJ
1.667 LW
N
506.379 132.661 M
461.203 120.966 L
S
GR
GS
[0.3 0 0 0.3 0 0] CT
1 0 0 RC
1 LJ
1.667 LW
N
579.935 692.521 M
602.472 698.815 L
S
GR
GS
[0.3 0 0 0.3 0 0] CT
1 0 0 RC
1 LJ
1.667 LW
N
777.595 239.378 M
777.587 223.358 L
S
GR
GS
[0.3 0 0 0.3 0 0] CT
1 0 0 RC
1 LJ
1.667 LW
N
777.61 465.626 M
834.166 473.185 L
S
GR
GS
[0.3 0 0 0.3 0 0] CT
1 0 0 RC
1 LJ
1.667 LW
N
777.61 465.626 M
964.12 555.882 L
S
GR
GS
[0.3 0 0 0.3 0 0] CT
1 0 0 RC
1 LJ
1.667 LW
N
710 506.5 M
777.61 465.626 L
S
GR
GS
[0.3 0 0 0.3 0 0] CT
1 0 0 RC
1 LJ
1.667 LW
N
754.995 216.971 M
777.595 239.378 L
S
GR
GS
[0.3 0 0 0.3 0 0] CT
1 0 0 RC
1 LJ
1.667 LW
N
828.567 539.965 M
811.526 617.176 L
S
GR
GS
[0.3 0 0 0.3 0 0] CT
1 0 0 RC
1 LJ
1.667 LW
N
811.526 617.176 M
766.374 638.601 L
S
GR
GS
[0.3 0 0 0.3 0 0] CT
1 0 0 RC
1 LJ
1.667 LW
N
947.15 650.286 M
918.88 655.057 L
S
GR
GS
[0.3 0 0 0.3 0 0] CT
1 0 0 RC
1 LJ
1.667 LW
N
952.772 116.165 M
952.741 104.374 L
S
GR
GS
[0.3 0 0 0.3 0 0] CT
1 0 0 RC
1 LJ
1.667 LW
N
755.034 155.147 M
732.395 157.216 L
S
GR
GS
[0.3 0 0 0.3 0 0] CT
1 0 0 RC
1 LJ
1.667 LW
N
868.074 847.742 M
868.042 776.194 L
S
GR
GS
[0.3 0 0 0.3 0 0] CT
1 0 0 RC
1 LJ
1.667 LW
N
868.042 776.194 M
918.92 794.911 L
S
GR
GS
[0.3 0 0 0.3 0 0] CT
1 0 0 RC
1 LJ
1.667 LW
N
964.12 555.882 M
958.426 564.879 L
S
GR
GS
[0.3 0 0 0.3 0 0] CT
1 0 0 RC
1 LJ
1.667 LW
N
370.85 612.977 M
427.326 564.915 L
S
GR
GS
[0.3 0 0 0.3 0 0] CT
1 0 0 RC
1 LJ
1.667 LW
N
579.935 692.521 M
517.734 655.624 L
S
GR
GS
[0.3 0 0 0.3 0 0] CT
1 0 0 RC
1 LJ
1.667 LW
N
636.396 791.689 M
642.082 759.203 L
S
GR
GS
[0.3 0 0 0.3 0 0] CT
1 0 0 RC
1 LJ
1.667 LW
N
551.658 778.376 M
636.396 791.689 L
S
GR
GS
[0.3 0 0 0.3 0 0] CT
1 0 0 RC
1 LJ
1.667 LW
N
1048.866 779.423 M
1020.596 731.907 L
S
GR
GS
[0.3 0 0 0.3 0 0] CT
1 0 0 RC
1 LJ
1.667 LW
N
461.203 120.966 M
427.342 111.432 L
S
GR
GS
[0.3 0 0 0.3 0 0] CT
1 0 0 RC
1 LJ
1.667 LW
N
958.513 285.451 M
930.172 377.602 L
S
GR
GS
[0.3 0 0 0.3 0 0] CT
1 0 0 RC
1 LJ
1.667 LW
N
930.172 377.602 M
1003.626 370.667 L
S
GR
GS
[0.3 0 0 0.3 0 0] CT
1 0 0 RC
1 LJ
1.667 LW
N
721.15 254.414 M
698.518 272.503 L
S
GR
GS
[0.3 0 0 0.3 0 0] CT
1 0 0 RC
1 LJ
1.667 LW
N
1003.626 370.667 M
998.004 389.388 L
S
GR
GS
[0.3 0 0 0.3 0 0] CT
1 0 0 RC
1 LJ
1.667 LW
N
551.658 778.376 M
534.743 835.526 L
S
GR
GS
[0.3 0 0 0.3 0 0] CT
1 0 0 RC
1 LJ
1.667 LW
N
387.836 617.838 M
551.658 778.376 L
S
GR
GS
[0.3 0 0 0.3 0 0] CT
1 0 0 RC
1 LJ
1.667 LW
N
551.658 778.376 M
579.935 692.521 L
S
GR
GS
[0.3 0 0 0.3 0 0] CT
1 0 0 RC
1 LJ
1.667 LW
N
387.875 757.692 M
404.758 770.916 L
S
GR
GS
[0.3 0 0 0.3 0 0] CT
1 0 0 RC
1 LJ
1.667 LW
N
404.758 770.916 M
359.582 766.691 L
S
GR
GS
[0.3 0 0 0.3 0 0] CT
1 0 0 RC
1 LJ
1.667 LW
N
981.105 672.786 M
947.15 650.286 L
S
GR
GS
[0.3 0 0 0.3 0 0] CT
1 0 0 RC
1 LJ
1.667 LW
N
947.15 650.286 M
901.966 637.511 L
S
GR
GS
[0.3 0 0 0.3 0 0] CT
1 0 0 RC
1 LJ
1.667 LW
N
630.742 514.775 M
596.866 547.897 L
S
GR
GS
[0.3 0 0 0.3 0 0] CT
1 0 0 RC
1 LJ
1.667 LW
N
630.742 514.775 M
642.074 496.687 L
S
GR
GS
[0.3 0 0 0.3 0 0] CT
1 0 0 RC
1 LJ
1.667 LW
N
387.836 617.838 M
370.85 612.977 L
S
GR
GS
[0.3 0 0 0.3 0 0] CT
1 0 0 RC
1 LJ
1.667 LW
N
370.85 612.977 M
382.15 568.159 L
S
GR
GS
[0.3 0 0 0.3 0 0] CT
1 0 0 RC
1 LJ
1.667 LW
N
1077.12 787.431 M
1048.866 779.423 L
S
GR
GS
[0.3 0 0 0.3 0 0] CT
1 0 0 RC
1 LJ
1.667 LW
N
749.428 803.473 M
868.074 847.742 L
S
GR
GS
[0.3 0 0 0.3 0 0] CT
1 0 0 RC
1 LJ
1.667 LW
N
1043.259 860.062 M
1077.12 787.431 L
S
GR
GS
[0.3 0 0 0.3 0 0] CT
1 0 0 RC
1 LJ
1.667 LW
N
749.428 803.473 M
788.974 832.808 L
S
GR
GS
[0.3 0 0 0.3 0 0] CT
1 0 0 RC
1 LJ
1.667 LW
N
613.78 259.19 M
591.22 272.063 L
S
GR
GS
[0.3 0 0 0.3 0 0] CT
1 0 0 RC
1 LJ
1.667 LW
N
399.08 251.735 M
399.08 221.857 L
S
GR
GS
[0.3 0 0 0.3 0 0] CT
1 0 0 RC
1 LJ
1.667 LW
N
461.329 227.888 M
399.08 251.735 L
S
GR
GS
[0.3 0 0 0.3 0 0] CT
1 0 0 RC
1 LJ
1.667 LW
N
399.08 251.735 M
399.128 288.096 L
S
GR
GS
[0.3 0 0 0.3 0 0] CT
1 0 0 RC
1 LJ
1.667 LW
N
913.25 142.358 M
952.772 116.165 L
S
GR
GS
[0.3 0 0 0.3 0 0] CT
1 0 0 RC
1 LJ
1.667 LW
N
353.935 647.719 M
393.466 689.832 L
S
GR
GS
[0.3 0 0 0.3 0 0] CT
1 0 0 RC
1 LJ
1.667 LW
N
574.266 114.663 M
630.726 139.136 L
S
GR
GS
[0.3 0 0 0.3 0 0] CT
1 0 0 RC
1 LJ
1.667 LW
N
749.428 803.473 M
709.905 710.152 L
S
GR
GS
[0.3 0 0 0.3 0 0] CT
1 0 0 RC
1 LJ
1.667 LW
N
856.853 761.443 M
749.428 803.473 L
S
GR
GS
[0.3 0 0 0.3 0 0] CT
1 0 0 RC
1 LJ
1.667 LW
N
325.713 472.232 M
427.358 494.541 L
S
GR
GS
[0.3 0 0 0.3 0 0] CT
1 0 0 RC
1 LJ
1.667 LW
N
800.25 142.366 M
755.034 155.147 L
S
GR
GS
[0.3 0 0 0.3 0 0] CT
1 0 0 RC
1 LJ
1.667 LW
N
964.12 555.882 M
1065.875 548.499 L
S
GR
GS
[0.3 0 0 0.3 0 0] CT
1 0 0 RC
1 LJ
1.667 LW
N
964.12 555.882 M
885.075 555.981 L
S
GR
GS
[0.3 0 0 0.3 0 0] CT
1 0 0 RC
1 LJ
1.667 LW
N
964.12 555.882 M
981.105 672.786 L
S
GR
GS
[0.3 0 0 0.3 0 0] CT
1 0 0 RC
1 LJ
1.667 LW
N
907.628 273.123 M
885.004 322.17 L
S
GR
GS
[0.3 0 0 0.3 0 0] CT
1 0 0 RC
1 LJ
1.667 LW
N
534.743 835.526 M
563.045 790.26 L
S
GR
GS
[0.3 0 0 0.3 0 0] CT
1 0 0 RC
1 LJ
1.667 LW
N
772.02 219.764 M
721.15 254.414 L
S
GR
GS
[0.3 0 0 0.3 0 0] CT
1 0 0 RC
1 LJ
1.667 LW
N
579.935 692.521 M
500.859 725.646 L
S
GR
GS
[0.3 0 0 0.3 0 0] CT
1 0 0 RC
1 LJ
1.667 LW
N
772.02 219.764 M
834.15 209.589 L
S
GR
GS
[0.3 0 0 0.3 0 0] CT
1 0 0 RC
1 LJ
1.667 LW
N
834.15 209.589 M
873.728 228.307 L
S
GR
GS
[0.3 0 0 0.3 0 0] CT
1 0 0 RC
1 LJ
1.667 LW
N
353.935 647.719 M
291.813 651.504 L
S
GR
GS
[0.3 0 0 0.3 0 0] CT
1 0 0 RC
1 LJ
1.667 LW
N
387.836 617.838 M
353.935 647.719 L
S
GR
GS
[0.3 0 0 0.3 0 0] CT
1 0 0 RC
1 LJ
1.667 LW
N
387.836 617.838 M
455.722 592.37 L
S
GR
GS
[0.3 0 0 0.3 0 0] CT
1 0 0 RC
1 LJ
1.667 LW
N
387.836 617.838 M
325.713 472.232 L
S
GR
GS
[0.3 0 0 0.3 0 0] CT
1 0 0 RC
1 LJ
1.667 LW
N
574.266 114.663 M
913.25 142.358 L
S
GR
GS
[0.3 0 0 0.3 0 0] CT
1 0 0 RC
1 LJ
1.667 LW
N
913.25 142.358 M
958.513 285.451 L
S
GR
GS
[0.3 0 0 0.3 0 0] CT
1 0 0 RC
1 LJ
1.667 LW
N
772.02 219.764 M
800.25 142.366 L
S
GR
GS
[0.3 0 0 0.3 0 0] CT
1 0 0 RC
1 LJ
1.667 LW
N
325.713 472.232 M
348.274 422.011 L
S
GR
GS
[0.3 0 0 0.3 0 0] CT
1 0 0 RC
1 LJ
1.667 LW
N
958.545 782.764 M
975.451 769.351 L
S
GR
GS
[0.3 0 0 0.3 0 0] CT
1 0 0 RC
1 LJ
1.667 LW
N
1043.259 860.062 M
1020.691 782.22 L
S
GR
GS
[0.3 0 0 0.3 0 0] CT
1 0 0 RC
1 LJ
1.667 LW
N
1043.259 860.062 M
1054.567 831.263 L
S
GR
GS
[0.3 0 0 0.3 0 0] CT
1 0 0 RC
1 LJ
1.667 LW
N
1088.641 840.091 M
1043.259 860.062 L
S
GR
GS
[0.3 0 0 0.3 0 0] CT
1 0 0 RC
1 LJ
1.667 LW
N
574.266 114.663 M
557.304 113.044 L
S
GR
GS
[0.3 0 0 0.3 0 0] CT
1 0 0 RC
1 LJ
1.667 LW
N
709.905 710.152 M
676.084 691.081 L
S
GR
GS
[0.3 0 0 0.3 0 0] CT
1 0 0 RC
1 LJ
1.667 LW
N
709.905 710.152 M
749.475 675.503 L
S
GR
GS
[0.3 0 0 0.3 0 0] CT
1 0 0 RC
1 LJ
1.667 LW
N
907.628 273.123 M
772.02 219.764 L
S
GR
GS
[0.3 0 0 0.3 0 0] CT
1 0 0 RC
1 LJ
1.667 LW
N
772.02 219.764 M
789.005 321.729 L
S
GR
GS
[0.3 0 0 0.3 0 0] CT
1 0 0 RC
1 LJ
1.667 LW
N
500.828 325.437 M
466.951 328.68 L
S
GR
GS
[0.3 0 0 0.3 0 0] CT
1 0 0 RC
1 LJ
1.667 LW
N
399.128 288.096 M
500.828 325.437 L
S
GR
GS
[0.3 0 0 0.3 0 0] CT
1 0 0 RC
1 LJ
1.667 LW
N
1065.851 194.188 M
1071.466 159.447 L
S
GR
GS
[0.3 0 0 0.3 0 0] CT
1 0 0 RC
1 LJ
1.667 LW
N
981.105 672.786 M
1026.321 712.292 L
S
GR
GS
[0.3 0 0 0.3 0 0] CT
1 0 0 RC
1 LJ
1.667 LW
N
647.767 808.882 M
647.767 816.351 L
S
GR
GS
[0.3 0 0 0.3 0 0] CT
1 0 0 RC
1 LJ
1.667 LW
N
563.045 790.26 M
647.767 808.882 L
S
GR
GS
[0.3 0 0 0.3 0 0] CT
1 0 0 RC
1 LJ
1.667 LW
N
399.128 288.096 M
376.535 207.012 L
S
GR
GS
[0.3 0 0 0.3 0 0] CT
1 0 0 RC
1 LJ
1.667 LW
N
958.513 285.451 M
907.628 273.123 L
S
GR
GS
[0.3 0 0 0.3 0 0] CT
1 0 0 RC
1 LJ
1.667 LW
N
1144.991 707.516 M
1111.059 688.257 L
S
GR
GS
[0.3 0 0 0.3 0 0] CT
1 0 0 RC
1 LJ
1.667 LW
N
574.266 114.663 M
461.329 227.888 L
S
GR
GS
[0.3 0 0 0.3 0 0] CT
1 0 0 RC
1 LJ
1.667 LW
N
710 506.5 M
574.266 114.663 L
S
GR
GS
[0.3 0 0 0.3 0 0] CT
1 0 0 RC
1 LJ
1.667 LW
N
568.635 169.652 M
642.113 158.489 L
S
GR
GS
[0.3 0 0 0.3 0 0] CT
1 0 0 RC
1 LJ
1.667 LW
N
574.266 114.663 M
636.562 261.63 L
S
GR
GS
[0.3 0 0 0.3 0 0] CT
1 0 0 RC
1 LJ
1.667 LW
N
574.266 114.663 M
563.013 121.147 L
S
GR
GS
[0.3 0 0 0.3 0 0] CT
1 0 0 RC
1 LJ
1.667 LW
N
574.266 114.663 M
568.635 169.652 L
S
GR
GS
[0.3 0 0 0.3 0 0] CT
1 0 0 RC
1 LJ
1.667 LW
N
1071.482 318.469 M
1037.589 319.552 L
S
GR
GS
[0.3 0 0 0.3 0 0] CT
1 0 0 RC
1 LJ
1.667 LW
N
1071.482 318.469 M
1060.189 289.672 L
S
GR
GS
[0.3 0 0 0.3 0 0] CT
1 0 0 RC
1 LJ
1.667 LW
N
958.513 285.451 M
1071.482 318.469 L
S
GR
GS
[0.3 0 0 0.3 0 0] CT
1 0 0 RC
1 LJ
1.667 LW
N
291.813 651.504 M
269.213 636.567 L
S
GR
GS
[0.3 0 0 0.3 0 0] CT
1 0 0 RC
1 LJ
1.667 LW
N
291.813 651.504 M
342.699 678.771 L
S
GR
GS
[0.3 0 0 0.3 0 0] CT
1 0 0 RC
1 LJ
1.667 LW
N
416.208 761.565 M
387.875 757.692 L
S
GR
GS
[0.3 0 0 0.3 0 0] CT
1 0 0 RC
1 LJ
1.667 LW
N
969.805 411.352 M
890.705 381.479 L
S
GR
GS
[0.3 0 0 0.3 0 0] CT
1 0 0 RC
1 LJ
1.667 LW
N
992.421 338.816 M
969.805 411.352 L
S
GR
GS
[0.3 0 0 0.3 0 0] CT
1 0 0 RC
1 LJ
1.667 LW
N
885.075 555.981 M
828.567 539.965 L
S
GR
GS
[0.3 0 0 0.3 0 0] CT
1 0 0 RC
1 LJ
1.667 LW
N
828.567 539.965 M
834.268 546.987 L
S
GR
GS
[0.3 0 0 0.3 0 0] CT
1 0 0 RC
1 LJ
1.667 LW
N
828.567 539.965 M
868.168 464.82 L
S
GR
GS
[0.3 0 0 0.3 0 0] CT
1 0 0 RC
1 LJ
1.667 LW
N
890.705 381.479 M
907.683 407.668 L
S
GR
GS
[0.3 0 0 0.3 0 0] CT
1 0 0 RC
1 LJ
1.667 LW
N
325.713 472.232 M
320.099 432.277 L
S
GR
GS
[0.3 0 0 0.3 0 0] CT
1 0 0 RC
1 LJ
1.667 LW
N
563.045 790.26 M
478.291 819.604 L
S
GR
GS
[0.3 0 0 0.3 0 0] CT
1 0 0 RC
1 LJ
1.667 LW
N
630.868 524.592 M
636.475 608.284 L
S
GR
GS
[0.3 0 0 0.3 0 0] CT
1 0 0 RC
1 LJ
1.667 LW
N
789.005 321.729 M
743.813 382.569 L
S
GR
GS
[0.3 0 0 0.3 0 0] CT
1 0 0 RC
1 LJ
1.667 LW
N
1020.691 782.22 M
986.807 851.609 L
S
GR
GS
[0.3 0 0 0.3 0 0] CT
1 0 0 RC
1 LJ
1.667 LW
N
1020.691 782.22 M
958.545 782.764 L
S
GR
GS
[0.3 0 0 0.3 0 0] CT
1 0 0 RC
1 LJ
1.667 LW
N
613.867 412.997 M
647.759 359.627 L
S
GR
GS
[0.3 0 0 0.3 0 0] CT
1 0 0 RC
1 LJ
1.667 LW
N
885.075 555.981 M
913.337 587.478 L
S
GR
GS
[0.3 0 0 0.3 0 0] CT
1 0 0 RC
1 LJ
1.667 LW
N
885.075 555.981 M
998.209 365.193 L
S
GR
GS
[0.3 0 0 0.3 0 0] CT
1 0 0 RC
1 LJ
1.667 LW
N
613.867 412.997 M
579.967 450.347 L
S
GR
GS
[0.3 0 0 0.3 0 0] CT
1 0 0 RC
1 LJ
1.667 LW
N
1065.875 548.499 M
1133.683 489.818 L
S
GR
GS
[0.3 0 0 0.3 0 0] CT
1 0 0 RC
1 LJ
1.667 LW
N
1065.875 548.499 M
1060.253 582.159 L
S
GR
GS
[0.3 0 0 0.3 0 0] CT
1 0 0 RC
1 LJ
1.667 LW
N
1065.875 548.499 M
1133.73 578.466 L
S
GR
GS
[0.3 0 0 0.3 0 0] CT
1 0 0 RC
1 LJ
1.667 LW
N
563.045 790.26 M
416.208 761.565 L
S
GR
GS
[0.3 0 0 0.3 0 0] CT
1 0 0 RC
1 LJ
1.667 LW
N
647.83 369.351 M
613.867 412.997 L
S
GR
GS
[0.3 0 0 0.3 0 0] CT
1 0 0 RC
1 LJ
1.667 LW
N
630.868 524.592 M
715.575 511.175 L
S
GR
GS
[0.3 0 0 0.3 0 0] CT
1 0 0 RC
1 LJ
1.667 LW
N
975.475 197.435 M
1065.851 194.188 L
S
GR
GS
[0.3 0 0 0.3 0 0] CT
1 0 0 RC
1 LJ
1.667 LW
N
1065.851 194.188 M
1139.305 202.193 L
S
GR
GS
[0.3 0 0 0.3 0 0] CT
1 0 0 RC
1 LJ
1.667 LW
N
1190.262 776.993 M
1144.991 707.516 L
S
GR
GS
[0.3 0 0 0.3 0 0] CT
1 0 0 RC
1 LJ
1.667 LW
N
1144.991 707.516 M
1139.368 703.828 L
S
GR
GS
[0.3 0 0 0.3 0 0] CT
1 0 0 RC
1 LJ
1.667 LW
N
1139.305 202.193 M
1167.591 207.053 L
S
GR
GS
[0.3 0 0 0.3 0 0] CT
1 0 0 RC
1 LJ
1.667 LW
N
952.899 260.435 M
958.505 187.266 L
S
GR
GS
[0.3 0 0 0.3 0 0] CT
1 0 0 RC
1 LJ
1.667 LW
N
958.505 187.266 M
975.475 197.435 L
S
GR
GS
[0.3 0 0 0.3 0 0] CT
1 0 0 RC
1 LJ
1.667 LW
N
958.513 285.451 M
952.899 260.435 L
S
GR
GS
[0.3 0 0 0.3 0 0] CT
1 0 0 RC
1 LJ
1.667 LW
N
958.513 285.451 M
992.421 338.816 L
S
GR
GS
[0.3 0 0 0.3 0 0] CT
1 0 0 RC
1 LJ
1.667 LW
N
1094.161 403.968 M
1088.475 406.576 L
S
GR
GS
[0.3 0 0 0.3 0 0] CT
1 0 0 RC
1 LJ
1.667 LW
N
856.853 761.443 M
766.453 768.918 L
S
GR
GS
[0.3 0 0 0.3 0 0] CT
1 0 0 RC
1 LJ
1.667 LW
N
811.787 705.117 M
856.853 761.443 L
S
GR
GS
[0.3 0 0 0.3 0 0] CT
1 0 0 RC
1 LJ
1.667 LW
N
856.853 761.443 M
919.007 724.631 L
S
GR
GS
[0.3 0 0 0.3 0 0] CT
1 0 0 RC
1 LJ
1.667 LW
N
992.421 338.816 M
1094.161 403.968 L
S
GR
GS
[0.3 0 0 0.3 0 0] CT
1 0 0 RC
1 LJ
1.667 LW
N
1190.262 776.993 M
1212.807 761.959 L
S
GR
GS
[0.3 0 0 0.3 0 0] CT
1 0 0 RC
1 LJ
1.667 LW
N
919.007 724.631 M
913.353 694.213 L
S
GR
GS
[0.3 0 0 0.3 0 0] CT
1 0 0 RC
1 LJ
1.667 LW
N
868.168 464.82 M
896.391 498.384 L
S
GR
GS
[0.3 0 0 0.3 0 0] CT
1 0 0 RC
1 LJ
1.667 LW
N
602.575 264.686 M
681.714 352.249 L
S
GR
GS
[0.3 0 0 0.3 0 0] CT
1 0 0 RC
1 LJ
1.667 LW
N
636.562 261.63 M
602.575 264.686 L
S
GR
GS
[0.3 0 0 0.3 0 0] CT
1 0 0 RC
1 LJ
1.667 LW
N
952.899 260.435 M
896.375 257.197 L
S
GR
GS
[0.3 0 0 0.3 0 0] CT
1 0 0 RC
1 LJ
1.667 LW
N
822.976 876.73 M
885.122 876.185 L
S
GR
GS
[0.3 0 0 0.3 0 0] CT
1 0 0 RC
1 LJ
1.667 LW
N
461.329 227.888 M
483.921 196.928 L
S
GR
GS
[0.3 0 0 0.3 0 0] CT
1 0 0 RC
1 LJ
1.667 LW
N
676.084 691.081 M
681.714 725.727 L
S
GR
GS
[0.3 0 0 0.3 0 0] CT
1 0 0 RC
1 LJ
1.667 LW
N
975.475 197.435 M
1015.053 163.866 L
S
GR
GS
[0.3 0 0 0.3 0 0] CT
1 0 0 RC
1 LJ
1.667 LW
N
755.224 845.869 M
822.976 876.73 L
S
GR
GS
[0.3 0 0 0.3 33.94129 263.09222] CT
0.149 GC
/Helvetica 33 F
GS
[1 0 0 1 0 0] CT
-19 13 moveto 
1 -1 scale
(0) t 
GR
GR
GS
[0.3 0 0 0.3 0 0] CT
1 0 0 RC
1 LJ
1.667 LW
N
461.329 227.888 M
495.237 251.375 L
S
GR
GS
[0.3 0 0 0.3 0 0] CT
1 0 0 RC
1 LJ
1.667 LW
N
461.329 227.888 M
461.337 169.212 L
S
GR
GS
[0.3 0 0 0.3 0 0] CT
1 0 0 RC
1 LJ
1.667 LW
N
461.329 227.888 M
342.754 141.056 L
S
GR
GS
[0.3 0 0 0.3 0 0] CT
1 0 0 RC
1 LJ
1.667 LW
N
483.976 675.074 M
557.414 665.979 L
S
GR
GS
[0.3 0 0 0.3 0 0] CT
1 0 0 RC
1 LJ
1.667 LW
N
320.099 432.277 M
184.53 414.199 L
S
GR
GS
[0.3 0 0 0.3 0 0] CT
1 0 0 RC
1 LJ
1.667 LW
N
393.584 325.091 M
353.991 266.864 L
S
GR
GS
[0.3 0 0 0.3 0 0] CT
0.149 GC
1 LJ
1.667 LW
N
145 880.016 M
126.411 878.241 L
S
GR
GS
[0.3 0 0 0.3 0 0] CT
1 0 0 RC
1 LJ
1.667 LW
N
472.692 378.453 M
483.953 402.928 L
S
GR
GS
[0.3 0 0 0.3 33.94129 218.27479] CT
0.149 GC
/Helvetica 33 F
GS
[1 0 0 1 0 0] CT
-37 13 moveto 
1 -1 scale
(20) t 
GR
GR
GS
[0.3 0 0 0.3 0 0] CT
1 0 0 RC
1 LJ
1.667 LW
N
512.27 725.832 M
483.976 675.074 L
S
GR
GS
[0.3 0 0 0.3 0 0] CT
1 0 0 RC
1 LJ
1.667 LW
N
834.268 546.987 M
811.692 557.7 L
S
GR
GS
[0.3 0 0 0.3 0 0] CT
1 0 0 RC
1 LJ
1.667 LW
N
710 506.5 M
630.868 524.592 L
S
GR
GS
[0.3 0 0 0.3 0 0] CT
1 0 0 RC
1 LJ
1.667 LW
N
952.899 260.435 M
986.822 315.961 L
S
GR
GS
[0.3 0 0 0.3 0 0] CT
1 0 0 RC
1 LJ
1.667 LW
N
952.899 260.435 M
828.614 262.604 L
S
GR
GS
[0.3 0 0 0.3 0 0] CT
1 0 0 RC
1 LJ
1.667 LW
N
1094.161 403.968 M
1094.2 409.37 L
S
GR
GS
[0.3 0 0 0.3 382.5 273.5844] CT
0.149 GC
/Helvetica 33 F
GS
[1 0 0 1 0 0] CT
0 34 moveto 
1 -1 scale
(100) t 
GR
GR
GS
[0.3 0 0 0.3 43.5 273.60705] CT
0.149 GC
/Helvetica 33 F
GS
[1 0 0 1 0 0] CT
-19 34 moveto 
1 -1 scale
(0) t 
GR
GR
GS
[0.3 0 0 0.3 0 0] CT
0.149 GC
1 LJ
1.667 LW
N
1275 879.941 M
1275 898.615 L
S
GR
GS
[0.3 0 0 0.3 0 0] CT
1 0 0 RC
1 LJ
1.667 LW
N
676.084 691.081 M
721.308 701.789 L
S
GR
GS
[0.3 0 0 0.3 0 0] CT
1 0 0 RC
1 LJ
1.667 LW
N
1150.684 205.527 M
1184.553 268.429 L
S
GR
GS
[0.3 0 0 0.3 0 0] CT
0.149 GC
1 setlinecap
1 LJ
1.667 LW
N
145 730.625 M
126.411 728.85 L
S
GR
GS
[0.3 0 0 0.3 0 0] CT
0.149 GC
2 setlinecap
1 LJ
1.667 LW
N
145 880.016 M
145 898.69 L
S
GR
GS
[0.3 0 0 0.3 0 0] CT
0.149 GC
2 setlinecap
1 LJ
1.667 LW
N
710.395 934 M
1275 879.941 L
S
GR
GS
[0.3 0 0 0.3 0 0] CT
1 0 0 RC
2 setlinecap
1 LJ
1.667 LW
N
868.168 464.82 M
811.732 473.467 L
S
GR
GS
[0.3 0 0 0.3 0 0] CT
0.149 GC
2 setlinecap
1 LJ
1.667 LW
N
145 880.016 M
145 133.059 L
S
GR
GS
[0.3 0 0 0.3 0 0] CT
0.149 GC
1 setlinecap
1 LJ
1.667 LW
N
371.158 901.61 M
371.158 920.284 L
S
GR
GS
[0.3 0 0 0.3 0 0] CT
0.149 GC
2 setlinecap
1 LJ
1.667 LW
N
145 880.016 M
710.395 934 L
S
GR
GS
[0.3 0 0 0.3 0 0] CT
1 0 0 RC
2 setlinecap
1 LJ
1.667 LW
N
975.578 577.49 M
1020.73 608.352 L
S
GR
GS
[0.3 0 0 0.3 33.94129 173.45737] CT
0.149 GC
/Helvetica 33 F
GS
[1 0 0 1 0 0] CT
-37 13 moveto 
1 -1 scale
(40) t 
GR
GR
GS
[0.3 0 0 0.3 0 0] CT
1 0 0 RC
2 setlinecap
1 LJ
1.667 LW
N
212.776 555.579 M
235.392 632.434 L
S
GR
GS
[0.3 0 0 0.3 0 0] CT
1 0 0 RC
2 setlinecap
1 LJ
1.667 LW
N
269.339 541.81 M
212.776 555.579 L
S
GR
GS
[0.3 0 0 0.3 0 0] CT
1 0 0 RC
2 setlinecap
1 LJ
1.667 LW
N
568.786 750.398 M
591.346 789.811 L
S
GR
GS
[0.3 0 0 0.3 0 0] CT
1 0 0 RC
2 setlinecap
1 LJ
1.667 LW
N
681.714 352.249 M
709.968 420.013 L
S
GR
GS
[0.3 0 0 0.3 0 0] CT
1 0 0 RC
2 setlinecap
1 LJ
1.667 LW
N
709.968 420.013 M
755.176 465.908 L
S
GR
GS
[0.3 0 0 0.3 0 0] CT
1 0 0 RC
2 setlinecap
1 LJ
1.667 LW
N
681.714 352.249 M
693.062 343.791 L
S
GR
GS
[0.3 0 0 0.3 0 0] CT
1 0 0 RC
2 setlinecap
1 LJ
1.667 LW
N
681.714 352.249 M
647.83 369.351 L
S
GR
GS
[0.3 0 0 0.3 0 0] CT
1 0 0 RC
2 setlinecap
1 LJ
1.667 LW
N
529.255 484.197 M
506.576 458.455 L
S
GR
GS
[0.3 0 0 0.3 0 0] CT
1 0 0 RC
2 setlinecap
1 LJ
1.667 LW
N
506.576 458.455 M
472.692 378.453 L
S
GR
GS
[0.3 0 0 0.3 0 0] CT
1 0 0 RC
2 setlinecap
1 LJ
1.667 LW
N
506.576 458.455 M
489.646 528.383 L
S
GR
GS
[0.3 0 0 0.3 0 0] CT
0.149 GC
1 setlinecap
1 LJ
1.667 LW
N
145 581.233 M
126.411 579.459 L
S
GR
GS
[0.3 0 0 0.3 0 0] CT
1 0 0 RC
1 LJ
1.667 LW
N
693.03 227.426 M
681.714 255.144 L
S
GR
GS
[0.3 0 0 0.3 33.94129 128.63995] CT
0.149 GC
/Helvetica 33 F
GS
[1 0 0 1 0 0] CT
-37 13 moveto 
1 -1 scale
(60) t 
GR
GR
GS
[0.3 0 0 0.3 0 0] CT
1 0 0 RC
1 LJ
1.667 LW
N
952.978 614.839 M
913.392 595.041 L
S
GR
GS
[0.3 0 0 0.3 0 0] CT
1 0 0 RC
1 LJ
1.667 LW
N
416.208 761.565 M
512.27 725.832 L
S
GR
GS
[0.3 0 0 0.3 0 0] CT
1 0 0 RC
1 LJ
1.667 LW
N
416.208 761.565 M
252.417 844.375 L
S
GR
GS
[0.3 0 0 0.3 0 0] CT
1 0 0 RC
1 LJ
1.667 LW
N
1184.624 517.179 M
1224.138 467.497 L
S
GR
GS
[0.3 0 0 0.3 0 0] CT
1 0 0 RC
1 LJ
1.667 LW
N
1190.262 776.993 M
1156.37 748.198 L
S
GR
GS
[0.3 0 0 0.3 0 0] CT
1 0 0 RC
1 LJ
1.667 LW
N
1088.641 840.091 M
1190.262 776.993 L
S
GR
GS
[0.3 0 0 0.3 0 0] CT
1 0 0 RC
1 LJ
1.667 LW
N
1190.262 776.993 M
1178.978 831.442 L
S
GR
GS
[0.3 0 0 0.3 0 0] CT
1 0 0 RC
1 LJ
1.667 LW
N
664.847 856.586 M
693.07 860.272 L
S
GR
GS
[0.3 0 0 0.3 0 0] CT
0.149 GC
1 setlinecap
1 LJ
1.667 LW
N
145 431.842 M
126.411 430.067 L
S
GR
GS
[0.3 0 0 0.3 33.94129 83.82253] CT
0.149 GC
/Helvetica 33 F
GS
[1 0 0 1 0 0] CT
-37 13 moveto 
1 -1 scale
(80) t 
GR
GR
GS
[0.3 0 0 0.3 0 0] CT
1 0 0 RC
1 LJ
1.667 LW
N
755.224 845.869 M
732.647 856.581 L
S
GR
GS
[0.3 0 0 0.3 0 0] CT
1 0 0 RC
1 LJ
1.667 LW
N
727.017 829.404 M
755.224 845.869 L
S
GR
GS
[0.3 0 0 0.3 0 0] CT
1 0 0 RC
1 LJ
1.667 LW
N
693.03 227.426 M
698.676 219.416 L
S
GR
GS
[0.3 0 0 0.3 0 0] CT
1 0 0 RC
1 LJ
1.667 LW
N
371.039 325.186 M
393.584 325.091 L
S
GR
GS
[0.3 0 0 0.3 0 0] CT
0 1 0 RC
1 setlinecap
1 LJ
1.667 LW
N
704.265 498.682 M
701.49 502.161 L
S
GR
GS
[0.3 0 0 0.3 0 0] CT
0 1 0 RC
1 setlinecap
1 LJ
1.667 LW
N
701.49 502.161 M
700.5 506.5 L
S
GR
GS
[0.3 0 0 0.3 0 0] CT
0 1 0 RC
1 setlinecap
1 LJ
1.667 LW
N
719.51 502.161 M
716.735 498.682 L
S
GR
GS
[0.3 0 0 0.3 0 0] CT
0 1 0 RC
1 setlinecap
1 LJ
1.667 LW
N
716.735 498.682 M
712.725 496.751 L
S
GR
GS
[0.3 0 0 0.3 0 0] CT
0 1 0 RC
1 setlinecap
1 LJ
1.667 LW
N
700.5 506.5 M
701.49 510.839 L
S
GR
GS
[0.3 0 0 0.3 0 0] CT
0 1 0 RC
1 setlinecap
1 LJ
1.667 LW
N
708.275 496.751 M
704.265 498.682 L
S
GR
GS
[0.3 0 0 0.3 0 0] CT
0 1 0 RC
1 setlinecap
1 LJ
1.667 LW
N
701.49 510.839 M
704.265 514.318 L
S
GR
GS
[0.3 0 0 0.3 0 0] CT
0 1 0 RC
1 setlinecap
1 LJ
1.667 LW
N
704.265 514.318 M
708.275 516.249 L
S
GR
GS
[0.3 0 0 0.3 0 0] CT
0 1 0 RC
1 setlinecap
1 LJ
1.667 LW
N
708.275 516.249 M
712.725 516.249 L
S
GR
GS
[0.3 0 0 0.3 0 0] CT
0 1 0 RC
1 setlinecap
1 LJ
1.667 LW
N
712.725 516.249 M
716.735 514.318 L
S
GR
GS
[0.3 0 0 0.3 0 0] CT
0 1 0 RC
1 setlinecap
1 LJ
1.667 LW
N
716.735 514.318 M
719.51 510.839 L
S
GR
GS
[0.3 0 0 0.3 0 0] CT
1 0 0 RC
1 LJ
1.667 LW
N
710 506.5 M
653.547 423.352 L
S
GR
GS
[0.3 0 0 0.3 0 0] CT
0 1 0 RC
1 LJ
1.667 LW
N
719.51 510.839 M
720.5 506.5 L
S
GR
GS
[0.3 0 0 0.3 0 0] CT
1 0 0 RC
1 LJ
1.667 LW
N
710 506.5 M
727.017 829.404 L
S
GR
GS
[0.3 0 0 0.3 0 0] CT
0 1 0 RC
1 setlinecap
1 LJ
1.667 LW
N
712.725 496.751 M
708.275 496.751 L
S
GR
GS
[0.3 0 0 0.3 0 0] CT
1 0 0 RC
1 LJ
1.667 LW
N
710 506.5 M
687.487 540.795 L
S
GR
GS
[0.3 0 0 0.3 0 0] CT
0 1 0 RC
1 LJ
1.667 LW
N
720.5 506.5 M
719.51 502.161 L
S
GR
GS
[0.3 0 0 0.3 0 0] CT
1 0 0 RC
1 LJ
1.667 LW
N
1156.37 748.198 M
1111.17 763.14 L
S
GR
GS
[0 -0.3 0.3 0 14.09782 151.96122] CT
0.149 GC
/Helvetica 37 F
GS
[1 0 0 1 0 0] CT
-9.5 -9 moveto 
1 -1 scale
(z) t 
GR
GR
GS
[0.3 0 0 0.3 0 0] CT
1 0 0 RC
1 LJ
1.667 LW
N
1156.37 748.198 M
1128.14 728.492 L
S
GR
GS
[0.3 0 0 0.3 0 0] CT
1 0 0 RC
1 LJ
1.667 LW
N
636.562 261.63 M
693.03 227.426 L
S
GR
GS
[0.3 0 0 0.3 0 0] CT
1 0 0 RC
1 LJ
1.667 LW
N
472.692 378.453 M
371.039 325.186 L
S
GR
GS
[0.3 0 0 0.3 0 0] CT
1 0 0 RC
1 LJ
1.667 LW
N
472.692 378.453 M
467.062 425.972 L
S
GR
GS
[0.3 0 0 0.3 0 0] CT
1 0 0 RC
1 LJ
1.667 LW
N
1178.978 831.442 M
1145.078 838.914 L
S
GR
GS
[0.3 0 0 0.3 0 0] CT
1 0 0 RC
1 LJ
1.667 LW
N
1156.33 190.047 M
1195.876 152.156 L
S
GR
GS
[0.3 0 0 0.3 0 0] CT
1 0 0 RC
1 LJ
1.667 LW
N
512.27 725.832 M
568.786 750.398 L
S
GR
GS
[0.3 0 0 0.3 0 0] CT
1 0 0 RC
1 LJ
1.667 LW
N
1150.684 205.527 M
1156.33 190.047 L
S
GR
GS
[0.3 0 0 0.3 0 0] CT
0.149 GC
1 setlinecap
1 LJ
1.667 LW
N
145 282.451 M
126.411 280.676 L
S
GR
GS
[0.3 0 0 0.3 33.94129 39.00511] CT
0.149 GC
/Helvetica 33 F
GS
[1 0 0 1 0 0] CT
-56 13 moveto 
1 -1 scale
(100) t 
GR
GR
GS
[0.3 0 0 0.3 0 0] CT
1 0 0 RC
1 LJ
1.667 LW
N
1133.754 170.881 M
1150.684 205.527 L
S
GR
GS
[0.3 0 0 0.3 0 0] CT
1 0 0 RC
1 LJ
1.667 LW
N
693.062 343.791 M
698.692 311.212 L
S
GR
GS
[0.3 0 0 0.3 0 0] CT
1 0 0 RC
1 LJ
1.667 LW
N
178.916 254.731 M
252.338 243.475 L
S
GR
GS
[0.3 0 0 0.3 0 0] CT
1 0 0 RC
1 LJ
1.667 LW
N
438.855 663.473 M
416.224 696.5 L
S
GR
GS
[0.3 0 0 0.3 0 0] CT
1 0 0 RC
1 LJ
1.667 LW
N
840.009 701.334 M
839.978 734.36 L
S
GR
GS
[0.3 0 0 0.3 0 0] CT
1 0 0 RC
1 LJ
1.667 LW
N
1190.278 532.658 M
1162.016 568.387 L
S
GR
GS
[0.3 0 0 0.3 0 0] CT
1 0 0 RC
1 LJ
1.667 LW
N
1162.016 568.387 M
1133.801 565.781 L
S
GR
GS
[0.3 0 0 0.3 0 0] CT
1 0 0 RC
1 LJ
1.667 LW
N
919.086 810.131 M
936.047 886.446 L
S
GR
GS
[0.3 0 0 0.3 0 0] CT
1 0 0 RC
1 LJ
1.667 LW
N
907.825 733.368 M
919.086 810.131 L
S
GR
GS
[0.3 0 0 0.3 0 0] CT
1 0 0 RC
1 LJ
1.667 LW
N
811.732 473.467 M
839.962 463.295 L
S
GR
GS
[0.3 0 0 0.3 0 0] CT
0.149 GC
1 LJ
1.667 LW
N
145 133.059 M
126.411 131.284 L
S
GR
GS
[0.3 0 0 0.3 0 0] CT
1 0 0 RC
1 LJ
1.667 LW
N
178.916 254.731 M
156.292 176.795 L
S
GR
GS
[0.3 0 0 0.3 0 0] CT
1 0 0 RC
1 LJ
1.667 LW
N
591.37 531.618 M
619.616 486.258 L
S
GR
GS
[0.3 0 0 0.3 0 0] CT
1 0 0 RC
1 LJ
1.667 LW
N
625.301 565.815 M
591.37 531.618 L
S
GR
GS
[0.3 0 0 0.3 0 0] CT
1 0 0 RC
1 LJ
1.667 LW
N
467.062 425.972 M
444.517 448.475 L
S
GR
GS
[0.3 0 0 0.3 0 0] CT
1 0 0 RC
1 LJ
1.667 LW
N
975.578 577.49 M
952.978 614.839 L
S
GR
GS
[0.3 0 0 0.3 0 0] CT
1 0 0 RC
1 LJ
1.667 LW
N
952.978 614.839 M
964.309 619.16 L
S
GR
GS
[0.3 0 0 0.3 0 0] CT
1 0 0 RC
1 LJ
1.667 LW
N
664.847 856.586 M
676.155 865.135 L
S
GR
GS
[0.3 0 0 0.3 0 0] CT
1 0 0 RC
1 LJ
1.667 LW
N
664.847 856.586 M
602.733 861.452 L
S
GR
GS
[0.3 0 0 0.3 0 0] CT
1 0 0 RC
1 LJ
1.667 LW
N
727.017 829.404 M
664.847 856.586 L
S
GR
GS
[0.3 0 0 0.3 0 0] CT
1 0 0 RC
1 LJ
1.667 LW
N
975.578 577.49 M
981.232 518.273 L
S
GR
GS
[0.3 0 0 0.3 0 0] CT
1 0 0 RC
1 LJ
1.667 LW
N
1071.671 598.365 M
975.578 577.49 L
S
GR
GS
[0.3 0 0 0.3 0 0] CT
1 0 0 RC
1 LJ
1.667 LW
N
1071.671 598.365 M
1184.624 517.179 L
S
GR
GS
[0.3 0 0 0.3 0 0] CT
1 0 0 RC
1 LJ
1.667 LW
N
1184.624 517.179 M
1190.278 532.658 L
S
GR
GS
[0.3 0 0 0.3 0 0] CT
1 0 0 RC
1 LJ
1.667 LW
N
585.708 208.806 M
506.6 207.731 L
S
GR
GS
[0.3 0 0 0.3 0 0] CT
1 0 0 RC
1 LJ
1.667 LW
N
303.247 453.253 M
337.116 411.581 L
S
GR
GS
[0.3 0 0 0.3 0 0] CT
1 0 0 RC
1 LJ
1.667 LW
N
337.132 607.951 M
269.339 541.81 L
S
GR
GS
[0.3 0 0 0.3 0 0] CT
1 0 0 RC
1 LJ
1.667 LW
N
314.579 651.783 M
337.132 607.951 L
S
GR
GS
[0.3 0 0 0.3 0 0] CT
1 0 0 RC
1 LJ
1.667 LW
N
337.132 607.951 M
303.247 453.253 L
S
GR
GS
[0.3 0 0 0.3 0 0] CT
1 0 0 RC
1 LJ
1.667 LW
N
337.132 607.951 M
297.601 603.185 L
S
GR
GS
[0.3 0 0 0.3 0 0] CT
1 0 0 RC
1 LJ
1.667 LW
N
337.132 607.951 M
438.855 663.473 L
S
GR
GS
[0.3 0 0 0.3 0 0] CT
1 0 0 RC
1 LJ
1.667 LW
N
1037.747 154.421 M
1133.754 170.881 L
S
GR
GS
[0.3 0 0 0.3 0 0] CT
1 0 0 RC
1 LJ
1.667 LW
N
597.032 234.455 M
602.709 297.993 L
S
GR
GS
[0.3 0 0 0.3 0 0] CT
1 0 0 RC
1 LJ
1.667 LW
N
495.395 153.471 M
501.08 210.619 L
S
GR
GS
[0.3 0 0 0.3 0 0] CT
1 0 0 RC
1 LJ
1.667 LW
N
501.08 210.619 M
484.126 172.732 L
S
GR
GS
[0.3 0 0 0.3 0 0] CT
1 0 0 RC
1 LJ
1.667 LW
N
636.562 261.63 M
450.305 161.13 L
S
GR
GS
[0.3 0 0 0.3 0 0] CT
1 0 0 RC
1 LJ
1.667 LW
N
636.562 261.63 M
585.708 208.806 L
S
GR
GS
[0.3 0 0 0.3 0 0] CT
1 0 0 RC
1 LJ
1.667 LW
N
636.562 261.63 M
800.455 304.909 L
S
GR
GS
[0.3 0 0 0.3 0 0] CT
1 0 0 RC
1 LJ
1.667 LW
N
653.547 423.352 M
698.779 345.505 L
S
GR
GS
[0.3 0 0 0.3 0 0] CT
1 0 0 RC
1 LJ
1.667 LW
N
636.562 261.63 M
755.54 425.973 L
S
GR
GS
[0.3 0 0 0.3 0 0] CT
1 0 0 RC
1 LJ
1.667 LW
N
585.708 208.806 M
636.593 153.908 L
S
GR
GS
[0.3 0 0 0.3 0 0] CT
1 0 0 RC
1 LJ
1.667 LW
N
585.708 208.806 M
597.032 234.455 L
S
GR
GS
[0.3 0 0 0.3 0 0] CT
1 0 0 RC
1 LJ
1.667 LW
N
981.232 518.273 M
953.065 514.68 L
S
GR
GS
[0.3 0 0 0.3 0 0] CT
1 0 0 RC
1 LJ
1.667 LW
N
981.232 518.273 M
1049.047 520.43 L
S
GR
GS
[0.3 0 0 0.3 0 0] CT
1 0 0 RC
1 LJ
1.667 LW
N
252.417 844.375 M
348.455 835.279 L
S
GR
GS
[0.3 0 0 0.3 0 0] CT
1 0 0 RC
1 LJ
1.667 LW
N
342.754 141.056 M
269.371 142.775 L
S
GR
GS
[0.3 0 0 0.3 0 0] CT
1 0 0 RC
1 LJ
1.667 LW
N
840.009 701.334 M
800.455 775.492 L
S
GR
GS
[0.3 0 0 0.3 0 0] CT
1 0 0 RC
1 LJ
1.667 LW
N
269.371 142.775 M
178.916 254.731 L
S
GR
GS
[0.3 0 0 0.3 0 0] CT
1 0 0 RC
1 LJ
1.667 LW
N
1049.047 520.43 M
1049.039 556.697 L
S
GR
GS
[0.3 0 0 0.3 0 0] CT
1 0 0 RC
1 LJ
1.667 LW
N
269.339 541.81 M
308.893 557.287 L
S
GR
GS
[0.3 0 0 0.3 0 0] CT
1 0 0 RC
1 LJ
1.667 LW
N
269.339 541.81 M
258.079 569.622 L
S
GR
GS
[0.3 0 0 0.3 0 0] CT
1 0 0 RC
1 LJ
1.667 LW
N
998.233 801.669 M
1020.809 761.078 L
S
GR
GS
[0.3 0 0 0.3 0 0] CT
1 0 0 RC
1 LJ
1.667 LW
N
1020.809 761.078 M
1003.879 741.372 L
S
GR
GS
[0.3 0 0 0.3 0 0] CT
1 0 0 RC
1 LJ
1.667 LW
N
1150.755 633.547 M
1111.201 655.418 L
S
GR
GS
[0.3 0 0 0.3 0 0] CT
1 0 0 RC
1 LJ
1.667 LW
N
727.017 829.404 M
676.226 867.389 L
S
GR
GS
[0.3 0 0 0.3 0 0] CT
1 0 0 RC
1 LJ
1.667 LW
N
727.017 829.404 M
885.257 752.631 L
S
GR
GS
[0.3 0 0 0.3 0 0] CT
1 0 0 RC
1 LJ
1.667 LW
N
1037.747 154.421 M
969.916 135.165 L
S
GR
GS
[0.3 0 0 0.3 0 0] CT
1 0 0 RC
1 LJ
1.667 LW
N
840.009 701.334 M
834.371 605.85 L
S
GR
GS
[0.3 0 0 0.3 0 0] CT
1 0 0 RC
1 LJ
1.667 LW
N
811.787 705.117 M
840.009 701.334 L
S
GR
GS
[0.3 0 0 0.3 0 0] CT
1 0 0 RC
1 LJ
1.667 LW
N
1071.671 598.365 M
1150.755 633.547 L
S
GR
GS
[0.3 0 0 0.3 0 0] CT
1 0 0 RC
1 LJ
1.667 LW
N
687.487 540.795 M
625.301 565.815 L
S
GR
GS
[0.3 0 0 0.3 348.62369 276.82797] CT
0.149 GC
/Helvetica 33 F
GS
[1 0 0 1 0 0] CT
0 34 moveto 
1 -1 scale
(80) t 
GR
GR
GS
[0.3 0 0 0.3 77.42369 276.84608] CT
0.149 GC
/Helvetica 33 F
GS
[1 0 0 1 0 0] CT
-37 34 moveto 
1 -1 scale
(20) t 
GR
GR
GS
[0.3 0 0 0.3 0 0] CT
0.149 GC
1 setlinecap
1 LJ
1.667 LW
N
1162.079 890.753 M
1162.079 909.427 L
S
GR
GS
[0.3 0 0 0.3 0 0] CT
0.149 GC
1 setlinecap
1 LJ
1.667 LW
N
258.079 890.813 M
258.079 909.487 L
S
GR
GS
[0.3 0 0 0.3 0 0] CT
1 0 0 RC
1 LJ
1.667 LW
N
998.233 801.669 M
1020.825 837.935 L
S
GR
GS
[0.3 0 0 0.3 0 0] CT
1 0 0 RC
1 LJ
1.667 LW
N
303.247 453.253 M
359.779 457.571 L
S
GR
GS
[0.3 0 0 0.3 0 0] CT
1 0 0 RC
1 LJ
1.667 LW
N
998.233 801.669 M
1009.525 793.118 L
S
GR
GS
[0.3 0 0 0.3 0 0] CT
1 0 0 RC
1 LJ
1.667 LW
N
653.547 423.352 M
647.925 464.481 L
S
GR
GS
[0.3 0 0 0.3 0 0] CT
1 0 0 RC
1 LJ
1.667 LW
N
653.547 423.352 M
529.255 484.197 L
S
GR
GS
[0.3 0 0 0.3 0 0] CT
1 0 0 RC
1 LJ
1.667 LW
N
529.255 484.197 M
534.901 401.491 L
S
GR
GS
[0.3 0 0 0.3 0 0] CT
1 0 0 RC
1 LJ
1.667 LW
N
529.255 484.197 M
314.579 651.783 L
S
GR
GS
[0.3 0 0 0.3 0 0] CT
1 0 0 RC
1 LJ
1.667 LW
N
529.255 484.197 M
472.763 515.159 L
S
GR
GS
[0.3 0 0 0.3 0 0] CT
1 0 0 RC
1 LJ
1.667 LW
N
529.255 484.197 M
450.226 516.335 L
S
GR
GS
[0.3 0 0 0.3 0 0] CT
1 0 0 RC
1 LJ
1.667 LW
N
998.209 365.193 M
924.747 371.046 L
S
GR
GS
[0.3 0 0 0.3 0 0] CT
1 0 0 RC
1 LJ
1.667 LW
N
885.257 752.631 M
907.825 733.368 L
S
GR
GS
[0.3 0 0 0.3 0 0] CT
1 0 0 RC
1 LJ
1.667 LW
N
1122.493 310.736 M
1122.525 255.302 L
S
GR
GS
[0.3 0 0 0.3 0 0] CT
1 0 0 RC
1 LJ
1.667 LW
N
1111.233 353.487 M
1122.493 310.736 L
S
GR
GS
[0.3 0 0 0.3 0 0] CT
1 0 0 RC
1 LJ
1.667 LW
N
1088.641 840.091 M
998.233 801.669 L
S
GR
GS
[0.3 0 0 0.3 0 0] CT
1 0 0 RC
1 LJ
1.667 LW
N
834.371 605.85 M
862.68 613.952 L
S
GR
GS
[0.3 0 0 0.3 0 0] CT
1 0 0 RC
1 LJ
1.667 LW
N
580.18 696.136 M
614.025 658.692 L
S
GR
GS
[0.3 0 0 0.3 0 0] CT
1 0 0 RC
1 LJ
1.667 LW
N
1071.671 598.365 M
1020.825 651.196 L
S
GR
GS
[0.3 0 0 0.3 0 0] CT
1 0 0 RC
1 LJ
1.667 LW
N
885.257 752.631 M
1071.671 598.365 L
S
GR
GS
[0.3 0 0 0.3 0 0] CT
1 0 0 RC
1 LJ
1.667 LW
N
1071.671 598.365 M
1083.003 587.747 L
S
GR
GS
[0.3 0 0 0.3 0 0] CT
1 0 0 RC
1 LJ
1.667 LW
N
1071.671 598.365 M
1094.287 690.159 L
S
GR
GS
[0.3 0 0 0.3 0 0] CT
1 0 0 RC
1 LJ
1.667 LW
N
1088.641 840.091 M
1049.134 890.854 L
S
GR
GS
[0.3 0 0 0.3 0 0] CT
1 0 0 RC
1 LJ
1.667 LW
N
885.257 752.631 M
1088.641 840.091 L
S
GR
GS
[0.3 0 0 0.3 0 0] CT
1 0 0 RC
1 LJ
1.667 LW
N
687.487 540.795 M
727.017 493.274 L
S
GR
GS
[0.3 0 0 0.3 0 0] CT
1 0 0 RC
1 LJ
1.667 LW
N
314.579 651.783 M
421.996 765.533 L
S
GR
GS
[0.3 0 0 0.3 0 0] CT
1 0 0 RC
1 LJ
1.667 LW
N
998.209 365.193 M
1037.747 154.421 L
S
GR
GS
[0.3 0 0 0.3 0 0] CT
1 0 0 RC
1 LJ
1.667 LW
N
998.209 365.193 M
879.697 413.986 L
S
GR
GS
[0.3 0 0 0.3 0 0] CT
1 0 0 RC
1 LJ
1.667 LW
N
998.209 365.193 M
975.633 256.392 L
S
GR
GS
[0.3 0 0 0.3 0 0] CT
1 0 0 RC
1 LJ
1.667 LW
N
998.209 365.193 M
1111.233 353.487 L
S
GR
GS
[0.3 0 0 0.3 0 0] CT
1 0 0 RC
1 LJ
1.667 LW
N
800.455 304.909 M
783.509 365.207 L
S
GR
GS
[0.3 0 0 0.3 0 0] CT
1 0 0 RC
1 LJ
1.667 LW
N
636.593 153.908 M
755.271 142.742 L
S
GR
GS
[0.3 0 0 0.3 0 0] CT
1 0 0 RC
1 LJ
1.667 LW
N
1111.233 353.487 M
1088.609 357.717 L
S
GR
GS
[0.3 0 0 0.3 0 0] CT
1 0 0 RC
1 LJ
1.667 LW
N
715.733 667.236 M
727.033 614.948 L
S
GR
GS
[0.3 0 0 0.3 0 0] CT
1 0 0 RC
1 LJ
1.667 LW
N
811.787 705.117 M
715.733 667.236 L
S
GR
GS
[0.3 0 0 0.3 0 0] CT
1 0 0 RC
1 LJ
1.667 LW
N
811.787 705.117 M
806.141 690.719 L
S
GR
GS
[0.3 0 0 0.3 0 0] CT
1 0 0 RC
1 LJ
1.667 LW
N
885.257 752.631 M
811.787 705.117 L
S
GR
GS
[0.3 0 0 0.3 0 0] CT
1 0 0 RC
1 LJ
1.667 LW
N
811.787 705.117 M
817.496 735.629 L
S
GR
GS
[0.3 0 0 0.3 0 0] CT
1 0 0 RC
1 LJ
1.667 LW
N
953.065 514.68 M
941.725 539.157 L
S
GR
GS
[0.3 0 0 0.3 0 0] CT
1 0 0 RC
1 LJ
1.667 LW
N
1094.287 690.159 M
1088.68 763.328 L
S
GR
GS
[0.3 0 0 0.3 0 0] CT
1 0 0 RC
1 LJ
1.667 LW
N
698.779 345.505 M
710.063 313.465 L
S
GR
GS
[0.3 0 0 0.3 0 0] CT
1 0 0 RC
1 LJ
1.667 LW
N
710.063 313.465 M
670.525 247.862 L
S
GR
GS
[0.3 0 0 0.3 0 0] CT
1 0 0 RC
1 LJ
1.667 LW
N
885.257 752.631 M
862.743 816.804 L
S
GR
GS
[0.3 0 0 0.3 0 0] CT
1 0 0 RC
1 LJ
1.667 LW
N
885.257 752.631 M
919.196 758.031 L
S
GR
GS
[0.3 0 0 0.3 0 0] CT
1 0 0 RC
1 LJ
1.667 LW
N
885.257 752.631 M
924.866 693.505 L
S
GR
GS
[0.3 0 0 0.3 0 0] CT
1 0 0 RC
1 LJ
1.667 LW
N
546.272 523.258 M
557.541 503.996 L
S
GR
GS
[0.3 0 0 0.3 0 0] CT
1 0 0 RC
1 LJ
1.667 LW
N
676.226 867.389 M
783.572 889.251 L
S
GR
GS
[0.3 0 0 0.3 0 0] CT
1 0 0 RC
1 LJ
1.667 LW
N
450.226 516.335 M
421.949 572.312 L
S
GR
GS
[0.3 0 0 0.3 0 0] CT
1 0 0 RC
1 LJ
1.667 LW
N
1111.233 353.487 M
1020.912 371.767 L
S
GR
GS
[0.3 0 0 0.3 0 0] CT
1 0 0 RC
1 LJ
1.667 LW
N
1060.403 610.157 M
1037.842 615.561 L
S
GR
GS
[0.3 0 0 0.3 0 0] CT
1 0 0 RC
1 LJ
1.667 LW
N
1083.003 587.747 M
1060.403 610.157 L
S
GR
GS
[0.3 0 0 0.3 0 0] CT
1 0 0 RC
1 LJ
1.667 LW
N
546.272 523.258 M
563.203 565.373 L
S
GR
GS
[0.3 0 0 0.3 0 0] CT
1 0 0 RC
1 LJ
1.667 LW
N
563.203 565.373 M
551.934 607.043 L
S
GR
GS
[0.3 0 0 0.3 0 0] CT
1 0 0 RC
1 LJ
1.667 LW
N
744.011 581.38 M
800.503 513.07 L
S
GR
GS
[0.3 0 0 0.3 0 0] CT
1 0 0 RC
1 LJ
1.667 LW
N
681.888 592.636 M
744.011 581.38 L
S
GR
GS
[0.3 0 0 0.3 0 0] CT
1 0 0 RC
1 LJ
1.667 LW
N
1049.134 890.854 M
1003.966 872.77 L
S
GR
GS
[0.3 0 0 0.3 0 0] CT
1 0 0 RC
1 LJ
1.667 LW
N
642.342 735.1 M
585.826 785.23 L
S
GR
GS
[0.3 0 0 0.3 0 0] CT
1 0 0 RC
1 LJ
1.667 LW
N
455.872 724.942 M
489.78 673.733 L
S
GR
GS
[0.3 0 0 0.3 0 0] CT
1 0 0 RC
1 LJ
1.667 LW
N
421.996 765.533 M
455.872 724.942 L
S
GR
GS
[0.3 0 0 0.3 0 0] CT
1 0 0 RC
1 LJ
1.667 LW
N
501.08 210.619 M
489.741 257.505 L
S
GR
GS
[0.3 0 0 0.3 0 0] CT
1 0 0 RC
1 LJ
1.667 LW
N
953.065 514.68 M
930.48 554.191 L
S
GR
GS
[0.3 0 0 0.3 0 0] CT
1 0 0 RC
1 LJ
1.667 LW
N
834.418 246.324 M
868.295 250.55 L
S
GR
GS
[0.3 0 0 0.3 0 0] CT
1 0 0 RC
1 LJ
1.667 LW
N
614.12 709.005 M
580.18 696.136 L
S
GR
GS
[0.3 0 0 0.3 0 0] CT
1 0 0 RC
1 LJ
1.667 LW
N
704.528 837.062 M
710.142 817.261 L
S
GR
GS
[0.3 0 0 0.3 0 0] CT
1 0 0 RC
1 LJ
1.667 LW
N
546.272 523.258 M
608.434 539.813 L
S
GR
GS
[0.3 0 0 0.3 0 0] CT
1 0 0 RC
1 LJ
1.667 LW
N
450.226 516.335 M
546.272 523.258 L
S
GR
GS
[0.3 0 0 0.3 0 0] CT
1 0 0 RC
1 LJ
1.667 LW
N
450.305 161.13 M
495.395 153.471 L
S
GR
GS
[0.3 0 0 0.3 0 0] CT
1 0 0 RC
1 LJ
1.667 LW
N
495.395 153.471 M
388.065 171.118 L
S
GR
GS
[0.3 0 0 0.3 0 0] CT
1 0 0 RC
1 LJ
1.667 LW
N
817.496 735.629 M
766.642 772.44 L
S
GR
GS
[0.3 0 0 0.3 0 0] CT
1 0 0 RC
1 LJ
1.667 LW
N
614.12 709.005 M
642.342 735.1 L
S
GR
GS
[0.3 0 0 0.3 0 0] CT
1 0 0 RC
1 LJ
1.667 LW
N
817.496 735.629 M
845.742 727.617 L
S
GR
GS
[0.3 0 0 0.3 314.74739 280.07151] CT
0.149 GC
/Helvetica 33 F
GS
[1 0 0 1 0 0] CT
0 34 moveto 
1 -1 scale
(60) t 
GR
GR
GS
[0.3 0 0 0.3 0 0] CT
1 0 0 RC
1 LJ
1.667 LW
N
450.226 516.335 M
455.888 495.546 L
S
GR
GS
[0.3 0 0 0.3 0 0] CT
1 0 0 RC
1 LJ
1.667 LW
N
450.226 516.335 M
478.488 338.684 L
S
GR
GS
[0.3 0 0 0.3 0 0] CT
1 0 0 RC
1 LJ
1.667 LW
N
450.226 516.335 M
438.934 539.825 L
S
GR
GS
[0.3 0 0 0.3 111.34738 280.0851] CT
0.149 GC
/Helvetica 33 F
GS
[1 0 0 1 0 0] CT
-37 34 moveto 
1 -1 scale
(40) t 
GR
GR
GS
[0.3 0 0 0.3 0 0] CT
0.149 GC
1 setlinecap
1 LJ
1.667 LW
N
1049.158 901.564 M
1049.158 920.238 L
S
GR
GS
[0.3 0 0 0.3 0 0] CT
1 0 0 RC
1 LJ
1.667 LW
N
421.996 765.533 M
438.958 864.257 L
S
GR
GS
[0.3 0 0 0.3 0 0] CT
1 0 0 RC
1 LJ
1.667 LW
N
421.996 765.533 M
439.005 721.349 L
S
GR
GS
[0.3 0 0 0.3 0 0] CT
1 0 0 RC
1 LJ
1.667 LW
N
919.196 758.031 M
941.796 728.151 L
S
GR
GS
[0.3 0 0 0.3 0 0] CT
1 0 0 RC
1 LJ
1.667 LW
N
902.234 360.524 M
857.018 350.897 L
S
GR
GS
[0.3 0 0 0.3 0 0] CT
1 0 0 RC
1 LJ
1.667 LW
N
438.958 864.257 M
489.836 860.566 L
S
GR
GS
[0.3 0 0 0.3 0 0] CT
1 0 0 RC
1 LJ
1.667 LW
N
636.728 598.041 M
681.888 592.636 L
S
GR
GS
[0.3 0 0 0.3 0 0] CT
1 0 0 RC
1 LJ
1.667 LW
N
681.888 592.636 M
732.75 668.948 L
S
GR
GS
[0.3 0 0 0.3 0 0] CT
1 0 0 RC
1 LJ
1.667 LW
N
438.934 539.825 M
359.842 563.319 L
S
GR
GS
[0.3 0 0 0.3 0 0] CT
1 0 0 RC
1 LJ
1.667 LW
N
924.866 693.505 M
975.696 675.862 L
S
GR
GS
[0.3 0 0 0.3 0 0] CT
1 0 0 RC
1 LJ
1.667 LW
N
1037.842 615.561 M
1043.488 570.203 L
S
GR
GS
[0.3 0 0 0.3 0 0] CT
1 0 0 RC
1 LJ
1.667 LW
N
834.418 246.324 M
907.92 260.812 L
S
GR
GS
[0.3 0 0 0.3 0 0] CT
1 0 0 RC
1 LJ
1.667 LW
N
794.888 234.089 M
834.418 246.324 L
S
GR
GS
[0.3 0 0 0.3 0 0] CT
1 0 0 RC
1 LJ
1.667 LW
N
964.412 812.475 M
958.813 849.377 L
S
GR
GS
[0.3 0 0 0.3 0 0] CT
1 0 0 RC
1 LJ
1.667 LW
N
964.412 812.475 M
981.39 778.908 L
S
GR
GS
[0.3 0 0 0.3 0 0] CT
1 0 0 RC
1 LJ
1.667 LW
N
862.743 816.804 M
964.412 812.475 L
S
GR
GS
[0.3 0 0 0.3 0 0] CT
1 0 0 RC
1 LJ
1.667 LW
N
455.888 495.546 M
484.15 437.408 L
S
GR
GS
[0.3 0 0 0.3 0 0] CT
1 0 0 RC
1 LJ
1.667 LW
N
455.888 495.546 M
484.221 536.767 L
S
GR
GS
[0.3 0 0 0.3 0 0] CT
1 0 0 RC
1 LJ
1.667 LW
N
388.065 171.118 M
444.588 159.416 L
S
GR
GS
[0.3 0 0 0.3 0 0] CT
1 0 0 RC
1 LJ
1.667 LW
N
885.343 376.098 M
902.234 360.524 L
S
GR
GS
[0.3 0 0 0.3 0 0] CT
1 0 0 RC
1 LJ
1.667 LW
N
704.528 837.062 M
732.774 873.868 L
S
GR
GS
[0.3 0 0 0.3 0 0] CT
1 0 0 RC
1 LJ
1.667 LW
N
365.488 323.752 M
342.888 368.571 L
S
GR
GS
[0.3 0 0 0.3 0 0] CT
1 0 0 RC
1 LJ
1.667 LW
N
478.488 338.684 M
405.05 385.127 L
S
GR
GS
[0.3 0 0 0.3 0 0] CT
1 0 0 RC
1 LJ
1.667 LW
N
924.866 693.505 M
936.182 673.257 L
S
GR
GS
[0.3 0 0 0.3 0 0] CT
1 0 0 RC
1 LJ
1.667 LW
N
405.05 385.127 M
365.488 323.752 L
S
GR
GS
[0.3 0 0 0.3 0 0] CT
1 0 0 RC
1 LJ
1.667 LW
N
744.129 851.552 M
704.528 837.062 L
S
GR
GS
[0.3 0 0 0.3 0 0] CT
1 0 0 RC
1 LJ
1.667 LW
N
636.712 274.688 M
574.534 263.441 L
S
GR
GS
[0.3 0 0 0.3 0 0] CT
1 0 0 RC
1 LJ
1.667 LW
N
794.888 234.089 M
777.934 241.019 L
S
GR
GS
[0.3 0 0 0.3 0 0] CT
1 0 0 RC
1 LJ
1.667 LW
N
614.12 709.005 M
568.959 841.393 L
S
GR
GS
[0.3 0 0 0.3 0 0] CT
1 0 0 RC
1 LJ
1.667 LW
N
614.12 709.005 M
540.697 675.444 L
S
GR
GS
[0.3 0 0 0.3 0 0] CT
1 0 0 RC
1 LJ
1.667 LW
N
614.12 709.005 M
636.728 598.041 L
S
GR
GS
[0.3 0 0 0.3 0 0] CT
1 0 0 RC
1 LJ
1.667 LW
N
710.237 718.183 M
614.12 709.005 L
S
GR
GS
[0.3 0 0 0.3 0 0] CT
1 0 0 RC
1 LJ
1.667 LW
N
439.005 721.349 M
405.074 709.56 L
S
GR
GS
[0.3 0 0 0.3 0 0] CT
1 0 0 RC
1 LJ
1.667 LW
N
777.99 300.869 M
794.888 234.089 L
S
GR
GS
[0.3 0 0 0.3 0 0] CT
1 0 0 RC
1 LJ
1.667 LW
N
794.888 234.089 M
687.582 172.812 L
S
GR
GS
[0.3 0 0 0.3 0 0] CT
1 0 0 RC
1 LJ
1.667 LW
N
568.959 841.393 M
608.482 785.322 L
S
GR
GS
[0.3 0 0 0.3 289.86603 294.34774] CT
0.149 GC
/Helvetica 37 F
GS
[1 0 0 1 0 0] CT
0 38 moveto 
1 -1 scale
(y) t 
GR
GR
GS
[0.3 0 0 0.3 136.31166 294.35339] CT
0.149 GC
/Helvetica 37 F
GS
[1 0 0 1 0 0] CT
-19 38 moveto 
1 -1 scale
(x) t 
GR
GR
GS
[0.3 0 0 0.3 0 0] CT
1 0 0 RC
1 LJ
1.667 LW
N
648.075 507.418 M
704.52 522.26 L
S
GR
GS
[0.3 0 0 0.3 0 0] CT
1 0 0 RC
1 LJ
1.667 LW
N
907.92 223.464 M
941.796 205.281 L
S
GR
GS
[0.3 0 0 0.3 0 0] CT
1 0 0 RC
1 LJ
1.667 LW
N
936.182 673.257 M
924.913 722.396 L
S
GR
GS
[0.3 0 0 0.3 0 0] CT
1 0 0 RC
1 LJ
1.667 LW
N
862.743 816.804 M
778.037 860.1 L
S
GR
GS
[0.3 0 0 0.3 0 0] CT
1 0 0 RC
1 LJ
1.667 LW
N
1020.912 371.767 M
992.697 376.631 L
S
GR
GS
[0.3 0 0 0.3 0 0] CT
1 0 0 RC
1 LJ
1.667 LW
N
670.651 377.193 M
636.712 274.688 L
S
GR
GS
[0.3 0 0 0.3 0 0] CT
1 0 0 RC
1 LJ
1.667 LW
N
907.92 260.812 M
1009.604 154.07 L
S
GR
GS
[0.3 0 0 0.3 0 0] CT
1 0 0 RC
1 LJ
1.667 LW
N
727.183 911.85 M
766.713 894.207 L
S
GR
GS
[0.3 0 0 0.3 0 0] CT
1 0 0 RC
1 LJ
1.667 LW
N
744.129 851.552 M
755.405 788.554 L
S
GR
GS
[0.3 0 0 0.3 0 0] CT
1 0 0 RC
1 LJ
1.667 LW
N
648.075 507.418 M
636.736 516.956 L
S
GR
GS
[0.3 0 0 0.3 0 0] CT
1 0 0 RC
1 LJ
1.667 LW
N
636.736 516.956 M
574.613 535.681 L
S
GR
GS
[0.3 0 0 0.3 0 0] CT
1 0 0 RC
1 LJ
1.667 LW
N
958.813 849.377 M
953.167 857.387 L
S
GR
GS
[0.3 0 0 0.3 0 0] CT
1 0 0 RC
1 LJ
1.667 LW
N
907.92 260.812 M
907.92 223.464 L
S
GR
GS
[0.3 0 0 0.3 0 0] CT
1 0 0 RC
1 LJ
1.667 LW
N
777.99 300.869 M
817.536 345.144 L
S
GR
GS
[0.3 0 0 0.3 0 0] CT
1 0 0 RC
1 LJ
1.667 LW
N
800.676 663.822 M
778.005 601.813 L
S
GR
GS
[0.3 0 0 0.3 0 0] CT
1 0 0 RC
1 LJ
1.667 LW
N
778.005 601.813 M
738.475 559.699 L
S
GR
GS
[0.3 0 0 0.3 0 0] CT
1 0 0 RC
1 LJ
1.667 LW
N
608.505 437.494 M
597.19 383.046 L
S
GR
GS
[0.3 0 0 0.3 0 0] CT
1 0 0 RC
1 LJ
1.667 LW
N
597.19 383.046 M
568.959 370.81 L
S
GR
GS
[0.3 0 0 0.3 0 0] CT
1 0 0 RC
1 LJ
1.667 LW
N
744.129 851.552 M
727.183 911.85 L
S
GR
GS
[0.3 0 0 0.3 0 0] CT
1 0 0 RC
1 LJ
1.667 LW
N
778.037 860.1 M
744.129 851.552 L
S
GR
GS
[0.3 0 0 0.3 0 0] CT
1 0 0 RC
1 LJ
1.667 LW
N
879.697 413.986 M
885.343 376.098 L
S
GR
GS
[0.3 0 0 0.3 280.87106 283.31506] CT
0.149 GC
/Helvetica 33 F
GS
[1 0 0 1 0 0] CT
0 34 moveto 
1 -1 scale
(40) t 
GR
GR
GS
[0.3 0 0 0.3 145.27107 283.32413] CT
0.149 GC
/Helvetica 33 F
GS
[1 0 0 1 0 0] CT
-37 34 moveto 
1 -1 scale
(60) t 
GR
GR
GS
[0.3 0 0 0.3 0 0] CT
1 0 0 RC
1 LJ
1.667 LW
N
879.697 413.986 M
777.99 300.869 L
S
GR
GS
[0.3 0 0 0.3 0 0] CT
1 0 0 RC
1 LJ
1.667 LW
N
879.697 413.986 M
868.453 399.141 L
S
GR
GS
[0.3 0 0 0.3 0 0] CT
0.149 GC
1 setlinecap
1 LJ
1.667 LW
N
936.237 912.376 M
936.237 931.05 L
S
GR
GS
[0.3 0 0 0.3 0 0] CT
0.149 GC
1 setlinecap
1 LJ
1.667 LW
N
484.237 912.406 M
484.237 931.08 L
S
GR
GS
[0.3 0 0 0.3 0 0] CT
1 0 0 RC
1 LJ
1.667 LW
N
648.075 507.418 M
608.505 437.494 L
S
GR
GS
[0.3 0 0 0.3 0 0] CT
1 0 0 RC
1 LJ
1.667 LW
N
608.505 437.494 M
670.651 377.193 L
S
GR
GS
[0.3 0 0 0.3 0 0] CT
1 0 0 RC
1 LJ
1.667 LW
N
568.959 370.81 M
523.751 295.037 L
S
GR
GS
[0.3 0 0 0.3 0 0] CT
1 0 0 RC
1 LJ
1.667 LW
N
648.13 649.433 M
619.829 657.352 L
S
GR
GS
[0.3 0 0 0.3 0 0] CT
1 0 0 RC
1 LJ
1.667 LW
N
450.305 161.13 M
427.697 234.747 L
S
GR
GS
[0.3 0 0 0.3 0 0] CT
1 0 0 RC
1 LJ
1.667 LW
N
450.305 161.13 M
523.743 181.913 L
S
GR
GS
[0.3 0 0 0.3 0 0] CT
1 0 0 RC
1 LJ
1.667 LW
N
523.743 181.913 M
619.924 259.49 L
S
GR
GS
[0.3 0 0 0.3 0 0] CT
1 0 0 RC
1 LJ
1.667 LW
N
710.237 718.183 M
834.592 725.737 L
S
GR
GS
[0.3 0 0 0.3 0 0] CT
1 0 0 RC
1 LJ
1.667 LW
N
659.446 599.307 M
710.237 718.183 L
S
GR
GS
[0.3 0 0 0.3 0 0] CT
1 0 0 RC
1 LJ
1.667 LW
N
710.237 718.183 M
670.754 914.108 L
S
GR
GS
[0.3 0 0 0.3 0 0] CT
1 0 0 RC
1 LJ
1.667 LW
N
710.237 718.183 M
732.853 690.464 L
S
GR
GS
[0.3 0 0 0.3 0 0] CT
1 0 0 RC
1 LJ
1.667 LW
N
648.075 507.418 M
681.983 523.435 L
S
GR
GS
[0.3 0 0 0.3 0 0] CT
1 0 0 RC
1 LJ
1.667 LW
N
659.446 599.307 M
648.075 507.418 L
S
GR
GS
[0.3 0 0 0.3 0 0] CT
1 0 0 RC
1 LJ
1.667 LW
N
930.591 569.317 M
902.337 591.187 L
S
GR
GS
[0.3 0 0 0.3 0 0] CT
1 0 0 RC
1 LJ
1.667 LW
N
868.453 399.141 M
828.875 380.423 L
S
GR
GS
[0.3 0 0 0.3 0 0] CT
1 0 0 RC
1 LJ
1.667 LW
N
851.522 558.705 M
930.591 569.317 L
S
GR
GS
[0.3 0 0 0.3 0 0] CT
1 0 0 RC
1 LJ
1.667 LW
N
648.13 649.433 M
653.761 676.61 L
S
GR
GS
[0.3 0 0 0.3 0 0] CT
1 0 0 RC
1 LJ
1.667 LW
N
670.754 914.108 M
727.23 880.985 L
S
GR
GS
[0.3 0 0 0.3 0 0] CT
1 0 0 RC
1 LJ
1.667 LW
N
806.338 486.173 M
761.107 489.324 L
S
GR
GS
[0.3 0 0 0.3 0 0] CT
1 0 0 RC
1 LJ
1.667 LW
N
851.522 558.705 M
834.561 527.207 L
S
GR
GS
[0.3 0 0 0.3 0 0] CT
1 0 0 RC
1 LJ
1.667 LW
N
834.592 725.737 M
800.676 663.822 L
S
GR
GS
[0.3 0 0 0.3 0 0] CT
1 0 0 RC
1 LJ
1.667 LW
N
806.338 486.173 M
851.522 558.705 L
S
GR
GS
[0.3 0 0 0.3 0 0] CT
1 0 0 RC
1 LJ
1.667 LW
N
659.446 599.307 M
648.13 649.433 L
S
GR
GS
[0.3 0 0 0.3 0 0] CT
1 0 0 RC
1 LJ
1.667 LW
N
670.754 914.108 M
687.74 784.517 L
S
GR
GS
[0.3 0 0 0.3 0 0] CT
1 0 0 RC
1 LJ
1.667 LW
N
755.54 425.973 M
845.853 189.995 L
S
GR
GS
[0.3 0 0 0.3 246.99476 286.55863] CT
0.149 GC
/Helvetica 33 F
GS
[1 0 0 1 0 0] CT
0 34 moveto 
1 -1 scale
(20) t 
GR
GR
GS
[0.3 0 0 0.3 179.19476 286.56315] CT
0.149 GC
/Helvetica 33 F
GS
[1 0 0 1 0 0] CT
-37 34 moveto 
1 -1 scale
(80) t 
GR
GR
GS
[0.3 0 0 0.3 0 0] CT
0.149 GC
1 setlinecap
1 LJ
1.667 LW
N
823.316 923.188 M
823.316 941.862 L
S
GR
GS
[0.3 0 0 0.3 0 0] CT
0.149 GC
1 setlinecap
1 LJ
1.667 LW
N
597.316 923.203 M
597.316 941.877 L
S
GR
GS
[0.3 0 0 0.3 0 0] CT
1 0 0 RC
1 LJ
1.667 LW
N
659.446 599.307 M
642.492 613.707 L
S
GR
GS
[0.3 0 0 0.3 0 0] CT
1 0 0 RC
1 LJ
1.667 LW
N
619.924 259.49 M
682.015 243.913 L
S
GR
GS
[0.3 0 0 0.3 0 0] CT
1 0 0 RC
1 LJ
1.667 LW
N
682.015 243.913 M
761.13 216.191 L
S
GR
GS
[0.3 0 0 0.3 0 0] CT
1 0 0 RC
1 LJ
1.667 LW
N
659.446 599.307 M
732.892 583.822 L
S
GR
GS
[0.3 0 0 0.3 0 0] CT
1 0 0 RC
1 LJ
1.667 LW
N
659.446 599.307 M
676.463 586.08 L
S
GR
GS
[0.3 0 0 0.3 0 0] CT
1 0 0 RC
1 LJ
1.667 LW
N
755.54 425.973 M
659.446 599.307 L
S
GR
GS
[0.3 0 0 0.3 0 0] CT
1 0 0 RC
1 LJ
1.667 LW
N
755.54 425.973 M
806.338 486.173 L
S
GR
GS
[0.3 0 0 0.3 0 0] CT
1 0 0 RC
1 LJ
1.667 LW
N
755.54 425.973 M
642.5 405.639 L
S
GR
GS
[0.3 0 0 0.3 0 0] CT
1 0 0 RC
1 LJ
1.667 LW
N
755.54 425.973 M
783.746 315.455 L
S
GR
GS
[0.3 0 0 0.3 0 0] CT
1 0 0 RC
1 LJ
1.667 LW
N
687.74 784.517 M
727.301 726.378 L
S
GR
GS
[0.3 0 0 0.3 0 0] CT
1 0 0 RC
1 LJ
1.667 LW
N
687.74 784.517 M
682.094 829.875 L
S
GR
GS
[0.3 0 0 0.3 0 0] CT
1 0 0 RC
1 LJ
1.667 LW
N
687.74 784.517 M
648.201 793.61 L
S
GR
GS
[0.3 0 0 0.3 0 0] CT
1 0 0 RC
1 LJ
1.667 LW
N
727.301 726.378 M
676.463 728.002 L
S
GR
GS
[0.3 0 0 0.3 0 0] CT
1 0 0 RC
1 LJ
1.667 LW
N
619.924 259.49 M
676.447 285.137 L
S
GR
GS
[0.3 0 0 0.3 213.11845 289.80218] CT
0.149 GC
/Helvetica 33 F
GS
[1 0 0 1 0 0] CT
0 34 moveto 
1 -1 scale
(0) t 
GR
GR
GS
[0.3 0 0 0.3 213.11845 289.80218] CT
0.149 GC
/Helvetica 33 F
GS
[1 0 0 1 0 0] CT
-56 34 moveto 
1 -1 scale
(100) t 
GR
GR
GS
[0.3 0 0 0.3 0 0] CT
0.149 GC
1 LJ
1.667 LW
N
710.395 934 M
710.395 952.674 L
S
GR
GS
[0.3 0 0 0.3 0 0] CT
0.149 GC
1 LJ
1.667 LW
N
710.395 934 M
710.395 952.674 L
S
GR
GS
[0.3 0 0 0.3 0 0] CT
1 0 0 RC
1 LJ
1.667 LW
N
676.447 285.137 M
676.463 227.541 L
S
GR
%%Trailer
%%Pages: 1
%%EOF
