%!PS-Adobe-3.0 EPSF-3.0
%%Creator: (MATLAB, The Mathworks, Inc. Version 8.6.0.267246 \(R2015b\). Operating System: Windows 8)
%%Title: (C:/Users/Daniel/OneDrive - CertiCon a.s/Documents/skola/CVUT/Semester_8/Bakalarska_Praca/Bachelor thesis/Figures/BasicRRT200.eps)
%%CreationDate: 2016-05-05T19:45:05
%%Pages: (atend)
%%BoundingBox: 0 0 419 374
%%LanguageLevel: 2
%%EndComments
%%BeginProlog
%%BeginResource: procset (Apache XML Graphics Std ProcSet) 1.2 0
%%Version: 1.2 0
%%Copyright: (Copyright 2001-2003,2010 The Apache Software Foundation. License terms: http://www.apache.org/licenses/LICENSE-2.0)
/bd{bind def}bind def
/ld{load def}bd
/GR/grestore ld
/M/moveto ld
/LJ/setlinejoin ld
/C/curveto ld
/f/fill ld
/LW/setlinewidth ld
/GC/setgray ld
/t/show ld
/N/newpath ld
/CT/concat ld
/cp/closepath ld
/S/stroke ld
/L/lineto ld
/CC/setcmykcolor ld
/A/ashow ld
/GS/gsave ld
/RC/setrgbcolor ld
/RM/rmoveto ld
/ML/setmiterlimit ld
/re {4 2 roll M
1 index 0 rlineto
0 exch rlineto
neg 0 rlineto
cp } bd
/_ctm matrix def
/_tm matrix def
/BT { _ctm currentmatrix pop matrix _tm copy pop 0 0 moveto } bd
/ET { _ctm setmatrix } bd
/iTm { _ctm setmatrix _tm concat } bd
/Tm { _tm astore pop iTm 0 0 moveto } bd
/ux 0.0 def
/uy 0.0 def
/F {
  /Tp exch def
  /Tf exch def
  Tf findfont Tp scalefont setfont
  /cf Tf def  /cs Tp def
} bd
/ULS {currentpoint /uy exch def /ux exch def} bd
/ULE {
  /Tcx currentpoint pop def
  gsave
  newpath
  cf findfont cs scalefont dup
  /FontMatrix get 0 get /Ts exch def /FontInfo get dup
  /UnderlinePosition get Ts mul /To exch def
  /UnderlineThickness get Ts mul /Tt exch def
  ux uy To add moveto  Tcx uy To add lineto
  Tt setlinewidth stroke
  grestore
} bd
/OLE {
  /Tcx currentpoint pop def
  gsave
  newpath
  cf findfont cs scalefont dup
  /FontMatrix get 0 get /Ts exch def /FontInfo get dup
  /UnderlinePosition get Ts mul /To exch def
  /UnderlineThickness get Ts mul /Tt exch def
  ux uy To add cs add moveto Tcx uy To add cs add lineto
  Tt setlinewidth stroke
  grestore
} bd
/SOE {
  /Tcx currentpoint pop def
  gsave
  newpath
  cf findfont cs scalefont dup
  /FontMatrix get 0 get /Ts exch def /FontInfo get dup
  /UnderlinePosition get Ts mul /To exch def
  /UnderlineThickness get Ts mul /Tt exch def
  ux uy To add cs 10 mul 26 idiv add moveto Tcx uy To add cs 10 mul 26 idiv add lineto
  Tt setlinewidth stroke
  grestore
} bd
/QT {
/Y22 exch store
/X22 exch store
/Y21 exch store
/X21 exch store
currentpoint
/Y21 load 2 mul add 3 div exch
/X21 load 2 mul add 3 div exch
/X21 load 2 mul /X22 load add 3 div
/Y21 load 2 mul /Y22 load add 3 div
/X22 load /Y22 load curveto
} bd
/SSPD {
dup length /d exch dict def
{
/v exch def
/k exch def
currentpagedevice k known {
/cpdv currentpagedevice k get def
v cpdv ne {
/upd false def
/nullv v type /nulltype eq def
/nullcpdv cpdv type /nulltype eq def
nullv nullcpdv or
{
/upd true def
} {
/sametype v type cpdv type eq def
sametype {
v type /arraytype eq {
/vlen v length def
/cpdvlen cpdv length def
vlen cpdvlen eq {
0 1 vlen 1 sub {
/i exch def
/obj v i get def
/cpdobj cpdv i get def
obj cpdobj ne {
/upd true def
exit
} if
} for
} {
/upd true def
} ifelse
} {
v type /dicttype eq {
v {
/dv exch def
/dk exch def
/cpddv cpdv dk get def
dv cpddv ne {
/upd true def
exit
} if
} forall
} {
/upd true def
} ifelse
} ifelse
} if
} ifelse
upd true eq {
d k v put
} if
} if
} if
} forall
d length 0 gt {
d setpagedevice
} if
} bd
%%EndResource
%%BeginResource: procset (Apache XML Graphics EPS ProcSet) 1.0 0
%%Version: 1.0 0
%%Copyright: (Copyright 2002-2003 The Apache Software Foundation. License terms: http://www.apache.org/licenses/LICENSE-2.0)
/BeginEPSF { %def
/b4_Inc_state save def         % Save state for cleanup
/dict_count countdictstack def % Count objects on dict stack
/op_count count 1 sub def      % Count objects on operand stack
userdict begin                 % Push userdict on dict stack
/showpage { } def              % Redefine showpage, { } = null proc
0 setgray 0 setlinecap         % Prepare graphics state
1 setlinewidth 0 setlinejoin
10 setmiterlimit [ ] 0 setdash newpath
/languagelevel where           % If level not equal to 1 then
{pop languagelevel             % set strokeadjust and
1 ne                           % overprint to their defaults.
{false setstrokeadjust false setoverprint
} if
} if
} bd
/EndEPSF { %def
count op_count sub {pop} repeat            % Clean up stacks
countdictstack dict_count sub {end} repeat
b4_Inc_state restore
} bd
%%EndResource
%FOPBeginFontDict
%%IncludeResource: font Courier-Bold
%%IncludeResource: font Helvetica
%%IncludeResource: font Courier-BoldOblique
%%IncludeResource: font Courier-Oblique
%%IncludeResource: font Times-Roman
%%IncludeResource: font Helvetica-BoldOblique
%%IncludeResource: font Helvetica-Bold
%%IncludeResource: font Helvetica-Oblique
%%IncludeResource: font Times-BoldItalic
%%IncludeResource: font Courier
%%IncludeResource: font Times-Italic
%%IncludeResource: font Times-Bold
%%IncludeResource: font Symbol
%%IncludeResource: font ZapfDingbats
%FOPEndFontDict
%%BeginResource: encoding WinAnsiEncoding
/WinAnsiEncoding [
/.notdef /.notdef /.notdef /.notdef /.notdef
/.notdef /.notdef /.notdef /.notdef /.notdef
/.notdef /.notdef /.notdef /.notdef /.notdef
/.notdef /.notdef /.notdef /.notdef /.notdef
/.notdef /.notdef /.notdef /.notdef /.notdef
/.notdef /.notdef /.notdef /.notdef /.notdef
/.notdef /.notdef /space /exclam /quotedbl
/numbersign /dollar /percent /ampersand /quotesingle
/parenleft /parenright /asterisk /plus /comma
/hyphen /period /slash /zero /one
/two /three /four /five /six
/seven /eight /nine /colon /semicolon
/less /equal /greater /question /at
/A /B /C /D /E
/F /G /H /I /J
/K /L /M /N /O
/P /Q /R /S /T
/U /V /W /X /Y
/Z /bracketleft /backslash /bracketright /asciicircum
/underscore /quoteleft /a /b /c
/d /e /f /g /h
/i /j /k /l /m
/n /o /p /q /r
/s /t /u /v /w
/x /y /z /braceleft /bar
/braceright /asciitilde /bullet /Euro /bullet
/quotesinglbase /florin /quotedblbase /ellipsis /dagger
/daggerdbl /circumflex /perthousand /Scaron /guilsinglleft
/OE /bullet /Zcaron /bullet /bullet
/quoteleft /quoteright /quotedblleft /quotedblright /bullet
/endash /emdash /asciitilde /trademark /scaron
/guilsinglright /oe /bullet /zcaron /Ydieresis
/space /exclamdown /cent /sterling /currency
/yen /brokenbar /section /dieresis /copyright
/ordfeminine /guillemotleft /logicalnot /sfthyphen /registered
/macron /degree /plusminus /twosuperior /threesuperior
/acute /mu /paragraph /middot /cedilla
/onesuperior /ordmasculine /guillemotright /onequarter /onehalf
/threequarters /questiondown /Agrave /Aacute /Acircumflex
/Atilde /Adieresis /Aring /AE /Ccedilla
/Egrave /Eacute /Ecircumflex /Edieresis /Igrave
/Iacute /Icircumflex /Idieresis /Eth /Ntilde
/Ograve /Oacute /Ocircumflex /Otilde /Odieresis
/multiply /Oslash /Ugrave /Uacute /Ucircumflex
/Udieresis /Yacute /Thorn /germandbls /agrave
/aacute /acircumflex /atilde /adieresis /aring
/ae /ccedilla /egrave /eacute /ecircumflex
/edieresis /igrave /iacute /icircumflex /idieresis
/eth /ntilde /ograve /oacute /ocircumflex
/otilde /odieresis /divide /oslash /ugrave
/uacute /ucircumflex /udieresis /yacute /thorn
/ydieresis
] def
%%EndResource
%FOPBeginFontReencode
/Courier-Bold findfont
dup length dict begin
  {1 index /FID ne {def} {pop pop} ifelse} forall
  /Encoding WinAnsiEncoding def
  currentdict
end
/Courier-Bold exch definefont pop
/Helvetica findfont
dup length dict begin
  {1 index /FID ne {def} {pop pop} ifelse} forall
  /Encoding WinAnsiEncoding def
  currentdict
end
/Helvetica exch definefont pop
/Courier-BoldOblique findfont
dup length dict begin
  {1 index /FID ne {def} {pop pop} ifelse} forall
  /Encoding WinAnsiEncoding def
  currentdict
end
/Courier-BoldOblique exch definefont pop
/Courier-Oblique findfont
dup length dict begin
  {1 index /FID ne {def} {pop pop} ifelse} forall
  /Encoding WinAnsiEncoding def
  currentdict
end
/Courier-Oblique exch definefont pop
/Times-Roman findfont
dup length dict begin
  {1 index /FID ne {def} {pop pop} ifelse} forall
  /Encoding WinAnsiEncoding def
  currentdict
end
/Times-Roman exch definefont pop
/Helvetica-BoldOblique findfont
dup length dict begin
  {1 index /FID ne {def} {pop pop} ifelse} forall
  /Encoding WinAnsiEncoding def
  currentdict
end
/Helvetica-BoldOblique exch definefont pop
/Helvetica-Bold findfont
dup length dict begin
  {1 index /FID ne {def} {pop pop} ifelse} forall
  /Encoding WinAnsiEncoding def
  currentdict
end
/Helvetica-Bold exch definefont pop
/Helvetica-Oblique findfont
dup length dict begin
  {1 index /FID ne {def} {pop pop} ifelse} forall
  /Encoding WinAnsiEncoding def
  currentdict
end
/Helvetica-Oblique exch definefont pop
/Times-BoldItalic findfont
dup length dict begin
  {1 index /FID ne {def} {pop pop} ifelse} forall
  /Encoding WinAnsiEncoding def
  currentdict
end
/Times-BoldItalic exch definefont pop
/Courier findfont
dup length dict begin
  {1 index /FID ne {def} {pop pop} ifelse} forall
  /Encoding WinAnsiEncoding def
  currentdict
end
/Courier exch definefont pop
/Times-Italic findfont
dup length dict begin
  {1 index /FID ne {def} {pop pop} ifelse} forall
  /Encoding WinAnsiEncoding def
  currentdict
end
/Times-Italic exch definefont pop
/Times-Bold findfont
dup length dict begin
  {1 index /FID ne {def} {pop pop} ifelse} forall
  /Encoding WinAnsiEncoding def
  currentdict
end
/Times-Bold exch definefont pop
%FOPEndFontReencode
%%EndProlog
%%Page: 1 1
%%PageBoundingBox: 0 0 419 374
%%BeginPageSetup
[1 0 0 -1 0 374] CT
%%EndPageSetup
GS
[0.30021 0 0 0.30024 0 0.20001] CT
N
0 0 M
1397 0 L
1397 1245 L
0 1245 L
0 0 L
cp
clip
1 GC
N
0 0 1397 1245 re
f
GR
GS
[0.30021 0 0 0.30024 0 0.20001] CT
1 GC
N
0 0 1397 1245 re
f
GR
GS
[0.30021 0 0 0.30024 0 0.20001] CT
1 GC
N
182 1109 M
1265 1109 L
1265 93 L
182 93 L
cp
f
GR
GS
[0.30021 0 0 0.30024 0 0.20001] CT
0.873 GC
1 LJ
1.667 LW
N
182 1109 M
182 93 L
S
GR
GS
[0.30021 0 0 0.30024 0 0.20001] CT
0.873 GC
1 LJ
1.667 LW
N
290.3 1109 M
290.3 93 L
S
GR
GS
[0.30021 0 0 0.30024 0 0.20001] CT
0.873 GC
1 LJ
1.667 LW
N
398.6 1109 M
398.6 93 L
S
GR
GS
[0.30021 0 0 0.30024 0 0.20001] CT
0.873 GC
1 LJ
1.667 LW
N
506.9 1109 M
506.9 93 L
S
GR
GS
[0.30021 0 0 0.30024 0 0.20001] CT
0.873 GC
1 LJ
1.667 LW
N
615.2 1109 M
615.2 93 L
S
GR
GS
[0.30021 0 0 0.30024 0 0.20001] CT
0.873 GC
1 LJ
1.667 LW
N
723.5 1109 M
723.5 93 L
S
GR
GS
[0.30021 0 0 0.30024 0 0.20001] CT
0.873 GC
1 LJ
1.667 LW
N
831.8 1109 M
831.8 93 L
S
GR
GS
[0.30021 0 0 0.30024 0 0.20001] CT
0.873 GC
1 LJ
1.667 LW
N
940.1 1109 M
940.1 93 L
S
GR
GS
[0.30021 0 0 0.30024 0 0.20001] CT
0.873 GC
1 LJ
1.667 LW
N
1048.4 1109 M
1048.4 93 L
S
GR
GS
[0.30021 0 0 0.30024 0 0.20001] CT
0.873 GC
1 LJ
1.667 LW
N
1156.7 1109 M
1156.7 93 L
S
GR
GS
[0.30021 0 0 0.30024 0 0.20001] CT
0.873 GC
1 LJ
1.667 LW
N
1265 1109 M
1265 93 L
S
GR
GS
[0.30021 0 0 0.30024 0 0.20001] CT
0.873 GC
1 LJ
1.667 LW
N
1265 1109 M
182 1109 L
S
GR
GS
[0.30021 0 0 0.30024 0 0.20001] CT
0.873 GC
1 LJ
1.667 LW
N
1265 1007.4 M
182 1007.4 L
S
GR
GS
[0.30021 0 0 0.30024 0 0.20001] CT
0.873 GC
1 LJ
1.667 LW
N
1265 905.8 M
182 905.8 L
S
GR
GS
[0.30021 0 0 0.30024 0 0.20001] CT
0.873 GC
1 LJ
1.667 LW
N
1265 804.2 M
182 804.2 L
S
GR
GS
[0.30021 0 0 0.30024 0 0.20001] CT
0.873 GC
1 LJ
1.667 LW
N
1265 702.6 M
182 702.6 L
S
GR
GS
[0.30021 0 0 0.30024 0 0.20001] CT
0.873 GC
1 LJ
1.667 LW
N
1265 601 M
182 601 L
S
GR
GS
[0.30021 0 0 0.30024 0 0.20001] CT
0.873 GC
1 LJ
1.667 LW
N
1265 499.4 M
182 499.4 L
S
GR
GS
[0.30021 0 0 0.30024 0 0.20001] CT
0.873 GC
1 LJ
1.667 LW
N
1265 397.8 M
182 397.8 L
S
GR
GS
[0.30021 0 0 0.30024 0 0.20001] CT
0.873 GC
1 LJ
1.667 LW
N
1265 296.2 M
182 296.2 L
S
GR
GS
[0.30021 0 0 0.30024 0 0.20001] CT
0.873 GC
1 LJ
1.667 LW
N
1265 194.6 M
182 194.6 L
S
GR
GS
[0.30021 0 0 0.30024 0 0.20001] CT
0.873 GC
1 LJ
1.667 LW
N
1265 93 M
182 93 L
S
GR
GS
[0.30021 0 0 0.30024 0 0.20001] CT
0.149 GC
2 setlinecap
1 LJ
1.667 LW
N
182 1109 M
1265 1109 L
S
GR
GS
[0.30021 0 0 0.30024 0 0.20001] CT
0.149 GC
2 setlinecap
1 LJ
1.667 LW
N
182 1109 M
182 1098.17 L
S
GR
GS
[0.30021 0 0 0.30024 0 0.20001] CT
0.149 GC
2 setlinecap
1 LJ
1.667 LW
N
290.3 1109 M
290.3 1098.17 L
S
GR
GS
[0.30021 0 0 0.30024 0 0.20001] CT
0.149 GC
2 setlinecap
1 LJ
1.667 LW
N
398.6 1109 M
398.6 1098.17 L
S
GR
GS
[0.30021 0 0 0.30024 0 0.20001] CT
0.149 GC
2 setlinecap
1 LJ
1.667 LW
N
506.9 1109 M
506.9 1098.17 L
S
GR
GS
[0.30021 0 0 0.30024 0 0.20001] CT
0.149 GC
2 setlinecap
1 LJ
1.667 LW
N
615.2 1109 M
615.2 1098.17 L
S
GR
GS
[0.30021 0 0 0.30024 0 0.20001] CT
0.149 GC
2 setlinecap
1 LJ
1.667 LW
N
723.5 1109 M
723.5 1098.17 L
S
GR
GS
[0.30021 0 0 0.30024 0 0.20001] CT
0.149 GC
2 setlinecap
1 LJ
1.667 LW
N
831.8 1109 M
831.8 1098.17 L
S
GR
GS
[0.30021 0 0 0.30024 0 0.20001] CT
0.149 GC
2 setlinecap
1 LJ
1.667 LW
N
940.1 1109 M
940.1 1098.17 L
S
GR
GS
[0.30021 0 0 0.30024 0 0.20001] CT
0.149 GC
2 setlinecap
1 LJ
1.667 LW
N
1048.4 1109 M
1048.4 1098.17 L
S
GR
GS
[0.30021 0 0 0.30024 0 0.20001] CT
0.149 GC
2 setlinecap
1 LJ
1.667 LW
N
1156.7 1109 M
1156.7 1098.17 L
S
GR
GS
[0.30021 0 0 0.30024 0 0.20001] CT
0.149 GC
2 setlinecap
1 LJ
1.667 LW
N
1265 1109 M
1265 1098.17 L
S
GR
GS
[0.30021 0 0 0.30024 54.63908 337.17046] CT
0.149 GC
/Helvetica 33 F
GS
[1 0 0 1 0 0] CT
-9.5 34 moveto 
1 -1 scale
(0) t 
GR
GR
GS
[0.30021 0 0 0.30024 87.15234 337.17046] CT
0.149 GC
/Helvetica 33 F
GS
[1 0 0 1 0 0] CT
-18.5 34 moveto 
1 -1 scale
(10) t 
GR
GR
GS
[0.30021 0 0 0.30024 119.6656 337.17046] CT
0.149 GC
/Helvetica 33 F
GS
[1 0 0 1 0 0] CT
-18.5 34 moveto 
1 -1 scale
(20) t 
GR
GR
GS
[0.30021 0 0 0.30024 152.17885 337.17046] CT
0.149 GC
/Helvetica 33 F
GS
[1 0 0 1 0 0] CT
-18.5 34 moveto 
1 -1 scale
(30) t 
GR
GR
GS
[0.30021 0 0 0.30024 184.69211 337.17046] CT
0.149 GC
/Helvetica 33 F
GS
[1 0 0 1 0 0] CT
-18.5 34 moveto 
1 -1 scale
(40) t 
GR
GR
GS
[0.30021 0 0 0.30024 217.20537 337.17046] CT
0.149 GC
/Helvetica 33 F
GS
[1 0 0 1 0 0] CT
-18.5 34 moveto 
1 -1 scale
(50) t 
GR
GR
GS
[0.30021 0 0 0.30024 249.71862 337.17046] CT
0.149 GC
/Helvetica 33 F
GS
[1 0 0 1 0 0] CT
-18.5 34 moveto 
1 -1 scale
(60) t 
GR
GR
GS
[0.30021 0 0 0.30024 282.23187 337.17046] CT
0.149 GC
/Helvetica 33 F
GS
[1 0 0 1 0 0] CT
-18.5 34 moveto 
1 -1 scale
(70) t 
GR
GR
GS
[0.30021 0 0 0.30024 314.74514 337.17046] CT
0.149 GC
/Helvetica 33 F
GS
[1 0 0 1 0 0] CT
-18.5 34 moveto 
1 -1 scale
(80) t 
GR
GR
GS
[0.30021 0 0 0.30024 347.25838 337.17046] CT
0.149 GC
/Helvetica 33 F
GS
[1 0 0 1 0 0] CT
-18.5 34 moveto 
1 -1 scale
(90) t 
GR
GR
GS
[0.30021 0 0 0.30024 379.77165 337.17046] CT
0.149 GC
/Helvetica 33 F
GS
[1 0 0 1 0 0] CT
-28 34 moveto 
1 -1 scale
(100) t 
GR
GR
GS
[0.30021 0 0 0.30024 217.20551 350.78135] CT
0.149 GC
/Helvetica 37 F
GS
[1 0 0 1 0 0] CT
-9.5 38 moveto 
1 -1 scale
(x) t 
GR
GR
GS
[0.30021 0 0 0.30024 0 0.20001] CT
0.149 GC
2 setlinecap
1 LJ
1.667 LW
N
182 1109 M
182 93 L
S
GR
GS
[0.30021 0 0 0.30024 0 0.20001] CT
0.149 GC
2 setlinecap
1 LJ
1.667 LW
N
182 1109 M
192.83 1109 L
S
GR
GS
[0.30021 0 0 0.30024 0 0.20001] CT
0.149 GC
2 setlinecap
1 LJ
1.667 LW
N
182 1007.4 M
192.83 1007.4 L
S
GR
GS
[0.30021 0 0 0.30024 0 0.20001] CT
0.149 GC
2 setlinecap
1 LJ
1.667 LW
N
182 905.8 M
192.83 905.8 L
S
GR
GS
[0.30021 0 0 0.30024 0 0.20001] CT
0.149 GC
2 setlinecap
1 LJ
1.667 LW
N
182 804.2 M
192.83 804.2 L
S
GR
GS
[0.30021 0 0 0.30024 0 0.20001] CT
0.149 GC
2 setlinecap
1 LJ
1.667 LW
N
182 702.6 M
192.83 702.6 L
S
GR
GS
[0.30021 0 0 0.30024 0 0.20001] CT
0.149 GC
2 setlinecap
1 LJ
1.667 LW
N
182 601 M
192.83 601 L
S
GR
GS
[0.30021 0 0 0.30024 0 0.20001] CT
0.149 GC
2 setlinecap
1 LJ
1.667 LW
N
182 499.4 M
192.83 499.4 L
S
GR
GS
[0.30021 0 0 0.30024 0 0.20001] CT
0.149 GC
2 setlinecap
1 LJ
1.667 LW
N
182 397.8 M
192.83 397.8 L
S
GR
GS
[0.30021 0 0 0.30024 0 0.20001] CT
0.149 GC
2 setlinecap
1 LJ
1.667 LW
N
182 296.2 M
192.83 296.2 L
S
GR
GS
[0.30021 0 0 0.30024 0 0.20001] CT
0.149 GC
2 setlinecap
1 LJ
1.667 LW
N
182 194.6 M
192.83 194.6 L
S
GR
GS
[0.30021 0 0 0.30024 0 0.20001] CT
0.149 GC
2 setlinecap
1 LJ
1.667 LW
N
182 93 M
192.83 93 L
S
GR
GS
[0.30021 0 0 0.30024 50.63622 333.16723] CT
0.149 GC
/Helvetica 33 F
GS
[1 0 0 1 0 0] CT
-19 13 moveto 
1 -1 scale
(0) t 
GR
GR
GS
[0.30021 0 0 0.30024 50.63622 302.66276] CT
0.149 GC
/Helvetica 33 F
GS
[1 0 0 1 0 0] CT
-37 13 moveto 
1 -1 scale
(10) t 
GR
GR
GS
[0.30021 0 0 0.30024 50.63622 272.15826] CT
0.149 GC
/Helvetica 33 F
GS
[1 0 0 1 0 0] CT
-37 13 moveto 
1 -1 scale
(20) t 
GR
GR
GS
[0.30021 0 0 0.30024 50.63622 241.65379] CT
0.149 GC
/Helvetica 33 F
GS
[1 0 0 1 0 0] CT
-37 13 moveto 
1 -1 scale
(30) t 
GR
GR
GS
[0.30021 0 0 0.30024 50.63622 211.1493] CT
0.149 GC
/Helvetica 33 F
GS
[1 0 0 1 0 0] CT
-37 13 moveto 
1 -1 scale
(40) t 
GR
GR
GS
[0.30021 0 0 0.30024 50.63622 180.64483] CT
0.149 GC
/Helvetica 33 F
GS
[1 0 0 1 0 0] CT
-37 13 moveto 
1 -1 scale
(50) t 
GR
GR
GS
[0.30021 0 0 0.30024 50.63622 150.14034] CT
0.149 GC
/Helvetica 33 F
GS
[1 0 0 1 0 0] CT
-37 13 moveto 
1 -1 scale
(60) t 
GR
GR
GS
[0.30021 0 0 0.30024 50.63622 119.63586] CT
0.149 GC
/Helvetica 33 F
GS
[1 0 0 1 0 0] CT
-37 13 moveto 
1 -1 scale
(70) t 
GR
GR
GS
[0.30021 0 0 0.30024 50.63622 89.13139] CT
0.149 GC
/Helvetica 33 F
GS
[1 0 0 1 0 0] CT
-37 13 moveto 
1 -1 scale
(80) t 
GR
GR
GS
[0.30021 0 0 0.30024 50.63622 58.6269] CT
0.149 GC
/Helvetica 33 F
GS
[1 0 0 1 0 0] CT
-37 13 moveto 
1 -1 scale
(90) t 
GR
GR
GS
[0.30021 0 0 0.30024 50.63622 28.12242] CT
0.149 GC
/Helvetica 33 F
GS
[1 0 0 1 0 0] CT
-56 13 moveto 
1 -1 scale
(100) t 
GR
GR
GS
[0 -0.30024 0.30021 0 30.82205 180.64468] CT
0.149 GC
/Helvetica 37 F
GS
[1 0 0 1 0 0] CT
-9.5 -9 moveto 
1 -1 scale
(y) t 
GR
GR
GS
[0.30021 0 0 0.30024 0 0.20001] CT
0 1 0 RC
1 LJ
1.667 LW
N
733.5 600.5 M
732.51 596.161 L
729.735 592.682 L
725.725 590.751 L
721.275 590.751 L
717.265 592.682 L
714.49 596.161 L
713.5 600.5 L
714.49 604.839 L
717.265 608.318 L
721.275 610.249 L
725.725 610.249 L
729.735 608.318 L
732.51 604.839 L
cp
S
GR
GS
[0.30021 0 0 0.30024 0 0.20001] CT
1 0 0 RC
1 LJ
1.667 LW
N
723.5 601 M
853.46 844.84 L
S
GR
GS
[0.30021 0 0 0.30024 0 0.20001] CT
1 0 0 RC
1 LJ
1.667 LW
N
723.5 601 M
1080.89 103.16 L
S
GR
GS
[0.30021 0 0 0.30024 0 0.20001] CT
1 0 0 RC
1 LJ
1.667 LW
N
853.46 844.84 M
972.59 763.56 L
S
GR
GS
[0.30021 0 0 0.30024 0 0.20001] CT
1 0 0 RC
1 LJ
1.667 LW
N
853.46 844.84 M
810.14 1007.4 L
S
GR
GS
[0.30021 0 0 0.30024 0 0.20001] CT
1 0 0 RC
1 LJ
1.667 LW
N
1080.89 103.16 M
1167.53 214.92 L
S
GR
GS
[0.30021 0 0 0.30024 0 0.20001] CT
1 0 0 RC
1 LJ
1.667 LW
N
972.59 763.56 M
1070.06 844.84 L
S
GR
GS
[0.30021 0 0 0.30024 0 0.20001] CT
1 0 0 RC
1 LJ
1.667 LW
N
810.14 1007.4 M
831.8 1088.68 L
S
GR
GS
[0.30021 0 0 0.30024 0 0.20001] CT
1 0 0 RC
1 LJ
1.667 LW
N
723.5 601 M
636.86 794.04 L
S
GR
GS
[0.30021 0 0 0.30024 0 0.20001] CT
1 0 0 RC
1 LJ
1.667 LW
N
636.86 794.04 M
355.28 926.12 L
S
GR
GS
[0.30021 0 0 0.30024 0 0.20001] CT
1 0 0 RC
1 LJ
1.667 LW
N
810.14 1007.4 M
636.86 1017.56 L
S
GR
GS
[0.30021 0 0 0.30024 0 0.20001] CT
1 0 0 RC
1 LJ
1.667 LW
N
723.5 601 M
831.8 631.48 L
S
GR
GS
[0.30021 0 0 0.30024 0 0.20001] CT
1 0 0 RC
1 LJ
1.667 LW
N
831.8 631.48 M
940.1 397.8 L
S
GR
GS
[0.30021 0 0 0.30024 0 0.20001] CT
1 0 0 RC
1 LJ
1.667 LW
N
831.8 1088.68 M
875.12 1078.52 L
S
GR
GS
[0.30021 0 0 0.30024 0 0.20001] CT
1 0 0 RC
1 LJ
1.667 LW
N
355.28 926.12 M
246.98 783.88 L
S
GR
GS
[0.30021 0 0 0.30024 0 0.20001] CT
1 0 0 RC
1 LJ
1.667 LW
N
723.5 601 M
755.99 438.44 L
S
GR
GS
[0.30021 0 0 0.30024 0 0.20001] CT
1 0 0 RC
1 LJ
1.667 LW
N
755.99 438.44 M
626.03 275.88 L
S
GR
GS
[0.30021 0 0 0.30024 0 0.20001] CT
1 0 0 RC
1 LJ
1.667 LW
N
1080.89 103.16 M
961.76 123.48 L
S
GR
GS
[0.30021 0 0 0.30024 0 0.20001] CT
1 0 0 RC
1 LJ
1.667 LW
N
853.46 844.84 M
755.99 783.88 L
S
GR
GS
[0.30021 0 0 0.30024 0 0.20001] CT
1 0 0 RC
1 LJ
1.667 LW
N
246.98 783.88 M
290.3 489.24 L
S
GR
GS
[0.30021 0 0 0.30024 0 0.20001] CT
1 0 0 RC
1 LJ
1.667 LW
N
972.59 763.56 M
1026.74 682.28 L
S
GR
GS
[0.30021 0 0 0.30024 0 0.20001] CT
1 0 0 RC
1 LJ
1.667 LW
N
246.98 783.88 M
279.47 844.84 L
S
GR
GS
[0.30021 0 0 0.30024 0 0.20001] CT
1 0 0 RC
1 LJ
1.667 LW
N
279.47 844.84 M
344.45 824.52 L
S
GR
GS
[0.30021 0 0 0.30024 0 0.20001] CT
1 0 0 RC
1 LJ
1.667 LW
N
723.5 601 M
658.52 570.52 L
S
GR
GS
[0.30021 0 0 0.30024 0 0.20001] CT
1 0 0 RC
1 LJ
1.667 LW
N
626.03 275.88 M
680.18 214.92 L
S
GR
GS
[0.30021 0 0 0.30024 0 0.20001] CT
1 0 0 RC
1 LJ
1.667 LW
N
680.18 214.92 M
745.16 143.8 L
S
GR
GS
[0.30021 0 0 0.30024 0 0.20001] CT
1 0 0 RC
1 LJ
1.667 LW
N
961.76 123.48 M
875.12 133.64 L
S
GR
GS
[0.30021 0 0 0.30024 0 0.20001] CT
1 0 0 RC
1 LJ
1.667 LW
N
290.3 489.24 M
441.92 418.12 L
S
GR
GS
[0.30021 0 0 0.30024 0 0.20001] CT
1 0 0 RC
1 LJ
1.667 LW
N
441.92 418.12 M
496.07 428.28 L
S
GR
GS
[0.30021 0 0 0.30024 0 0.20001] CT
1 0 0 RC
1 LJ
1.667 LW
N
875.12 1078.52 M
940.1 1048.04 L
S
GR
GS
[0.30021 0 0 0.30024 0 0.20001] CT
1 0 0 RC
1 LJ
1.667 LW
N
355.28 926.12 M
452.75 885.48 L
S
GR
GS
[0.30021 0 0 0.30024 0 0.20001] CT
1 0 0 RC
1 LJ
1.667 LW
N
875.12 133.64 M
907.61 245.4 L
S
GR
GS
[0.30021 0 0 0.30024 0 0.20001] CT
1 0 0 RC
1 LJ
1.667 LW
N
626.03 275.88 M
550.22 316.52 L
S
GR
GS
[0.30021 0 0 0.30024 0 0.20001] CT
1 0 0 RC
1 LJ
1.667 LW
N
875.12 1078.52 M
918.44 1109 L
S
GR
GS
[0.30021 0 0 0.30024 0 0.20001] CT
1 0 0 RC
1 LJ
1.667 LW
N
831.8 631.48 M
831.8 712.76 L
S
GR
GS
[0.30021 0 0 0.30024 0 0.20001] CT
1 0 0 RC
1 LJ
1.667 LW
N
940.1 1048.04 M
1178.36 1109 L
S
GR
GS
[0.30021 0 0 0.30024 0 0.20001] CT
1 0 0 RC
1 LJ
1.667 LW
N
723.5 601 M
680.18 682.28 L
S
GR
GS
[0.30021 0 0 0.30024 0 0.20001] CT
1 0 0 RC
1 LJ
1.667 LW
N
626.03 275.88 M
680.18 326.68 L
S
GR
GS
[0.30021 0 0 0.30024 0 0.20001] CT
1 0 0 RC
1 LJ
1.667 LW
N
550.22 316.52 M
528.56 306.36 L
S
GR
GS
[0.30021 0 0 0.30024 0 0.20001] CT
1 0 0 RC
1 LJ
1.667 LW
N
636.86 1017.56 M
691.01 1078.52 L
S
GR
GS
[0.30021 0 0 0.30024 0 0.20001] CT
1 0 0 RC
1 LJ
1.667 LW
N
441.92 418.12 M
366.11 377.48 L
S
GR
GS
[0.30021 0 0 0.30024 0 0.20001] CT
1 0 0 RC
1 LJ
1.667 LW
N
636.86 1017.56 M
691.01 956.6 L
S
GR
GS
[0.30021 0 0 0.30024 0 0.20001] CT
1 0 0 RC
1 LJ
1.667 LW
N
496.07 428.28 M
550.22 489.24 L
S
GR
GS
[0.30021 0 0 0.30024 0 0.20001] CT
1 0 0 RC
1 LJ
1.667 LW
N
366.11 377.48 M
387.77 357.16 L
S
GR
GS
[0.30021 0 0 0.30024 0 0.20001] CT
1 0 0 RC
1 LJ
1.667 LW
N
528.56 306.36 M
441.92 174.28 L
S
GR
GS
[0.30021 0 0 0.30024 0 0.20001] CT
1 0 0 RC
1 LJ
1.667 LW
N
528.56 306.36 M
474.41 326.68 L
S
GR
GS
[0.30021 0 0 0.30024 0 0.20001] CT
1 0 0 RC
1 LJ
1.667 LW
N
344.45 824.52 M
387.77 814.36 L
S
GR
GS
[0.30021 0 0 0.30024 0 0.20001] CT
1 0 0 RC
1 LJ
1.667 LW
N
290.3 489.24 M
279.47 519.72 L
S
GR
GS
[0.30021 0 0 0.30024 0 0.20001] CT
1 0 0 RC
1 LJ
1.667 LW
N
831.8 631.48 M
929.27 550.2 L
S
GR
GS
[0.30021 0 0 0.30024 0 0.20001] CT
1 0 0 RC
1 LJ
1.667 LW
N
550.22 489.24 M
636.86 448.6 L
S
GR
GS
[0.30021 0 0 0.30024 0 0.20001] CT
1 0 0 RC
1 LJ
1.667 LW
N
940.1 397.8 M
885.95 418.12 L
S
GR
GS
[0.30021 0 0 0.30024 0 0.20001] CT
1 0 0 RC
1 LJ
1.667 LW
N
875.12 133.64 M
875.12 143.8 L
S
GR
GS
[0.30021 0 0 0.30024 0 0.20001] CT
1 0 0 RC
1 LJ
1.667 LW
N
387.77 357.16 M
409.43 387.64 L
S
GR
GS
[0.30021 0 0 0.30024 0 0.20001] CT
1 0 0 RC
1 LJ
1.667 LW
N
355.28 926.12 M
431.09 987.08 L
S
GR
GS
[0.30021 0 0 0.30024 0 0.20001] CT
1 0 0 RC
1 LJ
1.667 LW
N
831.8 631.48 M
842.63 651.8 L
S
GR
GS
[0.30021 0 0 0.30024 0 0.20001] CT
1 0 0 RC
1 LJ
1.667 LW
N
636.86 448.6 M
680.18 438.44 L
S
GR
GS
[0.30021 0 0 0.30024 0 0.20001] CT
1 0 0 RC
1 LJ
1.667 LW
N
972.59 763.56 M
1015.91 753.4 L
S
GR
GS
[0.30021 0 0 0.30024 0 0.20001] CT
1 0 0 RC
1 LJ
1.667 LW
N
842.63 651.8 M
896.78 682.28 L
S
GR
GS
[0.30021 0 0 0.30024 0 0.20001] CT
1 0 0 RC
1 LJ
1.667 LW
N
1167.53 214.92 M
1102.55 255.56 L
S
GR
GS
[0.30021 0 0 0.30024 0 0.20001] CT
1 0 0 RC
1 LJ
1.667 LW
N
441.92 418.12 M
452.75 489.24 L
S
GR
GS
[0.30021 0 0 0.30024 0 0.20001] CT
1 0 0 RC
1 LJ
1.667 LW
N
831.8 631.48 M
810.14 560.36 L
S
GR
GS
[0.30021 0 0 0.30024 0 0.20001] CT
1 0 0 RC
1 LJ
1.667 LW
N
1070.06 844.84 M
1124.21 844.84 L
S
GR
GS
[0.30021 0 0 0.30024 0 0.20001] CT
1 0 0 RC
1 LJ
1.667 LW
N
431.09 987.08 M
528.56 987.08 L
S
GR
GS
[0.30021 0 0 0.30024 0 0.20001] CT
1 0 0 RC
1 LJ
1.667 LW
N
1102.55 255.56 M
1200.02 448.6 L
S
GR
GS
[0.30021 0 0 0.30024 0 0.20001] CT
1 0 0 RC
1 LJ
1.667 LW
N
680.18 438.44 M
701.84 458.76 L
S
GR
GS
[0.30021 0 0 0.30024 0 0.20001] CT
1 0 0 RC
1 LJ
1.667 LW
N
755.99 438.44 M
777.65 448.6 L
S
GR
GS
[0.30021 0 0 0.30024 0 0.20001] CT
1 0 0 RC
1 LJ
1.667 LW
N
755.99 438.44 M
766.82 377.48 L
S
GR
GS
[0.30021 0 0 0.30024 0 0.20001] CT
1 0 0 RC
1 LJ
1.667 LW
N
745.16 143.8 M
745.16 93 L
S
GR
GS
[0.30021 0 0 0.30024 0 0.20001] CT
1 0 0 RC
1 LJ
1.667 LW
N
431.09 987.08 M
420.26 1007.4 L
S
GR
GS
[0.30021 0 0 0.30024 0 0.20001] CT
1 0 0 RC
1 LJ
1.667 LW
N
420.26 1007.4 M
301.13 1048.04 L
S
GR
GS
[0.30021 0 0 0.30024 0 0.20001] CT
1 0 0 RC
1 LJ
1.667 LW
N
680.18 682.28 M
615.2 651.8 L
S
GR
GS
[0.30021 0 0 0.30024 0 0.20001] CT
1 0 0 RC
1 LJ
1.667 LW
N
550.22 316.52 M
571.88 326.68 L
S
GR
GS
[0.30021 0 0 0.30024 0 0.20001] CT
1 0 0 RC
1 LJ
1.667 LW
N
907.61 245.4 M
864.29 326.68 L
S
GR
GS
[0.30021 0 0 0.30024 0 0.20001] CT
1 0 0 RC
1 LJ
1.667 LW
N
1167.53 214.92 M
1200.02 113.32 L
S
GR
GS
[0.30021 0 0 0.30024 0 0.20001] CT
1 0 0 RC
1 LJ
1.667 LW
N
431.09 987.08 M
387.77 966.76 L
S
GR
GS
[0.30021 0 0 0.30024 0 0.20001] CT
1 0 0 RC
1 LJ
1.667 LW
N
940.1 1048.04 M
940.1 1017.56 L
S
GR
GS
[0.30021 0 0 0.30024 0 0.20001] CT
1 0 0 RC
1 LJ
1.667 LW
N
723.5 601 M
755.99 570.52 L
S
GR
GS
[0.30021 0 0 0.30024 0 0.20001] CT
1 0 0 RC
1 LJ
1.667 LW
N
1026.74 682.28 M
1113.38 621.32 L
S
GR
GS
[0.30021 0 0 0.30024 0 0.20001] CT
1 0 0 RC
1 LJ
1.667 LW
N
636.86 448.6 M
604.37 428.28 L
S
GR
GS
[0.30021 0 0 0.30024 0 0.20001] CT
1 0 0 RC
1 LJ
1.667 LW
N
929.27 550.2 M
983.42 580.68 L
S
GR
GS
[0.30021 0 0 0.30024 0 0.20001] CT
1 0 0 RC
1 LJ
1.667 LW
N
528.56 987.08 M
561.05 956.6 L
S
GR
GS
[0.30021 0 0 0.30024 0 0.20001] CT
1 0 0 RC
1 LJ
1.667 LW
N
853.46 844.84 M
820.97 844.84 L
S
GR
GS
[0.30021 0 0 0.30024 0 0.20001] CT
1 0 0 RC
1 LJ
1.667 LW
N
366.11 377.48 M
225.32 336.84 L
S
GR
GS
[0.30021 0 0 0.30024 0 0.20001] CT
1 0 0 RC
1 LJ
1.667 LW
N
387.77 814.36 M
441.92 661.96 L
S
GR
GS
[0.30021 0 0 0.30024 0 0.20001] CT
1 0 0 RC
1 LJ
1.667 LW
N
972.59 763.56 M
929.27 743.24 L
S
GR
GS
[0.30021 0 0 0.30024 0 0.20001] CT
1 0 0 RC
1 LJ
1.667 LW
N
1026.74 682.28 M
983.42 712.76 L
S
GR
GS
[0.30021 0 0 0.30024 0 0.20001] CT
1 0 0 RC
1 LJ
1.667 LW
N
940.1 397.8 M
929.27 387.64 L
S
GR
GS
[0.30021 0 0 0.30024 0 0.20001] CT
1 0 0 RC
1 LJ
1.667 LW
N
691.01 1078.52 M
658.52 1098.84 L
S
GR
GS
[0.30021 0 0 0.30024 0 0.20001] CT
1 0 0 RC
1 LJ
1.667 LW
N
615.2 651.8 M
539.39 682.28 L
S
GR
GS
[0.30021 0 0 0.30024 0 0.20001] CT
1 0 0 RC
1 LJ
1.667 LW
N
452.75 885.48 M
474.41 915.96 L
S
GR
GS
[0.30021 0 0 0.30024 0 0.20001] CT
1 0 0 RC
1 LJ
1.667 LW
N
1026.74 682.28 M
1070.06 672.12 L
S
GR
GS
[0.30021 0 0 0.30024 0 0.20001] CT
1 0 0 RC
1 LJ
1.667 LW
N
1070.06 672.12 M
1145.87 712.76 L
S
GR
GS
[0.30021 0 0 0.30024 0 0.20001] CT
1 0 0 RC
1 LJ
1.667 LW
N
1026.74 682.28 M
1015.91 702.6 L
S
GR
GS
[0.30021 0 0 0.30024 0 0.20001] CT
1 0 0 RC
1 LJ
1.667 LW
N
1102.55 255.56 M
1059.23 336.84 L
S
GR
GS
[0.30021 0 0 0.30024 0 0.20001] CT
1 0 0 RC
1 LJ
1.667 LW
N
561.05 956.6 M
593.54 895.64 L
S
GR
GS
[0.30021 0 0 0.30024 0 0.20001] CT
1 0 0 RC
1 LJ
1.667 LW
N
1080.89 103.16 M
1037.57 143.8 L
S
GR
GS
[0.30021 0 0 0.30024 0 0.20001] CT
1 0 0 RC
1 LJ
1.667 LW
N
496.07 428.28 M
539.39 428.28 L
S
GR
GS
[0.30021 0 0 0.30024 0 0.20001] CT
1 0 0 RC
1 LJ
1.667 LW
N
626.03 275.88 M
658.52 255.56 L
S
GR
GS
[0.30021 0 0 0.30024 0 0.20001] CT
1 0 0 RC
1 LJ
1.667 LW
N
940.1 1017.56 M
1015.91 946.44 L
S
GR
GS
[0.30021 0 0 0.30024 0 0.20001] CT
1 0 0 RC
1 LJ
1.667 LW
N
1080.89 103.16 M
1124.21 103.16 L
S
GR
GS
[0.30021 0 0 0.30024 0 0.20001] CT
1 0 0 RC
1 LJ
1.667 LW
N
680.18 214.92 M
734.33 204.76 L
S
GR
GS
[0.30021 0 0 0.30024 0 0.20001] CT
1 0 0 RC
1 LJ
1.667 LW
N
810.14 1007.4 M
820.97 956.6 L
S
GR
GS
[0.30021 0 0 0.30024 0 0.20001] CT
1 0 0 RC
1 LJ
1.667 LW
N
441.92 661.96 M
398.6 692.44 L
S
GR
GS
[0.30021 0 0 0.30024 0 0.20001] CT
1 0 0 RC
1 LJ
1.667 LW
N
907.61 245.4 M
994.25 265.72 L
S
GR
GS
[0.30021 0 0 0.30024 0 0.20001] CT
1 0 0 RC
1 LJ
1.667 LW
N
1015.91 753.4 M
1037.57 783.88 L
S
GR
GS
[0.30021 0 0 0.30024 0 0.20001] CT
1 0 0 RC
1 LJ
1.667 LW
N
810.14 1007.4 M
755.99 1017.56 L
S
GR
GS
[0.30021 0 0 0.30024 0 0.20001] CT
1 0 0 RC
1 LJ
1.667 LW
N
301.13 1048.04 M
301.13 976.92 L
S
GR
GS
[0.30021 0 0 0.30024 0 0.20001] CT
1 0 0 RC
1 LJ
1.667 LW
N
929.27 550.2 M
918.44 601 L
S
GR
GS
[0.30021 0 0 0.30024 0 0.20001] CT
1 0 0 RC
1 LJ
1.667 LW
N
441.92 661.96 M
387.77 611.16 L
S
GR
GS
[0.30021 0 0 0.30024 0 0.20001] CT
1 0 0 RC
1 LJ
1.667 LW
N
301.13 1048.04 M
333.62 1058.2 L
S
GR
GS
[0.30021 0 0 0.30024 0 0.20001] CT
1 0 0 RC
1 LJ
1.667 LW
N
1113.38 621.32 M
1102.55 540.04 L
S
GR
GS
[0.30021 0 0 0.30024 0 0.20001] CT
1 0 0 RC
1 LJ
1.667 LW
N
1200.02 448.6 M
1189.19 397.8 L
S
GR
GS
[0.30021 0 0 0.30024 0 0.20001] CT
1 0 0 RC
1 LJ
1.667 LW
N
864.29 326.68 M
810.14 275.88 L
S
GR
GS
[0.30021 0 0 0.30024 0 0.20001] CT
1 0 0 RC
1 LJ
1.667 LW
N
1124.21 103.16 M
1135.04 103.16 L
S
GR
GS
[0.30021 0 0 0.30024 0 0.20001] CT
1 0 0 RC
1 LJ
1.667 LW
N
225.32 336.84 M
182 225.08 L
S
GR
GS
[0.30021 0 0 0.30024 0 0.20001] CT
1 0 0 RC
1 LJ
1.667 LW
N
875.12 133.64 M
842.63 103.16 L
S
GR
GS
[0.30021 0 0 0.30024 0 0.20001] CT
1 0 0 RC
1 LJ
1.667 LW
N
723.5 601 M
755.99 621.32 L
S
GR
GS
[0.30021 0 0 0.30024 0 0.20001] CT
1 0 0 RC
1 LJ
1.667 LW
N
1070.06 844.84 M
1048.4 875.32 L
S
GR
GS
[0.30021 0 0 0.30024 0 0.20001] CT
1 0 0 RC
1 LJ
1.667 LW
N
734.33 204.76 M
723.5 194.6 L
S
GR
GS
[0.30021 0 0 0.30024 0 0.20001] CT
1 0 0 RC
1 LJ
1.667 LW
N
810.14 275.88 M
810.14 245.4 L
S
GR
GS
[0.30021 0 0 0.30024 0 0.20001] CT
1 0 0 RC
1 LJ
1.667 LW
N
929.27 550.2 M
983.42 509.56 L
S
GR
GS
[0.30021 0 0 0.30024 0 0.20001] CT
1 0 0 RC
1 LJ
1.667 LW
N
441.92 418.12 M
441.92 428.28 L
S
GR
GS
[0.30021 0 0 0.30024 0 0.20001] CT
1 0 0 RC
1 LJ
1.667 LW
N
290.3 489.24 M
268.64 468.92 L
S
GR
GS
[0.30021 0 0 0.30024 0 0.20001] CT
1 0 0 RC
1 LJ
1.667 LW
N
929.27 387.64 M
896.78 367.32 L
S
GR
GS
[0.30021 0 0 0.30024 0 0.20001] CT
1 0 0 RC
1 LJ
1.667 LW
N
1135.04 103.16 M
1145.87 103.16 L
S
GR
GS
[0.30021 0 0 0.30024 0 0.20001] CT
1 0 0 RC
1 LJ
1.667 LW
N
983.42 509.56 M
1015.91 519.72 L
S
GR
GS
[0.30021 0 0 0.30024 0 0.20001] CT
1 0 0 RC
1 LJ
1.667 LW
N
1200.02 448.6 M
1189.19 519.72 L
S
GR
GS
[0.30021 0 0 0.30024 0 0.20001] CT
1 0 0 RC
1 LJ
1.667 LW
N
301.13 976.92 M
192.83 987.08 L
S
GR
GS
[0.30021 0 0 0.30024 0 0.20001] CT
1 0 0 RC
1 LJ
1.667 LW
N
1113.38 621.32 M
1124.21 621.32 L
S
GR
GS
[0.30021 0 0 0.30024 0 0.20001] CT
1 0 0 RC
1 LJ
1.667 LW
N
1124.21 844.84 M
1102.55 895.64 L
S
GR
GS
[0.30021 0 0 0.30024 0 0.20001] CT
1 0 0 RC
1 LJ
1.667 LW
N
777.65 448.6 M
777.65 468.92 L
S
GR
GS
[0.30021 0 0 0.30024 0 0.20001] CT
1 0 0 RC
1 LJ
1.667 LW
N
268.64 468.92 M
214.49 479.08 L
S
GR
GS
[0.30021 0 0 0.30024 0 0.20001] CT
1 0 0 RC
1 LJ
1.667 LW
N
636.86 1017.56 M
571.88 1058.2 L
S
GR
GS
[0.30021 0 0 0.30024 0 0.20001] CT
1 0 0 RC
1 LJ
1.667 LW
N
691.01 956.6 M
712.67 915.96 L
S
GR
GS
[0.30021 0 0 0.30024 0 0.20001] CT
1 0 0 RC
1 LJ
1.667 LW
N
355.28 926.12 M
311.96 905.8 L
S
GR
GS
[0.30021 0 0 0.30024 0 0.20001] CT
1 0 0 RC
1 LJ
1.667 LW
N
355.28 926.12 M
333.62 915.96 L
S
GR
GS
[0.30021 0 0 0.30024 0 0.20001] CT
1 0 0 RC
1 LJ
1.667 LW
N
214.49 479.08 M
225.32 458.76 L
S
GR
GS
[0.30021 0 0 0.30024 0 0.20001] CT
1 0 0 RC
1 LJ
1.667 LW
N
452.75 489.24 M
485.24 560.36 L
S
GR
GS
[0.30021 0 0 0.30024 0 0.20001] CT
1 0 0 RC
1 LJ
1.667 LW
N
918.44 601 M
940.1 601 L
S
GR
GS
[0.30021 0 0 0.30024 0 0.20001] CT
1 0 0 RC
1 LJ
1.667 LW
N
755.99 621.32 M
766.82 661.96 L
S
GR
GS
[0.30021 0 0 0.30024 0 0.20001] CT
1 0 0 RC
1 LJ
1.667 LW
N
387.77 611.16 M
311.96 611.16 L
S
GR
GS
[0.30021 0 0 0.30024 0 0.20001] CT
1 0 0 RC
1 LJ
1.667 LW
N
1102.55 255.56 M
1113.38 214.92 L
S
GR
GS
[0.30021 0 0 0.30024 0 0.20001] CT
1 0 0 RC
1 LJ
1.667 LW
N
474.41 915.96 M
474.41 895.64 L
S
GR
GS
[0.30021 0 0 0.30024 0 0.20001] CT
1 0 0 RC
1 LJ
1.667 LW
N
777.65 448.6 M
799.31 458.76 L
S
GR
GS
[0.30021 0 0 0.30024 0 0.20001] CT
1 0 0 RC
1 LJ
1.667 LW
N
593.54 895.64 M
636.86 905.8 L
S
GR
GS
[0.30021 0 0 0.30024 0 0.20001] CT
1 0 0 RC
1 LJ
1.667 LW
N
1178.36 1109 M
1210.85 1027.72 L
S
GR
GS
[0.30021 0 0 0.30024 0 0.20001] CT
1 0 0 RC
1 LJ
1.667 LW
N
301.13 976.92 M
290.3 966.76 L
S
GR
GS
[0.30021 0 0 0.30024 0 0.20001] CT
1 0 0 RC
1 LJ
1.667 LW
N
290.3 489.24 M
355.28 479.08 L
S
GR
GS
[0.30021 0 0 0.30024 0 0.20001] CT
1 0 0 RC
1 LJ
1.667 LW
N
831.8 1088.68 M
799.31 1058.2 L
S
GR
GS
[0.30021 0 0 0.30024 0 0.20001] CT
1 0 0 RC
1 LJ
1.667 LW
N
1189.19 397.8 M
1200.02 367.32 L
S
GR
GS
[0.30021 0 0 0.30024 0 0.20001] CT
1 0 0 RC
1 LJ
1.667 LW
N
940.1 1048.04 M
983.42 1048.04 L
S
GR
GS
[0.30021 0 0 0.30024 0 0.20001] CT
1 0 0 RC
1 LJ
1.667 LW
N
1124.21 103.16 M
1113.38 153.96 L
S
GR
GS
[0.30021 0 0 0.30024 0 0.20001] CT
1 0 0 RC
1 LJ
1.667 LW
N
1167.53 214.92 M
1254.17 235.24 L
S
GR
GS
[0.30021 0 0 0.30024 0 0.20001] CT
1 0 0 RC
1 LJ
1.667 LW
N
983.42 580.68 M
1037.57 590.84 L
S
GR
GS
[0.30021 0 0 0.30024 0 0.20001] CT
1 0 0 RC
1 LJ
1.667 LW
N
398.6 692.44 M
366.11 702.6 L
S
GR
GS
[0.30021 0 0 0.30024 0 0.20001] CT
1 0 0 RC
1 LJ
1.667 LW
N
333.62 1058.2 M
322.79 1078.52 L
S
GR
GS
[0.30021 0 0 0.30024 0 0.20001] CT
1 0 0 RC
1 LJ
1.667 LW
N
1124.21 844.84 M
1200.02 804.2 L
S
GR
GS
[0.30021 0 0 0.30024 0 0.20001] CT
1 0 0 RC
1 LJ
1.667 LW
N
539.39 682.28 M
496.07 773.72 L
S
GR
GS
[0.30021 0 0 0.30024 0 0.20001] CT
1 0 0 RC
1 LJ
1.667 LW
N
680.18 438.44 M
691.01 448.6 L
S
GR
GS
[0.30021 0 0 0.30024 0 0.20001] CT
1 0 0 RC
1 LJ
1.667 LW
N
182 225.08 M
203.66 245.4 L
S
GR
GS
[0.30021 0 0 0.30024 0 0.20001] CT
1 0 0 RC
1 LJ
1.667 LW
N
810.14 245.4 M
788.48 235.24 L
S
GR
GS
[0.30021 0 0 0.30024 0 0.20001] CT
1 0 0 RC
1 LJ
1.667 LW
N
539.39 682.28 M
561.05 651.8 L
S
GR
GS
[0.30021 0 0 0.30024 0 0.20001] CT
1 0 0 RC
1 LJ
1.667 LW
N
290.3 966.76 M
236.15 936.28 L
S
GR
GS
[0.30021 0 0 0.30024 0 0.20001] CT
1 0 0 RC
1 LJ
1.667 LW
N
929.27 743.24 M
896.78 773.72 L
S
GR
GS
[0.30021 0 0 0.30024 0 0.20001] CT
1 0 0 RC
1 LJ
1.667 LW
N
1210.85 1027.72 M
1156.7 997.24 L
S
GR
GS
[0.30021 0 0 0.30024 0 0.20001] CT
1 0 0 RC
1 LJ
1.667 LW
N
1189.19 519.72 M
1254.17 560.36 L
S
GR
GS
[0.30021 0 0 0.30024 0 0.20001] CT
1 0 0 RC
1 LJ
1.667 LW
N
961.76 123.48 M
950.93 93 L
S
GR
GS
[0.30021 0 0 0.30024 0 0.20001] CT
1 0 0 RC
1 LJ
1.667 LW
N
539.39 682.28 M
496.07 692.44 L
S
GR
GS
[0.30021 0 0 0.30024 0 0.20001] CT
1 0 0 RC
1 LJ
1.667 LW
N
680.18 326.68 M
680.18 326.68 L
S
GR
GS
[0.30021 0 0 0.30024 0 0.20001] CT
1 0 0 RC
1 LJ
1.667 LW
N
1015.91 946.44 M
1070.06 1007.4 L
S
GR
GS
[0.30021 0 0 0.30024 0 0.20001] CT
1 0 0 RC
1 LJ
1.667 LW
N
366.11 702.6 M
366.11 743.24 L
S
GR
GS
[0.30021 0 0 0.30024 0 0.20001] CT
1 0 0 RC
1 LJ
1.667 LW
N
279.47 519.72 M
236.15 580.68 L
S
GR
GS
[0.30021 0 0 0.30024 0 0.20001] CT
1 0 0 RC
1 LJ
1.667 LW
N
561.05 956.6 M
539.39 936.28 L
S
GR
GS
[0.30021 0 0 0.30024 0 0.20001] CT
1 0 0 RC
1 LJ
1.667 LW
N
441.92 174.28 M
409.43 184.44 L
S
GR
GS
[0.30021 0 0 0.30024 0 0.20001] CT
1 0 0 RC
1 LJ
1.667 LW
N
918.44 601 M
918.44 631.48 L
S
GR
GS
[0.30021 0 0 0.30024 0 0.20001] CT
1 0 0 RC
1 LJ
1.667 LW
N
1156.7 997.24 M
1178.36 1007.4 L
S
GR
GS
[0.30021 0 0 0.30024 0 0.20001] CT
1 0 0 RC
1 LJ
1.667 LW
N
1059.23 336.84 M
994.25 357.16 L
S
GR
GS
[0.30021 0 0 0.30024 0 0.20001] CT
1 0 0 RC
1 LJ
1.667 LW
N
820.97 956.6 M
788.48 926.12 L
S
GR
GS
[0.30021 0 0 0.30024 0 0.20001] CT
1 0 0 RC
1 LJ
1.667 LW
N
820.97 844.84 M
831.8 804.2 L
S
GR
GS
[0.30021 0 0 0.30024 0 0.20001] CT
1 0 0 RC
1 LJ
1.667 LW
N
311.96 905.8 M
322.79 895.64 L
S
GR
GS
[0.30021 0 0 0.30024 0 0.20001] CT
1 0 0 RC
1 LJ
1.667 LW
N
1178.36 1007.4 M
1156.7 1037.88 L
S
GR
GS
[0.30021 0 0 0.30024 0 0.20001] CT
1 0 0 RC
1 LJ
1.667 LW
N
420.26 1007.4 M
441.92 1058.2 L
S
GR
GS
[0.30021 0 0 0.30024 0 0.20001] CT
1 0 0 RC
1 LJ
1.667 LW
N
658.52 1098.84 M
658.52 1098.84 L
S
GR
GS
[0.30021 0 0 0.30024 0 0.20001] CT
1 0 0 RC
1 LJ
1.667 LW
N
1102.55 895.64 M
1156.7 915.96 L
S
GR
GS
[0.30021 0 0 0.30024 0 0.20001] CT
1 0 0 RC
1 LJ
1.667 LW
N
246.98 783.88 M
279.47 794.04 L
S
GR
GS
[0.30021 0 0 0.30024 0 0.20001] CT
1 0 0 RC
1 LJ
1.667 LW
N
636.86 1017.56 M
680.18 1007.4 L
S
GR
GS
[0.30021 0 0 0.30024 0 0.20001] CT
1 0 0 RC
1 LJ
1.667 LW
N
1200.02 804.2 M
1265 773.72 L
S
GR
GS
[0.30021 0 0 0.30024 0 0.20001] CT
1 0 0 RC
1 LJ
1.667 LW
N
571.88 1058.2 M
506.9 1048.04 L
S
GR
GS
[0.30021 0 0 0.30024 0 0.20001] CT
1 0 0 RC
1 LJ
1.667 LW
N
506.9 1048.04 M
506.9 1068.36 L
S
GR
GS
[0.30021 0 0 0.30024 0 0.20001] CT
1 0 0 RC
1 LJ
1.667 LW
N
766.82 377.48 M
734.33 336.84 L
S
GR
GS
[0.30021 0 0 0.30024 0 0.20001] CT
1 0 0 RC
1 LJ
1.667 LW
N
810.14 1007.4 M
864.29 1017.56 L
S
GR
GS
[0.30021 0 0 0.30024 0 0.20001] CT
1 0 0 RC
1 LJ
1.667 LW
N
225.32 336.84 M
268.64 316.52 L
S
GR
GS
[0.30021 0 0 0.30024 0 0.20001] CT
1 0 0 RC
1 LJ
1.667 LW
N
1189.19 519.72 M
1167.53 570.52 L
S
GR
GS
[0.30021 0 0 0.30024 0 0.20001] CT
1 0 0 RC
1 LJ
1.667 LW
N
268.64 316.52 M
301.13 265.72 L
S
GR
GS
[0.30021 0 0 0.30024 0 0.20001] CT
1 0 0 RC
1 LJ
1.667 LW
N
496.07 773.72 M
550.22 814.36 L
S
GR
GS
[0.30021 0 0 0.30024 0 0.20001] CT
1 0 0 RC
1 LJ
1.667 LW
N
983.42 1048.04 M
994.25 1098.84 L
S
GR
GS
[0.30021 0 0 0.30024 0 0.20001] CT
1 0 0 RC
1 LJ
1.667 LW
N
225.32 458.76 M
225.32 428.28 L
S
GR
GS
[0.30021 0 0 0.30024 0 0.20001] CT
1 0 0 RC
1 LJ
1.667 LW
N
810.14 560.36 M
831.8 570.52 L
S
GR
GS
[0.30021 0 0 0.30024 0 0.20001] CT
1 0 0 RC
1 LJ
1.667 LW
N
940.1 397.8 M
972.59 387.64 L
S
GR
GS
[0.30021 0 0 0.30024 0 0.20001] CT
1 0 0 RC
1 LJ
1.667 LW
N
1037.57 783.88 M
1026.74 814.36 L
S
GR
%%Trailer
%%Pages: 1
%%EOF
