%!PS-Adobe-3.0 EPSF-3.0
%%Creator: (MATLAB, The Mathworks, Inc. Version 8.6.0.267246 \(R2015b\). Operating System: Windows 8)
%%Title: (C:/Users/Daniel/OneDrive - CertiCon a.s/Documents/skola/CVUT/Semester_8/Bakalarska_Praca/Bachelor thesis/Figures/BasicRRT20.eps)
%%CreationDate: 2016-05-05T19:44:20
%%Pages: (atend)
%%BoundingBox: 0 0 420 374
%%LanguageLevel: 2
%%EndComments
%%BeginProlog
%%BeginResource: procset (Apache XML Graphics Std ProcSet) 1.2 0
%%Version: 1.2 0
%%Copyright: (Copyright 2001-2003,2010 The Apache Software Foundation. License terms: http://www.apache.org/licenses/LICENSE-2.0)
/bd{bind def}bind def
/ld{load def}bd
/GR/grestore ld
/M/moveto ld
/LJ/setlinejoin ld
/C/curveto ld
/f/fill ld
/LW/setlinewidth ld
/GC/setgray ld
/t/show ld
/N/newpath ld
/CT/concat ld
/cp/closepath ld
/S/stroke ld
/L/lineto ld
/CC/setcmykcolor ld
/A/ashow ld
/GS/gsave ld
/RC/setrgbcolor ld
/RM/rmoveto ld
/ML/setmiterlimit ld
/re {4 2 roll M
1 index 0 rlineto
0 exch rlineto
neg 0 rlineto
cp } bd
/_ctm matrix def
/_tm matrix def
/BT { _ctm currentmatrix pop matrix _tm copy pop 0 0 moveto } bd
/ET { _ctm setmatrix } bd
/iTm { _ctm setmatrix _tm concat } bd
/Tm { _tm astore pop iTm 0 0 moveto } bd
/ux 0.0 def
/uy 0.0 def
/F {
  /Tp exch def
  /Tf exch def
  Tf findfont Tp scalefont setfont
  /cf Tf def  /cs Tp def
} bd
/ULS {currentpoint /uy exch def /ux exch def} bd
/ULE {
  /Tcx currentpoint pop def
  gsave
  newpath
  cf findfont cs scalefont dup
  /FontMatrix get 0 get /Ts exch def /FontInfo get dup
  /UnderlinePosition get Ts mul /To exch def
  /UnderlineThickness get Ts mul /Tt exch def
  ux uy To add moveto  Tcx uy To add lineto
  Tt setlinewidth stroke
  grestore
} bd
/OLE {
  /Tcx currentpoint pop def
  gsave
  newpath
  cf findfont cs scalefont dup
  /FontMatrix get 0 get /Ts exch def /FontInfo get dup
  /UnderlinePosition get Ts mul /To exch def
  /UnderlineThickness get Ts mul /Tt exch def
  ux uy To add cs add moveto Tcx uy To add cs add lineto
  Tt setlinewidth stroke
  grestore
} bd
/SOE {
  /Tcx currentpoint pop def
  gsave
  newpath
  cf findfont cs scalefont dup
  /FontMatrix get 0 get /Ts exch def /FontInfo get dup
  /UnderlinePosition get Ts mul /To exch def
  /UnderlineThickness get Ts mul /Tt exch def
  ux uy To add cs 10 mul 26 idiv add moveto Tcx uy To add cs 10 mul 26 idiv add lineto
  Tt setlinewidth stroke
  grestore
} bd
/QT {
/Y22 exch store
/X22 exch store
/Y21 exch store
/X21 exch store
currentpoint
/Y21 load 2 mul add 3 div exch
/X21 load 2 mul add 3 div exch
/X21 load 2 mul /X22 load add 3 div
/Y21 load 2 mul /Y22 load add 3 div
/X22 load /Y22 load curveto
} bd
/SSPD {
dup length /d exch dict def
{
/v exch def
/k exch def
currentpagedevice k known {
/cpdv currentpagedevice k get def
v cpdv ne {
/upd false def
/nullv v type /nulltype eq def
/nullcpdv cpdv type /nulltype eq def
nullv nullcpdv or
{
/upd true def
} {
/sametype v type cpdv type eq def
sametype {
v type /arraytype eq {
/vlen v length def
/cpdvlen cpdv length def
vlen cpdvlen eq {
0 1 vlen 1 sub {
/i exch def
/obj v i get def
/cpdobj cpdv i get def
obj cpdobj ne {
/upd true def
exit
} if
} for
} {
/upd true def
} ifelse
} {
v type /dicttype eq {
v {
/dv exch def
/dk exch def
/cpddv cpdv dk get def
dv cpddv ne {
/upd true def
exit
} if
} forall
} {
/upd true def
} ifelse
} ifelse
} if
} ifelse
upd true eq {
d k v put
} if
} if
} if
} forall
d length 0 gt {
d setpagedevice
} if
} bd
%%EndResource
%%BeginResource: procset (Apache XML Graphics EPS ProcSet) 1.0 0
%%Version: 1.0 0
%%Copyright: (Copyright 2002-2003 The Apache Software Foundation. License terms: http://www.apache.org/licenses/LICENSE-2.0)
/BeginEPSF { %def
/b4_Inc_state save def         % Save state for cleanup
/dict_count countdictstack def % Count objects on dict stack
/op_count count 1 sub def      % Count objects on operand stack
userdict begin                 % Push userdict on dict stack
/showpage { } def              % Redefine showpage, { } = null proc
0 setgray 0 setlinecap         % Prepare graphics state
1 setlinewidth 0 setlinejoin
10 setmiterlimit [ ] 0 setdash newpath
/languagelevel where           % If level not equal to 1 then
{pop languagelevel             % set strokeadjust and
1 ne                           % overprint to their defaults.
{false setstrokeadjust false setoverprint
} if
} if
} bd
/EndEPSF { %def
count op_count sub {pop} repeat            % Clean up stacks
countdictstack dict_count sub {end} repeat
b4_Inc_state restore
} bd
%%EndResource
%FOPBeginFontDict
%%IncludeResource: font Courier-Bold
%%IncludeResource: font Helvetica
%%IncludeResource: font Courier-BoldOblique
%%IncludeResource: font Courier-Oblique
%%IncludeResource: font Times-Roman
%%IncludeResource: font Helvetica-BoldOblique
%%IncludeResource: font Helvetica-Bold
%%IncludeResource: font Helvetica-Oblique
%%IncludeResource: font Times-BoldItalic
%%IncludeResource: font Courier
%%IncludeResource: font Times-Italic
%%IncludeResource: font Times-Bold
%%IncludeResource: font Symbol
%%IncludeResource: font ZapfDingbats
%FOPEndFontDict
%%BeginResource: encoding WinAnsiEncoding
/WinAnsiEncoding [
/.notdef /.notdef /.notdef /.notdef /.notdef
/.notdef /.notdef /.notdef /.notdef /.notdef
/.notdef /.notdef /.notdef /.notdef /.notdef
/.notdef /.notdef /.notdef /.notdef /.notdef
/.notdef /.notdef /.notdef /.notdef /.notdef
/.notdef /.notdef /.notdef /.notdef /.notdef
/.notdef /.notdef /space /exclam /quotedbl
/numbersign /dollar /percent /ampersand /quotesingle
/parenleft /parenright /asterisk /plus /comma
/hyphen /period /slash /zero /one
/two /three /four /five /six
/seven /eight /nine /colon /semicolon
/less /equal /greater /question /at
/A /B /C /D /E
/F /G /H /I /J
/K /L /M /N /O
/P /Q /R /S /T
/U /V /W /X /Y
/Z /bracketleft /backslash /bracketright /asciicircum
/underscore /quoteleft /a /b /c
/d /e /f /g /h
/i /j /k /l /m
/n /o /p /q /r
/s /t /u /v /w
/x /y /z /braceleft /bar
/braceright /asciitilde /bullet /Euro /bullet
/quotesinglbase /florin /quotedblbase /ellipsis /dagger
/daggerdbl /circumflex /perthousand /Scaron /guilsinglleft
/OE /bullet /Zcaron /bullet /bullet
/quoteleft /quoteright /quotedblleft /quotedblright /bullet
/endash /emdash /asciitilde /trademark /scaron
/guilsinglright /oe /bullet /zcaron /Ydieresis
/space /exclamdown /cent /sterling /currency
/yen /brokenbar /section /dieresis /copyright
/ordfeminine /guillemotleft /logicalnot /sfthyphen /registered
/macron /degree /plusminus /twosuperior /threesuperior
/acute /mu /paragraph /middot /cedilla
/onesuperior /ordmasculine /guillemotright /onequarter /onehalf
/threequarters /questiondown /Agrave /Aacute /Acircumflex
/Atilde /Adieresis /Aring /AE /Ccedilla
/Egrave /Eacute /Ecircumflex /Edieresis /Igrave
/Iacute /Icircumflex /Idieresis /Eth /Ntilde
/Ograve /Oacute /Ocircumflex /Otilde /Odieresis
/multiply /Oslash /Ugrave /Uacute /Ucircumflex
/Udieresis /Yacute /Thorn /germandbls /agrave
/aacute /acircumflex /atilde /adieresis /aring
/ae /ccedilla /egrave /eacute /ecircumflex
/edieresis /igrave /iacute /icircumflex /idieresis
/eth /ntilde /ograve /oacute /ocircumflex
/otilde /odieresis /divide /oslash /ugrave
/uacute /ucircumflex /udieresis /yacute /thorn
/ydieresis
] def
%%EndResource
%FOPBeginFontReencode
/Courier-Bold findfont
dup length dict begin
  {1 index /FID ne {def} {pop pop} ifelse} forall
  /Encoding WinAnsiEncoding def
  currentdict
end
/Courier-Bold exch definefont pop
/Helvetica findfont
dup length dict begin
  {1 index /FID ne {def} {pop pop} ifelse} forall
  /Encoding WinAnsiEncoding def
  currentdict
end
/Helvetica exch definefont pop
/Courier-BoldOblique findfont
dup length dict begin
  {1 index /FID ne {def} {pop pop} ifelse} forall
  /Encoding WinAnsiEncoding def
  currentdict
end
/Courier-BoldOblique exch definefont pop
/Courier-Oblique findfont
dup length dict begin
  {1 index /FID ne {def} {pop pop} ifelse} forall
  /Encoding WinAnsiEncoding def
  currentdict
end
/Courier-Oblique exch definefont pop
/Times-Roman findfont
dup length dict begin
  {1 index /FID ne {def} {pop pop} ifelse} forall
  /Encoding WinAnsiEncoding def
  currentdict
end
/Times-Roman exch definefont pop
/Helvetica-BoldOblique findfont
dup length dict begin
  {1 index /FID ne {def} {pop pop} ifelse} forall
  /Encoding WinAnsiEncoding def
  currentdict
end
/Helvetica-BoldOblique exch definefont pop
/Helvetica-Bold findfont
dup length dict begin
  {1 index /FID ne {def} {pop pop} ifelse} forall
  /Encoding WinAnsiEncoding def
  currentdict
end
/Helvetica-Bold exch definefont pop
/Helvetica-Oblique findfont
dup length dict begin
  {1 index /FID ne {def} {pop pop} ifelse} forall
  /Encoding WinAnsiEncoding def
  currentdict
end
/Helvetica-Oblique exch definefont pop
/Times-BoldItalic findfont
dup length dict begin
  {1 index /FID ne {def} {pop pop} ifelse} forall
  /Encoding WinAnsiEncoding def
  currentdict
end
/Times-BoldItalic exch definefont pop
/Courier findfont
dup length dict begin
  {1 index /FID ne {def} {pop pop} ifelse} forall
  /Encoding WinAnsiEncoding def
  currentdict
end
/Courier exch definefont pop
/Times-Italic findfont
dup length dict begin
  {1 index /FID ne {def} {pop pop} ifelse} forall
  /Encoding WinAnsiEncoding def
  currentdict
end
/Times-Italic exch definefont pop
/Times-Bold findfont
dup length dict begin
  {1 index /FID ne {def} {pop pop} ifelse} forall
  /Encoding WinAnsiEncoding def
  currentdict
end
/Times-Bold exch definefont pop
%FOPEndFontReencode
%%EndProlog
%%Page: 1 1
%%PageBoundingBox: 0 0 420 374
%%BeginPageSetup
[1 0 0 -1 0 374] CT
%%EndPageSetup
GS
[0.3 0 0 0.30024 0 0.20001] CT
N
0 0 M
1400 0 L
1400 1245 L
0 1245 L
0 0 L
cp
clip
1 GC
N
0 0 1400 1245 re
f
GR
GS
[0.3 0 0 0.30024 0 0.20001] CT
1 GC
N
0 0 1400 1245 re
f
GR
GS
[0.3 0 0 0.30024 0 0.20001] CT
1 GC
N
182 1109 M
1267 1109 L
1267 93 L
182 93 L
cp
f
GR
GS
[0.3 0 0 0.30024 0 0.20001] CT
0.873 GC
1 LJ
1.667 LW
N
182 1109 M
182 93 L
S
GR
GS
[0.3 0 0 0.30024 0 0.20001] CT
0.873 GC
1 LJ
1.667 LW
N
290.5 1109 M
290.5 93 L
S
GR
GS
[0.3 0 0 0.30024 0 0.20001] CT
0.873 GC
1 LJ
1.667 LW
N
399 1109 M
399 93 L
S
GR
GS
[0.3 0 0 0.30024 0 0.20001] CT
0.873 GC
1 LJ
1.667 LW
N
507.5 1109 M
507.5 93 L
S
GR
GS
[0.3 0 0 0.30024 0 0.20001] CT
0.873 GC
1 LJ
1.667 LW
N
616 1109 M
616 93 L
S
GR
GS
[0.3 0 0 0.30024 0 0.20001] CT
0.873 GC
1 LJ
1.667 LW
N
724.5 1109 M
724.5 93 L
S
GR
GS
[0.3 0 0 0.30024 0 0.20001] CT
0.873 GC
1 LJ
1.667 LW
N
833 1109 M
833 93 L
S
GR
GS
[0.3 0 0 0.30024 0 0.20001] CT
0.873 GC
1 LJ
1.667 LW
N
941.5 1109 M
941.5 93 L
S
GR
GS
[0.3 0 0 0.30024 0 0.20001] CT
0.873 GC
1 LJ
1.667 LW
N
1050 1109 M
1050 93 L
S
GR
GS
[0.3 0 0 0.30024 0 0.20001] CT
0.873 GC
1 LJ
1.667 LW
N
1158.5 1109 M
1158.5 93 L
S
GR
GS
[0.3 0 0 0.30024 0 0.20001] CT
0.873 GC
1 LJ
1.667 LW
N
1267 1109 M
1267 93 L
S
GR
GS
[0.3 0 0 0.30024 0 0.20001] CT
0.873 GC
1 LJ
1.667 LW
N
1267 1109 M
182 1109 L
S
GR
GS
[0.3 0 0 0.30024 0 0.20001] CT
0.873 GC
1 LJ
1.667 LW
N
1267 1007.4 M
182 1007.4 L
S
GR
GS
[0.3 0 0 0.30024 0 0.20001] CT
0.873 GC
1 LJ
1.667 LW
N
1267 905.8 M
182 905.8 L
S
GR
GS
[0.3 0 0 0.30024 0 0.20001] CT
0.873 GC
1 LJ
1.667 LW
N
1267 804.2 M
182 804.2 L
S
GR
GS
[0.3 0 0 0.30024 0 0.20001] CT
0.873 GC
1 LJ
1.667 LW
N
1267 702.6 M
182 702.6 L
S
GR
GS
[0.3 0 0 0.30024 0 0.20001] CT
0.873 GC
1 LJ
1.667 LW
N
1267 601 M
182 601 L
S
GR
GS
[0.3 0 0 0.30024 0 0.20001] CT
0.873 GC
1 LJ
1.667 LW
N
1267 499.4 M
182 499.4 L
S
GR
GS
[0.3 0 0 0.30024 0 0.20001] CT
0.873 GC
1 LJ
1.667 LW
N
1267 397.8 M
182 397.8 L
S
GR
GS
[0.3 0 0 0.30024 0 0.20001] CT
0.873 GC
1 LJ
1.667 LW
N
1267 296.2 M
182 296.2 L
S
GR
GS
[0.3 0 0 0.30024 0 0.20001] CT
0.873 GC
1 LJ
1.667 LW
N
1267 194.6 M
182 194.6 L
S
GR
GS
[0.3 0 0 0.30024 0 0.20001] CT
0.873 GC
1 LJ
1.667 LW
N
1267 93 M
182 93 L
S
GR
GS
[0.3 0 0 0.30024 0 0.20001] CT
0.149 GC
2 setlinecap
1 LJ
1.667 LW
N
182 1109 M
1267 1109 L
S
GR
GS
[0.3 0 0 0.30024 0 0.20001] CT
0.149 GC
2 setlinecap
1 LJ
1.667 LW
N
182 1109 M
182 1098.15 L
S
GR
GS
[0.3 0 0 0.30024 0 0.20001] CT
0.149 GC
2 setlinecap
1 LJ
1.667 LW
N
290.5 1109 M
290.5 1098.15 L
S
GR
GS
[0.3 0 0 0.30024 0 0.20001] CT
0.149 GC
2 setlinecap
1 LJ
1.667 LW
N
399 1109 M
399 1098.15 L
S
GR
GS
[0.3 0 0 0.30024 0 0.20001] CT
0.149 GC
2 setlinecap
1 LJ
1.667 LW
N
507.5 1109 M
507.5 1098.15 L
S
GR
GS
[0.3 0 0 0.30024 0 0.20001] CT
0.149 GC
2 setlinecap
1 LJ
1.667 LW
N
616 1109 M
616 1098.15 L
S
GR
GS
[0.3 0 0 0.30024 0 0.20001] CT
0.149 GC
2 setlinecap
1 LJ
1.667 LW
N
724.5 1109 M
724.5 1098.15 L
S
GR
GS
[0.3 0 0 0.30024 0 0.20001] CT
0.149 GC
2 setlinecap
1 LJ
1.667 LW
N
833 1109 M
833 1098.15 L
S
GR
GS
[0.3 0 0 0.30024 0 0.20001] CT
0.149 GC
2 setlinecap
1 LJ
1.667 LW
N
941.5 1109 M
941.5 1098.15 L
S
GR
GS
[0.3 0 0 0.30024 0 0.20001] CT
0.149 GC
2 setlinecap
1 LJ
1.667 LW
N
1050 1109 M
1050 1098.15 L
S
GR
GS
[0.3 0 0 0.30024 0 0.20001] CT
0.149 GC
2 setlinecap
1 LJ
1.667 LW
N
1158.5 1109 M
1158.5 1098.15 L
S
GR
GS
[0.3 0 0 0.30024 0 0.20001] CT
0.149 GC
2 setlinecap
1 LJ
1.667 LW
N
1267 1109 M
1267 1098.15 L
S
GR
GS
[0.3 0 0 0.30024 54.6 337.17046] CT
0.149 GC
/Helvetica 33 F
GS
[1 0 0 1 0 0] CT
-9.5 34 moveto 
1 -1 scale
(0) t 
GR
GR
GS
[0.3 0 0 0.30024 87.15 337.17046] CT
0.149 GC
/Helvetica 33 F
GS
[1 0 0 1 0 0] CT
-18.5 34 moveto 
1 -1 scale
(10) t 
GR
GR
GS
[0.3 0 0 0.30024 119.7 337.17046] CT
0.149 GC
/Helvetica 33 F
GS
[1 0 0 1 0 0] CT
-18.5 34 moveto 
1 -1 scale
(20) t 
GR
GR
GS
[0.3 0 0 0.30024 152.25 337.17046] CT
0.149 GC
/Helvetica 33 F
GS
[1 0 0 1 0 0] CT
-18.5 34 moveto 
1 -1 scale
(30) t 
GR
GR
GS
[0.3 0 0 0.30024 184.8 337.17046] CT
0.149 GC
/Helvetica 33 F
GS
[1 0 0 1 0 0] CT
-18.5 34 moveto 
1 -1 scale
(40) t 
GR
GR
GS
[0.3 0 0 0.30024 217.35 337.17046] CT
0.149 GC
/Helvetica 33 F
GS
[1 0 0 1 0 0] CT
-18.5 34 moveto 
1 -1 scale
(50) t 
GR
GR
GS
[0.3 0 0 0.30024 249.9 337.17046] CT
0.149 GC
/Helvetica 33 F
GS
[1 0 0 1 0 0] CT
-18.5 34 moveto 
1 -1 scale
(60) t 
GR
GR
GS
[0.3 0 0 0.30024 282.45 337.17046] CT
0.149 GC
/Helvetica 33 F
GS
[1 0 0 1 0 0] CT
-18.5 34 moveto 
1 -1 scale
(70) t 
GR
GR
GS
[0.3 0 0 0.30024 315 337.17046] CT
0.149 GC
/Helvetica 33 F
GS
[1 0 0 1 0 0] CT
-18.5 34 moveto 
1 -1 scale
(80) t 
GR
GR
GS
[0.3 0 0 0.30024 347.55 337.17046] CT
0.149 GC
/Helvetica 33 F
GS
[1 0 0 1 0 0] CT
-18.5 34 moveto 
1 -1 scale
(90) t 
GR
GR
GS
[0.3 0 0 0.30024 380.1 337.17046] CT
0.149 GC
/Helvetica 33 F
GS
[1 0 0 1 0 0] CT
-28 34 moveto 
1 -1 scale
(100) t 
GR
GR
GS
[0.3 0 0 0.30024 217.35015 350.78135] CT
0.149 GC
/Helvetica 37 F
GS
[1 0 0 1 0 0] CT
-9.5 38 moveto 
1 -1 scale
(x) t 
GR
GR
GS
[0.3 0 0 0.30024 0 0.20001] CT
0.149 GC
2 setlinecap
1 LJ
1.667 LW
N
182 1109 M
182 93 L
S
GR
GS
[0.3 0 0 0.30024 0 0.20001] CT
0.149 GC
2 setlinecap
1 LJ
1.667 LW
N
182 1109 M
192.85 1109 L
S
GR
GS
[0.3 0 0 0.30024 0 0.20001] CT
0.149 GC
2 setlinecap
1 LJ
1.667 LW
N
182 1007.4 M
192.85 1007.4 L
S
GR
GS
[0.3 0 0 0.30024 0 0.20001] CT
0.149 GC
2 setlinecap
1 LJ
1.667 LW
N
182 905.8 M
192.85 905.8 L
S
GR
GS
[0.3 0 0 0.30024 0 0.20001] CT
0.149 GC
2 setlinecap
1 LJ
1.667 LW
N
182 804.2 M
192.85 804.2 L
S
GR
GS
[0.3 0 0 0.30024 0 0.20001] CT
0.149 GC
2 setlinecap
1 LJ
1.667 LW
N
182 702.6 M
192.85 702.6 L
S
GR
GS
[0.3 0 0 0.30024 0 0.20001] CT
0.149 GC
2 setlinecap
1 LJ
1.667 LW
N
182 601 M
192.85 601 L
S
GR
GS
[0.3 0 0 0.30024 0 0.20001] CT
0.149 GC
2 setlinecap
1 LJ
1.667 LW
N
182 499.4 M
192.85 499.4 L
S
GR
GS
[0.3 0 0 0.30024 0 0.20001] CT
0.149 GC
2 setlinecap
1 LJ
1.667 LW
N
182 397.8 M
192.85 397.8 L
S
GR
GS
[0.3 0 0 0.30024 0 0.20001] CT
0.149 GC
2 setlinecap
1 LJ
1.667 LW
N
182 296.2 M
192.85 296.2 L
S
GR
GS
[0.3 0 0 0.30024 0 0.20001] CT
0.149 GC
2 setlinecap
1 LJ
1.667 LW
N
182 194.6 M
192.85 194.6 L
S
GR
GS
[0.3 0 0 0.30024 0 0.20001] CT
0.149 GC
2 setlinecap
1 LJ
1.667 LW
N
182 93 M
192.85 93 L
S
GR
GS
[0.3 0 0 0.30024 50.6 333.16723] CT
0.149 GC
/Helvetica 33 F
GS
[1 0 0 1 0 0] CT
-19 13 moveto 
1 -1 scale
(0) t 
GR
GR
GS
[0.3 0 0 0.30024 50.6 302.66276] CT
0.149 GC
/Helvetica 33 F
GS
[1 0 0 1 0 0] CT
-37 13 moveto 
1 -1 scale
(10) t 
GR
GR
GS
[0.3 0 0 0.30024 50.6 272.15826] CT
0.149 GC
/Helvetica 33 F
GS
[1 0 0 1 0 0] CT
-37 13 moveto 
1 -1 scale
(20) t 
GR
GR
GS
[0.3 0 0 0.30024 50.6 241.65379] CT
0.149 GC
/Helvetica 33 F
GS
[1 0 0 1 0 0] CT
-37 13 moveto 
1 -1 scale
(30) t 
GR
GR
GS
[0.3 0 0 0.30024 50.6 211.1493] CT
0.149 GC
/Helvetica 33 F
GS
[1 0 0 1 0 0] CT
-37 13 moveto 
1 -1 scale
(40) t 
GR
GR
GS
[0.3 0 0 0.30024 50.6 180.64483] CT
0.149 GC
/Helvetica 33 F
GS
[1 0 0 1 0 0] CT
-37 13 moveto 
1 -1 scale
(50) t 
GR
GR
GS
[0.3 0 0 0.30024 50.6 150.14034] CT
0.149 GC
/Helvetica 33 F
GS
[1 0 0 1 0 0] CT
-37 13 moveto 
1 -1 scale
(60) t 
GR
GR
GS
[0.3 0 0 0.30024 50.6 119.63586] CT
0.149 GC
/Helvetica 33 F
GS
[1 0 0 1 0 0] CT
-37 13 moveto 
1 -1 scale
(70) t 
GR
GR
GS
[0.3 0 0 0.30024 50.6 89.13139] CT
0.149 GC
/Helvetica 33 F
GS
[1 0 0 1 0 0] CT
-37 13 moveto 
1 -1 scale
(80) t 
GR
GR
GS
[0.3 0 0 0.30024 50.6 58.6269] CT
0.149 GC
/Helvetica 33 F
GS
[1 0 0 1 0 0] CT
-37 13 moveto 
1 -1 scale
(90) t 
GR
GR
GS
[0.3 0 0 0.30024 50.6 28.12242] CT
0.149 GC
/Helvetica 33 F
GS
[1 0 0 1 0 0] CT
-56 13 moveto 
1 -1 scale
(100) t 
GR
GR
GS
[0 -0.30024 0.3 0 30.8 180.64468] CT
0.149 GC
/Helvetica 37 F
GS
[1 0 0 1 0 0] CT
-9.5 -9 moveto 
1 -1 scale
(y) t 
GR
GR
GS
[0.3 0 0 0.30024 0 0.20001] CT
0 1 0 RC
1 LJ
1.667 LW
N
734.5 600.5 M
733.51 596.161 L
730.735 592.682 L
726.725 590.751 L
722.275 590.751 L
718.265 592.682 L
715.49 596.161 L
714.5 600.5 L
715.49 604.839 L
718.265 608.318 L
722.275 610.249 L
726.725 610.249 L
730.735 608.318 L
733.51 604.839 L
cp
S
GR
GS
[0.3 0 0 0.30024 0 0.20001] CT
1 0 0 RC
1 LJ
1.667 LW
N
724.5 601 M
474.95 682.28 L
S
GR
GS
[0.3 0 0 0.30024 0 0.20001] CT
1 0 0 RC
1 LJ
1.667 LW
N
724.5 601 M
778.75 143.8 L
S
GR
GS
[0.3 0 0 0.30024 0 0.20001] CT
1 0 0 RC
1 LJ
1.667 LW
N
778.75 143.8 M
637.7 103.16 L
S
GR
GS
[0.3 0 0 0.30024 0 0.20001] CT
1 0 0 RC
1 LJ
1.667 LW
N
474.95 682.28 M
507.5 397.8 L
S
GR
GS
[0.3 0 0 0.30024 0 0.20001] CT
1 0 0 RC
1 LJ
1.667 LW
N
724.5 601 M
908.95 560.36 L
S
GR
GS
[0.3 0 0 0.30024 0 0.20001] CT
1 0 0 RC
1 LJ
1.667 LW
N
908.95 560.36 M
941.5 428.28 L
S
GR
GS
[0.3 0 0 0.30024 0 0.20001] CT
1 0 0 RC
1 LJ
1.667 LW
N
474.95 682.28 M
366.45 987.08 L
S
GR
GS
[0.3 0 0 0.30024 0 0.20001] CT
1 0 0 RC
1 LJ
1.667 LW
N
908.95 560.36 M
1267 936.28 L
S
GR
GS
[0.3 0 0 0.30024 0 0.20001] CT
1 0 0 RC
1 LJ
1.667 LW
N
474.95 682.28 M
214.55 540.04 L
S
GR
GS
[0.3 0 0 0.30024 0 0.20001] CT
1 0 0 RC
1 LJ
1.667 LW
N
941.5 428.28 M
1147.65 428.28 L
S
GR
GS
[0.3 0 0 0.30024 0 0.20001] CT
1 0 0 RC
1 LJ
1.667 LW
N
474.95 682.28 M
388.15 733.08 L
S
GR
GS
[0.3 0 0 0.30024 0 0.20001] CT
1 0 0 RC
1 LJ
1.667 LW
N
637.7 103.16 M
681.1 103.16 L
S
GR
GS
[0.3 0 0 0.30024 0 0.20001] CT
1 0 0 RC
1 LJ
1.667 LW
N
507.5 397.8 M
344.75 235.24 L
S
GR
GS
[0.3 0 0 0.30024 0 0.20001] CT
1 0 0 RC
1 LJ
1.667 LW
N
908.95 560.36 M
887.25 722.92 L
S
GR
GS
[0.3 0 0 0.30024 0 0.20001] CT
1 0 0 RC
1 LJ
1.667 LW
N
388.15 733.08 M
388.15 672.12 L
S
GR
GS
[0.3 0 0 0.30024 0 0.20001] CT
1 0 0 RC
1 LJ
1.667 LW
N
366.45 987.08 M
702.8 987.08 L
S
GR
GS
[0.3 0 0 0.30024 0 0.20001] CT
1 0 0 RC
1 LJ
1.667 LW
N
702.8 987.08 M
822.15 885.48 L
S
GR
GS
[0.3 0 0 0.30024 0 0.20001] CT
1 0 0 RC
1 LJ
1.667 LW
N
724.5 601 M
594.3 519.72 L
S
GR
GS
[0.3 0 0 0.30024 0 0.20001] CT
1 0 0 RC
1 LJ
1.667 LW
N
388.15 733.08 M
453.25 814.36 L
S
GR
%%Trailer
%%Pages: 1
%%EOF
