%!PS-Adobe-3.0 EPSF-3.0
%%Creator: (MATLAB, The Mathworks, Inc. Version 8.6.0.267246 \(R2015b\). Operating System: Windows 8)
%%Title: (C:/Users/Daniel/OneDrive - CertiCon a.s/Documents/skola/CVUT/Semester_8/Bakalarska_Praca/Bachelor thesis/Figures/convergenceOf1Particle.eps)
%%CreationDate: 2016-04-29T18:05:57
%%Pages: (atend)
%%BoundingBox: 0 0 420 315
%%LanguageLevel: 2
%%EndComments
%%BeginProlog
%%BeginResource: procset (Apache XML Graphics Std ProcSet) 1.2 0
%%Version: 1.2 0
%%Copyright: (Copyright 2001-2003,2010 The Apache Software Foundation. License terms: http://www.apache.org/licenses/LICENSE-2.0)
/bd{bind def}bind def
/ld{load def}bd
/GR/grestore ld
/M/moveto ld
/LJ/setlinejoin ld
/C/curveto ld
/f/fill ld
/LW/setlinewidth ld
/GC/setgray ld
/t/show ld
/N/newpath ld
/CT/concat ld
/cp/closepath ld
/S/stroke ld
/L/lineto ld
/CC/setcmykcolor ld
/A/ashow ld
/GS/gsave ld
/RC/setrgbcolor ld
/RM/rmoveto ld
/ML/setmiterlimit ld
/re {4 2 roll M
1 index 0 rlineto
0 exch rlineto
neg 0 rlineto
cp } bd
/_ctm matrix def
/_tm matrix def
/BT { _ctm currentmatrix pop matrix _tm copy pop 0 0 moveto } bd
/ET { _ctm setmatrix } bd
/iTm { _ctm setmatrix _tm concat } bd
/Tm { _tm astore pop iTm 0 0 moveto } bd
/ux 0.0 def
/uy 0.0 def
/F {
  /Tp exch def
  /Tf exch def
  Tf findfont Tp scalefont setfont
  /cf Tf def  /cs Tp def
} bd
/ULS {currentpoint /uy exch def /ux exch def} bd
/ULE {
  /Tcx currentpoint pop def
  gsave
  newpath
  cf findfont cs scalefont dup
  /FontMatrix get 0 get /Ts exch def /FontInfo get dup
  /UnderlinePosition get Ts mul /To exch def
  /UnderlineThickness get Ts mul /Tt exch def
  ux uy To add moveto  Tcx uy To add lineto
  Tt setlinewidth stroke
  grestore
} bd
/OLE {
  /Tcx currentpoint pop def
  gsave
  newpath
  cf findfont cs scalefont dup
  /FontMatrix get 0 get /Ts exch def /FontInfo get dup
  /UnderlinePosition get Ts mul /To exch def
  /UnderlineThickness get Ts mul /Tt exch def
  ux uy To add cs add moveto Tcx uy To add cs add lineto
  Tt setlinewidth stroke
  grestore
} bd
/SOE {
  /Tcx currentpoint pop def
  gsave
  newpath
  cf findfont cs scalefont dup
  /FontMatrix get 0 get /Ts exch def /FontInfo get dup
  /UnderlinePosition get Ts mul /To exch def
  /UnderlineThickness get Ts mul /Tt exch def
  ux uy To add cs 10 mul 26 idiv add moveto Tcx uy To add cs 10 mul 26 idiv add lineto
  Tt setlinewidth stroke
  grestore
} bd
/QT {
/Y22 exch store
/X22 exch store
/Y21 exch store
/X21 exch store
currentpoint
/Y21 load 2 mul add 3 div exch
/X21 load 2 mul add 3 div exch
/X21 load 2 mul /X22 load add 3 div
/Y21 load 2 mul /Y22 load add 3 div
/X22 load /Y22 load curveto
} bd
/SSPD {
dup length /d exch dict def
{
/v exch def
/k exch def
currentpagedevice k known {
/cpdv currentpagedevice k get def
v cpdv ne {
/upd false def
/nullv v type /nulltype eq def
/nullcpdv cpdv type /nulltype eq def
nullv nullcpdv or
{
/upd true def
} {
/sametype v type cpdv type eq def
sametype {
v type /arraytype eq {
/vlen v length def
/cpdvlen cpdv length def
vlen cpdvlen eq {
0 1 vlen 1 sub {
/i exch def
/obj v i get def
/cpdobj cpdv i get def
obj cpdobj ne {
/upd true def
exit
} if
} for
} {
/upd true def
} ifelse
} {
v type /dicttype eq {
v {
/dv exch def
/dk exch def
/cpddv cpdv dk get def
dv cpddv ne {
/upd true def
exit
} if
} forall
} {
/upd true def
} ifelse
} ifelse
} if
} ifelse
upd true eq {
d k v put
} if
} if
} if
} forall
d length 0 gt {
d setpagedevice
} if
} bd
%%EndResource
%%BeginResource: procset (Apache XML Graphics EPS ProcSet) 1.0 0
%%Version: 1.0 0
%%Copyright: (Copyright 2002-2003 The Apache Software Foundation. License terms: http://www.apache.org/licenses/LICENSE-2.0)
/BeginEPSF { %def
/b4_Inc_state save def         % Save state for cleanup
/dict_count countdictstack def % Count objects on dict stack
/op_count count 1 sub def      % Count objects on operand stack
userdict begin                 % Push userdict on dict stack
/showpage { } def              % Redefine showpage, { } = null proc
0 setgray 0 setlinecap         % Prepare graphics state
1 setlinewidth 0 setlinejoin
10 setmiterlimit [ ] 0 setdash newpath
/languagelevel where           % If level not equal to 1 then
{pop languagelevel             % set strokeadjust and
1 ne                           % overprint to their defaults.
{false setstrokeadjust false setoverprint
} if
} if
} bd
/EndEPSF { %def
count op_count sub {pop} repeat            % Clean up stacks
countdictstack dict_count sub {end} repeat
b4_Inc_state restore
} bd
%%EndResource
%FOPBeginFontDict
%%IncludeResource: font Courier-Bold
%%IncludeResource: font Helvetica
%%IncludeResource: font Courier-BoldOblique
%%IncludeResource: font Courier-Oblique
%%IncludeResource: font Times-Roman
%%IncludeResource: font Helvetica-BoldOblique
%%IncludeResource: font Helvetica-Bold
%%IncludeResource: font Helvetica-Oblique
%%IncludeResource: font Times-BoldItalic
%%IncludeResource: font Courier
%%IncludeResource: font Times-Italic
%%IncludeResource: font Times-Bold
%%IncludeResource: font Symbol
%%IncludeResource: font ZapfDingbats
%FOPEndFontDict
%%BeginResource: encoding WinAnsiEncoding
/WinAnsiEncoding [
/.notdef /.notdef /.notdef /.notdef /.notdef
/.notdef /.notdef /.notdef /.notdef /.notdef
/.notdef /.notdef /.notdef /.notdef /.notdef
/.notdef /.notdef /.notdef /.notdef /.notdef
/.notdef /.notdef /.notdef /.notdef /.notdef
/.notdef /.notdef /.notdef /.notdef /.notdef
/.notdef /.notdef /space /exclam /quotedbl
/numbersign /dollar /percent /ampersand /quotesingle
/parenleft /parenright /asterisk /plus /comma
/hyphen /period /slash /zero /one
/two /three /four /five /six
/seven /eight /nine /colon /semicolon
/less /equal /greater /question /at
/A /B /C /D /E
/F /G /H /I /J
/K /L /M /N /O
/P /Q /R /S /T
/U /V /W /X /Y
/Z /bracketleft /backslash /bracketright /asciicircum
/underscore /quoteleft /a /b /c
/d /e /f /g /h
/i /j /k /l /m
/n /o /p /q /r
/s /t /u /v /w
/x /y /z /braceleft /bar
/braceright /asciitilde /bullet /Euro /bullet
/quotesinglbase /florin /quotedblbase /ellipsis /dagger
/daggerdbl /circumflex /perthousand /Scaron /guilsinglleft
/OE /bullet /Zcaron /bullet /bullet
/quoteleft /quoteright /quotedblleft /quotedblright /bullet
/endash /emdash /asciitilde /trademark /scaron
/guilsinglright /oe /bullet /zcaron /Ydieresis
/space /exclamdown /cent /sterling /currency
/yen /brokenbar /section /dieresis /copyright
/ordfeminine /guillemotleft /logicalnot /sfthyphen /registered
/macron /degree /plusminus /twosuperior /threesuperior
/acute /mu /paragraph /middot /cedilla
/onesuperior /ordmasculine /guillemotright /onequarter /onehalf
/threequarters /questiondown /Agrave /Aacute /Acircumflex
/Atilde /Adieresis /Aring /AE /Ccedilla
/Egrave /Eacute /Ecircumflex /Edieresis /Igrave
/Iacute /Icircumflex /Idieresis /Eth /Ntilde
/Ograve /Oacute /Ocircumflex /Otilde /Odieresis
/multiply /Oslash /Ugrave /Uacute /Ucircumflex
/Udieresis /Yacute /Thorn /germandbls /agrave
/aacute /acircumflex /atilde /adieresis /aring
/ae /ccedilla /egrave /eacute /ecircumflex
/edieresis /igrave /iacute /icircumflex /idieresis
/eth /ntilde /ograve /oacute /ocircumflex
/otilde /odieresis /divide /oslash /ugrave
/uacute /ucircumflex /udieresis /yacute /thorn
/ydieresis
] def
%%EndResource
%FOPBeginFontReencode
/Courier-Bold findfont
dup length dict begin
  {1 index /FID ne {def} {pop pop} ifelse} forall
  /Encoding WinAnsiEncoding def
  currentdict
end
/Courier-Bold exch definefont pop
/Helvetica findfont
dup length dict begin
  {1 index /FID ne {def} {pop pop} ifelse} forall
  /Encoding WinAnsiEncoding def
  currentdict
end
/Helvetica exch definefont pop
/Courier-BoldOblique findfont
dup length dict begin
  {1 index /FID ne {def} {pop pop} ifelse} forall
  /Encoding WinAnsiEncoding def
  currentdict
end
/Courier-BoldOblique exch definefont pop
/Courier-Oblique findfont
dup length dict begin
  {1 index /FID ne {def} {pop pop} ifelse} forall
  /Encoding WinAnsiEncoding def
  currentdict
end
/Courier-Oblique exch definefont pop
/Times-Roman findfont
dup length dict begin
  {1 index /FID ne {def} {pop pop} ifelse} forall
  /Encoding WinAnsiEncoding def
  currentdict
end
/Times-Roman exch definefont pop
/Helvetica-BoldOblique findfont
dup length dict begin
  {1 index /FID ne {def} {pop pop} ifelse} forall
  /Encoding WinAnsiEncoding def
  currentdict
end
/Helvetica-BoldOblique exch definefont pop
/Helvetica-Bold findfont
dup length dict begin
  {1 index /FID ne {def} {pop pop} ifelse} forall
  /Encoding WinAnsiEncoding def
  currentdict
end
/Helvetica-Bold exch definefont pop
/Helvetica-Oblique findfont
dup length dict begin
  {1 index /FID ne {def} {pop pop} ifelse} forall
  /Encoding WinAnsiEncoding def
  currentdict
end
/Helvetica-Oblique exch definefont pop
/Times-BoldItalic findfont
dup length dict begin
  {1 index /FID ne {def} {pop pop} ifelse} forall
  /Encoding WinAnsiEncoding def
  currentdict
end
/Times-BoldItalic exch definefont pop
/Courier findfont
dup length dict begin
  {1 index /FID ne {def} {pop pop} ifelse} forall
  /Encoding WinAnsiEncoding def
  currentdict
end
/Courier exch definefont pop
/Times-Italic findfont
dup length dict begin
  {1 index /FID ne {def} {pop pop} ifelse} forall
  /Encoding WinAnsiEncoding def
  currentdict
end
/Times-Italic exch definefont pop
/Times-Bold findfont
dup length dict begin
  {1 index /FID ne {def} {pop pop} ifelse} forall
  /Encoding WinAnsiEncoding def
  currentdict
end
/Times-Bold exch definefont pop
%FOPEndFontReencode
%%EndProlog
%%Page: 1 1
%%PageBoundingBox: 0 0 420 315
%%BeginPageSetup
[1 0 0 -1 0 315] CT
%%EndPageSetup
GS
[0.3 0 0 0.3 0 0] CT
1 GC
N
0 0 1400 1050 re
f
GR
GS
[0.3 0 0 0.3 0 0] CT
1 GC
N
0 0 1400 1050 re
f
GR
GS
[0.3 0 0 0.3 0 0] CT
1 GC
N
182 934 M
1267 934 L
1267 79 L
182 79 L
cp
f
GR
GS
[0.3 0 0 0.3 0 0] CT
0.149 GC
2 setlinecap
1 LJ
1.667 LW
N
182 934 M
1267 934 L
S
GR
GS
[0.3 0 0 0.3 0 0] CT
0.149 GC
2 setlinecap
1 LJ
1.667 LW
N
182 934 M
182 923.15 L
S
GR
GS
[0.3 0 0 0.3 0 0] CT
0.149 GC
2 setlinecap
1 LJ
1.667 LW
N
290.5 934 M
290.5 923.15 L
S
GR
GS
[0.3 0 0 0.3 0 0] CT
0.149 GC
2 setlinecap
1 LJ
1.667 LW
N
399 934 M
399 923.15 L
S
GR
GS
[0.3 0 0 0.3 0 0] CT
0.149 GC
2 setlinecap
1 LJ
1.667 LW
N
507.5 934 M
507.5 923.15 L
S
GR
GS
[0.3 0 0 0.3 0 0] CT
0.149 GC
2 setlinecap
1 LJ
1.667 LW
N
616 934 M
616 923.15 L
S
GR
GS
[0.3 0 0 0.3 0 0] CT
0.149 GC
2 setlinecap
1 LJ
1.667 LW
N
724.5 934 M
724.5 923.15 L
S
GR
GS
[0.3 0 0 0.3 0 0] CT
0.149 GC
2 setlinecap
1 LJ
1.667 LW
N
833 934 M
833 923.15 L
S
GR
GS
[0.3 0 0 0.3 0 0] CT
0.149 GC
2 setlinecap
1 LJ
1.667 LW
N
941.5 934 M
941.5 923.15 L
S
GR
GS
[0.3 0 0 0.3 0 0] CT
0.149 GC
2 setlinecap
1 LJ
1.667 LW
N
1050 934 M
1050 923.15 L
S
GR
GS
[0.3 0 0 0.3 0 0] CT
0.149 GC
2 setlinecap
1 LJ
1.667 LW
N
1158.5 934 M
1158.5 923.15 L
S
GR
GS
[0.3 0 0 0.3 0 0] CT
0.149 GC
2 setlinecap
1 LJ
1.667 LW
N
1267 934 M
1267 923.15 L
S
GR
GS
[0.3 0 0 0.3 54.6 284.19999] CT
0.149 GC
/Helvetica 33 F
GS
[1 0 0 1 0 0] CT
-9.5 34 moveto 
1 -1 scale
(0) t 
GR
GR
GS
[0.3 0 0 0.3 87.15 284.19999] CT
0.149 GC
/Helvetica 33 F
GS
[1 0 0 1 0 0] CT
-9.5 34 moveto 
1 -1 scale
(2) t 
GR
GR
GS
[0.3 0 0 0.3 119.7 284.19999] CT
0.149 GC
/Helvetica 33 F
GS
[1 0 0 1 0 0] CT
-9.5 34 moveto 
1 -1 scale
(4) t 
GR
GR
GS
[0.3 0 0 0.3 152.25 284.19999] CT
0.149 GC
/Helvetica 33 F
GS
[1 0 0 1 0 0] CT
-9.5 34 moveto 
1 -1 scale
(6) t 
GR
GR
GS
[0.3 0 0 0.3 184.8 284.19999] CT
0.149 GC
/Helvetica 33 F
GS
[1 0 0 1 0 0] CT
-9.5 34 moveto 
1 -1 scale
(8) t 
GR
GR
GS
[0.3 0 0 0.3 217.35 284.19999] CT
0.149 GC
/Helvetica 33 F
GS
[1 0 0 1 0 0] CT
-18.5 34 moveto 
1 -1 scale
(10) t 
GR
GR
GS
[0.3 0 0 0.3 249.9 284.19999] CT
0.149 GC
/Helvetica 33 F
GS
[1 0 0 1 0 0] CT
-18.5 34 moveto 
1 -1 scale
(12) t 
GR
GR
GS
[0.3 0 0 0.3 282.45 284.19999] CT
0.149 GC
/Helvetica 33 F
GS
[1 0 0 1 0 0] CT
-18.5 34 moveto 
1 -1 scale
(14) t 
GR
GR
GS
[0.3 0 0 0.3 315 284.19999] CT
0.149 GC
/Helvetica 33 F
GS
[1 0 0 1 0 0] CT
-18.5 34 moveto 
1 -1 scale
(16) t 
GR
GR
GS
[0.3 0 0 0.3 347.55 284.19999] CT
0.149 GC
/Helvetica 33 F
GS
[1 0 0 1 0 0] CT
-18.5 34 moveto 
1 -1 scale
(18) t 
GR
GR
GS
[0.3 0 0 0.3 380.1 284.19999] CT
0.149 GC
/Helvetica 33 F
GS
[1 0 0 1 0 0] CT
-18.5 34 moveto 
1 -1 scale
(20) t 
GR
GR
GS
[0.3 0 0 0.3 217.35015 297.80001] CT
0.149 GC
/Helvetica 37 F
GS
[1 0 0 1 0 0] CT
-75.5 38 moveto 
1 -1 scale
(iterations) t 
GR
GR
GS
[0.3 0 0 0.3 0 0] CT
0.149 GC
2 setlinecap
1 LJ
1.667 LW
N
182 934 M
182 79 L
S
GR
GS
[0.3 0 0 0.3 0 0] CT
0.149 GC
2 setlinecap
1 LJ
1.667 LW
N
182 870.667 M
192.85 870.667 L
S
GR
GS
[0.3 0 0 0.3 0 0] CT
0.149 GC
2 setlinecap
1 LJ
1.667 LW
N
182 712.333 M
192.85 712.333 L
S
GR
GS
[0.3 0 0 0.3 0 0] CT
0.149 GC
2 setlinecap
1 LJ
1.667 LW
N
182 554 M
192.85 554 L
S
GR
GS
[0.3 0 0 0.3 0 0] CT
0.149 GC
2 setlinecap
1 LJ
1.667 LW
N
182 395.667 M
192.85 395.667 L
S
GR
GS
[0.3 0 0 0.3 0 0] CT
0.149 GC
2 setlinecap
1 LJ
1.667 LW
N
182 237.333 M
192.85 237.333 L
S
GR
GS
[0.3 0 0 0.3 0 0] CT
0.149 GC
2 setlinecap
1 LJ
1.667 LW
N
182 79 M
192.85 79 L
S
GR
GS
[0.3 0 0 0.3 50.6 261.20001] CT
0.149 GC
/Helvetica 33 F
GS
[1 0 0 1 0 0] CT
-19 13 moveto 
1 -1 scale
(0) t 
GR
GR
GS
[0.3 0 0 0.3 50.6 213.69999] CT
0.149 GC
/Helvetica 33 F
GS
[1 0 0 1 0 0] CT
-19 13 moveto 
1 -1 scale
(5) t 
GR
GR
GS
[0.3 0 0 0.3 50.6 166.2] CT
0.149 GC
/Helvetica 33 F
GS
[1 0 0 1 0 0] CT
-37 13 moveto 
1 -1 scale
(10) t 
GR
GR
GS
[0.3 0 0 0.3 50.6 118.7] CT
0.149 GC
/Helvetica 33 F
GS
[1 0 0 1 0 0] CT
-37 13 moveto 
1 -1 scale
(15) t 
GR
GR
GS
[0.3 0 0 0.3 50.6 71.2] CT
0.149 GC
/Helvetica 33 F
GS
[1 0 0 1 0 0] CT
-37 13 moveto 
1 -1 scale
(20) t 
GR
GR
GS
[0.3 0 0 0.3 50.6 23.7] CT
0.149 GC
/Helvetica 33 F
GS
[1 0 0 1 0 0] CT
-37 13 moveto 
1 -1 scale
(25) t 
GR
GR
GS
[0 -0.3 0.3 0 36.5 151.94987] CT
0.149 GC
/Helvetica 37 F
GS
[1 0 0 1 0 0] CT
-103 -9 moveto 
1 -1 scale
(fitness value) t 
GR
GR
GS
[0.3 0 0 0.3 0 0] CT
0 0.447 0.741 RC
1 LJ
1.667 LW
N
182 269.397 M
236.25 220.139 L
290.5 229.495 L
344.75 340.433 L
399 341.42 L
453.25 404.425 L
507.5 559.055 L
561.75 674.354 L
616 643.075 L
670.25 700.701 L
724.5 763.867 L
778.75 741.016 L
833 862.11 L
887.25 824.699 L
941.5 848.807 L
995.75 854.498 L
1050 861.649 L
1104.25 865.983 L
1158.5 866.309 L
1212.75 868.422 L
1267 869.229 L
S
GR
GS
[0.3 0 0 0.3 0 0] CT
0.851 0.325 0.098 RC
1 LJ
1.667 LW
N
172 269.5 M
193 269.5 L
S
GR
GS
[0.3 0 0 0.3 0 0] CT
0.851 0.325 0.098 RC
1 LJ
1.667 LW
N
182.5 280 M
182.5 259 L
S
GR
GS
[0.3 0 0 0.3 0 0] CT
0.851 0.325 0.098 RC
1 LJ
1.667 LW
N
175 277 M
190 262 L
S
GR
GS
[0.3 0 0 0.3 0 0] CT
0.851 0.325 0.098 RC
1 LJ
1.667 LW
N
175 262 M
190 277 L
S
GR
GS
[0.3 0 0 0.3 0 0] CT
0.851 0.325 0.098 RC
1 LJ
1.667 LW
N
226 220.5 M
247 220.5 L
S
GR
GS
[0.3 0 0 0.3 0 0] CT
0.851 0.325 0.098 RC
1 LJ
1.667 LW
N
236.5 231 M
236.5 210 L
S
GR
GS
[0.3 0 0 0.3 0 0] CT
0.851 0.325 0.098 RC
1 LJ
1.667 LW
N
229 228 M
244 213 L
S
GR
GS
[0.3 0 0 0.3 0 0] CT
0.851 0.325 0.098 RC
1 LJ
1.667 LW
N
229 213 M
244 228 L
S
GR
GS
[0.3 0 0 0.3 0 0] CT
0.851 0.325 0.098 RC
1 LJ
1.667 LW
N
280 229.5 M
301 229.5 L
S
GR
GS
[0.3 0 0 0.3 0 0] CT
0.851 0.325 0.098 RC
1 LJ
1.667 LW
N
290.5 240 M
290.5 219 L
S
GR
GS
[0.3 0 0 0.3 0 0] CT
0.851 0.325 0.098 RC
1 LJ
1.667 LW
N
283 237 M
298 222 L
S
GR
GS
[0.3 0 0 0.3 0 0] CT
0.851 0.325 0.098 RC
1 LJ
1.667 LW
N
283 222 M
298 237 L
S
GR
GS
[0.3 0 0 0.3 0 0] CT
0.851 0.325 0.098 RC
1 LJ
1.667 LW
N
334 340.5 M
355 340.5 L
S
GR
GS
[0.3 0 0 0.3 0 0] CT
0.851 0.325 0.098 RC
1 LJ
1.667 LW
N
344.5 351 M
344.5 330 L
S
GR
GS
[0.3 0 0 0.3 0 0] CT
0.851 0.325 0.098 RC
1 LJ
1.667 LW
N
337 348 M
352 333 L
S
GR
GS
[0.3 0 0 0.3 0 0] CT
0.851 0.325 0.098 RC
1 LJ
1.667 LW
N
337 333 M
352 348 L
S
GR
GS
[0.3 0 0 0.3 0 0] CT
0.851 0.325 0.098 RC
1 LJ
1.667 LW
N
388 341.5 M
409 341.5 L
S
GR
GS
[0.3 0 0 0.3 0 0] CT
0.851 0.325 0.098 RC
1 LJ
1.667 LW
N
398.5 352 M
398.5 331 L
S
GR
GS
[0.3 0 0 0.3 0 0] CT
0.851 0.325 0.098 RC
1 LJ
1.667 LW
N
391 349 M
406 334 L
S
GR
GS
[0.3 0 0 0.3 0 0] CT
0.851 0.325 0.098 RC
1 LJ
1.667 LW
N
391 334 M
406 349 L
S
GR
GS
[0.3 0 0 0.3 0 0] CT
0.851 0.325 0.098 RC
1 LJ
1.667 LW
N
443 404.5 M
464 404.5 L
S
GR
GS
[0.3 0 0 0.3 0 0] CT
0.851 0.325 0.098 RC
1 LJ
1.667 LW
N
453.5 415 M
453.5 394 L
S
GR
GS
[0.3 0 0 0.3 0 0] CT
0.851 0.325 0.098 RC
1 LJ
1.667 LW
N
446 412 M
461 397 L
S
GR
GS
[0.3 0 0 0.3 0 0] CT
0.851 0.325 0.098 RC
1 LJ
1.667 LW
N
446 397 M
461 412 L
S
GR
GS
[0.3 0 0 0.3 0 0] CT
0.851 0.325 0.098 RC
1 LJ
1.667 LW
N
497 559.5 M
518 559.5 L
S
GR
GS
[0.3 0 0 0.3 0 0] CT
0.851 0.325 0.098 RC
1 LJ
1.667 LW
N
507.5 570 M
507.5 549 L
S
GR
GS
[0.3 0 0 0.3 0 0] CT
0.851 0.325 0.098 RC
1 LJ
1.667 LW
N
500 567 M
515 552 L
S
GR
GS
[0.3 0 0 0.3 0 0] CT
0.851 0.325 0.098 RC
1 LJ
1.667 LW
N
500 552 M
515 567 L
S
GR
GS
[0.3 0 0 0.3 0 0] CT
0.851 0.325 0.098 RC
1 LJ
1.667 LW
N
551 674.5 M
572 674.5 L
S
GR
GS
[0.3 0 0 0.3 0 0] CT
0.851 0.325 0.098 RC
1 LJ
1.667 LW
N
561.5 685 M
561.5 664 L
S
GR
GS
[0.3 0 0 0.3 0 0] CT
0.851 0.325 0.098 RC
1 LJ
1.667 LW
N
554 682 M
569 667 L
S
GR
GS
[0.3 0 0 0.3 0 0] CT
0.851 0.325 0.098 RC
1 LJ
1.667 LW
N
554 667 M
569 682 L
S
GR
GS
[0.3 0 0 0.3 0 0] CT
0.851 0.325 0.098 RC
1 LJ
1.667 LW
N
605 643.5 M
626 643.5 L
S
GR
GS
[0.3 0 0 0.3 0 0] CT
0.851 0.325 0.098 RC
1 LJ
1.667 LW
N
615.5 654 M
615.5 633 L
S
GR
GS
[0.3 0 0 0.3 0 0] CT
0.851 0.325 0.098 RC
1 LJ
1.667 LW
N
608 651 M
623 636 L
S
GR
GS
[0.3 0 0 0.3 0 0] CT
0.851 0.325 0.098 RC
1 LJ
1.667 LW
N
608 636 M
623 651 L
S
GR
GS
[0.3 0 0 0.3 0 0] CT
0.851 0.325 0.098 RC
1 LJ
1.667 LW
N
660 700.5 M
681 700.5 L
S
GR
GS
[0.3 0 0 0.3 0 0] CT
0.851 0.325 0.098 RC
1 LJ
1.667 LW
N
670.5 711 M
670.5 690 L
S
GR
GS
[0.3 0 0 0.3 0 0] CT
0.851 0.325 0.098 RC
1 LJ
1.667 LW
N
663 708 M
678 693 L
S
GR
GS
[0.3 0 0 0.3 0 0] CT
0.851 0.325 0.098 RC
1 LJ
1.667 LW
N
663 693 M
678 708 L
S
GR
GS
[0.3 0 0 0.3 0 0] CT
0.851 0.325 0.098 RC
1 LJ
1.667 LW
N
714 763.5 M
735 763.5 L
S
GR
GS
[0.3 0 0 0.3 0 0] CT
0.851 0.325 0.098 RC
1 LJ
1.667 LW
N
724.5 774 M
724.5 753 L
S
GR
GS
[0.3 0 0 0.3 0 0] CT
0.851 0.325 0.098 RC
1 LJ
1.667 LW
N
717 771 M
732 756 L
S
GR
GS
[0.3 0 0 0.3 0 0] CT
0.851 0.325 0.098 RC
1 LJ
1.667 LW
N
717 756 M
732 771 L
S
GR
GS
[0.3 0 0 0.3 0 0] CT
0.851 0.325 0.098 RC
1 LJ
1.667 LW
N
768 741.5 M
789 741.5 L
S
GR
GS
[0.3 0 0 0.3 0 0] CT
0.851 0.325 0.098 RC
1 LJ
1.667 LW
N
778.5 752 M
778.5 731 L
S
GR
GS
[0.3 0 0 0.3 0 0] CT
0.851 0.325 0.098 RC
1 LJ
1.667 LW
N
771 749 M
786 734 L
S
GR
GS
[0.3 0 0 0.3 0 0] CT
0.851 0.325 0.098 RC
1 LJ
1.667 LW
N
771 734 M
786 749 L
S
GR
GS
[0.3 0 0 0.3 0 0] CT
0.851 0.325 0.098 RC
1 LJ
1.667 LW
N
823 862.5 M
844 862.5 L
S
GR
GS
[0.3 0 0 0.3 0 0] CT
0.851 0.325 0.098 RC
1 LJ
1.667 LW
N
833.5 873 M
833.5 852 L
S
GR
GS
[0.3 0 0 0.3 0 0] CT
0.851 0.325 0.098 RC
1 LJ
1.667 LW
N
826 870 M
841 855 L
S
GR
GS
[0.3 0 0 0.3 0 0] CT
0.851 0.325 0.098 RC
1 LJ
1.667 LW
N
826 855 M
841 870 L
S
GR
GS
[0.3 0 0 0.3 0 0] CT
0.851 0.325 0.098 RC
1 LJ
1.667 LW
N
877 824.5 M
898 824.5 L
S
GR
GS
[0.3 0 0 0.3 0 0] CT
0.851 0.325 0.098 RC
1 LJ
1.667 LW
N
887.5 835 M
887.5 814 L
S
GR
GS
[0.3 0 0 0.3 0 0] CT
0.851 0.325 0.098 RC
1 LJ
1.667 LW
N
880 832 M
895 817 L
S
GR
GS
[0.3 0 0 0.3 0 0] CT
0.851 0.325 0.098 RC
1 LJ
1.667 LW
N
880 817 M
895 832 L
S
GR
GS
[0.3 0 0 0.3 0 0] CT
0.851 0.325 0.098 RC
1 LJ
1.667 LW
N
931 848.5 M
952 848.5 L
S
GR
GS
[0.3 0 0 0.3 0 0] CT
0.851 0.325 0.098 RC
1 LJ
1.667 LW
N
941.5 859 M
941.5 838 L
S
GR
GS
[0.3 0 0 0.3 0 0] CT
0.851 0.325 0.098 RC
1 LJ
1.667 LW
N
934 856 M
949 841 L
S
GR
GS
[0.3 0 0 0.3 0 0] CT
0.851 0.325 0.098 RC
1 LJ
1.667 LW
N
934 841 M
949 856 L
S
GR
GS
[0.3 0 0 0.3 0 0] CT
0.851 0.325 0.098 RC
1 LJ
1.667 LW
N
985 854.5 M
1006 854.5 L
S
GR
GS
[0.3 0 0 0.3 0 0] CT
0.851 0.325 0.098 RC
1 LJ
1.667 LW
N
995.5 865 M
995.5 844 L
S
GR
GS
[0.3 0 0 0.3 0 0] CT
0.851 0.325 0.098 RC
1 LJ
1.667 LW
N
988 862 M
1003 847 L
S
GR
GS
[0.3 0 0 0.3 0 0] CT
0.851 0.325 0.098 RC
1 LJ
1.667 LW
N
988 847 M
1003 862 L
S
GR
GS
[0.3 0 0 0.3 0 0] CT
0.851 0.325 0.098 RC
1 LJ
1.667 LW
N
1040 861.5 M
1061 861.5 L
S
GR
GS
[0.3 0 0 0.3 0 0] CT
0.851 0.325 0.098 RC
1 LJ
1.667 LW
N
1050.5 872 M
1050.5 851 L
S
GR
GS
[0.3 0 0 0.3 0 0] CT
0.851 0.325 0.098 RC
1 LJ
1.667 LW
N
1043 869 M
1058 854 L
S
GR
GS
[0.3 0 0 0.3 0 0] CT
0.851 0.325 0.098 RC
1 LJ
1.667 LW
N
1043 854 M
1058 869 L
S
GR
GS
[0.3 0 0 0.3 0 0] CT
0.851 0.325 0.098 RC
1 LJ
1.667 LW
N
1094 865.5 M
1115 865.5 L
S
GR
GS
[0.3 0 0 0.3 0 0] CT
0.851 0.325 0.098 RC
1 LJ
1.667 LW
N
1104.5 876 M
1104.5 855 L
S
GR
GS
[0.3 0 0 0.3 0 0] CT
0.851 0.325 0.098 RC
1 LJ
1.667 LW
N
1097 873 M
1112 858 L
S
GR
GS
[0.3 0 0 0.3 0 0] CT
0.851 0.325 0.098 RC
1 LJ
1.667 LW
N
1097 858 M
1112 873 L
S
GR
GS
[0.3 0 0 0.3 0 0] CT
0.851 0.325 0.098 RC
1 LJ
1.667 LW
N
1148 866.5 M
1169 866.5 L
S
GR
GS
[0.3 0 0 0.3 0 0] CT
0.851 0.325 0.098 RC
1 LJ
1.667 LW
N
1158.5 877 M
1158.5 856 L
S
GR
GS
[0.3 0 0 0.3 0 0] CT
0.851 0.325 0.098 RC
1 LJ
1.667 LW
N
1151 874 M
1166 859 L
S
GR
GS
[0.3 0 0 0.3 0 0] CT
0.851 0.325 0.098 RC
1 LJ
1.667 LW
N
1151 859 M
1166 874 L
S
GR
GS
[0.3 0 0 0.3 0 0] CT
0.851 0.325 0.098 RC
1 LJ
1.667 LW
N
1202 868.5 M
1223 868.5 L
S
GR
GS
[0.3 0 0 0.3 0 0] CT
0.851 0.325 0.098 RC
1 LJ
1.667 LW
N
1212.5 879 M
1212.5 858 L
S
GR
GS
[0.3 0 0 0.3 0 0] CT
0.851 0.325 0.098 RC
1 LJ
1.667 LW
N
1205 876 M
1220 861 L
S
GR
GS
[0.3 0 0 0.3 0 0] CT
0.851 0.325 0.098 RC
1 LJ
1.667 LW
N
1205 861 M
1220 876 L
S
GR
GS
[0.3 0 0 0.3 0 0] CT
0.851 0.325 0.098 RC
1 LJ
1.667 LW
N
1257 869.5 M
1278 869.5 L
S
GR
GS
[0.3 0 0 0.3 0 0] CT
0.851 0.325 0.098 RC
1 LJ
1.667 LW
N
1267.5 880 M
1267.5 859 L
S
GR
GS
[0.3 0 0 0.3 0 0] CT
0.851 0.325 0.098 RC
1 LJ
1.667 LW
N
1260 877 M
1275 862 L
S
GR
GS
[0.3 0 0 0.3 0 0] CT
0.851 0.325 0.098 RC
1 LJ
1.667 LW
N
1260 862 M
1275 877 L
S
GR
%%Trailer
%%Pages: 1
%%EOF
