%!PS-Adobe-3.0 EPSF-3.0
%%Creator: (MATLAB, The Mathworks, Inc. Version 8.6.0.267246 \(R2015b\). Operating System: Windows 8)
%%Title: (C:/Users/Daniel/OneDrive - CertiCon a.s/Documents/skola/CVUT/Semester_8/Bakalarska_Praca/CoSMO_convData/Cross_convergence.eps)
%%CreationDate: 2016-05-10T20:41:59
%%Pages: (atend)
%%BoundingBox: 0 0 420 315
%%LanguageLevel: 2
%%EndComments
%%BeginProlog
%%BeginResource: procset (Apache XML Graphics Std ProcSet) 1.2 0
%%Version: 1.2 0
%%Copyright: (Copyright 2001-2003,2010 The Apache Software Foundation. License terms: http://www.apache.org/licenses/LICENSE-2.0)
/bd{bind def}bind def
/ld{load def}bd
/GR/grestore ld
/M/moveto ld
/LJ/setlinejoin ld
/C/curveto ld
/f/fill ld
/LW/setlinewidth ld
/GC/setgray ld
/t/show ld
/N/newpath ld
/CT/concat ld
/cp/closepath ld
/S/stroke ld
/L/lineto ld
/CC/setcmykcolor ld
/A/ashow ld
/GS/gsave ld
/RC/setrgbcolor ld
/RM/rmoveto ld
/ML/setmiterlimit ld
/re {4 2 roll M
1 index 0 rlineto
0 exch rlineto
neg 0 rlineto
cp } bd
/_ctm matrix def
/_tm matrix def
/BT { _ctm currentmatrix pop matrix _tm copy pop 0 0 moveto } bd
/ET { _ctm setmatrix } bd
/iTm { _ctm setmatrix _tm concat } bd
/Tm { _tm astore pop iTm 0 0 moveto } bd
/ux 0.0 def
/uy 0.0 def
/F {
  /Tp exch def
  /Tf exch def
  Tf findfont Tp scalefont setfont
  /cf Tf def  /cs Tp def
} bd
/ULS {currentpoint /uy exch def /ux exch def} bd
/ULE {
  /Tcx currentpoint pop def
  gsave
  newpath
  cf findfont cs scalefont dup
  /FontMatrix get 0 get /Ts exch def /FontInfo get dup
  /UnderlinePosition get Ts mul /To exch def
  /UnderlineThickness get Ts mul /Tt exch def
  ux uy To add moveto  Tcx uy To add lineto
  Tt setlinewidth stroke
  grestore
} bd
/OLE {
  /Tcx currentpoint pop def
  gsave
  newpath
  cf findfont cs scalefont dup
  /FontMatrix get 0 get /Ts exch def /FontInfo get dup
  /UnderlinePosition get Ts mul /To exch def
  /UnderlineThickness get Ts mul /Tt exch def
  ux uy To add cs add moveto Tcx uy To add cs add lineto
  Tt setlinewidth stroke
  grestore
} bd
/SOE {
  /Tcx currentpoint pop def
  gsave
  newpath
  cf findfont cs scalefont dup
  /FontMatrix get 0 get /Ts exch def /FontInfo get dup
  /UnderlinePosition get Ts mul /To exch def
  /UnderlineThickness get Ts mul /Tt exch def
  ux uy To add cs 10 mul 26 idiv add moveto Tcx uy To add cs 10 mul 26 idiv add lineto
  Tt setlinewidth stroke
  grestore
} bd
/QT {
/Y22 exch store
/X22 exch store
/Y21 exch store
/X21 exch store
currentpoint
/Y21 load 2 mul add 3 div exch
/X21 load 2 mul add 3 div exch
/X21 load 2 mul /X22 load add 3 div
/Y21 load 2 mul /Y22 load add 3 div
/X22 load /Y22 load curveto
} bd
/SSPD {
dup length /d exch dict def
{
/v exch def
/k exch def
currentpagedevice k known {
/cpdv currentpagedevice k get def
v cpdv ne {
/upd false def
/nullv v type /nulltype eq def
/nullcpdv cpdv type /nulltype eq def
nullv nullcpdv or
{
/upd true def
} {
/sametype v type cpdv type eq def
sametype {
v type /arraytype eq {
/vlen v length def
/cpdvlen cpdv length def
vlen cpdvlen eq {
0 1 vlen 1 sub {
/i exch def
/obj v i get def
/cpdobj cpdv i get def
obj cpdobj ne {
/upd true def
exit
} if
} for
} {
/upd true def
} ifelse
} {
v type /dicttype eq {
v {
/dv exch def
/dk exch def
/cpddv cpdv dk get def
dv cpddv ne {
/upd true def
exit
} if
} forall
} {
/upd true def
} ifelse
} ifelse
} if
} ifelse
upd true eq {
d k v put
} if
} if
} if
} forall
d length 0 gt {
d setpagedevice
} if
} bd
%%EndResource
%%BeginResource: procset (Apache XML Graphics EPS ProcSet) 1.0 0
%%Version: 1.0 0
%%Copyright: (Copyright 2002-2003 The Apache Software Foundation. License terms: http://www.apache.org/licenses/LICENSE-2.0)
/BeginEPSF { %def
/b4_Inc_state save def         % Save state for cleanup
/dict_count countdictstack def % Count objects on dict stack
/op_count count 1 sub def      % Count objects on operand stack
userdict begin                 % Push userdict on dict stack
/showpage { } def              % Redefine showpage, { } = null proc
0 setgray 0 setlinecap         % Prepare graphics state
1 setlinewidth 0 setlinejoin
10 setmiterlimit [ ] 0 setdash newpath
/languagelevel where           % If level not equal to 1 then
{pop languagelevel             % set strokeadjust and
1 ne                           % overprint to their defaults.
{false setstrokeadjust false setoverprint
} if
} if
} bd
/EndEPSF { %def
count op_count sub {pop} repeat            % Clean up stacks
countdictstack dict_count sub {end} repeat
b4_Inc_state restore
} bd
%%EndResource
%FOPBeginFontDict
%%IncludeResource: font Courier-Bold
%%IncludeResource: font Helvetica
%%IncludeResource: font Courier-BoldOblique
%%IncludeResource: font Courier-Oblique
%%IncludeResource: font Times-Roman
%%IncludeResource: font Helvetica-BoldOblique
%%IncludeResource: font Helvetica-Bold
%%IncludeResource: font Helvetica-Oblique
%%IncludeResource: font Times-BoldItalic
%%IncludeResource: font Courier
%%IncludeResource: font Times-Italic
%%IncludeResource: font Times-Bold
%%IncludeResource: font Symbol
%%IncludeResource: font ZapfDingbats
%FOPEndFontDict
%%BeginResource: encoding WinAnsiEncoding
/WinAnsiEncoding [
/.notdef /.notdef /.notdef /.notdef /.notdef
/.notdef /.notdef /.notdef /.notdef /.notdef
/.notdef /.notdef /.notdef /.notdef /.notdef
/.notdef /.notdef /.notdef /.notdef /.notdef
/.notdef /.notdef /.notdef /.notdef /.notdef
/.notdef /.notdef /.notdef /.notdef /.notdef
/.notdef /.notdef /space /exclam /quotedbl
/numbersign /dollar /percent /ampersand /quotesingle
/parenleft /parenright /asterisk /plus /comma
/hyphen /period /slash /zero /one
/two /three /four /five /six
/seven /eight /nine /colon /semicolon
/less /equal /greater /question /at
/A /B /C /D /E
/F /G /H /I /J
/K /L /M /N /O
/P /Q /R /S /T
/U /V /W /X /Y
/Z /bracketleft /backslash /bracketright /asciicircum
/underscore /quoteleft /a /b /c
/d /e /f /g /h
/i /j /k /l /m
/n /o /p /q /r
/s /t /u /v /w
/x /y /z /braceleft /bar
/braceright /asciitilde /bullet /Euro /bullet
/quotesinglbase /florin /quotedblbase /ellipsis /dagger
/daggerdbl /circumflex /perthousand /Scaron /guilsinglleft
/OE /bullet /Zcaron /bullet /bullet
/quoteleft /quoteright /quotedblleft /quotedblright /bullet
/endash /emdash /asciitilde /trademark /scaron
/guilsinglright /oe /bullet /zcaron /Ydieresis
/space /exclamdown /cent /sterling /currency
/yen /brokenbar /section /dieresis /copyright
/ordfeminine /guillemotleft /logicalnot /sfthyphen /registered
/macron /degree /plusminus /twosuperior /threesuperior
/acute /mu /paragraph /middot /cedilla
/onesuperior /ordmasculine /guillemotright /onequarter /onehalf
/threequarters /questiondown /Agrave /Aacute /Acircumflex
/Atilde /Adieresis /Aring /AE /Ccedilla
/Egrave /Eacute /Ecircumflex /Edieresis /Igrave
/Iacute /Icircumflex /Idieresis /Eth /Ntilde
/Ograve /Oacute /Ocircumflex /Otilde /Odieresis
/multiply /Oslash /Ugrave /Uacute /Ucircumflex
/Udieresis /Yacute /Thorn /germandbls /agrave
/aacute /acircumflex /atilde /adieresis /aring
/ae /ccedilla /egrave /eacute /ecircumflex
/edieresis /igrave /iacute /icircumflex /idieresis
/eth /ntilde /ograve /oacute /ocircumflex
/otilde /odieresis /divide /oslash /ugrave
/uacute /ucircumflex /udieresis /yacute /thorn
/ydieresis
] def
%%EndResource
%FOPBeginFontReencode
/Courier-Bold findfont
dup length dict begin
  {1 index /FID ne {def} {pop pop} ifelse} forall
  /Encoding WinAnsiEncoding def
  currentdict
end
/Courier-Bold exch definefont pop
/Helvetica findfont
dup length dict begin
  {1 index /FID ne {def} {pop pop} ifelse} forall
  /Encoding WinAnsiEncoding def
  currentdict
end
/Helvetica exch definefont pop
/Courier-BoldOblique findfont
dup length dict begin
  {1 index /FID ne {def} {pop pop} ifelse} forall
  /Encoding WinAnsiEncoding def
  currentdict
end
/Courier-BoldOblique exch definefont pop
/Courier-Oblique findfont
dup length dict begin
  {1 index /FID ne {def} {pop pop} ifelse} forall
  /Encoding WinAnsiEncoding def
  currentdict
end
/Courier-Oblique exch definefont pop
/Times-Roman findfont
dup length dict begin
  {1 index /FID ne {def} {pop pop} ifelse} forall
  /Encoding WinAnsiEncoding def
  currentdict
end
/Times-Roman exch definefont pop
/Helvetica-BoldOblique findfont
dup length dict begin
  {1 index /FID ne {def} {pop pop} ifelse} forall
  /Encoding WinAnsiEncoding def
  currentdict
end
/Helvetica-BoldOblique exch definefont pop
/Helvetica-Bold findfont
dup length dict begin
  {1 index /FID ne {def} {pop pop} ifelse} forall
  /Encoding WinAnsiEncoding def
  currentdict
end
/Helvetica-Bold exch definefont pop
/Helvetica-Oblique findfont
dup length dict begin
  {1 index /FID ne {def} {pop pop} ifelse} forall
  /Encoding WinAnsiEncoding def
  currentdict
end
/Helvetica-Oblique exch definefont pop
/Times-BoldItalic findfont
dup length dict begin
  {1 index /FID ne {def} {pop pop} ifelse} forall
  /Encoding WinAnsiEncoding def
  currentdict
end
/Times-BoldItalic exch definefont pop
/Courier findfont
dup length dict begin
  {1 index /FID ne {def} {pop pop} ifelse} forall
  /Encoding WinAnsiEncoding def
  currentdict
end
/Courier exch definefont pop
/Times-Italic findfont
dup length dict begin
  {1 index /FID ne {def} {pop pop} ifelse} forall
  /Encoding WinAnsiEncoding def
  currentdict
end
/Times-Italic exch definefont pop
/Times-Bold findfont
dup length dict begin
  {1 index /FID ne {def} {pop pop} ifelse} forall
  /Encoding WinAnsiEncoding def
  currentdict
end
/Times-Bold exch definefont pop
%FOPEndFontReencode
%%EndProlog
%%Page: 1 1
%%PageBoundingBox: 0 0 420 315
%%BeginPageSetup
[1 0 0 -1 0 315] CT
%%EndPageSetup
GS
[0.3 0 0 0.3 0 0] CT
1 GC
N
0 0 1400 1050 re
f
GR
GS
[0.3 0 0 0.3 0 0] CT
1 GC
N
0 0 1400 1050 re
f
GR
GS
[0.3 0 0 0.3 0 0] CT
1 GC
N
182 934 M
1267 934 L
1267 79 L
182 79 L
cp
f
GR
GS
[0.3 0 0 0.3 0 0] CT
0.149 GC
2 setlinecap
1 LJ
1.667 LW
N
182 934 M
1267 934 L
S
GR
GS
[0.3 0 0 0.3 0 0] CT
0.149 GC
2 setlinecap
1 LJ
1.667 LW
N
182 934 M
182 923.15 L
S
GR
GS
[0.3 0 0 0.3 0 0] CT
0.149 GC
2 setlinecap
1 LJ
1.667 LW
N
281.087 934 M
281.087 923.15 L
S
GR
GS
[0.3 0 0 0.3 0 0] CT
0.149 GC
2 setlinecap
1 LJ
1.667 LW
N
380.174 934 M
380.174 923.15 L
S
GR
GS
[0.3 0 0 0.3 0 0] CT
0.149 GC
2 setlinecap
1 LJ
1.667 LW
N
479.26 934 M
479.26 923.15 L
S
GR
GS
[0.3 0 0 0.3 0 0] CT
0.149 GC
2 setlinecap
1 LJ
1.667 LW
N
578.347 934 M
578.347 923.15 L
S
GR
GS
[0.3 0 0 0.3 0 0] CT
0.149 GC
2 setlinecap
1 LJ
1.667 LW
N
677.434 934 M
677.434 923.15 L
S
GR
GS
[0.3 0 0 0.3 0 0] CT
0.149 GC
2 setlinecap
1 LJ
1.667 LW
N
776.521 934 M
776.521 923.15 L
S
GR
GS
[0.3 0 0 0.3 0 0] CT
0.149 GC
2 setlinecap
1 LJ
1.667 LW
N
875.607 934 M
875.607 923.15 L
S
GR
GS
[0.3 0 0 0.3 0 0] CT
0.149 GC
2 setlinecap
1 LJ
1.667 LW
N
974.694 934 M
974.694 923.15 L
S
GR
GS
[0.3 0 0 0.3 0 0] CT
0.149 GC
2 setlinecap
1 LJ
1.667 LW
N
1073.781 934 M
1073.781 923.15 L
S
GR
GS
[0.3 0 0 0.3 0 0] CT
0.149 GC
2 setlinecap
1 LJ
1.667 LW
N
1172.868 934 M
1172.868 923.15 L
S
GR
GS
[0.3 0 0 0.3 54.6 284.19999] CT
0.149 GC
/Helvetica 33 F
GS
[1 0 0 1 0 0] CT
-9.5 34 moveto 
1 -1 scale
(0) t 
GR
GR
GS
[0.3 0 0 0.3 84.32603 284.19999] CT
0.149 GC
/Helvetica 33 F
GS
[1 0 0 1 0 0] CT
-18.5 34 moveto 
1 -1 scale
(20) t 
GR
GR
GS
[0.3 0 0 0.3 114.05206 284.19999] CT
0.149 GC
/Helvetica 33 F
GS
[1 0 0 1 0 0] CT
-18.5 34 moveto 
1 -1 scale
(40) t 
GR
GR
GS
[0.3 0 0 0.3 143.77809 284.19999] CT
0.149 GC
/Helvetica 33 F
GS
[1 0 0 1 0 0] CT
-18.5 34 moveto 
1 -1 scale
(60) t 
GR
GR
GS
[0.3 0 0 0.3 173.50411 284.19999] CT
0.149 GC
/Helvetica 33 F
GS
[1 0 0 1 0 0] CT
-18.5 34 moveto 
1 -1 scale
(80) t 
GR
GR
GS
[0.3 0 0 0.3 203.23013 284.19999] CT
0.149 GC
/Helvetica 33 F
GS
[1 0 0 1 0 0] CT
-28 34 moveto 
1 -1 scale
(100) t 
GR
GR
GS
[0.3 0 0 0.3 232.95617 284.19999] CT
0.149 GC
/Helvetica 33 F
GS
[1 0 0 1 0 0] CT
-28 34 moveto 
1 -1 scale
(120) t 
GR
GR
GS
[0.3 0 0 0.3 262.68219 284.19999] CT
0.149 GC
/Helvetica 33 F
GS
[1 0 0 1 0 0] CT
-28 34 moveto 
1 -1 scale
(140) t 
GR
GR
GS
[0.3 0 0 0.3 292.40823 284.19999] CT
0.149 GC
/Helvetica 33 F
GS
[1 0 0 1 0 0] CT
-28 34 moveto 
1 -1 scale
(160) t 
GR
GR
GS
[0.3 0 0 0.3 322.13423 284.19999] CT
0.149 GC
/Helvetica 33 F
GS
[1 0 0 1 0 0] CT
-28 34 moveto 
1 -1 scale
(180) t 
GR
GR
GS
[0.3 0 0 0.3 351.86027 284.19999] CT
0.149 GC
/Helvetica 33 F
GS
[1 0 0 1 0 0] CT
-28 34 moveto 
1 -1 scale
(200) t 
GR
GR
GS
[0.3 0 0 0.3 217.35016 297.80001] CT
0.149 GC
/Helvetica 37 F
GS
[1 0 0 1 0 0] CT
-76.5 38 moveto 
1 -1 scale
(Iterations) t 
GR
GR
GS
[0.3 0 0 0.3 0 0] CT
0.149 GC
2 setlinecap
1 LJ
1.667 LW
N
182 934 M
182 79 L
S
GR
GS
[0.3 0 0 0.3 0 0] CT
0.149 GC
2 setlinecap
1 LJ
1.667 LW
N
182 934 M
192.85 934 L
S
GR
GS
[0.3 0 0 0.3 0 0] CT
0.149 GC
2 setlinecap
1 LJ
1.667 LW
N
182 649 M
192.85 649 L
S
GR
GS
[0.3 0 0 0.3 0 0] CT
0.149 GC
2 setlinecap
1 LJ
1.667 LW
N
182 364 M
192.85 364 L
S
GR
GS
[0.3 0 0 0.3 0 0] CT
0.149 GC
2 setlinecap
1 LJ
1.667 LW
N
182 79 M
192.85 79 L
S
GR
GS
[0.3 0 0 0.3 50.6 280.2] CT
0.149 GC
/Helvetica 33 F
GS
[1 0 0 1 0 0] CT
-19 13 moveto 
1 -1 scale
(0) t 
GR
GR
GS
[0.3 0 0 0.3 50.6 194.7] CT
0.149 GC
/Helvetica 33 F
GS
[1 0 0 1 0 0] CT
-46 13 moveto 
1 -1 scale
(0.5) t 
GR
GR
GS
[0.3 0 0 0.3 50.6 109.2] CT
0.149 GC
/Helvetica 33 F
GS
[1 0 0 1 0 0] CT
-19 13 moveto 
1 -1 scale
(1) t 
GR
GR
GS
[0.3 0 0 0.3 50.6 23.7] CT
0.149 GC
/Helvetica 33 F
GS
[1 0 0 1 0 0] CT
-46 13 moveto 
1 -1 scale
(1.5) t 
GR
GR
GS
[0 -0.3 0.3 0 33.8 151.94988] CT
0.149 GC
/Helvetica 37 F
GS
[1 0 0 1 0 0] CT
-72 -9 moveto 
1 -1 scale
(Distance) t 
GR
GR
GS
[0.3 0 0 0.3 0 0] CT
0 0.447 0.741 RC
1 LJ
6.667 LW
N
182 934 M
186.954 934 L
191.909 934 L
196.863 934 L
201.817 926.435 L
206.772 926.435 L
211.726 911.958 L
216.68 911.958 L
221.635 871.672 L
226.589 871.672 L
231.543 871.672 L
236.498 871.672 L
241.452 871.672 L
246.406 871.672 L
251.361 871.672 L
256.315 871.672 L
261.269 871.672 L
266.224 871.672 L
271.178 871.672 L
276.132 871.672 L
281.087 871.672 L
286.041 789.062 L
290.995 735.597 L
295.95 644.708 L
300.904 644.708 L
305.858 593.713 L
310.813 593.713 L
315.767 566.761 L
320.721 566.761 L
325.676 566.761 L
330.63 566.761 L
335.584 562.167 L
340.539 562.167 L
345.493 540.251 L
350.447 540.251 L
355.402 540.251 L
360.356 540.251 L
365.311 540.251 L
370.265 540.251 L
375.219 540.251 L
380.174 540.251 L
385.128 540.251 L
390.082 540.251 L
395.037 540.251 L
399.991 540.251 L
404.945 540.251 L
409.9 540.251 L
414.854 540.251 L
419.808 540.251 L
424.763 540.251 L
S
GR
GS
[0.3 0 0 0.3 0 0] CT
0 0.447 0.741 RC
1 LJ
6.667 LW
N
419.808 540.251 M
424.763 540.251 L
429.717 540.251 L
434.671 540.251 L
439.626 540.251 L
444.58 540.251 L
449.534 540.251 L
454.489 540.251 L
459.443 540.251 L
464.397 540.251 L
469.352 540.251 L
474.306 540.251 L
479.26 540.251 L
484.215 540.251 L
489.169 540.251 L
494.123 540.251 L
499.078 540.251 L
504.032 540.251 L
508.986 540.251 L
513.941 540.251 L
518.895 540.251 L
523.849 540.251 L
528.804 540.251 L
533.758 540.251 L
538.712 540.251 L
543.667 540.251 L
548.621 540.251 L
553.575 540.251 L
558.53 540.251 L
563.484 540.251 L
568.438 540.251 L
573.393 540.251 L
578.347 540.251 L
583.301 540.251 L
588.256 540.251 L
593.21 540.251 L
598.164 540.251 L
603.119 540.251 L
608.073 540.251 L
613.027 540.251 L
617.982 540.251 L
622.936 540.251 L
627.89 540.251 L
632.845 540.251 L
637.799 540.251 L
642.753 540.251 L
647.708 540.251 L
652.662 540.251 L
657.616 540.251 L
662.571 540.251 L
667.525 540.251 L
672.479 540.251 L
S
GR
GS
[0.3 0 0 0.3 0 0] CT
0 0.447 0.741 RC
1 LJ
6.667 LW
N
667.525 540.251 M
672.479 540.251 L
677.434 540.251 L
682.388 540.251 L
687.342 540.251 L
692.297 540.251 L
697.251 540.251 L
702.206 540.251 L
707.16 540.251 L
712.114 540.251 L
717.068 540.251 L
722.023 540.251 L
726.977 540.251 L
731.932 540.251 L
736.886 540.251 L
741.84 540.251 L
746.794 540.251 L
751.749 540.251 L
756.703 540.251 L
761.658 540.251 L
766.612 540.251 L
771.566 540.251 L
776.521 540.251 L
781.475 540.251 L
786.429 540.251 L
791.384 540.251 L
796.338 540.251 L
801.292 540.251 L
806.247 540.251 L
811.201 540.251 L
816.155 540.251 L
821.11 540.251 L
826.064 540.251 L
831.018 540.251 L
835.973 540.251 L
840.927 540.251 L
845.881 540.251 L
850.836 540.251 L
855.79 540.251 L
860.744 540.251 L
865.699 540.251 L
870.653 540.251 L
875.607 540.251 L
880.562 540.251 L
885.516 540.251 L
890.47 540.251 L
895.425 540.251 L
900.379 540.251 L
905.333 540.251 L
910.288 540.251 L
915.242 540.251 L
920.196 540.251 L
S
GR
GS
[0.3 0 0 0.3 0 0] CT
0 0.447 0.741 RC
1 LJ
6.667 LW
N
915.242 540.251 M
920.196 540.251 L
925.151 540.251 L
930.105 540.251 L
935.059 540.251 L
940.014 540.251 L
944.968 540.251 L
949.922 540.251 L
954.877 540.251 L
959.831 540.251 L
964.785 540.251 L
969.74 540.251 L
974.694 540.251 L
979.648 540.251 L
984.603 540.251 L
989.557 540.251 L
994.511 540.251 L
999.466 540.251 L
1004.42 540.251 L
1009.374 540.251 L
1014.329 540.251 L
1019.283 540.251 L
1024.237 540.251 L
1029.192 540.251 L
1034.146 540.251 L
1039.1 540.251 L
1044.055 540.251 L
1049.009 540.251 L
1053.964 540.251 L
1058.918 540.251 L
1063.872 540.251 L
1068.827 540.251 L
1073.781 540.251 L
1078.735 540.251 L
1083.689 540.251 L
1088.644 540.251 L
1093.598 540.251 L
1098.552 540.251 L
1103.507 540.251 L
1108.461 540.251 L
1113.416 540.251 L
1118.37 540.251 L
1123.324 536.878 L
1128.279 536.878 L
1133.233 536.878 L
1138.187 536.878 L
1143.142 536.878 L
1148.096 536.878 L
1153.05 536.878 L
1158.005 536.878 L
1162.959 522.278 L
1167.913 522.278 L
S
GR
GS
[0.3 0 0 0.3 0 0] CT
0 0.447 0.741 RC
1 LJ
6.667 LW
N
1162.959 522.278 M
1167.913 522.278 L
1172.868 522.278 L
1177.822 522.278 L
1182.776 522.278 L
1187.731 522.278 L
1192.685 522.278 L
1197.639 522.278 L
1202.594 522.278 L
1207.548 522.278 L
1212.502 522.278 L
1217.457 522.278 L
1222.411 522.278 L
1227.365 522.278 L
1232.32 522.278 L
1237.274 522.278 L
1242.228 522.278 L
1247.183 522.278 L
1252.137 522.278 L
1257.091 522.278 L
1262.046 522.278 L
1267 522.278 L
S
GR
GS
[0.3 0 0 0.3 0 0] CT
0.851 0.325 0.098 RC
1 LJ
6.667 LW
N
182 934 M
186.954 934 L
191.909 924.167 L
196.863 924.167 L
201.817 924.167 L
206.772 889.208 L
211.726 864.521 L
216.68 864.521 L
221.635 864.521 L
226.589 864.521 L
231.543 864.521 L
236.498 864.521 L
241.452 864.521 L
246.406 864.521 L
251.361 864.521 L
256.315 864.521 L
261.269 864.521 L
266.224 844.149 L
271.178 844.149 L
276.132 844.149 L
281.087 844.149 L
286.041 814.81 L
290.995 648.409 L
295.95 648.409 L
300.904 642.721 L
305.858 642.721 L
310.813 632.349 L
315.767 593.697 L
320.721 583.314 L
325.676 583.314 L
330.63 569.364 L
335.584 562.733 L
340.539 560.665 L
345.493 552.844 L
350.447 552.844 L
355.402 542.469 L
360.356 542.469 L
365.311 540.104 L
370.265 540.104 L
375.219 534.203 L
380.174 534.203 L
385.128 534.203 L
390.082 534.203 L
395.037 534.203 L
399.991 534.203 L
404.945 534.203 L
409.9 534.203 L
414.854 534.203 L
419.808 534.203 L
424.763 534.203 L
S
GR
GS
[0.3 0 0 0.3 0 0] CT
0.851 0.325 0.098 RC
1 LJ
6.667 LW
N
419.808 534.203 M
424.763 534.203 L
429.717 534.203 L
434.671 534.203 L
439.626 534.203 L
444.58 534.203 L
449.534 534.203 L
454.489 534.203 L
459.443 534.203 L
464.397 534.203 L
469.352 534.203 L
474.306 534.203 L
479.26 534.203 L
484.215 534.203 L
489.169 534.203 L
494.123 534.203 L
499.078 534.203 L
504.032 534.203 L
508.986 534.203 L
513.941 534.203 L
518.895 534.203 L
523.849 534.203 L
528.804 534.203 L
533.758 534.203 L
538.712 534.203 L
543.667 534.203 L
548.621 534.203 L
553.575 534.203 L
558.53 534.203 L
563.484 534.203 L
568.438 534.203 L
573.393 534.203 L
578.347 534.203 L
583.301 534.203 L
588.256 534.203 L
593.21 534.203 L
598.164 534.203 L
603.119 534.203 L
608.073 534.203 L
613.027 534.203 L
617.982 534.203 L
622.936 534.203 L
627.89 534.203 L
632.845 534.203 L
637.799 534.203 L
642.753 534.203 L
647.708 534.203 L
652.662 534.203 L
657.616 534.203 L
662.571 534.203 L
667.525 534.203 L
672.479 534.203 L
S
GR
GS
[0.3 0 0 0.3 0 0] CT
0.851 0.325 0.098 RC
1 LJ
6.667 LW
N
667.525 534.203 M
672.479 534.203 L
677.434 534.203 L
682.388 534.203 L
687.342 534.203 L
692.297 534.203 L
697.251 534.203 L
702.206 534.203 L
707.16 534.203 L
712.114 534.203 L
717.068 534.203 L
722.023 534.203 L
726.977 534.203 L
731.932 534.203 L
736.886 534.203 L
741.84 534.203 L
746.794 534.203 L
751.749 534.203 L
756.703 534.203 L
761.658 534.203 L
766.612 534.203 L
771.566 534.203 L
776.521 534.203 L
781.475 534.203 L
786.429 534.203 L
791.384 534.203 L
796.338 534.203 L
801.292 534.203 L
806.247 534.203 L
811.201 534.203 L
816.155 534.203 L
821.11 534.203 L
826.064 534.203 L
831.018 534.203 L
835.973 534.203 L
840.927 534.203 L
845.881 534.203 L
850.836 534.203 L
855.79 534.203 L
860.744 534.203 L
865.699 534.203 L
870.653 534.203 L
875.607 528.931 L
880.562 528.931 L
885.516 528.931 L
890.47 528.931 L
895.425 528.931 L
900.379 528.931 L
905.333 528.931 L
910.288 528.931 L
915.242 528.931 L
920.196 528.931 L
S
GR
GS
[0.3 0 0 0.3 0 0] CT
0.851 0.325 0.098 RC
1 LJ
6.667 LW
N
915.242 528.931 M
920.196 528.931 L
925.151 528.931 L
930.105 528.931 L
935.059 528.931 L
940.014 528.931 L
944.968 528.931 L
949.922 528.931 L
954.877 528.931 L
959.831 528.931 L
964.785 528.931 L
969.74 528.931 L
974.694 528.931 L
979.648 528.931 L
984.603 528.931 L
989.557 528.931 L
994.511 528.931 L
999.466 528.931 L
1004.42 528.931 L
1009.374 528.931 L
1014.329 528.931 L
1019.283 528.931 L
1024.237 528.931 L
1029.192 528.931 L
1034.146 528.931 L
1039.1 528.931 L
1044.055 528.931 L
1049.009 528.931 L
1053.964 528.931 L
1058.918 528.931 L
1063.872 528.931 L
1068.827 528.931 L
1073.781 528.931 L
1078.735 528.931 L
1083.689 528.931 L
1088.644 528.931 L
1093.598 528.931 L
1098.552 528.931 L
1103.507 528.931 L
1108.461 528.931 L
1113.416 528.931 L
1118.37 528.931 L
1123.324 528.931 L
1128.279 528.931 L
1133.233 528.931 L
1138.187 528.931 L
1143.142 528.931 L
1148.096 528.931 L
1153.05 528.931 L
1158.005 528.931 L
1162.959 528.931 L
1167.913 528.931 L
S
GR
GS
[0.3 0 0 0.3 0 0] CT
0.851 0.325 0.098 RC
1 LJ
6.667 LW
N
1162.959 528.931 M
1167.913 528.931 L
1172.868 528.931 L
1177.822 528.931 L
1182.776 528.931 L
1187.731 528.931 L
1192.685 528.931 L
1197.639 528.931 L
1202.594 528.931 L
1207.548 528.931 L
1212.502 528.931 L
1217.457 528.931 L
1222.411 528.931 L
1227.365 528.931 L
1232.32 528.931 L
1237.274 528.931 L
1242.228 528.931 L
1247.183 528.931 L
1252.137 528.931 L
1257.091 528.931 L
1262.046 528.931 L
1267 528.931 L
S
GR
GS
[0.3 0 0 0.3 0 0] CT
0.929 0.694 0.125 RC
1 LJ
6.667 LW
N
182 934 M
186.954 934 L
191.909 923.885 L
196.863 923.885 L
201.817 923.885 L
206.772 923.885 L
211.726 923.885 L
216.68 923.885 L
221.635 923.885 L
226.589 923.885 L
231.543 923.885 L
236.498 923.885 L
241.452 923.885 L
246.406 760.334 L
251.361 760.334 L
256.315 760.334 L
261.269 760.334 L
266.224 760.334 L
271.178 760.334 L
276.132 760.334 L
281.087 760.334 L
286.041 734.118 L
290.995 734.118 L
295.95 734.118 L
300.904 691.764 L
305.858 676.711 L
310.813 606.591 L
315.767 534.514 L
320.721 507.592 L
325.676 434.98 L
330.63 434.98 L
335.584 434.079 L
340.539 434.079 L
345.493 413.436 L
350.447 413.436 L
355.402 405.525 L
360.356 403.984 L
365.311 399.646 L
370.265 393.887 L
375.219 388.272 L
380.174 381.693 L
385.128 381.693 L
390.082 375.101 L
395.037 375.101 L
399.991 373.501 L
404.945 373.501 L
409.9 372.963 L
414.854 372.963 L
419.808 372.963 L
424.763 372.963 L
S
GR
GS
[0.3 0 0 0.3 0 0] CT
0.929 0.694 0.125 RC
1 LJ
6.667 LW
N
419.808 372.963 M
424.763 372.963 L
429.717 370.951 L
434.671 370.951 L
439.626 370.951 L
444.58 370.951 L
449.534 370.951 L
454.489 370.951 L
459.443 370.951 L
464.397 370.951 L
469.352 370.951 L
474.306 370.951 L
479.26 370.951 L
484.215 370.951 L
489.169 370.951 L
494.123 370.951 L
499.078 370.951 L
504.032 370.659 L
508.986 370.659 L
513.941 370.659 L
518.895 370.659 L
523.849 366.309 L
528.804 366.309 L
533.758 366.309 L
538.712 366.309 L
543.667 366.309 L
548.621 366.309 L
553.575 366.309 L
558.53 366.309 L
563.484 366.309 L
568.438 366.309 L
573.393 366.309 L
578.347 366.189 L
583.301 366.189 L
588.256 366.189 L
593.21 366.189 L
598.164 366.189 L
603.119 366.189 L
608.073 366.189 L
613.027 366.189 L
617.982 366.189 L
622.936 366.189 L
627.89 366.189 L
632.845 366.189 L
637.799 366.189 L
642.753 366.189 L
647.708 366.189 L
652.662 366.189 L
657.616 366.189 L
662.571 366.189 L
667.525 366.189 L
672.479 366.189 L
S
GR
GS
[0.3 0 0 0.3 0 0] CT
0.929 0.694 0.125 RC
1 LJ
6.667 LW
N
667.525 366.189 M
672.479 366.189 L
677.434 366.189 L
682.388 366.189 L
687.342 366.189 L
692.297 366.189 L
697.251 366.189 L
702.206 366.189 L
707.16 366.189 L
712.114 366.189 L
717.068 366.189 L
722.023 366.189 L
726.977 366.189 L
731.932 366.189 L
736.886 366.189 L
741.84 366.189 L
746.794 366.189 L
751.749 366.189 L
756.703 366.189 L
761.658 366.189 L
766.612 364.409 L
771.566 364.409 L
776.521 364.409 L
781.475 364.409 L
786.429 364.409 L
791.384 364.409 L
796.338 364.409 L
801.292 364.409 L
806.247 364.409 L
811.201 364.409 L
816.155 364.409 L
821.11 364.409 L
826.064 364.409 L
831.018 364.409 L
835.973 364.409 L
840.927 364.409 L
845.881 359.97 L
850.836 359.97 L
855.79 359.97 L
860.744 359.97 L
865.699 359.97 L
870.653 359.97 L
875.607 359.97 L
880.562 359.97 L
885.516 359.97 L
890.47 359.97 L
895.425 359.97 L
900.379 359.97 L
905.333 359.97 L
910.288 359.97 L
915.242 359.97 L
920.196 359.97 L
S
GR
GS
[0.3 0 0 0.3 0 0] CT
0.929 0.694 0.125 RC
1 LJ
6.667 LW
N
915.242 359.97 M
920.196 359.97 L
925.151 359.97 L
930.105 359.97 L
935.059 359.97 L
940.014 359.97 L
944.968 359.97 L
949.922 359.97 L
954.877 359.97 L
959.831 359.97 L
964.785 359.97 L
969.74 359.97 L
974.694 359.97 L
979.648 359.97 L
984.603 359.97 L
989.557 359.97 L
994.511 359.97 L
999.466 359.97 L
1004.42 359.97 L
1009.374 359.97 L
1014.329 359.97 L
1019.283 359.97 L
1024.237 359.97 L
1029.192 359.97 L
1034.146 359.97 L
1039.1 359.97 L
1044.055 359.97 L
1049.009 359.97 L
1053.964 359.97 L
1058.918 359.97 L
1063.872 359.97 L
1068.827 359.97 L
1073.781 359.97 L
1078.735 359.97 L
1083.689 359.97 L
1088.644 359.97 L
1093.598 359.97 L
1098.552 359.97 L
1103.507 359.97 L
1108.461 359.97 L
1113.416 359.97 L
1118.37 359.97 L
1123.324 359.97 L
1128.279 359.97 L
1133.233 359.97 L
1138.187 359.97 L
1143.142 359.97 L
1148.096 359.97 L
1153.05 359.97 L
1158.005 359.97 L
1162.959 359.97 L
1167.913 359.97 L
S
GR
GS
[0.3 0 0 0.3 0 0] CT
0.929 0.694 0.125 RC
1 LJ
6.667 LW
N
1162.959 359.97 M
1167.913 359.97 L
1172.868 359.97 L
1177.822 359.97 L
1182.776 359.97 L
1187.731 359.97 L
1192.685 359.97 L
1197.639 359.97 L
1202.594 359.97 L
1207.548 359.97 L
1212.502 359.97 L
1217.457 359.97 L
1222.411 359.97 L
1227.365 359.97 L
1232.32 359.97 L
1237.274 359.97 L
1242.228 359.97 L
1247.183 359.97 L
1252.137 359.97 L
1257.091 359.97 L
1262.046 359.97 L
1267 359.97 L
S
GR
GS
[0.3 0 0 0.3 0 0] CT
0.494 0.184 0.557 RC
1 LJ
6.667 LW
N
182 934 M
186.954 934 L
191.909 926.216 L
196.863 910.352 L
201.817 910.352 L
206.772 910.352 L
211.726 910.352 L
216.68 910.352 L
221.635 899.143 L
226.589 899.143 L
231.543 899.143 L
236.498 899.143 L
241.452 899.143 L
246.406 899.143 L
251.361 899.143 L
256.315 899.143 L
261.269 899.143 L
266.224 874.488 L
271.178 874.488 L
276.132 874.488 L
281.087 808.407 L
286.041 784.756 L
290.995 701.79 L
295.95 667.549 L
300.904 658.443 L
305.858 658.443 L
310.813 645.471 L
315.767 641.877 L
320.721 622.046 L
325.676 622.046 L
330.63 612.986 L
335.584 609.744 L
340.539 609.744 L
345.493 607.85 L
350.447 603.932 L
355.402 594.968 L
360.356 590.232 L
365.311 588.882 L
370.265 588.154 L
375.219 587.14 L
380.174 583.164 L
385.128 581.556 L
390.082 581.146 L
395.037 581.146 L
399.991 581.146 L
404.945 580.646 L
409.9 580.349 L
414.854 580.217 L
419.808 580.16 L
424.763 580.16 L
S
GR
GS
[0.3 0 0 0.3 0 0] CT
0.494 0.184 0.557 RC
1 LJ
6.667 LW
N
419.808 580.16 M
424.763 580.16 L
429.717 579.267 L
434.671 579.267 L
439.626 579.267 L
444.58 579.267 L
449.534 579.267 L
454.489 579.267 L
459.443 579.267 L
464.397 579.267 L
469.352 579.267 L
474.306 579.267 L
479.26 579.267 L
484.215 575.768 L
489.169 575.768 L
494.123 575.768 L
499.078 575.768 L
504.032 575.768 L
508.986 575.768 L
513.941 575.768 L
518.895 571.14 L
523.849 571.14 L
528.804 571.14 L
533.758 571.14 L
538.712 571.14 L
543.667 571.14 L
548.621 571.14 L
553.575 571.14 L
558.53 571.14 L
563.484 571.14 L
568.438 571.14 L
573.393 571.14 L
578.347 571.14 L
583.301 569.073 L
588.256 569.073 L
593.21 569.073 L
598.164 569.073 L
603.119 569.073 L
608.073 569.073 L
613.027 569.073 L
617.982 569.073 L
622.936 569.073 L
627.89 569.073 L
632.845 569.073 L
637.799 569.073 L
642.753 569.073 L
647.708 569.073 L
652.662 569.073 L
657.616 569.073 L
662.571 569.073 L
667.525 569.073 L
672.479 569.073 L
S
GR
GS
[0.3 0 0 0.3 0 0] CT
0.494 0.184 0.557 RC
1 LJ
6.667 LW
N
667.525 569.073 M
672.479 569.073 L
677.434 569.073 L
682.388 569.073 L
687.342 569.073 L
692.297 569.073 L
697.251 569.073 L
702.206 569.073 L
707.16 567.257 L
712.114 567.257 L
717.068 567.257 L
722.023 567.257 L
726.977 567.257 L
731.932 567.257 L
736.886 567.257 L
741.84 567.257 L
746.794 567.257 L
751.749 567.257 L
756.703 567.257 L
761.658 567.257 L
766.612 567.257 L
771.566 567.257 L
776.521 567.257 L
781.475 567.257 L
786.429 567.257 L
791.384 567.257 L
796.338 567.257 L
801.292 567.257 L
806.247 567.257 L
811.201 567.257 L
816.155 567.257 L
821.11 567.257 L
826.064 567.257 L
831.018 567.257 L
835.973 567.257 L
840.927 567.257 L
845.881 567.257 L
850.836 567.257 L
855.79 567.257 L
860.744 567.257 L
865.699 567.257 L
870.653 567.257 L
875.607 567.257 L
880.562 567.257 L
885.516 567.257 L
890.47 567.257 L
895.425 567.257 L
900.379 567.257 L
905.333 567.257 L
910.288 567.257 L
915.242 567.257 L
920.196 567.257 L
S
GR
GS
[0.3 0 0 0.3 0 0] CT
0.494 0.184 0.557 RC
1 LJ
6.667 LW
N
915.242 567.257 M
920.196 567.257 L
925.151 567.257 L
930.105 567.257 L
935.059 567.257 L
940.014 567.257 L
944.968 567.257 L
949.922 567.257 L
954.877 567.257 L
959.831 567.257 L
964.785 567.257 L
969.74 567.257 L
974.694 567.257 L
979.648 567.257 L
984.603 567.257 L
989.557 567.257 L
994.511 567.257 L
999.466 567.257 L
1004.42 567.257 L
1009.374 567.257 L
1014.329 567.257 L
1019.283 567.257 L
1024.237 567.257 L
1029.192 567.257 L
1034.146 567.257 L
1039.1 567.257 L
1044.055 567.257 L
1049.009 567.257 L
1053.964 567.257 L
1058.918 567.257 L
1063.872 567.257 L
1068.827 567.257 L
1073.781 567.257 L
1078.735 567.257 L
1083.689 567.257 L
1088.644 567.257 L
1093.598 567.257 L
1098.552 567.257 L
1103.507 567.257 L
1108.461 567.257 L
1113.416 567.257 L
1118.37 567.257 L
1123.324 567.257 L
1128.279 567.257 L
1133.233 567.257 L
1138.187 567.257 L
1143.142 567.257 L
1148.096 567.257 L
1153.05 567.257 L
1158.005 567.257 L
1162.959 567.257 L
1167.913 567.257 L
S
GR
GS
[0.3 0 0 0.3 0 0] CT
0.494 0.184 0.557 RC
1 LJ
6.667 LW
N
1162.959 567.257 M
1167.913 567.257 L
1172.868 567.257 L
1177.822 567.257 L
1182.776 567.257 L
1187.731 567.257 L
1192.685 567.257 L
1197.639 567.257 L
1202.594 567.257 L
1207.548 567.257 L
1212.502 567.257 L
1217.457 567.257 L
1222.411 567.257 L
1227.365 567.257 L
1232.32 567.257 L
1237.274 567.257 L
1242.228 567.257 L
1247.183 567.257 L
1252.137 567.257 L
1257.091 567.257 L
1262.046 567.257 L
1267 567.257 L
S
GR
GS
[0.3 0 0 0.3 0 0] CT
1 GC
N
882 901 M
882 730 L
1234 730 L
1234 901 L
cp
f
GR
GS
[0.3 0 0 0.3 303.6 226.73015] CT
/Helvetica 30 F
GS
[1 0 0 1 0 0] CT
0 12 moveto 
1 -1 scale
(front movement) t 
GR
GR
GS
[0.3 0 0 0.3 0 0] CT
0 0.447 0.741 RC
1 LJ
6.667 LW
N
902 755.767 M
1002 755.767 L
S
GR
GS
[0.3 0 0 0.3 303.6 238.67672] CT
/Helvetica 30 F
GS
[1 0 0 1 0 0] CT
0 12 moveto 
1 -1 scale
(back movement) t 
GR
GR
GS
[0.3 0 0 0.3 0 0] CT
0.851 0.325 0.098 RC
1 LJ
6.667 LW
N
902 795.589 M
1002 795.589 L
S
GR
GS
[0.3 0 0 0.3 303.6 250.62328] CT
/Helvetica 30 F
GS
[1 0 0 1 0 0] CT
0 12 moveto 
1 -1 scale
(right movement) t 
GR
GR
GS
[0.3 0 0 0.3 0 0] CT
0.929 0.694 0.125 RC
1 LJ
6.667 LW
N
902 835.411 M
1002 835.411 L
S
GR
GS
[0.3 0 0 0.3 303.6 262.56985] CT
/Helvetica 30 F
GS
[1 0 0 1 0 0] CT
0 12 moveto 
1 -1 scale
(left movement) t 
GR
GR
GS
[0.3 0 0 0.3 0 0] CT
0.494 0.184 0.557 RC
1 LJ
6.667 LW
N
902 875.233 M
1002 875.233 L
S
GR
GS
[0.3 0 0 0.3 0 0] CT
0.149 GC
10.0 ML
1.667 LW
N
882 901 M
882 730 L
1234 730 L
1234 901 L
cp
S
GR
%%Trailer
%%Pages: 1
%%EOF
