%!PS-Adobe-3.0 EPSF-3.0
%%Creator: (MATLAB, The Mathworks, Inc. Version 8.6.0.267246 \(R2015b\). Operating System: Windows 8)
%%Title: (C:/Users/Daniel/OneDrive - CertiCon a.s/Documents/skola/CVUT/Semester_8/Bakalarska_Praca/CoSMO_convData/Dog_convergence.eps)
%%CreationDate: 2016-05-10T20:41:26
%%Pages: (atend)
%%BoundingBox: 0 0 420 315
%%LanguageLevel: 2
%%EndComments
%%BeginProlog
%%BeginResource: procset (Apache XML Graphics Std ProcSet) 1.2 0
%%Version: 1.2 0
%%Copyright: (Copyright 2001-2003,2010 The Apache Software Foundation. License terms: http://www.apache.org/licenses/LICENSE-2.0)
/bd{bind def}bind def
/ld{load def}bd
/GR/grestore ld
/M/moveto ld
/LJ/setlinejoin ld
/C/curveto ld
/f/fill ld
/LW/setlinewidth ld
/GC/setgray ld
/t/show ld
/N/newpath ld
/CT/concat ld
/cp/closepath ld
/S/stroke ld
/L/lineto ld
/CC/setcmykcolor ld
/A/ashow ld
/GS/gsave ld
/RC/setrgbcolor ld
/RM/rmoveto ld
/ML/setmiterlimit ld
/re {4 2 roll M
1 index 0 rlineto
0 exch rlineto
neg 0 rlineto
cp } bd
/_ctm matrix def
/_tm matrix def
/BT { _ctm currentmatrix pop matrix _tm copy pop 0 0 moveto } bd
/ET { _ctm setmatrix } bd
/iTm { _ctm setmatrix _tm concat } bd
/Tm { _tm astore pop iTm 0 0 moveto } bd
/ux 0.0 def
/uy 0.0 def
/F {
  /Tp exch def
  /Tf exch def
  Tf findfont Tp scalefont setfont
  /cf Tf def  /cs Tp def
} bd
/ULS {currentpoint /uy exch def /ux exch def} bd
/ULE {
  /Tcx currentpoint pop def
  gsave
  newpath
  cf findfont cs scalefont dup
  /FontMatrix get 0 get /Ts exch def /FontInfo get dup
  /UnderlinePosition get Ts mul /To exch def
  /UnderlineThickness get Ts mul /Tt exch def
  ux uy To add moveto  Tcx uy To add lineto
  Tt setlinewidth stroke
  grestore
} bd
/OLE {
  /Tcx currentpoint pop def
  gsave
  newpath
  cf findfont cs scalefont dup
  /FontMatrix get 0 get /Ts exch def /FontInfo get dup
  /UnderlinePosition get Ts mul /To exch def
  /UnderlineThickness get Ts mul /Tt exch def
  ux uy To add cs add moveto Tcx uy To add cs add lineto
  Tt setlinewidth stroke
  grestore
} bd
/SOE {
  /Tcx currentpoint pop def
  gsave
  newpath
  cf findfont cs scalefont dup
  /FontMatrix get 0 get /Ts exch def /FontInfo get dup
  /UnderlinePosition get Ts mul /To exch def
  /UnderlineThickness get Ts mul /Tt exch def
  ux uy To add cs 10 mul 26 idiv add moveto Tcx uy To add cs 10 mul 26 idiv add lineto
  Tt setlinewidth stroke
  grestore
} bd
/QT {
/Y22 exch store
/X22 exch store
/Y21 exch store
/X21 exch store
currentpoint
/Y21 load 2 mul add 3 div exch
/X21 load 2 mul add 3 div exch
/X21 load 2 mul /X22 load add 3 div
/Y21 load 2 mul /Y22 load add 3 div
/X22 load /Y22 load curveto
} bd
/SSPD {
dup length /d exch dict def
{
/v exch def
/k exch def
currentpagedevice k known {
/cpdv currentpagedevice k get def
v cpdv ne {
/upd false def
/nullv v type /nulltype eq def
/nullcpdv cpdv type /nulltype eq def
nullv nullcpdv or
{
/upd true def
} {
/sametype v type cpdv type eq def
sametype {
v type /arraytype eq {
/vlen v length def
/cpdvlen cpdv length def
vlen cpdvlen eq {
0 1 vlen 1 sub {
/i exch def
/obj v i get def
/cpdobj cpdv i get def
obj cpdobj ne {
/upd true def
exit
} if
} for
} {
/upd true def
} ifelse
} {
v type /dicttype eq {
v {
/dv exch def
/dk exch def
/cpddv cpdv dk get def
dv cpddv ne {
/upd true def
exit
} if
} forall
} {
/upd true def
} ifelse
} ifelse
} if
} ifelse
upd true eq {
d k v put
} if
} if
} if
} forall
d length 0 gt {
d setpagedevice
} if
} bd
%%EndResource
%%BeginResource: procset (Apache XML Graphics EPS ProcSet) 1.0 0
%%Version: 1.0 0
%%Copyright: (Copyright 2002-2003 The Apache Software Foundation. License terms: http://www.apache.org/licenses/LICENSE-2.0)
/BeginEPSF { %def
/b4_Inc_state save def         % Save state for cleanup
/dict_count countdictstack def % Count objects on dict stack
/op_count count 1 sub def      % Count objects on operand stack
userdict begin                 % Push userdict on dict stack
/showpage { } def              % Redefine showpage, { } = null proc
0 setgray 0 setlinecap         % Prepare graphics state
1 setlinewidth 0 setlinejoin
10 setmiterlimit [ ] 0 setdash newpath
/languagelevel where           % If level not equal to 1 then
{pop languagelevel             % set strokeadjust and
1 ne                           % overprint to their defaults.
{false setstrokeadjust false setoverprint
} if
} if
} bd
/EndEPSF { %def
count op_count sub {pop} repeat            % Clean up stacks
countdictstack dict_count sub {end} repeat
b4_Inc_state restore
} bd
%%EndResource
%FOPBeginFontDict
%%IncludeResource: font Courier-Bold
%%IncludeResource: font Helvetica
%%IncludeResource: font Courier-BoldOblique
%%IncludeResource: font Courier-Oblique
%%IncludeResource: font Times-Roman
%%IncludeResource: font Helvetica-BoldOblique
%%IncludeResource: font Helvetica-Bold
%%IncludeResource: font Helvetica-Oblique
%%IncludeResource: font Times-BoldItalic
%%IncludeResource: font Courier
%%IncludeResource: font Times-Italic
%%IncludeResource: font Times-Bold
%%IncludeResource: font Symbol
%%IncludeResource: font ZapfDingbats
%FOPEndFontDict
%%BeginResource: encoding WinAnsiEncoding
/WinAnsiEncoding [
/.notdef /.notdef /.notdef /.notdef /.notdef
/.notdef /.notdef /.notdef /.notdef /.notdef
/.notdef /.notdef /.notdef /.notdef /.notdef
/.notdef /.notdef /.notdef /.notdef /.notdef
/.notdef /.notdef /.notdef /.notdef /.notdef
/.notdef /.notdef /.notdef /.notdef /.notdef
/.notdef /.notdef /space /exclam /quotedbl
/numbersign /dollar /percent /ampersand /quotesingle
/parenleft /parenright /asterisk /plus /comma
/hyphen /period /slash /zero /one
/two /three /four /five /six
/seven /eight /nine /colon /semicolon
/less /equal /greater /question /at
/A /B /C /D /E
/F /G /H /I /J
/K /L /M /N /O
/P /Q /R /S /T
/U /V /W /X /Y
/Z /bracketleft /backslash /bracketright /asciicircum
/underscore /quoteleft /a /b /c
/d /e /f /g /h
/i /j /k /l /m
/n /o /p /q /r
/s /t /u /v /w
/x /y /z /braceleft /bar
/braceright /asciitilde /bullet /Euro /bullet
/quotesinglbase /florin /quotedblbase /ellipsis /dagger
/daggerdbl /circumflex /perthousand /Scaron /guilsinglleft
/OE /bullet /Zcaron /bullet /bullet
/quoteleft /quoteright /quotedblleft /quotedblright /bullet
/endash /emdash /asciitilde /trademark /scaron
/guilsinglright /oe /bullet /zcaron /Ydieresis
/space /exclamdown /cent /sterling /currency
/yen /brokenbar /section /dieresis /copyright
/ordfeminine /guillemotleft /logicalnot /sfthyphen /registered
/macron /degree /plusminus /twosuperior /threesuperior
/acute /mu /paragraph /middot /cedilla
/onesuperior /ordmasculine /guillemotright /onequarter /onehalf
/threequarters /questiondown /Agrave /Aacute /Acircumflex
/Atilde /Adieresis /Aring /AE /Ccedilla
/Egrave /Eacute /Ecircumflex /Edieresis /Igrave
/Iacute /Icircumflex /Idieresis /Eth /Ntilde
/Ograve /Oacute /Ocircumflex /Otilde /Odieresis
/multiply /Oslash /Ugrave /Uacute /Ucircumflex
/Udieresis /Yacute /Thorn /germandbls /agrave
/aacute /acircumflex /atilde /adieresis /aring
/ae /ccedilla /egrave /eacute /ecircumflex
/edieresis /igrave /iacute /icircumflex /idieresis
/eth /ntilde /ograve /oacute /ocircumflex
/otilde /odieresis /divide /oslash /ugrave
/uacute /ucircumflex /udieresis /yacute /thorn
/ydieresis
] def
%%EndResource
%FOPBeginFontReencode
/Courier-Bold findfont
dup length dict begin
  {1 index /FID ne {def} {pop pop} ifelse} forall
  /Encoding WinAnsiEncoding def
  currentdict
end
/Courier-Bold exch definefont pop
/Helvetica findfont
dup length dict begin
  {1 index /FID ne {def} {pop pop} ifelse} forall
  /Encoding WinAnsiEncoding def
  currentdict
end
/Helvetica exch definefont pop
/Courier-BoldOblique findfont
dup length dict begin
  {1 index /FID ne {def} {pop pop} ifelse} forall
  /Encoding WinAnsiEncoding def
  currentdict
end
/Courier-BoldOblique exch definefont pop
/Courier-Oblique findfont
dup length dict begin
  {1 index /FID ne {def} {pop pop} ifelse} forall
  /Encoding WinAnsiEncoding def
  currentdict
end
/Courier-Oblique exch definefont pop
/Times-Roman findfont
dup length dict begin
  {1 index /FID ne {def} {pop pop} ifelse} forall
  /Encoding WinAnsiEncoding def
  currentdict
end
/Times-Roman exch definefont pop
/Helvetica-BoldOblique findfont
dup length dict begin
  {1 index /FID ne {def} {pop pop} ifelse} forall
  /Encoding WinAnsiEncoding def
  currentdict
end
/Helvetica-BoldOblique exch definefont pop
/Helvetica-Bold findfont
dup length dict begin
  {1 index /FID ne {def} {pop pop} ifelse} forall
  /Encoding WinAnsiEncoding def
  currentdict
end
/Helvetica-Bold exch definefont pop
/Helvetica-Oblique findfont
dup length dict begin
  {1 index /FID ne {def} {pop pop} ifelse} forall
  /Encoding WinAnsiEncoding def
  currentdict
end
/Helvetica-Oblique exch definefont pop
/Times-BoldItalic findfont
dup length dict begin
  {1 index /FID ne {def} {pop pop} ifelse} forall
  /Encoding WinAnsiEncoding def
  currentdict
end
/Times-BoldItalic exch definefont pop
/Courier findfont
dup length dict begin
  {1 index /FID ne {def} {pop pop} ifelse} forall
  /Encoding WinAnsiEncoding def
  currentdict
end
/Courier exch definefont pop
/Times-Italic findfont
dup length dict begin
  {1 index /FID ne {def} {pop pop} ifelse} forall
  /Encoding WinAnsiEncoding def
  currentdict
end
/Times-Italic exch definefont pop
/Times-Bold findfont
dup length dict begin
  {1 index /FID ne {def} {pop pop} ifelse} forall
  /Encoding WinAnsiEncoding def
  currentdict
end
/Times-Bold exch definefont pop
%FOPEndFontReencode
%%EndProlog
%%Page: 1 1
%%PageBoundingBox: 0 0 420 315
%%BeginPageSetup
[1 0 0 -1 0 315] CT
%%EndPageSetup
GS
[0.3 0 0 0.3 0 0] CT
1 GC
N
0 0 1400 1050 re
f
GR
GS
[0.3 0 0 0.3 0 0] CT
1 GC
N
0 0 1400 1050 re
f
GR
GS
[0.3 0 0 0.3 0 0] CT
1 GC
N
182 934 M
1267 934 L
1267 79 L
182 79 L
cp
f
GR
GS
[0.3 0 0 0.3 0 0] CT
0.149 GC
2 setlinecap
1 LJ
1.667 LW
N
182 934 M
1267 934 L
S
GR
GS
[0.3 0 0 0.3 0 0] CT
0.149 GC
2 setlinecap
1 LJ
1.667 LW
N
182 934 M
182 923.15 L
S
GR
GS
[0.3 0 0 0.3 0 0] CT
0.149 GC
2 setlinecap
1 LJ
1.667 LW
N
281.087 934 M
281.087 923.15 L
S
GR
GS
[0.3 0 0 0.3 0 0] CT
0.149 GC
2 setlinecap
1 LJ
1.667 LW
N
380.174 934 M
380.174 923.15 L
S
GR
GS
[0.3 0 0 0.3 0 0] CT
0.149 GC
2 setlinecap
1 LJ
1.667 LW
N
479.26 934 M
479.26 923.15 L
S
GR
GS
[0.3 0 0 0.3 0 0] CT
0.149 GC
2 setlinecap
1 LJ
1.667 LW
N
578.347 934 M
578.347 923.15 L
S
GR
GS
[0.3 0 0 0.3 0 0] CT
0.149 GC
2 setlinecap
1 LJ
1.667 LW
N
677.434 934 M
677.434 923.15 L
S
GR
GS
[0.3 0 0 0.3 0 0] CT
0.149 GC
2 setlinecap
1 LJ
1.667 LW
N
776.521 934 M
776.521 923.15 L
S
GR
GS
[0.3 0 0 0.3 0 0] CT
0.149 GC
2 setlinecap
1 LJ
1.667 LW
N
875.607 934 M
875.607 923.15 L
S
GR
GS
[0.3 0 0 0.3 0 0] CT
0.149 GC
2 setlinecap
1 LJ
1.667 LW
N
974.694 934 M
974.694 923.15 L
S
GR
GS
[0.3 0 0 0.3 0 0] CT
0.149 GC
2 setlinecap
1 LJ
1.667 LW
N
1073.781 934 M
1073.781 923.15 L
S
GR
GS
[0.3 0 0 0.3 0 0] CT
0.149 GC
2 setlinecap
1 LJ
1.667 LW
N
1172.868 934 M
1172.868 923.15 L
S
GR
GS
[0.3 0 0 0.3 54.6 284.19999] CT
0.149 GC
/Helvetica 33 F
GS
[1 0 0 1 0 0] CT
-9.5 34 moveto 
1 -1 scale
(0) t 
GR
GR
GS
[0.3 0 0 0.3 84.32603 284.19999] CT
0.149 GC
/Helvetica 33 F
GS
[1 0 0 1 0 0] CT
-18.5 34 moveto 
1 -1 scale
(20) t 
GR
GR
GS
[0.3 0 0 0.3 114.05206 284.19999] CT
0.149 GC
/Helvetica 33 F
GS
[1 0 0 1 0 0] CT
-18.5 34 moveto 
1 -1 scale
(40) t 
GR
GR
GS
[0.3 0 0 0.3 143.77809 284.19999] CT
0.149 GC
/Helvetica 33 F
GS
[1 0 0 1 0 0] CT
-18.5 34 moveto 
1 -1 scale
(60) t 
GR
GR
GS
[0.3 0 0 0.3 173.50411 284.19999] CT
0.149 GC
/Helvetica 33 F
GS
[1 0 0 1 0 0] CT
-18.5 34 moveto 
1 -1 scale
(80) t 
GR
GR
GS
[0.3 0 0 0.3 203.23013 284.19999] CT
0.149 GC
/Helvetica 33 F
GS
[1 0 0 1 0 0] CT
-28 34 moveto 
1 -1 scale
(100) t 
GR
GR
GS
[0.3 0 0 0.3 232.95617 284.19999] CT
0.149 GC
/Helvetica 33 F
GS
[1 0 0 1 0 0] CT
-28 34 moveto 
1 -1 scale
(120) t 
GR
GR
GS
[0.3 0 0 0.3 262.68219 284.19999] CT
0.149 GC
/Helvetica 33 F
GS
[1 0 0 1 0 0] CT
-28 34 moveto 
1 -1 scale
(140) t 
GR
GR
GS
[0.3 0 0 0.3 292.40823 284.19999] CT
0.149 GC
/Helvetica 33 F
GS
[1 0 0 1 0 0] CT
-28 34 moveto 
1 -1 scale
(160) t 
GR
GR
GS
[0.3 0 0 0.3 322.13423 284.19999] CT
0.149 GC
/Helvetica 33 F
GS
[1 0 0 1 0 0] CT
-28 34 moveto 
1 -1 scale
(180) t 
GR
GR
GS
[0.3 0 0 0.3 351.86027 284.19999] CT
0.149 GC
/Helvetica 33 F
GS
[1 0 0 1 0 0] CT
-28 34 moveto 
1 -1 scale
(200) t 
GR
GR
GS
[0.3 0 0 0.3 217.35016 297.80001] CT
0.149 GC
/Helvetica 37 F
GS
[1 0 0 1 0 0] CT
-76.5 38 moveto 
1 -1 scale
(Iterations) t 
GR
GR
GS
[0.3 0 0 0.3 0 0] CT
0.149 GC
2 setlinecap
1 LJ
1.667 LW
N
182 934 M
182 79 L
S
GR
GS
[0.3 0 0 0.3 0 0] CT
0.149 GC
2 setlinecap
1 LJ
1.667 LW
N
182 934 M
192.85 934 L
S
GR
GS
[0.3 0 0 0.3 0 0] CT
0.149 GC
2 setlinecap
1 LJ
1.667 LW
N
182 848.5 M
192.85 848.5 L
S
GR
GS
[0.3 0 0 0.3 0 0] CT
0.149 GC
2 setlinecap
1 LJ
1.667 LW
N
182 763 M
192.85 763 L
S
GR
GS
[0.3 0 0 0.3 0 0] CT
0.149 GC
2 setlinecap
1 LJ
1.667 LW
N
182 677.5 M
192.85 677.5 L
S
GR
GS
[0.3 0 0 0.3 0 0] CT
0.149 GC
2 setlinecap
1 LJ
1.667 LW
N
182 592 M
192.85 592 L
S
GR
GS
[0.3 0 0 0.3 0 0] CT
0.149 GC
2 setlinecap
1 LJ
1.667 LW
N
182 506.5 M
192.85 506.5 L
S
GR
GS
[0.3 0 0 0.3 0 0] CT
0.149 GC
2 setlinecap
1 LJ
1.667 LW
N
182 421 M
192.85 421 L
S
GR
GS
[0.3 0 0 0.3 0 0] CT
0.149 GC
2 setlinecap
1 LJ
1.667 LW
N
182 335.5 M
192.85 335.5 L
S
GR
GS
[0.3 0 0 0.3 0 0] CT
0.149 GC
2 setlinecap
1 LJ
1.667 LW
N
182 250 M
192.85 250 L
S
GR
GS
[0.3 0 0 0.3 0 0] CT
0.149 GC
2 setlinecap
1 LJ
1.667 LW
N
182 164.5 M
192.85 164.5 L
S
GR
GS
[0.3 0 0 0.3 0 0] CT
0.149 GC
2 setlinecap
1 LJ
1.667 LW
N
182 79 M
192.85 79 L
S
GR
GS
[0.3 0 0 0.3 50.6 280.2] CT
0.149 GC
/Helvetica 33 F
GS
[1 0 0 1 0 0] CT
-19 13 moveto 
1 -1 scale
(0) t 
GR
GR
GS
[0.3 0 0 0.3 50.6 254.55] CT
0.149 GC
/Helvetica 33 F
GS
[1 0 0 1 0 0] CT
-46 13 moveto 
1 -1 scale
(0.1) t 
GR
GR
GS
[0.3 0 0 0.3 50.6 228.9] CT
0.149 GC
/Helvetica 33 F
GS
[1 0 0 1 0 0] CT
-46 13 moveto 
1 -1 scale
(0.2) t 
GR
GR
GS
[0.3 0 0 0.3 50.6 203.25] CT
0.149 GC
/Helvetica 33 F
GS
[1 0 0 1 0 0] CT
-46 13 moveto 
1 -1 scale
(0.3) t 
GR
GR
GS
[0.3 0 0 0.3 50.6 177.6] CT
0.149 GC
/Helvetica 33 F
GS
[1 0 0 1 0 0] CT
-46 13 moveto 
1 -1 scale
(0.4) t 
GR
GR
GS
[0.3 0 0 0.3 50.6 151.95] CT
0.149 GC
/Helvetica 33 F
GS
[1 0 0 1 0 0] CT
-46 13 moveto 
1 -1 scale
(0.5) t 
GR
GR
GS
[0.3 0 0 0.3 50.6 126.29999] CT
0.149 GC
/Helvetica 33 F
GS
[1 0 0 1 0 0] CT
-46 13 moveto 
1 -1 scale
(0.6) t 
GR
GR
GS
[0.3 0 0 0.3 50.6 100.65] CT
0.149 GC
/Helvetica 33 F
GS
[1 0 0 1 0 0] CT
-46 13 moveto 
1 -1 scale
(0.7) t 
GR
GR
GS
[0.3 0 0 0.3 50.6 75] CT
0.149 GC
/Helvetica 33 F
GS
[1 0 0 1 0 0] CT
-46 13 moveto 
1 -1 scale
(0.8) t 
GR
GR
GS
[0.3 0 0 0.3 50.6 49.35] CT
0.149 GC
/Helvetica 33 F
GS
[1 0 0 1 0 0] CT
-46 13 moveto 
1 -1 scale
(0.9) t 
GR
GR
GS
[0.3 0 0 0.3 50.6 23.7] CT
0.149 GC
/Helvetica 33 F
GS
[1 0 0 1 0 0] CT
-19 13 moveto 
1 -1 scale
(1) t 
GR
GR
GS
[0 -0.3 0.3 0 33.8 151.94988] CT
0.149 GC
/Helvetica 37 F
GS
[1 0 0 1 0 0] CT
-72 -9 moveto 
1 -1 scale
(Distance) t 
GR
GR
GS
[0.3 0 0 0.3 0 0] CT
0 0.447 0.741 RC
1 LJ
6.667 LW
N
182 934 M
186.954 897.552 L
191.909 897.552 L
196.863 876.366 L
201.817 867.242 L
206.772 867.242 L
211.726 867.242 L
216.68 867.242 L
221.635 867.242 L
226.589 867.242 L
231.543 867.242 L
236.498 867.242 L
241.452 867.242 L
246.406 867.242 L
251.361 867.242 L
256.315 867.242 L
261.269 867.242 L
266.224 867.242 L
271.178 867.242 L
276.132 867.242 L
281.087 867.242 L
286.041 758.933 L
290.995 724.484 L
295.95 616.468 L
300.904 450.139 L
305.858 450.139 L
310.813 378.665 L
315.767 378.665 L
320.721 355.587 L
325.676 323.352 L
330.63 313.719 L
335.584 307.957 L
340.539 293.728 L
345.493 256.154 L
350.447 256.154 L
355.402 256.154 L
360.356 256.154 L
365.311 251.169 L
370.265 251.169 L
375.219 251.169 L
380.174 251.169 L
385.128 249.16 L
390.082 249.16 L
395.037 249.16 L
399.991 249.16 L
404.945 249.16 L
409.9 249.16 L
414.854 249.16 L
419.808 249.16 L
424.763 249.16 L
S
GR
GS
[0.3 0 0 0.3 0 0] CT
0 0.447 0.741 RC
1 LJ
6.667 LW
N
419.808 249.16 M
424.763 249.16 L
429.717 249.16 L
434.671 249.16 L
439.626 249.16 L
444.58 249.16 L
449.534 249.16 L
454.489 241.954 L
459.443 241.954 L
464.397 241.954 L
469.352 241.954 L
474.306 241.954 L
479.26 241.954 L
484.215 241.954 L
489.169 241.954 L
494.123 241.954 L
499.078 241.954 L
504.032 241.954 L
508.986 241.954 L
513.941 241.954 L
518.895 241.954 L
523.849 241.954 L
528.804 241.954 L
533.758 241.954 L
538.712 241.954 L
543.667 241.954 L
548.621 241.954 L
553.575 241.954 L
558.53 241.954 L
563.484 241.954 L
568.438 241.954 L
573.393 241.954 L
578.347 241.954 L
583.301 241.954 L
588.256 241.954 L
593.21 241.954 L
598.164 241.28 L
603.119 241.28 L
608.073 241.28 L
613.027 241.28 L
617.982 241.28 L
622.936 241.28 L
627.89 241.28 L
632.845 241.28 L
637.799 241.28 L
642.753 241.28 L
647.708 241.28 L
652.662 241.28 L
657.616 241.28 L
662.571 241.28 L
667.525 241.28 L
672.479 241.28 L
S
GR
GS
[0.3 0 0 0.3 0 0] CT
0 0.447 0.741 RC
1 LJ
6.667 LW
N
667.525 241.28 M
672.479 241.28 L
677.434 241.28 L
682.388 241.28 L
687.342 241.28 L
692.297 241.28 L
697.251 241.28 L
702.206 241.28 L
707.16 241.28 L
712.114 241.28 L
717.068 241.28 L
722.023 241.28 L
726.977 241.28 L
731.932 241.28 L
736.886 241.28 L
741.84 241.28 L
746.794 241.28 L
751.749 241.28 L
756.703 241.28 L
761.658 241.28 L
766.612 241.28 L
771.566 241.28 L
776.521 241.28 L
781.475 241.28 L
786.429 241.28 L
791.384 241.28 L
796.338 241.28 L
801.292 241.28 L
806.247 241.28 L
811.201 241.28 L
816.155 241.28 L
821.11 241.28 L
826.064 241.28 L
831.018 241.28 L
835.973 241.28 L
840.927 241.28 L
845.881 241.28 L
850.836 241.28 L
855.79 241.28 L
860.744 241.28 L
865.699 241.28 L
870.653 241.28 L
875.607 241.28 L
880.562 241.28 L
885.516 241.28 L
890.47 241.28 L
895.425 241.28 L
900.379 241.28 L
905.333 241.28 L
910.288 232.372 L
915.242 232.372 L
920.196 232.372 L
S
GR
GS
[0.3 0 0 0.3 0 0] CT
0 0.447 0.741 RC
1 LJ
6.667 LW
N
915.242 232.372 M
920.196 232.372 L
925.151 232.372 L
930.105 232.372 L
935.059 232.372 L
940.014 232.372 L
944.968 232.372 L
949.922 232.372 L
954.877 232.372 L
959.831 232.372 L
964.785 232.372 L
969.74 232.372 L
974.694 232.372 L
979.648 232.372 L
984.603 232.372 L
989.557 232.372 L
994.511 232.372 L
999.466 232.372 L
1004.42 232.372 L
1009.374 232.372 L
1014.329 232.372 L
1019.283 232.372 L
1024.237 232.372 L
1029.192 232.372 L
1034.146 232.372 L
1039.1 232.372 L
1044.055 232.372 L
1049.009 232.372 L
1053.964 232.372 L
1058.918 232.372 L
1063.872 232.372 L
1068.827 232.372 L
1073.781 232.372 L
1078.735 232.372 L
1083.689 232.372 L
1088.644 232.372 L
1093.598 232.372 L
1098.552 232.372 L
1103.507 232.372 L
1108.461 232.372 L
1113.416 232.372 L
1118.37 232.372 L
1123.324 232.372 L
1128.279 232.372 L
1133.233 232.372 L
1138.187 232.372 L
1143.142 232.372 L
1148.096 232.372 L
1153.05 232.372 L
1158.005 232.372 L
1162.959 232.372 L
1167.913 232.372 L
S
GR
GS
[0.3 0 0 0.3 0 0] CT
0 0.447 0.741 RC
1 LJ
6.667 LW
N
1162.959 232.372 M
1167.913 232.372 L
1172.868 232.372 L
1177.822 232.372 L
1182.776 232.372 L
1187.731 232.372 L
1192.685 232.372 L
1197.639 232.372 L
1202.594 232.372 L
1207.548 232.372 L
1212.502 232.372 L
1217.457 232.372 L
1222.411 232.372 L
1227.365 232.372 L
1232.32 232.372 L
1237.274 232.372 L
1242.228 232.372 L
1247.183 232.372 L
1252.137 232.372 L
1257.091 232.372 L
1262.046 232.372 L
1267 232.372 L
S
GR
GS
[0.3 0 0 0.3 0 0] CT
0.851 0.325 0.098 RC
1 LJ
6.667 LW
N
182 934 M
186.954 934 L
191.909 934 L
196.863 934 L
201.817 934 L
206.772 911.956 L
211.726 911.956 L
216.68 911.956 L
221.635 911.956 L
226.589 911.956 L
231.543 911.956 L
236.498 911.956 L
241.452 847.872 L
246.406 847.872 L
251.361 847.872 L
256.315 847.872 L
261.269 847.872 L
266.224 847.872 L
271.178 847.872 L
276.132 847.872 L
281.087 847.872 L
286.041 815.328 L
290.995 815.328 L
295.95 815.328 L
300.904 815.328 L
305.858 749.626 L
310.813 704.631 L
315.767 634.547 L
320.721 634.547 L
325.676 634.547 L
330.63 634.547 L
335.584 626.485 L
340.539 622.728 L
345.493 583.454 L
350.447 578.098 L
355.402 502.181 L
360.356 502.181 L
365.311 502.181 L
370.265 494.578 L
375.219 494.578 L
380.174 481.36 L
385.128 481.36 L
390.082 481.36 L
395.037 481.193 L
399.991 480.733 L
404.945 480.733 L
409.9 480.733 L
414.854 480.733 L
419.808 480.733 L
424.763 477.852 L
S
GR
GS
[0.3 0 0 0.3 0 0] CT
0.851 0.325 0.098 RC
1 LJ
6.667 LW
N
419.808 480.733 M
424.763 477.852 L
429.717 477.852 L
434.671 477.852 L
439.626 477.852 L
444.58 477.852 L
449.534 477.852 L
454.489 477.852 L
459.443 477.852 L
464.397 473.667 L
469.352 473.667 L
474.306 473.667 L
479.26 473.667 L
484.215 473.667 L
489.169 473.667 L
494.123 473.667 L
499.078 473.667 L
504.032 473.667 L
508.986 473.667 L
513.941 462.871 L
518.895 462.871 L
523.849 462.871 L
528.804 462.871 L
533.758 462.871 L
538.712 462.871 L
543.667 462.871 L
548.621 462.871 L
553.575 462.871 L
558.53 462.871 L
563.484 462.871 L
568.438 462.871 L
573.393 462.871 L
578.347 462.871 L
583.301 462.871 L
588.256 462.871 L
593.21 462.871 L
598.164 462.871 L
603.119 462.871 L
608.073 462.871 L
613.027 462.871 L
617.982 462.871 L
622.936 462.871 L
627.89 462.871 L
632.845 462.871 L
637.799 462.871 L
642.753 462.871 L
647.708 462.871 L
652.662 462.871 L
657.616 462.871 L
662.571 462.871 L
667.525 462.871 L
672.479 462.871 L
S
GR
GS
[0.3 0 0 0.3 0 0] CT
0.851 0.325 0.098 RC
1 LJ
6.667 LW
N
667.525 462.871 M
672.479 462.871 L
677.434 462.871 L
682.388 462.871 L
687.342 462.871 L
692.297 462.871 L
697.251 462.871 L
702.206 462.871 L
707.16 462.871 L
712.114 462.871 L
717.068 462.871 L
722.023 462.871 L
726.977 462.871 L
731.932 462.871 L
736.886 462.871 L
741.84 462.871 L
746.794 462.871 L
751.749 462.871 L
756.703 462.871 L
761.658 462.871 L
766.612 462.871 L
771.566 462.871 L
776.521 462.871 L
781.475 462.871 L
786.429 462.871 L
791.384 462.871 L
796.338 462.871 L
801.292 462.871 L
806.247 462.871 L
811.201 462.871 L
816.155 462.871 L
821.11 462.871 L
826.064 462.871 L
831.018 462.871 L
835.973 462.871 L
840.927 462.871 L
845.881 462.871 L
850.836 462.871 L
855.79 462.871 L
860.744 462.871 L
865.699 462.871 L
870.653 462.871 L
875.607 462.871 L
880.562 462.871 L
885.516 462.871 L
890.47 462.871 L
895.425 462.871 L
900.379 462.871 L
905.333 462.871 L
910.288 462.871 L
915.242 462.871 L
920.196 462.871 L
S
GR
GS
[0.3 0 0 0.3 0 0] CT
0.851 0.325 0.098 RC
1 LJ
6.667 LW
N
915.242 462.871 M
920.196 462.871 L
925.151 462.871 L
930.105 462.871 L
935.059 462.871 L
940.014 462.871 L
944.968 462.871 L
949.922 462.871 L
954.877 462.871 L
959.831 462.871 L
964.785 462.871 L
969.74 462.871 L
974.694 462.871 L
979.648 462.871 L
984.603 462.871 L
989.557 462.871 L
994.511 462.871 L
999.466 462.871 L
1004.42 462.871 L
1009.374 462.871 L
1014.329 462.871 L
1019.283 462.871 L
1024.237 462.871 L
1029.192 462.871 L
1034.146 462.871 L
1039.1 462.871 L
1044.055 462.871 L
1049.009 462.871 L
1053.964 462.871 L
1058.918 462.871 L
1063.872 462.871 L
1068.827 462.871 L
1073.781 462.871 L
1078.735 462.871 L
1083.689 462.871 L
1088.644 462.871 L
1093.598 462.871 L
1098.552 462.871 L
1103.507 462.871 L
1108.461 462.871 L
1113.416 462.871 L
1118.37 462.871 L
1123.324 462.871 L
1128.279 462.871 L
1133.233 462.871 L
1138.187 462.871 L
1143.142 462.871 L
1148.096 462.871 L
1153.05 462.871 L
1158.005 462.871 L
1162.959 462.871 L
1167.913 462.871 L
S
GR
GS
[0.3 0 0 0.3 0 0] CT
0.851 0.325 0.098 RC
1 LJ
6.667 LW
N
1162.959 462.871 M
1167.913 462.871 L
1172.868 462.871 L
1177.822 462.871 L
1182.776 462.871 L
1187.731 462.871 L
1192.685 462.871 L
1197.639 462.871 L
1202.594 462.871 L
1207.548 462.871 L
1212.502 462.871 L
1217.457 462.871 L
1222.411 462.871 L
1227.365 462.871 L
1232.32 462.871 L
1237.274 462.871 L
1242.228 462.871 L
1247.183 462.871 L
1252.137 462.871 L
1257.091 462.871 L
1262.046 462.871 L
1267 462.871 L
S
GR
GS
[0.3 0 0 0.3 0 0] CT
0.929 0.694 0.125 RC
1 LJ
6.667 LW
N
182 934 M
186.954 919.724 L
191.909 919.724 L
196.863 919.724 L
201.817 919.724 L
206.772 919.724 L
211.726 889.129 L
216.68 889.129 L
221.635 889.129 L
226.589 889.129 L
231.543 889.129 L
236.498 889.129 L
241.452 889.129 L
246.406 889.129 L
251.361 889.129 L
256.315 889.129 L
261.269 889.129 L
266.224 889.129 L
271.178 889.129 L
276.132 889.129 L
281.087 861.93 L
286.041 826.879 L
290.995 805.773 L
295.95 805.14 L
300.904 782.338 L
305.858 782.338 L
310.813 764.606 L
315.767 764.606 L
320.721 764.606 L
325.676 764.606 L
330.63 764.606 L
335.584 762.801 L
340.539 737.353 L
345.493 675.687 L
350.447 675.687 L
355.402 634.381 L
360.356 569.49 L
365.311 569.49 L
370.265 569.49 L
375.219 569.49 L
380.174 569.49 L
385.128 569.49 L
390.082 569.49 L
395.037 563.116 L
399.991 563.116 L
404.945 563.116 L
409.9 563.116 L
414.854 561.334 L
419.808 561.334 L
424.763 561.334 L
S
GR
GS
[0.3 0 0 0.3 0 0] CT
0.929 0.694 0.125 RC
1 LJ
6.667 LW
N
419.808 561.334 M
424.763 561.334 L
429.717 561.334 L
434.671 561.334 L
439.626 561.334 L
444.58 561.334 L
449.534 543.28 L
454.489 543.28 L
459.443 543.28 L
464.397 543.28 L
469.352 543.28 L
474.306 536.316 L
479.26 536.316 L
484.215 536.316 L
489.169 536.316 L
494.123 536.316 L
499.078 536.316 L
504.032 536.316 L
508.986 536.316 L
513.941 536.316 L
518.895 536.316 L
523.849 536.316 L
528.804 536.316 L
533.758 536.316 L
538.712 536.316 L
543.667 534.127 L
548.621 534.127 L
553.575 534.127 L
558.53 534.127 L
563.484 534.127 L
568.438 534.127 L
573.393 534.127 L
578.347 532.076 L
583.301 532.076 L
588.256 532.076 L
593.21 532.076 L
598.164 532.076 L
603.119 520.92 L
608.073 520.92 L
613.027 520.92 L
617.982 520.92 L
622.936 520.92 L
627.89 520.92 L
632.845 520.92 L
637.799 520.92 L
642.753 520.92 L
647.708 520.92 L
652.662 520.92 L
657.616 520.92 L
662.571 520.92 L
667.525 520.92 L
672.479 520.92 L
S
GR
GS
[0.3 0 0 0.3 0 0] CT
0.929 0.694 0.125 RC
1 LJ
6.667 LW
N
667.525 520.92 M
672.479 520.92 L
677.434 520.92 L
682.388 520.92 L
687.342 520.92 L
692.297 520.92 L
697.251 520.92 L
702.206 520.92 L
707.16 520.92 L
712.114 520.92 L
717.068 520.92 L
722.023 520.92 L
726.977 520.92 L
731.932 520.92 L
736.886 520.92 L
741.84 520.92 L
746.794 520.92 L
751.749 520.92 L
756.703 520.92 L
761.658 520.92 L
766.612 520.92 L
771.566 520.92 L
776.521 520.92 L
781.475 520.92 L
786.429 520.92 L
791.384 520.92 L
796.338 520.92 L
801.292 520.92 L
806.247 520.92 L
811.201 520.92 L
816.155 520.92 L
821.11 520.92 L
826.064 520.92 L
831.018 520.92 L
835.973 520.92 L
840.927 520.92 L
845.881 520.92 L
850.836 520.92 L
855.79 520.92 L
860.744 520.92 L
865.699 520.92 L
870.653 520.92 L
875.607 520.92 L
880.562 520.92 L
885.516 520.92 L
890.47 520.92 L
895.425 520.92 L
900.379 520.92 L
905.333 520.92 L
910.288 520.92 L
915.242 520.92 L
920.196 520.92 L
S
GR
GS
[0.3 0 0 0.3 0 0] CT
0.929 0.694 0.125 RC
1 LJ
6.667 LW
N
915.242 520.92 M
920.196 520.92 L
925.151 520.92 L
930.105 520.92 L
935.059 520.92 L
940.014 520.92 L
944.968 520.92 L
949.922 520.92 L
954.877 520.92 L
959.831 520.92 L
964.785 520.92 L
969.74 520.92 L
974.694 520.92 L
979.648 520.92 L
984.603 520.92 L
989.557 520.92 L
994.511 520.92 L
999.466 520.92 L
1004.42 520.92 L
1009.374 520.92 L
1014.329 520.92 L
1019.283 519.735 L
1024.237 519.735 L
1029.192 519.735 L
1034.146 519.735 L
1039.1 519.735 L
1044.055 519.735 L
1049.009 519.735 L
1053.964 519.735 L
1058.918 519.735 L
1063.872 519.735 L
1068.827 519.735 L
1073.781 519.735 L
1078.735 495.579 L
1083.689 495.579 L
1088.644 495.579 L
1093.598 495.579 L
1098.552 495.579 L
1103.507 495.579 L
1108.461 495.579 L
1113.416 495.579 L
1118.37 495.579 L
1123.324 495.579 L
1128.279 495.579 L
1133.233 495.579 L
1138.187 495.579 L
1143.142 495.579 L
1148.096 495.579 L
1153.05 495.579 L
1158.005 495.579 L
1162.959 495.579 L
1167.913 495.579 L
S
GR
GS
[0.3 0 0 0.3 0 0] CT
0.929 0.694 0.125 RC
1 LJ
6.667 LW
N
1162.959 495.579 M
1167.913 495.579 L
1172.868 495.579 L
1177.822 495.579 L
1182.776 495.579 L
1187.731 495.579 L
1192.685 495.579 L
1197.639 495.579 L
1202.594 495.579 L
1207.548 495.579 L
1212.502 495.579 L
1217.457 495.579 L
1222.411 495.579 L
1227.365 495.579 L
1232.32 495.579 L
1237.274 495.579 L
1242.228 495.579 L
1247.183 495.579 L
1252.137 495.579 L
1257.091 495.579 L
1262.046 495.579 L
1267 495.579 L
S
GR
GS
[0.3 0 0 0.3 0 0] CT
0.494 0.184 0.557 RC
1 LJ
6.667 LW
N
182 934 M
186.954 934 L
191.909 933.843 L
196.863 933.843 L
201.817 904.408 L
206.772 904.408 L
211.726 904.408 L
216.68 904.408 L
221.635 904.408 L
226.589 904.408 L
231.543 904.408 L
236.498 904.408 L
241.452 904.408 L
246.406 904.408 L
251.361 904.408 L
256.315 904.408 L
261.269 904.408 L
266.224 797.324 L
271.178 797.324 L
276.132 797.324 L
281.087 797.324 L
286.041 797.324 L
290.995 797.324 L
295.95 797.324 L
300.904 797.324 L
305.858 797.324 L
310.813 794.255 L
315.767 794.255 L
320.721 777.085 L
325.676 726.923 L
330.63 726.923 L
335.584 726.923 L
340.539 726.923 L
345.493 723.474 L
350.447 723.474 L
355.402 706.345 L
360.356 706.345 L
365.311 706.345 L
370.265 706.345 L
375.219 706.345 L
380.174 706.345 L
385.128 706.345 L
390.082 706.345 L
395.037 706.345 L
399.991 706.345 L
404.945 706.345 L
409.9 695.192 L
414.854 695.192 L
419.808 695.192 L
424.763 695.192 L
S
GR
GS
[0.3 0 0 0.3 0 0] CT
0.494 0.184 0.557 RC
1 LJ
6.667 LW
N
419.808 695.192 M
424.763 695.192 L
429.717 695.192 L
434.671 695.192 L
439.626 690.404 L
444.58 690.404 L
449.534 690.404 L
454.489 690.404 L
459.443 690.404 L
464.397 684.65 L
469.352 684.65 L
474.306 679.507 L
479.26 679.507 L
484.215 679.507 L
489.169 679.507 L
494.123 679.507 L
499.078 679.507 L
504.032 679.507 L
508.986 679.507 L
513.941 679.507 L
518.895 679.507 L
523.849 679.507 L
528.804 679.507 L
533.758 679.507 L
538.712 679.507 L
543.667 679.507 L
548.621 679.507 L
553.575 679.507 L
558.53 679.507 L
563.484 679.507 L
568.438 679.507 L
573.393 679.507 L
578.347 679.507 L
583.301 679.507 L
588.256 679.507 L
593.21 679.507 L
598.164 679.507 L
603.119 679.507 L
608.073 679.507 L
613.027 679.507 L
617.982 679.507 L
622.936 679.507 L
627.89 679.507 L
632.845 679.507 L
637.799 679.507 L
642.753 679.507 L
647.708 679.507 L
652.662 679.507 L
657.616 679.507 L
662.571 679.507 L
667.525 679.507 L
672.479 679.507 L
S
GR
GS
[0.3 0 0 0.3 0 0] CT
0.494 0.184 0.557 RC
1 LJ
6.667 LW
N
667.525 679.507 M
672.479 679.507 L
677.434 679.507 L
682.388 679.507 L
687.342 679.507 L
692.297 679.507 L
697.251 679.507 L
702.206 679.507 L
707.16 679.507 L
712.114 679.507 L
717.068 679.507 L
722.023 679.507 L
726.977 679.507 L
731.932 679.507 L
736.886 679.507 L
741.84 665.569 L
746.794 665.569 L
751.749 665.569 L
756.703 665.569 L
761.658 665.569 L
766.612 665.569 L
771.566 665.569 L
776.521 665.569 L
781.475 665.569 L
786.429 665.569 L
791.384 665.569 L
796.338 665.569 L
801.292 665.569 L
806.247 665.569 L
811.201 665.569 L
816.155 665.569 L
821.11 665.569 L
826.064 665.569 L
831.018 665.569 L
835.973 665.569 L
840.927 665.569 L
845.881 665.569 L
850.836 665.569 L
855.79 665.569 L
860.744 665.569 L
865.699 665.569 L
870.653 665.569 L
875.607 665.569 L
880.562 665.569 L
885.516 665.569 L
890.47 665.569 L
895.425 665.569 L
900.379 665.569 L
905.333 665.569 L
910.288 665.569 L
915.242 665.569 L
920.196 665.569 L
S
GR
GS
[0.3 0 0 0.3 0 0] CT
0.494 0.184 0.557 RC
1 LJ
6.667 LW
N
915.242 665.569 M
920.196 665.569 L
925.151 665.569 L
930.105 665.569 L
935.059 665.569 L
940.014 665.569 L
944.968 665.569 L
949.922 665.569 L
954.877 665.569 L
959.831 665.569 L
964.785 665.569 L
969.74 665.569 L
974.694 665.569 L
979.648 665.569 L
984.603 665.569 L
989.557 665.569 L
994.511 665.569 L
999.466 665.569 L
1004.42 665.569 L
1009.374 665.569 L
1014.329 665.569 L
1019.283 665.569 L
1024.237 665.569 L
1029.192 665.569 L
1034.146 665.569 L
1039.1 665.569 L
1044.055 665.569 L
1049.009 665.569 L
1053.964 665.569 L
1058.918 665.569 L
1063.872 665.569 L
1068.827 665.569 L
1073.781 665.569 L
1078.735 665.569 L
1083.689 665.569 L
1088.644 665.569 L
1093.598 665.569 L
1098.552 665.569 L
1103.507 665.569 L
1108.461 665.569 L
1113.416 665.569 L
1118.37 665.569 L
1123.324 665.569 L
1128.279 665.569 L
1133.233 665.569 L
1138.187 665.569 L
1143.142 665.569 L
1148.096 665.569 L
1153.05 665.569 L
1158.005 665.569 L
1162.959 665.569 L
1167.913 665.569 L
S
GR
GS
[0.3 0 0 0.3 0 0] CT
0.494 0.184 0.557 RC
1 LJ
6.667 LW
N
1162.959 665.569 M
1167.913 665.569 L
1172.868 665.569 L
1177.822 665.569 L
1182.776 665.569 L
1187.731 665.569 L
1192.685 665.569 L
1197.639 665.569 L
1202.594 665.569 L
1207.548 665.569 L
1212.502 665.569 L
1217.457 665.569 L
1222.411 665.569 L
1227.365 665.569 L
1232.32 665.569 L
1237.274 665.569 L
1242.228 665.569 L
1247.183 665.569 L
1252.137 665.569 L
1257.091 665.569 L
1262.046 665.569 L
1267 665.569 L
S
GR
GS
[0.3 0 0 0.3 0 0] CT
1 GC
N
882 901 M
882 730 L
1234 730 L
1234 901 L
cp
f
GR
GS
[0.3 0 0 0.3 303.6 226.73015] CT
/Helvetica 30 F
GS
[1 0 0 1 0 0] CT
0 12 moveto 
1 -1 scale
(front movement) t 
GR
GR
GS
[0.3 0 0 0.3 0 0] CT
0 0.447 0.741 RC
1 LJ
6.667 LW
N
902 755.767 M
1002 755.767 L
S
GR
GS
[0.3 0 0 0.3 303.6 238.67672] CT
/Helvetica 30 F
GS
[1 0 0 1 0 0] CT
0 12 moveto 
1 -1 scale
(back movement) t 
GR
GR
GS
[0.3 0 0 0.3 0 0] CT
0.851 0.325 0.098 RC
1 LJ
6.667 LW
N
902 795.589 M
1002 795.589 L
S
GR
GS
[0.3 0 0 0.3 303.6 250.62328] CT
/Helvetica 30 F
GS
[1 0 0 1 0 0] CT
0 12 moveto 
1 -1 scale
(right movement) t 
GR
GR
GS
[0.3 0 0 0.3 0 0] CT
0.929 0.694 0.125 RC
1 LJ
6.667 LW
N
902 835.411 M
1002 835.411 L
S
GR
GS
[0.3 0 0 0.3 303.6 262.56985] CT
/Helvetica 30 F
GS
[1 0 0 1 0 0] CT
0 12 moveto 
1 -1 scale
(left movement) t 
GR
GR
GS
[0.3 0 0 0.3 0 0] CT
0.494 0.184 0.557 RC
1 LJ
6.667 LW
N
902 875.233 M
1002 875.233 L
S
GR
GS
[0.3 0 0 0.3 0 0] CT
0.149 GC
10.0 ML
1.667 LW
N
882 901 M
882 730 L
1234 730 L
1234 901 L
cp
S
GR
%%Trailer
%%Pages: 1
%%EOF
