%!PS-Adobe-3.0 EPSF-3.0
%%Creator: (MATLAB, The Mathworks, Inc. Version 8.6.0.267246 \(R2015b\). Operating System: Windows 8)
%%Title: (C:/Users/Daniel/OneDrive - CertiCon a.s/Documents/skola/CVUT/Semester_8/Bakalarska_Praca/Bachelor thesis/Figures/fitnesFun.eps)
%%CreationDate: 2016-05-25T10:15:29
%%Pages: (atend)
%%BoundingBox: 0 0 567 478
%%LanguageLevel: 2
%%EndComments
%%BeginProlog
%%BeginResource: procset (Apache XML Graphics Std ProcSet) 1.2 0
%%Version: 1.2 0
%%Copyright: (Copyright 2001-2003,2010 The Apache Software Foundation. License terms: http://www.apache.org/licenses/LICENSE-2.0)
/bd{bind def}bind def
/ld{load def}bd
/GR/grestore ld
/M/moveto ld
/LJ/setlinejoin ld
/C/curveto ld
/f/fill ld
/LW/setlinewidth ld
/GC/setgray ld
/t/show ld
/N/newpath ld
/CT/concat ld
/cp/closepath ld
/S/stroke ld
/L/lineto ld
/CC/setcmykcolor ld
/A/ashow ld
/GS/gsave ld
/RC/setrgbcolor ld
/RM/rmoveto ld
/ML/setmiterlimit ld
/re {4 2 roll M
1 index 0 rlineto
0 exch rlineto
neg 0 rlineto
cp } bd
/_ctm matrix def
/_tm matrix def
/BT { _ctm currentmatrix pop matrix _tm copy pop 0 0 moveto } bd
/ET { _ctm setmatrix } bd
/iTm { _ctm setmatrix _tm concat } bd
/Tm { _tm astore pop iTm 0 0 moveto } bd
/ux 0.0 def
/uy 0.0 def
/F {
  /Tp exch def
  /Tf exch def
  Tf findfont Tp scalefont setfont
  /cf Tf def  /cs Tp def
} bd
/ULS {currentpoint /uy exch def /ux exch def} bd
/ULE {
  /Tcx currentpoint pop def
  gsave
  newpath
  cf findfont cs scalefont dup
  /FontMatrix get 0 get /Ts exch def /FontInfo get dup
  /UnderlinePosition get Ts mul /To exch def
  /UnderlineThickness get Ts mul /Tt exch def
  ux uy To add moveto  Tcx uy To add lineto
  Tt setlinewidth stroke
  grestore
} bd
/OLE {
  /Tcx currentpoint pop def
  gsave
  newpath
  cf findfont cs scalefont dup
  /FontMatrix get 0 get /Ts exch def /FontInfo get dup
  /UnderlinePosition get Ts mul /To exch def
  /UnderlineThickness get Ts mul /Tt exch def
  ux uy To add cs add moveto Tcx uy To add cs add lineto
  Tt setlinewidth stroke
  grestore
} bd
/SOE {
  /Tcx currentpoint pop def
  gsave
  newpath
  cf findfont cs scalefont dup
  /FontMatrix get 0 get /Ts exch def /FontInfo get dup
  /UnderlinePosition get Ts mul /To exch def
  /UnderlineThickness get Ts mul /Tt exch def
  ux uy To add cs 10 mul 26 idiv add moveto Tcx uy To add cs 10 mul 26 idiv add lineto
  Tt setlinewidth stroke
  grestore
} bd
/QT {
/Y22 exch store
/X22 exch store
/Y21 exch store
/X21 exch store
currentpoint
/Y21 load 2 mul add 3 div exch
/X21 load 2 mul add 3 div exch
/X21 load 2 mul /X22 load add 3 div
/Y21 load 2 mul /Y22 load add 3 div
/X22 load /Y22 load curveto
} bd
/SSPD {
dup length /d exch dict def
{
/v exch def
/k exch def
currentpagedevice k known {
/cpdv currentpagedevice k get def
v cpdv ne {
/upd false def
/nullv v type /nulltype eq def
/nullcpdv cpdv type /nulltype eq def
nullv nullcpdv or
{
/upd true def
} {
/sametype v type cpdv type eq def
sametype {
v type /arraytype eq {
/vlen v length def
/cpdvlen cpdv length def
vlen cpdvlen eq {
0 1 vlen 1 sub {
/i exch def
/obj v i get def
/cpdobj cpdv i get def
obj cpdobj ne {
/upd true def
exit
} if
} for
} {
/upd true def
} ifelse
} {
v type /dicttype eq {
v {
/dv exch def
/dk exch def
/cpddv cpdv dk get def
dv cpddv ne {
/upd true def
exit
} if
} forall
} {
/upd true def
} ifelse
} ifelse
} if
} ifelse
upd true eq {
d k v put
} if
} if
} if
} forall
d length 0 gt {
d setpagedevice
} if
} bd
%%EndResource
%%BeginResource: procset (Apache XML Graphics EPS ProcSet) 1.0 0
%%Version: 1.0 0
%%Copyright: (Copyright 2002-2003 The Apache Software Foundation. License terms: http://www.apache.org/licenses/LICENSE-2.0)
/BeginEPSF { %def
/b4_Inc_state save def         % Save state for cleanup
/dict_count countdictstack def % Count objects on dict stack
/op_count count 1 sub def      % Count objects on operand stack
userdict begin                 % Push userdict on dict stack
/showpage { } def              % Redefine showpage, { } = null proc
0 setgray 0 setlinecap         % Prepare graphics state
1 setlinewidth 0 setlinejoin
10 setmiterlimit [ ] 0 setdash newpath
/languagelevel where           % If level not equal to 1 then
{pop languagelevel             % set strokeadjust and
1 ne                           % overprint to their defaults.
{false setstrokeadjust false setoverprint
} if
} if
} bd
/EndEPSF { %def
count op_count sub {pop} repeat            % Clean up stacks
countdictstack dict_count sub {end} repeat
b4_Inc_state restore
} bd
%%EndResource
%FOPBeginFontDict
%%IncludeResource: font Courier-Bold
%%IncludeResource: font Helvetica
%%IncludeResource: font Courier-BoldOblique
%%IncludeResource: font Courier-Oblique
%%IncludeResource: font Times-Roman
%%IncludeResource: font Helvetica-BoldOblique
%%IncludeResource: font Helvetica-Bold
%%IncludeResource: font Helvetica-Oblique
%%IncludeResource: font Times-BoldItalic
%%IncludeResource: font Courier
%%IncludeResource: font Times-Italic
%%IncludeResource: font Times-Bold
%%IncludeResource: font Symbol
%%IncludeResource: font ZapfDingbats
%FOPEndFontDict
%%BeginResource: encoding WinAnsiEncoding
/WinAnsiEncoding [
/.notdef /.notdef /.notdef /.notdef /.notdef
/.notdef /.notdef /.notdef /.notdef /.notdef
/.notdef /.notdef /.notdef /.notdef /.notdef
/.notdef /.notdef /.notdef /.notdef /.notdef
/.notdef /.notdef /.notdef /.notdef /.notdef
/.notdef /.notdef /.notdef /.notdef /.notdef
/.notdef /.notdef /space /exclam /quotedbl
/numbersign /dollar /percent /ampersand /quotesingle
/parenleft /parenright /asterisk /plus /comma
/hyphen /period /slash /zero /one
/two /three /four /five /six
/seven /eight /nine /colon /semicolon
/less /equal /greater /question /at
/A /B /C /D /E
/F /G /H /I /J
/K /L /M /N /O
/P /Q /R /S /T
/U /V /W /X /Y
/Z /bracketleft /backslash /bracketright /asciicircum
/underscore /quoteleft /a /b /c
/d /e /f /g /h
/i /j /k /l /m
/n /o /p /q /r
/s /t /u /v /w
/x /y /z /braceleft /bar
/braceright /asciitilde /bullet /Euro /bullet
/quotesinglbase /florin /quotedblbase /ellipsis /dagger
/daggerdbl /circumflex /perthousand /Scaron /guilsinglleft
/OE /bullet /Zcaron /bullet /bullet
/quoteleft /quoteright /quotedblleft /quotedblright /bullet
/endash /emdash /asciitilde /trademark /scaron
/guilsinglright /oe /bullet /zcaron /Ydieresis
/space /exclamdown /cent /sterling /currency
/yen /brokenbar /section /dieresis /copyright
/ordfeminine /guillemotleft /logicalnot /sfthyphen /registered
/macron /degree /plusminus /twosuperior /threesuperior
/acute /mu /paragraph /middot /cedilla
/onesuperior /ordmasculine /guillemotright /onequarter /onehalf
/threequarters /questiondown /Agrave /Aacute /Acircumflex
/Atilde /Adieresis /Aring /AE /Ccedilla
/Egrave /Eacute /Ecircumflex /Edieresis /Igrave
/Iacute /Icircumflex /Idieresis /Eth /Ntilde
/Ograve /Oacute /Ocircumflex /Otilde /Odieresis
/multiply /Oslash /Ugrave /Uacute /Ucircumflex
/Udieresis /Yacute /Thorn /germandbls /agrave
/aacute /acircumflex /atilde /adieresis /aring
/ae /ccedilla /egrave /eacute /ecircumflex
/edieresis /igrave /iacute /icircumflex /idieresis
/eth /ntilde /ograve /oacute /ocircumflex
/otilde /odieresis /divide /oslash /ugrave
/uacute /ucircumflex /udieresis /yacute /thorn
/ydieresis
] def
%%EndResource
%FOPBeginFontReencode
/Courier-Bold findfont
dup length dict begin
  {1 index /FID ne {def} {pop pop} ifelse} forall
  /Encoding WinAnsiEncoding def
  currentdict
end
/Courier-Bold exch definefont pop
/Helvetica findfont
dup length dict begin
  {1 index /FID ne {def} {pop pop} ifelse} forall
  /Encoding WinAnsiEncoding def
  currentdict
end
/Helvetica exch definefont pop
/Courier-BoldOblique findfont
dup length dict begin
  {1 index /FID ne {def} {pop pop} ifelse} forall
  /Encoding WinAnsiEncoding def
  currentdict
end
/Courier-BoldOblique exch definefont pop
/Courier-Oblique findfont
dup length dict begin
  {1 index /FID ne {def} {pop pop} ifelse} forall
  /Encoding WinAnsiEncoding def
  currentdict
end
/Courier-Oblique exch definefont pop
/Times-Roman findfont
dup length dict begin
  {1 index /FID ne {def} {pop pop} ifelse} forall
  /Encoding WinAnsiEncoding def
  currentdict
end
/Times-Roman exch definefont pop
/Helvetica-BoldOblique findfont
dup length dict begin
  {1 index /FID ne {def} {pop pop} ifelse} forall
  /Encoding WinAnsiEncoding def
  currentdict
end
/Helvetica-BoldOblique exch definefont pop
/Helvetica-Bold findfont
dup length dict begin
  {1 index /FID ne {def} {pop pop} ifelse} forall
  /Encoding WinAnsiEncoding def
  currentdict
end
/Helvetica-Bold exch definefont pop
/Helvetica-Oblique findfont
dup length dict begin
  {1 index /FID ne {def} {pop pop} ifelse} forall
  /Encoding WinAnsiEncoding def
  currentdict
end
/Helvetica-Oblique exch definefont pop
/Times-BoldItalic findfont
dup length dict begin
  {1 index /FID ne {def} {pop pop} ifelse} forall
  /Encoding WinAnsiEncoding def
  currentdict
end
/Times-BoldItalic exch definefont pop
/Courier findfont
dup length dict begin
  {1 index /FID ne {def} {pop pop} ifelse} forall
  /Encoding WinAnsiEncoding def
  currentdict
end
/Courier exch definefont pop
/Times-Italic findfont
dup length dict begin
  {1 index /FID ne {def} {pop pop} ifelse} forall
  /Encoding WinAnsiEncoding def
  currentdict
end
/Times-Italic exch definefont pop
/Times-Bold findfont
dup length dict begin
  {1 index /FID ne {def} {pop pop} ifelse} forall
  /Encoding WinAnsiEncoding def
  currentdict
end
/Times-Bold exch definefont pop
%FOPEndFontReencode
%%EndProlog
%%Page: 1 1
%%PageBoundingBox: 0 0 567 478
%%BeginPageSetup
[1 0 0 -1 0 478] CT
%%EndPageSetup
GS
[0.3 0 0 0.30019 0 0.10001] CT
1 GC
N
0 0 1890 1592 re
f
GR
GS
[0.3 0 0 0.30019 0 0.10001] CT
1 GC
N
0 0 1890 1592 re
f
GR
GS
[0.3 0 0 0.30019 0 0.10001] CT
0 0 1 RC
N
569.621 898.4 M
554.211 885.077 L
554.211 951.692 L
cp
f
GR
GS
[0.3 0 0 0.30019 0 0.10001] CT
0 0 1 RC
N
569.621 898.4 M
554.211 951.692 L
569.621 951.692 L
cp
f
GR
GS
[0.3 0 0 0.30019 0 0.10001] CT
0 0 1 RC
N
615.853 898.4 M
615.853 885.077 L
569.621 898.4 L
cp
f
GR
GS
[0.3 0 0 0.30019 0 0.10001] CT
0 0 1 RC
N
615.853 885.077 M
554.211 885.077 L
569.621 898.4 L
cp
f
GR
GS
[0.3 0 0 0.30019 0 0.10001] CT
2 setlinecap
10.0 ML
3.333 LW
N
554.211 951.692 M
554.211 885.077 L
615.853 885.077 L
615.853 898.4 L
569.621 898.4 L
569.621 951.692 L
554.211 951.692 L
S
GR
GS
[0.3 0 0 0.30019 0 0.10001] CT
0 1 1 RC
N
569.621 938.369 M
569.621 951.692 L
615.853 938.369 L
cp
f
GR
GS
[0.3 0 0 0.30019 0 0.10001] CT
0 1 1 RC
N
615.853 885.077 M
615.853 938.369 L
631.263 885.077 L
cp
f
GR
GS
[0.3 0 0 0.30019 0 0.10001] CT
0 1 1 RC
N
615.853 938.369 M
631.263 951.692 L
631.263 885.077 L
cp
f
GR
GS
[0.3 0 0 0.30019 0 0.10001] CT
0 1 1 RC
N
615.853 938.369 M
569.621 951.692 L
631.263 951.692 L
cp
f
GR
GS
[0.3 0 0 0.30019 0 0.10001] CT
2 setlinecap
10.0 ML
3.333 LW
N
569.621 951.692 M
631.263 951.692 L
631.263 885.077 L
615.853 885.077 L
615.853 938.369 L
569.621 938.369 L
569.621 951.692 L
S
GR
GS
[0.3 0 0 0.30019 0 0.10001] CT
0 0 1 RC
N
646.674 898.4 M
631.263 885.077 L
631.263 951.692 L
cp
f
GR
GS
[0.3 0 0 0.30019 0 0.10001] CT
0 0 1 RC
N
646.674 898.4 M
631.263 951.692 L
646.674 951.692 L
cp
f
GR
GS
[0.3 0 0 0.30019 0 0.10001] CT
0 0 1 RC
N
692.905 898.4 M
692.905 885.077 L
646.674 898.4 L
cp
f
GR
GS
[0.3 0 0 0.30019 0 0.10001] CT
0 0 1 RC
N
692.905 885.077 M
631.263 885.077 L
646.674 898.4 L
cp
f
GR
GS
[0.3 0 0 0.30019 0 0.10001] CT
2 setlinecap
10.0 ML
3.333 LW
N
631.263 951.692 M
631.263 885.077 L
692.905 885.077 L
692.905 898.4 L
646.674 898.4 L
646.674 951.692 L
631.263 951.692 L
S
GR
GS
[0.3 0 0 0.30019 0 0.10001] CT
0 1 1 RC
N
646.674 938.369 M
646.674 951.692 L
692.905 938.369 L
cp
f
GR
GS
[0.3 0 0 0.30019 0 0.10001] CT
0 1 1 RC
N
692.905 885.077 M
692.905 938.369 L
708.316 885.077 L
cp
f
GR
GS
[0.3 0 0 0.30019 0 0.10001] CT
0 1 1 RC
N
692.905 938.369 M
708.316 951.692 L
708.316 885.077 L
cp
f
GR
GS
[0.3 0 0 0.30019 0 0.10001] CT
0 1 1 RC
N
692.905 938.369 M
646.674 951.692 L
708.316 951.692 L
cp
f
GR
GS
[0.3 0 0 0.30019 0 0.10001] CT
2 setlinecap
10.0 ML
3.333 LW
N
646.674 951.692 M
708.316 951.692 L
708.316 885.077 L
692.905 885.077 L
692.905 938.369 L
646.674 938.369 L
646.674 951.692 L
S
GR
GS
[0.3 0 0 0.30019 0 0.10001] CT
0 0 1 RC
N
723.726 898.4 M
708.316 885.077 L
708.316 951.692 L
cp
f
GR
GS
[0.3 0 0 0.30019 0 0.10001] CT
0 0 1 RC
N
723.726 898.4 M
708.316 951.692 L
723.726 951.692 L
cp
f
GR
GS
[0.3 0 0 0.30019 0 0.10001] CT
0 0 1 RC
N
769.958 898.4 M
769.958 885.077 L
723.726 898.4 L
cp
f
GR
GS
[0.3 0 0 0.30019 0 0.10001] CT
0 0 1 RC
N
769.958 885.077 M
708.316 885.077 L
723.726 898.4 L
cp
f
GR
GS
[0.3 0 0 0.30019 0 0.10001] CT
2 setlinecap
10.0 ML
3.333 LW
N
708.316 951.692 M
708.316 885.077 L
769.958 885.077 L
769.958 898.4 L
723.726 898.4 L
723.726 951.692 L
708.316 951.692 L
S
GR
GS
[0.3 0 0 0.30019 0 0.10001] CT
0 1 1 RC
N
723.726 938.369 M
723.726 951.692 L
769.958 938.369 L
cp
f
GR
GS
[0.3 0 0 0.30019 0 0.10001] CT
0 1 1 RC
N
769.958 885.077 M
769.958 938.369 L
785.368 885.077 L
cp
f
GR
GS
[0.3 0 0 0.30019 0 0.10001] CT
0 1 1 RC
N
769.958 938.369 M
785.368 951.692 L
785.368 885.077 L
cp
f
GR
GS
[0.3 0 0 0.30019 0 0.10001] CT
0 1 1 RC
N
769.958 938.369 M
723.726 951.692 L
785.368 951.692 L
cp
f
GR
GS
[0.3 0 0 0.30019 0 0.10001] CT
2 setlinecap
10.0 ML
3.333 LW
N
723.726 951.692 M
785.368 951.692 L
785.368 885.077 L
769.958 885.077 L
769.958 938.369 L
723.726 938.369 L
723.726 951.692 L
S
GR
GS
[0.3 0 0 0.30019 0 0.10001] CT
0 0 1 RC
N
800.779 898.4 M
785.368 885.077 L
785.368 951.692 L
cp
f
GR
GS
[0.3 0 0 0.30019 0 0.10001] CT
0 0 1 RC
N
800.779 898.4 M
785.368 951.692 L
800.779 951.692 L
cp
f
GR
GS
[0.3 0 0 0.30019 0 0.10001] CT
0 0 1 RC
N
847.01 898.4 M
847.01 885.077 L
800.779 898.4 L
cp
f
GR
GS
[0.3 0 0 0.30019 0 0.10001] CT
0 0 1 RC
N
847.01 885.077 M
785.368 885.077 L
800.779 898.4 L
cp
f
GR
GS
[0.3 0 0 0.30019 0 0.10001] CT
2 setlinecap
10.0 ML
3.333 LW
N
785.368 951.692 M
785.368 885.077 L
847.01 885.077 L
847.01 898.4 L
800.779 898.4 L
800.779 951.692 L
785.368 951.692 L
S
GR
GS
[0.3 0 0 0.30019 0 0.10001] CT
0 1 1 RC
N
800.779 938.369 M
800.779 951.692 L
847.01 938.369 L
cp
f
GR
GS
[0.3 0 0 0.30019 0 0.10001] CT
0 1 1 RC
N
847.01 885.077 M
847.01 938.369 L
862.421 885.077 L
cp
f
GR
GS
[0.3 0 0 0.30019 0 0.10001] CT
0 1 1 RC
N
847.01 938.369 M
862.421 951.692 L
862.421 885.077 L
cp
f
GR
GS
[0.3 0 0 0.30019 0 0.10001] CT
0 1 1 RC
N
847.01 938.369 M
800.779 951.692 L
862.421 951.692 L
cp
f
GR
GS
[0.3 0 0 0.30019 0 0.10001] CT
2 setlinecap
10.0 ML
3.333 LW
N
800.779 951.692 M
862.421 951.692 L
862.421 885.077 L
847.01 885.077 L
847.01 938.369 L
800.779 938.369 L
800.779 951.692 L
S
GR
GS
[0.3 0 0 0.30019 0 0.10001] CT
0 0 1 RC
N
877.832 898.4 M
862.421 885.077 L
862.421 951.692 L
cp
f
GR
GS
[0.3 0 0 0.30019 0 0.10001] CT
0 0 1 RC
N
877.832 898.4 M
862.421 951.692 L
877.832 951.692 L
cp
f
GR
GS
[0.3 0 0 0.30019 0 0.10001] CT
0 0 1 RC
N
924.063 898.4 M
924.063 885.077 L
877.832 898.4 L
cp
f
GR
GS
[0.3 0 0 0.30019 0 0.10001] CT
0 0 1 RC
N
924.063 885.077 M
862.421 885.077 L
877.832 898.4 L
cp
f
GR
GS
[0.3 0 0 0.30019 0 0.10001] CT
2 setlinecap
10.0 ML
3.333 LW
N
862.421 951.692 M
862.421 885.077 L
924.063 885.077 L
924.063 898.4 L
877.832 898.4 L
877.832 951.692 L
862.421 951.692 L
S
GR
GS
[0.3 0 0 0.30019 0 0.10001] CT
0 1 1 RC
N
877.832 938.369 M
877.832 951.692 L
924.063 938.369 L
cp
f
GR
GS
[0.3 0 0 0.30019 0 0.10001] CT
0 1 1 RC
N
924.063 885.077 M
924.063 938.369 L
939.474 885.077 L
cp
f
GR
GS
[0.3 0 0 0.30019 0 0.10001] CT
0 1 1 RC
N
924.063 938.369 M
939.474 951.692 L
939.474 885.077 L
cp
f
GR
GS
[0.3 0 0 0.30019 0 0.10001] CT
0 1 1 RC
N
924.063 938.369 M
877.832 951.692 L
939.474 951.692 L
cp
f
GR
GS
[0.3 0 0 0.30019 0 0.10001] CT
2 setlinecap
10.0 ML
3.333 LW
N
877.832 951.692 M
939.474 951.692 L
939.474 885.077 L
924.063 885.077 L
924.063 938.369 L
877.832 938.369 L
877.832 951.692 L
S
GR
GS
[0.3 0 0 0.30019 0 0.10001] CT
0 0 1 RC
N
723.726 831.785 M
708.316 831.785 L
723.726 871.754 L
cp
f
GR
GS
[0.3 0 0 0.30019 0 0.10001] CT
0 0 1 RC
N
708.316 831.785 M
708.316 885.077 L
723.726 871.754 L
cp
f
GR
GS
[0.3 0 0 0.30019 0 0.10001] CT
0 0 1 RC
N
785.368 885.077 M
785.368 871.754 L
723.726 871.754 L
cp
f
GR
GS
[0.3 0 0 0.30019 0 0.10001] CT
0 0 1 RC
N
708.316 885.077 M
785.368 885.077 L
723.726 871.754 L
cp
f
GR
GS
[0.3 0 0 0.30019 0 0.10001] CT
2 setlinecap
10.0 ML
3.333 LW
N
785.368 885.077 M
708.316 885.077 L
708.316 831.785 L
723.726 831.785 L
723.726 871.754 L
785.368 871.754 L
785.368 885.077 L
S
GR
GS
[0.3 0 0 0.30019 0 0.10001] CT
0 1 1 RC
N
769.958 831.785 M
769.958 871.754 L
785.368 871.754 L
cp
f
GR
GS
[0.3 0 0 0.30019 0 0.10001] CT
0 1 1 RC
N
708.316 831.785 M
769.958 831.785 L
708.316 818.462 L
cp
f
GR
GS
[0.3 0 0 0.30019 0 0.10001] CT
0 1 1 RC
N
708.316 818.462 M
769.958 831.785 L
785.368 818.462 L
cp
f
GR
GS
[0.3 0 0 0.30019 0 0.10001] CT
0 1 1 RC
N
769.958 831.785 M
785.368 871.754 L
785.368 818.462 L
cp
f
GR
GS
[0.3 0 0 0.30019 0 0.10001] CT
2 setlinecap
10.0 ML
3.333 LW
N
785.368 871.754 M
785.368 818.462 L
708.316 818.462 L
708.316 831.785 L
769.958 831.785 L
769.958 871.754 L
785.368 871.754 L
S
GR
GS
[0.3 0 0 0.30019 0 0.10001] CT
0 0 1 RC
N
723.726 765.169 M
708.316 765.169 L
723.726 805.138 L
cp
f
GR
GS
[0.3 0 0 0.30019 0 0.10001] CT
0 0 1 RC
N
708.316 765.169 M
708.316 818.462 L
723.726 805.138 L
cp
f
GR
GS
[0.3 0 0 0.30019 0 0.10001] CT
0 0 1 RC
N
785.368 818.462 M
785.368 805.138 L
723.726 805.138 L
cp
f
GR
GS
[0.3 0 0 0.30019 0 0.10001] CT
0 0 1 RC
N
708.316 818.462 M
785.368 818.462 L
723.726 805.138 L
cp
f
GR
GS
[0.3 0 0 0.30019 0 0.10001] CT
2 setlinecap
10.0 ML
3.333 LW
N
785.368 818.462 M
708.316 818.462 L
708.316 765.169 L
723.726 765.169 L
723.726 805.138 L
785.368 805.138 L
785.368 818.462 L
S
GR
GS
[0.3 0 0 0.30019 0 0.10001] CT
0 1 1 RC
N
769.958 765.169 M
769.958 805.138 L
785.368 805.138 L
cp
f
GR
GS
[0.3 0 0 0.30019 0 0.10001] CT
0 1 1 RC
N
708.316 765.169 M
769.958 765.169 L
708.316 751.846 L
cp
f
GR
GS
[0.3 0 0 0.30019 0 0.10001] CT
0 1 1 RC
N
708.316 751.846 M
769.958 765.169 L
785.368 751.846 L
cp
f
GR
GS
[0.3 0 0 0.30019 0 0.10001] CT
0 1 1 RC
N
769.958 765.169 M
785.368 805.138 L
785.368 751.846 L
cp
f
GR
GS
[0.3 0 0 0.30019 0 0.10001] CT
2 setlinecap
10.0 ML
3.333 LW
N
785.368 805.138 M
785.368 751.846 L
708.316 751.846 L
708.316 765.169 L
769.958 765.169 L
769.958 805.138 L
785.368 805.138 L
S
GR
GS
[0.3 0 0 0.30019 0 0.10001] CT
0 0 1 RC
N
723.726 965.015 M
708.316 965.015 L
723.726 1004.985 L
cp
f
GR
GS
[0.3 0 0 0.30019 0 0.10001] CT
0 0 1 RC
N
708.316 965.015 M
708.316 1018.308 L
723.726 1004.985 L
cp
f
GR
GS
[0.3 0 0 0.30019 0 0.10001] CT
0 0 1 RC
N
785.368 1018.308 M
785.368 1004.985 L
723.726 1004.985 L
cp
f
GR
GS
[0.3 0 0 0.30019 0 0.10001] CT
0 0 1 RC
N
708.316 1018.308 M
785.368 1018.308 L
723.726 1004.985 L
cp
f
GR
GS
[0.3 0 0 0.30019 0 0.10001] CT
2 setlinecap
10.0 ML
3.333 LW
N
785.368 1018.308 M
708.316 1018.308 L
708.316 965.015 L
723.726 965.015 L
723.726 1004.985 L
785.368 1004.985 L
785.368 1018.308 L
S
GR
GS
[0.3 0 0 0.30019 0 0.10001] CT
0 1 1 RC
N
769.958 965.015 M
769.958 1004.985 L
785.368 1004.985 L
cp
f
GR
GS
[0.3 0 0 0.30019 0 0.10001] CT
0 1 1 RC
N
708.316 965.015 M
769.958 965.015 L
708.316 951.692 L
cp
f
GR
GS
[0.3 0 0 0.30019 0 0.10001] CT
0 1 1 RC
N
708.316 951.692 M
769.958 965.015 L
785.368 951.692 L
cp
f
GR
GS
[0.3 0 0 0.30019 0 0.10001] CT
0 1 1 RC
N
769.958 965.015 M
785.368 1004.985 L
785.368 951.692 L
cp
f
GR
GS
[0.3 0 0 0.30019 0 0.10001] CT
2 setlinecap
10.0 ML
3.333 LW
N
785.368 1004.985 M
785.368 951.692 L
708.316 951.692 L
708.316 965.015 L
769.958 965.015 L
769.958 1004.985 L
785.368 1004.985 L
S
GR
GS
[0.3 0 0 0.30019 0 0.10001] CT
0 0 1 RC
N
723.726 1031.631 M
708.316 1031.631 L
723.726 1071.6 L
cp
f
GR
GS
[0.3 0 0 0.30019 0 0.10001] CT
0 0 1 RC
N
708.316 1031.631 M
708.316 1084.923 L
723.726 1071.6 L
cp
f
GR
GS
[0.3 0 0 0.30019 0 0.10001] CT
0 0 1 RC
N
785.368 1084.923 M
785.368 1071.6 L
723.726 1071.6 L
cp
f
GR
GS
[0.3 0 0 0.30019 0 0.10001] CT
0 0 1 RC
N
708.316 1084.923 M
785.368 1084.923 L
723.726 1071.6 L
cp
f
GR
GS
[0.3 0 0 0.30019 0 0.10001] CT
2 setlinecap
10.0 ML
3.333 LW
N
785.368 1084.923 M
708.316 1084.923 L
708.316 1031.631 L
723.726 1031.631 L
723.726 1071.6 L
785.368 1071.6 L
785.368 1084.923 L
S
GR
GS
[0.3 0 0 0.30019 0 0.10001] CT
0 1 1 RC
N
769.958 1031.631 M
769.958 1071.6 L
785.368 1071.6 L
cp
f
GR
GS
[0.3 0 0 0.30019 0 0.10001] CT
0 1 1 RC
N
708.316 1031.631 M
769.958 1031.631 L
708.316 1018.308 L
cp
f
GR
GS
[0.3 0 0 0.30019 0 0.10001] CT
0 1 1 RC
N
708.316 1018.308 M
769.958 1031.631 L
785.368 1018.308 L
cp
f
GR
GS
[0.3 0 0 0.30019 0 0.10001] CT
0 1 1 RC
N
769.958 1031.631 M
785.368 1071.6 L
785.368 1018.308 L
cp
f
GR
GS
[0.3 0 0 0.30019 0 0.10001] CT
2 setlinecap
10.0 ML
3.333 LW
N
785.368 1071.6 M
785.368 1018.308 L
708.316 1018.308 L
708.316 1031.631 L
769.958 1031.631 L
769.958 1071.6 L
785.368 1071.6 L
S
GR
GS
[0.3 0 0 0.30019 0 0.10001] CT
1 0 0 RC
1 LJ
4.167 LW
N
735.284 908.392 M
758.4 928.377 L
S
GR
GS
[0.3 0 0 0.30019 0 0.10001] CT
1 0 0 RC
1 LJ
4.167 LW
N
735.284 928.377 M
758.4 908.392 L
S
GR
GS
[0.3 0 0 0.30019 0 0.10001] CT
1 0 0 RC
1 LJ
4.167 LW
N
1351.705 908.392 M
1374.821 928.377 L
S
GR
GS
[0.3 0 0 0.30019 0 0.10001] CT
1 0 0 RC
1 LJ
4.167 LW
N
1351.705 928.377 M
1374.821 908.392 L
S
GR
GS
[0.3 0 0 0.30019 0 0.10001] CT
0 1 0 RC
[4 4] 0 setdash
2 LJ
4.167 LW
N
746.842 918.385 M
746.842 1151.538 L
S
GR
GS
[0.3 0 0 0.30019 0 0.10001] CT
0 1 0 RC
[4 4] 0 setdash
2 LJ
4.167 LW
N
1363.263 918.385 M
1363.263 1151.538 L
S
GR
GS
[0.3 0 0 0.30019 0 0.10001] CT
0 1 0 RC
1 LJ
4.167 LW
N
746.842 1151.538 M
1363.263 1151.538 L
S
GR
GS
[0.3 0 0 0.30019 0 0.10001] CT
0 0 1 RC
N
1186.042 898.4 M
1170.632 885.077 L
1170.632 951.692 L
cp
f
GR
GS
[0.3 0 0 0.30019 0 0.10001] CT
0 0 1 RC
N
1186.042 898.4 M
1170.632 951.692 L
1186.042 951.692 L
cp
f
GR
GS
[0.3 0 0 0.30019 0 0.10001] CT
0 0 1 RC
N
1232.274 898.4 M
1232.274 885.077 L
1186.042 898.4 L
cp
f
GR
GS
[0.3 0 0 0.30019 0 0.10001] CT
0 0 1 RC
N
1232.274 885.077 M
1170.632 885.077 L
1186.042 898.4 L
cp
f
GR
GS
[0.3 0 0 0.30019 0 0.10001] CT
2 setlinecap
10.0 ML
3.333 LW
N
1170.632 951.692 M
1170.632 885.077 L
1232.274 885.077 L
1232.274 898.4 L
1186.042 898.4 L
1186.042 951.692 L
1170.632 951.692 L
S
GR
GS
[0.3 0 0 0.30019 0 0.10001] CT
0 1 1 RC
N
1186.042 938.369 M
1186.042 951.692 L
1232.274 938.369 L
cp
f
GR
GS
[0.3 0 0 0.30019 0 0.10001] CT
0 1 1 RC
N
1232.274 885.077 M
1232.274 938.369 L
1247.684 885.077 L
cp
f
GR
GS
[0.3 0 0 0.30019 0 0.10001] CT
0 1 1 RC
N
1232.274 938.369 M
1247.684 951.692 L
1247.684 885.077 L
cp
f
GR
GS
[0.3 0 0 0.30019 0 0.10001] CT
0 1 1 RC
N
1232.274 938.369 M
1186.042 951.692 L
1247.684 951.692 L
cp
f
GR
GS
[0.3 0 0 0.30019 0 0.10001] CT
2 setlinecap
10.0 ML
3.333 LW
N
1186.042 951.692 M
1247.684 951.692 L
1247.684 885.077 L
1232.274 885.077 L
1232.274 938.369 L
1186.042 938.369 L
1186.042 951.692 L
S
GR
GS
[0.3 0 0 0.30019 0 0.10001] CT
0 0 1 RC
N
1263.095 898.4 M
1247.684 885.077 L
1247.684 951.692 L
cp
f
GR
GS
[0.3 0 0 0.30019 0 0.10001] CT
0 0 1 RC
N
1263.095 898.4 M
1247.684 951.692 L
1263.095 951.692 L
cp
f
GR
GS
[0.3 0 0 0.30019 0 0.10001] CT
0 0 1 RC
N
1309.326 898.4 M
1309.326 885.077 L
1263.095 898.4 L
cp
f
GR
GS
[0.3 0 0 0.30019 0 0.10001] CT
0 0 1 RC
N
1309.326 885.077 M
1247.684 885.077 L
1263.095 898.4 L
cp
f
GR
GS
[0.3 0 0 0.30019 0 0.10001] CT
2 setlinecap
10.0 ML
3.333 LW
N
1247.684 951.692 M
1247.684 885.077 L
1309.326 885.077 L
1309.326 898.4 L
1263.095 898.4 L
1263.095 951.692 L
1247.684 951.692 L
S
GR
GS
[0.3 0 0 0.30019 0 0.10001] CT
0 1 1 RC
N
1263.095 938.369 M
1263.095 951.692 L
1309.326 938.369 L
cp
f
GR
GS
[0.3 0 0 0.30019 0 0.10001] CT
0 1 1 RC
N
1309.326 885.077 M
1309.326 938.369 L
1324.737 885.077 L
cp
f
GR
GS
[0.3 0 0 0.30019 0 0.10001] CT
0 1 1 RC
N
1309.326 938.369 M
1324.737 951.692 L
1324.737 885.077 L
cp
f
GR
GS
[0.3 0 0 0.30019 0 0.10001] CT
0 1 1 RC
N
1309.326 938.369 M
1263.095 951.692 L
1324.737 951.692 L
cp
f
GR
GS
[0.3 0 0 0.30019 0 0.10001] CT
2 setlinecap
10.0 ML
3.333 LW
N
1263.095 951.692 M
1324.737 951.692 L
1324.737 885.077 L
1309.326 885.077 L
1309.326 938.369 L
1263.095 938.369 L
1263.095 951.692 L
S
GR
GS
[0.3 0 0 0.30019 0 0.10001] CT
0 0 1 RC
N
1340.147 898.4 M
1324.737 885.077 L
1324.737 951.692 L
cp
f
GR
GS
[0.3 0 0 0.30019 0 0.10001] CT
0 0 1 RC
N
1340.147 898.4 M
1324.737 951.692 L
1340.147 951.692 L
cp
f
GR
GS
[0.3 0 0 0.30019 0 0.10001] CT
0 0 1 RC
N
1386.379 898.4 M
1386.379 885.077 L
1340.147 898.4 L
cp
f
GR
GS
[0.3 0 0 0.30019 0 0.10001] CT
0 0 1 RC
N
1386.379 885.077 M
1324.737 885.077 L
1340.147 898.4 L
cp
f
GR
GS
[0.3 0 0 0.30019 0 0.10001] CT
2 setlinecap
10.0 ML
3.333 LW
N
1324.737 951.692 M
1324.737 885.077 L
1386.379 885.077 L
1386.379 898.4 L
1340.147 898.4 L
1340.147 951.692 L
1324.737 951.692 L
S
GR
GS
[0.3 0 0 0.30019 0 0.10001] CT
0 1 1 RC
N
1340.147 938.369 M
1340.147 951.692 L
1386.379 938.369 L
cp
f
GR
GS
[0.3 0 0 0.30019 0 0.10001] CT
0 1 1 RC
N
1386.379 885.077 M
1386.379 938.369 L
1401.789 885.077 L
cp
f
GR
GS
[0.3 0 0 0.30019 0 0.10001] CT
0 1 1 RC
N
1386.379 938.369 M
1401.789 951.692 L
1401.789 885.077 L
cp
f
GR
GS
[0.3 0 0 0.30019 0 0.10001] CT
0 1 1 RC
N
1386.379 938.369 M
1340.147 951.692 L
1401.789 951.692 L
cp
f
GR
GS
[0.3 0 0 0.30019 0 0.10001] CT
2 setlinecap
10.0 ML
3.333 LW
N
1340.147 951.692 M
1401.789 951.692 L
1401.789 885.077 L
1386.379 885.077 L
1386.379 938.369 L
1340.147 938.369 L
1340.147 951.692 L
S
GR
GS
[0.3 0 0 0.30019 0 0.10001] CT
0 0 1 RC
N
1417.2 898.4 M
1401.789 885.077 L
1401.789 951.692 L
cp
f
GR
GS
[0.3 0 0 0.30019 0 0.10001] CT
0 0 1 RC
N
1417.2 898.4 M
1401.789 951.692 L
1417.2 951.692 L
cp
f
GR
GS
[0.3 0 0 0.30019 0 0.10001] CT
0 0 1 RC
N
1463.432 898.4 M
1463.432 885.077 L
1417.2 898.4 L
cp
f
GR
GS
[0.3 0 0 0.30019 0 0.10001] CT
0 0 1 RC
N
1463.432 885.077 M
1401.789 885.077 L
1417.2 898.4 L
cp
f
GR
GS
[0.3 0 0 0.30019 0 0.10001] CT
2 setlinecap
10.0 ML
3.333 LW
N
1401.789 951.692 M
1401.789 885.077 L
1463.432 885.077 L
1463.432 898.4 L
1417.2 898.4 L
1417.2 951.692 L
1401.789 951.692 L
S
GR
GS
[0.3 0 0 0.30019 0 0.10001] CT
0 1 1 RC
N
1417.2 938.369 M
1417.2 951.692 L
1463.432 938.369 L
cp
f
GR
GS
[0.3 0 0 0.30019 0 0.10001] CT
0 1 1 RC
N
1463.432 885.077 M
1463.432 938.369 L
1478.842 885.077 L
cp
f
GR
GS
[0.3 0 0 0.30019 0 0.10001] CT
0 1 1 RC
N
1463.432 938.369 M
1478.842 951.692 L
1478.842 885.077 L
cp
f
GR
GS
[0.3 0 0 0.30019 0 0.10001] CT
0 1 1 RC
N
1463.432 938.369 M
1417.2 951.692 L
1478.842 951.692 L
cp
f
GR
GS
[0.3 0 0 0.30019 0 0.10001] CT
2 setlinecap
10.0 ML
3.333 LW
N
1417.2 951.692 M
1478.842 951.692 L
1478.842 885.077 L
1463.432 885.077 L
1463.432 938.369 L
1417.2 938.369 L
1417.2 951.692 L
S
GR
GS
[0.3 0 0 0.30019 0 0.10001] CT
0 0 1 RC
N
1494.253 898.4 M
1478.842 885.077 L
1478.842 951.692 L
cp
f
GR
GS
[0.3 0 0 0.30019 0 0.10001] CT
0 0 1 RC
N
1494.253 898.4 M
1478.842 951.692 L
1494.253 951.692 L
cp
f
GR
GS
[0.3 0 0 0.30019 0 0.10001] CT
0 0 1 RC
N
1540.484 898.4 M
1540.484 885.077 L
1494.253 898.4 L
cp
f
GR
GS
[0.3 0 0 0.30019 0 0.10001] CT
0 0 1 RC
N
1540.484 885.077 M
1478.842 885.077 L
1494.253 898.4 L
cp
f
GR
GS
[0.3 0 0 0.30019 0 0.10001] CT
2 setlinecap
10.0 ML
3.333 LW
N
1478.842 951.692 M
1478.842 885.077 L
1540.484 885.077 L
1540.484 898.4 L
1494.253 898.4 L
1494.253 951.692 L
1478.842 951.692 L
S
GR
GS
[0.3 0 0 0.30019 0 0.10001] CT
0 1 1 RC
N
1494.253 938.369 M
1494.253 951.692 L
1540.484 938.369 L
cp
f
GR
GS
[0.3 0 0 0.30019 0 0.10001] CT
0 1 1 RC
N
1540.484 885.077 M
1540.484 938.369 L
1555.895 885.077 L
cp
f
GR
GS
[0.3 0 0 0.30019 0 0.10001] CT
0 1 1 RC
N
1540.484 938.369 M
1555.895 951.692 L
1555.895 885.077 L
cp
f
GR
GS
[0.3 0 0 0.30019 0 0.10001] CT
0 1 1 RC
N
1540.484 938.369 M
1494.253 951.692 L
1555.895 951.692 L
cp
f
GR
GS
[0.3 0 0 0.30019 0 0.10001] CT
2 setlinecap
10.0 ML
3.333 LW
N
1494.253 951.692 M
1555.895 951.692 L
1555.895 885.077 L
1540.484 885.077 L
1540.484 938.369 L
1494.253 938.369 L
1494.253 951.692 L
S
GR
GS
[0.3 0 0 0.30019 0 0.10001] CT
0 0 1 RC
N
1340.147 831.785 M
1324.737 831.785 L
1340.147 871.754 L
cp
f
GR
GS
[0.3 0 0 0.30019 0 0.10001] CT
0 0 1 RC
N
1324.737 831.785 M
1324.737 885.077 L
1340.147 871.754 L
cp
f
GR
GS
[0.3 0 0 0.30019 0 0.10001] CT
0 0 1 RC
N
1401.789 885.077 M
1401.789 871.754 L
1340.147 871.754 L
cp
f
GR
GS
[0.3 0 0 0.30019 0 0.10001] CT
0 0 1 RC
N
1324.737 885.077 M
1401.789 885.077 L
1340.147 871.754 L
cp
f
GR
GS
[0.3 0 0 0.30019 0 0.10001] CT
2 setlinecap
10.0 ML
3.333 LW
N
1401.789 885.077 M
1324.737 885.077 L
1324.737 831.785 L
1340.147 831.785 L
1340.147 871.754 L
1401.789 871.754 L
1401.789 885.077 L
S
GR
GS
[0.3 0 0 0.30019 0 0.10001] CT
0 1 1 RC
N
1386.379 831.785 M
1386.379 871.754 L
1401.789 871.754 L
cp
f
GR
GS
[0.3 0 0 0.30019 0 0.10001] CT
0 1 1 RC
N
1324.737 831.785 M
1386.379 831.785 L
1324.737 818.462 L
cp
f
GR
GS
[0.3 0 0 0.30019 0 0.10001] CT
0 1 1 RC
N
1324.737 818.462 M
1386.379 831.785 L
1401.789 818.462 L
cp
f
GR
GS
[0.3 0 0 0.30019 0 0.10001] CT
0 1 1 RC
N
1386.379 831.785 M
1401.789 871.754 L
1401.789 818.462 L
cp
f
GR
GS
[0.3 0 0 0.30019 0 0.10001] CT
2 setlinecap
10.0 ML
3.333 LW
N
1401.789 871.754 M
1401.789 818.462 L
1324.737 818.462 L
1324.737 831.785 L
1386.379 831.785 L
1386.379 871.754 L
1401.789 871.754 L
S
GR
GS
[0.3 0 0 0.30019 0 0.10001] CT
0 0 1 RC
N
1340.147 765.169 M
1324.737 765.169 L
1340.147 805.138 L
cp
f
GR
GS
[0.3 0 0 0.30019 0 0.10001] CT
0 0 1 RC
N
1324.737 765.169 M
1324.737 818.462 L
1340.147 805.138 L
cp
f
GR
GS
[0.3 0 0 0.30019 0 0.10001] CT
0 0 1 RC
N
1401.789 818.462 M
1401.789 805.138 L
1340.147 805.138 L
cp
f
GR
GS
[0.3 0 0 0.30019 0 0.10001] CT
0 0 1 RC
N
1324.737 818.462 M
1401.789 818.462 L
1340.147 805.138 L
cp
f
GR
GS
[0.3 0 0 0.30019 0 0.10001] CT
2 setlinecap
10.0 ML
3.333 LW
N
1401.789 818.462 M
1324.737 818.462 L
1324.737 765.169 L
1340.147 765.169 L
1340.147 805.138 L
1401.789 805.138 L
1401.789 818.462 L
S
GR
GS
[0.3 0 0 0.30019 0 0.10001] CT
0 1 1 RC
N
1386.379 765.169 M
1386.379 805.138 L
1401.789 805.138 L
cp
f
GR
GS
[0.3 0 0 0.30019 0 0.10001] CT
0 1 1 RC
N
1324.737 765.169 M
1386.379 765.169 L
1324.737 751.846 L
cp
f
GR
GS
[0.3 0 0 0.30019 0 0.10001] CT
0 1 1 RC
N
1324.737 751.846 M
1386.379 765.169 L
1401.789 751.846 L
cp
f
GR
GS
[0.3 0 0 0.30019 0 0.10001] CT
0 1 1 RC
N
1386.379 765.169 M
1401.789 805.138 L
1401.789 751.846 L
cp
f
GR
GS
[0.3 0 0 0.30019 0 0.10001] CT
2 setlinecap
10.0 ML
3.333 LW
N
1401.789 805.138 M
1401.789 751.846 L
1324.737 751.846 L
1324.737 765.169 L
1386.379 765.169 L
1386.379 805.138 L
1401.789 805.138 L
S
GR
GS
[0.3 0 0 0.30019 0 0.10001] CT
0 0 1 RC
N
1340.147 965.015 M
1324.737 965.015 L
1340.147 1004.985 L
cp
f
GR
GS
[0.3 0 0 0.30019 0 0.10001] CT
0 0 1 RC
N
1324.737 965.015 M
1324.737 1018.308 L
1340.147 1004.985 L
cp
f
GR
GS
[0.3 0 0 0.30019 0 0.10001] CT
0 0 1 RC
N
1401.789 1018.308 M
1401.789 1004.985 L
1340.147 1004.985 L
cp
f
GR
GS
[0.3 0 0 0.30019 0 0.10001] CT
0 0 1 RC
N
1324.737 1018.308 M
1401.789 1018.308 L
1340.147 1004.985 L
cp
f
GR
GS
[0.3 0 0 0.30019 0 0.10001] CT
2 setlinecap
10.0 ML
3.333 LW
N
1401.789 1018.308 M
1324.737 1018.308 L
1324.737 965.015 L
1340.147 965.015 L
1340.147 1004.985 L
1401.789 1004.985 L
1401.789 1018.308 L
S
GR
GS
[0.3 0 0 0.30019 0 0.10001] CT
0 1 1 RC
N
1386.379 965.015 M
1386.379 1004.985 L
1401.789 1004.985 L
cp
f
GR
GS
[0.3 0 0 0.30019 0 0.10001] CT
0 1 1 RC
N
1324.737 965.015 M
1386.379 965.015 L
1324.737 951.692 L
cp
f
GR
GS
[0.3 0 0 0.30019 0 0.10001] CT
0 1 1 RC
N
1324.737 951.692 M
1386.379 965.015 L
1401.789 951.692 L
cp
f
GR
GS
[0.3 0 0 0.30019 0 0.10001] CT
0 1 1 RC
N
1386.379 965.015 M
1401.789 1004.985 L
1401.789 951.692 L
cp
f
GR
GS
[0.3 0 0 0.30019 0 0.10001] CT
2 setlinecap
10.0 ML
3.333 LW
N
1401.789 1004.985 M
1401.789 951.692 L
1324.737 951.692 L
1324.737 965.015 L
1386.379 965.015 L
1386.379 1004.985 L
1401.789 1004.985 L
S
GR
GS
[0.3 0 0 0.30019 0 0.10001] CT
0 0 1 RC
N
1340.147 1031.631 M
1324.737 1031.631 L
1340.147 1071.6 L
cp
f
GR
GS
[0.3 0 0 0.30019 0 0.10001] CT
0 0 1 RC
N
1324.737 1031.631 M
1324.737 1084.923 L
1340.147 1071.6 L
cp
f
GR
GS
[0.3 0 0 0.30019 0 0.10001] CT
0 0 1 RC
N
1401.789 1084.923 M
1401.789 1071.6 L
1340.147 1071.6 L
cp
f
GR
GS
[0.3 0 0 0.30019 0 0.10001] CT
0 0 1 RC
N
1324.737 1084.923 M
1401.789 1084.923 L
1340.147 1071.6 L
cp
f
GR
GS
[0.3 0 0 0.30019 0 0.10001] CT
2 setlinecap
10.0 ML
3.333 LW
N
1401.789 1084.923 M
1324.737 1084.923 L
1324.737 1031.631 L
1340.147 1031.631 L
1340.147 1071.6 L
1401.789 1071.6 L
1401.789 1084.923 L
S
GR
GS
[0.3 0 0 0.30019 0 0.10001] CT
0 1 1 RC
N
1386.379 1031.631 M
1386.379 1071.6 L
1401.789 1071.6 L
cp
f
GR
GS
[0.3 0 0 0.30019 0 0.10001] CT
0 1 1 RC
N
1324.737 1031.631 M
1386.379 1031.631 L
1324.737 1018.308 L
cp
f
GR
GS
[0.3 0 0 0.30019 0 0.10001] CT
0 1 1 RC
N
1324.737 1018.308 M
1386.379 1031.631 L
1401.789 1018.308 L
cp
f
GR
GS
[0.3 0 0 0.30019 0 0.10001] CT
0 1 1 RC
N
1386.379 1031.631 M
1401.789 1071.6 L
1401.789 1018.308 L
cp
f
GR
GS
[0.3 0 0 0.30019 0 0.10001] CT
2 setlinecap
10.0 ML
3.333 LW
N
1401.789 1071.6 M
1401.789 1018.308 L
1324.737 1018.308 L
1324.737 1031.631 L
1386.379 1031.631 L
1386.379 1071.6 L
1401.789 1071.6 L
S
GR
GS
[0.3 0 0 0.30019 0 0.10001] CT
0 0 1 RC
N
569.621 432.092 M
554.211 418.769 L
554.211 485.385 L
cp
f
GR
GS
[0.3 0 0 0.30019 0 0.10001] CT
0 0 1 RC
N
569.621 432.092 M
554.211 485.385 L
569.621 485.385 L
cp
f
GR
GS
[0.3 0 0 0.30019 0 0.10001] CT
0 0 1 RC
N
615.853 432.092 M
615.853 418.769 L
569.621 432.092 L
cp
f
GR
GS
[0.3 0 0 0.30019 0 0.10001] CT
0 0 1 RC
N
615.853 418.769 M
554.211 418.769 L
569.621 432.092 L
cp
f
GR
GS
[0.3 0 0 0.30019 0 0.10001] CT
2 setlinecap
10.0 ML
3.333 LW
N
554.211 485.385 M
554.211 418.769 L
615.853 418.769 L
615.853 432.092 L
569.621 432.092 L
569.621 485.385 L
554.211 485.385 L
S
GR
GS
[0.3 0 0 0.30019 0 0.10001] CT
0 1 1 RC
N
569.621 472.062 M
569.621 485.385 L
615.853 472.062 L
cp
f
GR
GS
[0.3 0 0 0.30019 0 0.10001] CT
0 1 1 RC
N
615.853 418.769 M
615.853 472.062 L
631.263 418.769 L
cp
f
GR
GS
[0.3 0 0 0.30019 0 0.10001] CT
0 1 1 RC
N
615.853 472.062 M
631.263 485.385 L
631.263 418.769 L
cp
f
GR
GS
[0.3 0 0 0.30019 0 0.10001] CT
0 1 1 RC
N
615.853 472.062 M
569.621 485.385 L
631.263 485.385 L
cp
f
GR
GS
[0.3 0 0 0.30019 0 0.10001] CT
2 setlinecap
10.0 ML
3.333 LW
N
569.621 485.385 M
631.263 485.385 L
631.263 418.769 L
615.853 418.769 L
615.853 472.062 L
569.621 472.062 L
569.621 485.385 L
S
GR
GS
[0.3 0 0 0.30019 0 0.10001] CT
0 0 1 RC
N
646.674 432.092 M
631.263 418.769 L
631.263 485.385 L
cp
f
GR
GS
[0.3 0 0 0.30019 0 0.10001] CT
0 0 1 RC
N
646.674 432.092 M
631.263 485.385 L
646.674 485.385 L
cp
f
GR
GS
[0.3 0 0 0.30019 0 0.10001] CT
0 0 1 RC
N
692.905 432.092 M
692.905 418.769 L
646.674 432.092 L
cp
f
GR
GS
[0.3 0 0 0.30019 0 0.10001] CT
0 0 1 RC
N
692.905 418.769 M
631.263 418.769 L
646.674 432.092 L
cp
f
GR
GS
[0.3 0 0 0.30019 0 0.10001] CT
2 setlinecap
10.0 ML
3.333 LW
N
631.263 485.385 M
631.263 418.769 L
692.905 418.769 L
692.905 432.092 L
646.674 432.092 L
646.674 485.385 L
631.263 485.385 L
S
GR
GS
[0.3 0 0 0.30019 0 0.10001] CT
0 1 1 RC
N
646.674 472.062 M
646.674 485.385 L
692.905 472.062 L
cp
f
GR
GS
[0.3 0 0 0.30019 0 0.10001] CT
0 1 1 RC
N
692.905 418.769 M
692.905 472.062 L
708.316 418.769 L
cp
f
GR
GS
[0.3 0 0 0.30019 0 0.10001] CT
0 1 1 RC
N
692.905 472.062 M
708.316 485.385 L
708.316 418.769 L
cp
f
GR
GS
[0.3 0 0 0.30019 0 0.10001] CT
0 1 1 RC
N
692.905 472.062 M
646.674 485.385 L
708.316 485.385 L
cp
f
GR
GS
[0.3 0 0 0.30019 0 0.10001] CT
2 setlinecap
10.0 ML
3.333 LW
N
646.674 485.385 M
708.316 485.385 L
708.316 418.769 L
692.905 418.769 L
692.905 472.062 L
646.674 472.062 L
646.674 485.385 L
S
GR
GS
[0.3 0 0 0.30019 0 0.10001] CT
0 0 1 RC
N
723.726 432.092 M
708.316 418.769 L
708.316 485.385 L
cp
f
GR
GS
[0.3 0 0 0.30019 0 0.10001] CT
0 0 1 RC
N
723.726 432.092 M
708.316 485.385 L
723.726 485.385 L
cp
f
GR
GS
[0.3 0 0 0.30019 0 0.10001] CT
0 0 1 RC
N
769.958 432.092 M
769.958 418.769 L
723.726 432.092 L
cp
f
GR
GS
[0.3 0 0 0.30019 0 0.10001] CT
0 0 1 RC
N
769.958 418.769 M
708.316 418.769 L
723.726 432.092 L
cp
f
GR
GS
[0.3 0 0 0.30019 0 0.10001] CT
2 setlinecap
10.0 ML
3.333 LW
N
708.316 485.385 M
708.316 418.769 L
769.958 418.769 L
769.958 432.092 L
723.726 432.092 L
723.726 485.385 L
708.316 485.385 L
S
GR
GS
[0.3 0 0 0.30019 0 0.10001] CT
0 1 1 RC
N
723.726 472.062 M
723.726 485.385 L
769.958 472.062 L
cp
f
GR
GS
[0.3 0 0 0.30019 0 0.10001] CT
0 1 1 RC
N
769.958 418.769 M
769.958 472.062 L
785.368 418.769 L
cp
f
GR
GS
[0.3 0 0 0.30019 0 0.10001] CT
0 1 1 RC
N
769.958 472.062 M
785.368 485.385 L
785.368 418.769 L
cp
f
GR
GS
[0.3 0 0 0.30019 0 0.10001] CT
0 1 1 RC
N
769.958 472.062 M
723.726 485.385 L
785.368 485.385 L
cp
f
GR
GS
[0.3 0 0 0.30019 0 0.10001] CT
2 setlinecap
10.0 ML
3.333 LW
N
723.726 485.385 M
785.368 485.385 L
785.368 418.769 L
769.958 418.769 L
769.958 472.062 L
723.726 472.062 L
723.726 485.385 L
S
GR
GS
[0.3 0 0 0.30019 0 0.10001] CT
0 0 1 RC
N
800.779 432.092 M
785.368 418.769 L
785.368 485.385 L
cp
f
GR
GS
[0.3 0 0 0.30019 0 0.10001] CT
0 0 1 RC
N
800.779 432.092 M
785.368 485.385 L
800.779 485.385 L
cp
f
GR
GS
[0.3 0 0 0.30019 0 0.10001] CT
0 0 1 RC
N
847.01 432.092 M
847.01 418.769 L
800.779 432.092 L
cp
f
GR
GS
[0.3 0 0 0.30019 0 0.10001] CT
0 0 1 RC
N
847.01 418.769 M
785.368 418.769 L
800.779 432.092 L
cp
f
GR
GS
[0.3 0 0 0.30019 0 0.10001] CT
2 setlinecap
10.0 ML
3.333 LW
N
785.368 485.385 M
785.368 418.769 L
847.01 418.769 L
847.01 432.092 L
800.779 432.092 L
800.779 485.385 L
785.368 485.385 L
S
GR
GS
[0.3 0 0 0.30019 0 0.10001] CT
0 1 1 RC
N
800.779 472.062 M
800.779 485.385 L
847.01 472.062 L
cp
f
GR
GS
[0.3 0 0 0.30019 0 0.10001] CT
0 1 1 RC
N
847.01 418.769 M
847.01 472.062 L
862.421 418.769 L
cp
f
GR
GS
[0.3 0 0 0.30019 0 0.10001] CT
0 1 1 RC
N
847.01 472.062 M
862.421 485.385 L
862.421 418.769 L
cp
f
GR
GS
[0.3 0 0 0.30019 0 0.10001] CT
0 1 1 RC
N
847.01 472.062 M
800.779 485.385 L
862.421 485.385 L
cp
f
GR
GS
[0.3 0 0 0.30019 0 0.10001] CT
2 setlinecap
10.0 ML
3.333 LW
N
800.779 485.385 M
862.421 485.385 L
862.421 418.769 L
847.01 418.769 L
847.01 472.062 L
800.779 472.062 L
800.779 485.385 L
S
GR
GS
[0.3 0 0 0.30019 0 0.10001] CT
0 0 1 RC
N
877.832 432.092 M
862.421 418.769 L
862.421 485.385 L
cp
f
GR
GS
[0.3 0 0 0.30019 0 0.10001] CT
0 0 1 RC
N
877.832 432.092 M
862.421 485.385 L
877.832 485.385 L
cp
f
GR
GS
[0.3 0 0 0.30019 0 0.10001] CT
0 0 1 RC
N
924.063 432.092 M
924.063 418.769 L
877.832 432.092 L
cp
f
GR
GS
[0.3 0 0 0.30019 0 0.10001] CT
0 0 1 RC
N
924.063 418.769 M
862.421 418.769 L
877.832 432.092 L
cp
f
GR
GS
[0.3 0 0 0.30019 0 0.10001] CT
2 setlinecap
10.0 ML
3.333 LW
N
862.421 485.385 M
862.421 418.769 L
924.063 418.769 L
924.063 432.092 L
877.832 432.092 L
877.832 485.385 L
862.421 485.385 L
S
GR
GS
[0.3 0 0 0.30019 0 0.10001] CT
0 1 1 RC
N
877.832 472.062 M
877.832 485.385 L
924.063 472.062 L
cp
f
GR
GS
[0.3 0 0 0.30019 0 0.10001] CT
0 1 1 RC
N
924.063 418.769 M
924.063 472.062 L
939.474 418.769 L
cp
f
GR
GS
[0.3 0 0 0.30019 0 0.10001] CT
0 1 1 RC
N
924.063 472.062 M
939.474 485.385 L
939.474 418.769 L
cp
f
GR
GS
[0.3 0 0 0.30019 0 0.10001] CT
0 1 1 RC
N
924.063 472.062 M
877.832 485.385 L
939.474 485.385 L
cp
f
GR
GS
[0.3 0 0 0.30019 0 0.10001] CT
2 setlinecap
10.0 ML
3.333 LW
N
877.832 485.385 M
939.474 485.385 L
939.474 418.769 L
924.063 418.769 L
924.063 472.062 L
877.832 472.062 L
877.832 485.385 L
S
GR
GS
[0.3 0 0 0.30019 0 0.10001] CT
0 0 1 RC
N
723.726 365.477 M
708.316 365.477 L
723.726 405.446 L
cp
f
GR
GS
[0.3 0 0 0.30019 0 0.10001] CT
0 0 1 RC
N
708.316 365.477 M
708.316 418.769 L
723.726 405.446 L
cp
f
GR
GS
[0.3 0 0 0.30019 0 0.10001] CT
0 0 1 RC
N
785.368 418.769 M
785.368 405.446 L
723.726 405.446 L
cp
f
GR
GS
[0.3 0 0 0.30019 0 0.10001] CT
0 0 1 RC
N
708.316 418.769 M
785.368 418.769 L
723.726 405.446 L
cp
f
GR
GS
[0.3 0 0 0.30019 0 0.10001] CT
2 setlinecap
10.0 ML
3.333 LW
N
785.368 418.769 M
708.316 418.769 L
708.316 365.477 L
723.726 365.477 L
723.726 405.446 L
785.368 405.446 L
785.368 418.769 L
S
GR
GS
[0.3 0 0 0.30019 0 0.10001] CT
0 1 1 RC
N
769.958 365.477 M
769.958 405.446 L
785.368 405.446 L
cp
f
GR
GS
[0.3 0 0 0.30019 0 0.10001] CT
0 1 1 RC
N
708.316 365.477 M
769.958 365.477 L
708.316 352.154 L
cp
f
GR
GS
[0.3 0 0 0.30019 0 0.10001] CT
0 1 1 RC
N
708.316 352.154 M
769.958 365.477 L
785.368 352.154 L
cp
f
GR
GS
[0.3 0 0 0.30019 0 0.10001] CT
0 1 1 RC
N
769.958 365.477 M
785.368 405.446 L
785.368 352.154 L
cp
f
GR
GS
[0.3 0 0 0.30019 0 0.10001] CT
2 setlinecap
10.0 ML
3.333 LW
N
785.368 405.446 M
785.368 352.154 L
708.316 352.154 L
708.316 365.477 L
769.958 365.477 L
769.958 405.446 L
785.368 405.446 L
S
GR
GS
[0.3 0 0 0.30019 0 0.10001] CT
0 0 1 RC
N
723.726 298.862 M
708.316 298.862 L
723.726 338.831 L
cp
f
GR
GS
[0.3 0 0 0.30019 0 0.10001] CT
0 0 1 RC
N
708.316 298.862 M
708.316 352.154 L
723.726 338.831 L
cp
f
GR
GS
[0.3 0 0 0.30019 0 0.10001] CT
0 0 1 RC
N
785.368 352.154 M
785.368 338.831 L
723.726 338.831 L
cp
f
GR
GS
[0.3 0 0 0.30019 0 0.10001] CT
0 0 1 RC
N
708.316 352.154 M
785.368 352.154 L
723.726 338.831 L
cp
f
GR
GS
[0.3 0 0 0.30019 0 0.10001] CT
2 setlinecap
10.0 ML
3.333 LW
N
785.368 352.154 M
708.316 352.154 L
708.316 298.862 L
723.726 298.862 L
723.726 338.831 L
785.368 338.831 L
785.368 352.154 L
S
GR
GS
[0.3 0 0 0.30019 0 0.10001] CT
0 1 1 RC
N
769.958 298.862 M
769.958 338.831 L
785.368 338.831 L
cp
f
GR
GS
[0.3 0 0 0.30019 0 0.10001] CT
0 1 1 RC
N
708.316 298.862 M
769.958 298.862 L
708.316 285.538 L
cp
f
GR
GS
[0.3 0 0 0.30019 0 0.10001] CT
0 1 1 RC
N
708.316 285.538 M
769.958 298.862 L
785.368 285.538 L
cp
f
GR
GS
[0.3 0 0 0.30019 0 0.10001] CT
0 1 1 RC
N
769.958 298.862 M
785.368 338.831 L
785.368 285.538 L
cp
f
GR
GS
[0.3 0 0 0.30019 0 0.10001] CT
2 setlinecap
10.0 ML
3.333 LW
N
785.368 338.831 M
785.368 285.538 L
708.316 285.538 L
708.316 298.862 L
769.958 298.862 L
769.958 338.831 L
785.368 338.831 L
S
GR
GS
[0.3 0 0 0.30019 0 0.10001] CT
0 0 1 RC
N
723.726 498.708 M
708.316 498.708 L
723.726 538.677 L
cp
f
GR
GS
[0.3 0 0 0.30019 0 0.10001] CT
0 0 1 RC
N
708.316 498.708 M
708.316 552 L
723.726 538.677 L
cp
f
GR
GS
[0.3 0 0 0.30019 0 0.10001] CT
0 0 1 RC
N
785.368 552 M
785.368 538.677 L
723.726 538.677 L
cp
f
GR
GS
[0.3 0 0 0.30019 0 0.10001] CT
0 0 1 RC
N
708.316 552 M
785.368 552 L
723.726 538.677 L
cp
f
GR
GS
[0.3 0 0 0.30019 0 0.10001] CT
2 setlinecap
10.0 ML
3.333 LW
N
785.368 552 M
708.316 552 L
708.316 498.708 L
723.726 498.708 L
723.726 538.677 L
785.368 538.677 L
785.368 552 L
S
GR
GS
[0.3 0 0 0.30019 0 0.10001] CT
0 1 1 RC
N
769.958 498.708 M
769.958 538.677 L
785.368 538.677 L
cp
f
GR
GS
[0.3 0 0 0.30019 0 0.10001] CT
0 1 1 RC
N
708.316 498.708 M
769.958 498.708 L
708.316 485.385 L
cp
f
GR
GS
[0.3 0 0 0.30019 0 0.10001] CT
0 1 1 RC
N
708.316 485.385 M
769.958 498.708 L
785.368 485.385 L
cp
f
GR
GS
[0.3 0 0 0.30019 0 0.10001] CT
0 1 1 RC
N
769.958 498.708 M
785.368 538.677 L
785.368 485.385 L
cp
f
GR
GS
[0.3 0 0 0.30019 0 0.10001] CT
2 setlinecap
10.0 ML
3.333 LW
N
785.368 538.677 M
785.368 485.385 L
708.316 485.385 L
708.316 498.708 L
769.958 498.708 L
769.958 538.677 L
785.368 538.677 L
S
GR
GS
[0.3 0 0 0.30019 0 0.10001] CT
0 0 1 RC
N
723.726 565.323 M
708.316 565.323 L
723.726 605.292 L
cp
f
GR
GS
[0.3 0 0 0.30019 0 0.10001] CT
0 0 1 RC
N
708.316 565.323 M
708.316 618.615 L
723.726 605.292 L
cp
f
GR
GS
[0.3 0 0 0.30019 0 0.10001] CT
0 0 1 RC
N
785.368 618.615 M
785.368 605.292 L
723.726 605.292 L
cp
f
GR
GS
[0.3 0 0 0.30019 0 0.10001] CT
0 0 1 RC
N
708.316 618.615 M
785.368 618.615 L
723.726 605.292 L
cp
f
GR
GS
[0.3 0 0 0.30019 0 0.10001] CT
2 setlinecap
10.0 ML
3.333 LW
N
785.368 618.615 M
708.316 618.615 L
708.316 565.323 L
723.726 565.323 L
723.726 605.292 L
785.368 605.292 L
785.368 618.615 L
S
GR
GS
[0.3 0 0 0.30019 0 0.10001] CT
0 1 1 RC
N
769.958 565.323 M
769.958 605.292 L
785.368 605.292 L
cp
f
GR
GS
[0.3 0 0 0.30019 0 0.10001] CT
0 1 1 RC
N
708.316 565.323 M
769.958 565.323 L
708.316 552 L
cp
f
GR
GS
[0.3 0 0 0.30019 0 0.10001] CT
0 1 1 RC
N
708.316 552 M
769.958 565.323 L
785.368 552 L
cp
f
GR
GS
[0.3 0 0 0.30019 0 0.10001] CT
0 1 1 RC
N
769.958 565.323 M
785.368 605.292 L
785.368 552 L
cp
f
GR
GS
[0.3 0 0 0.30019 0 0.10001] CT
2 setlinecap
10.0 ML
3.333 LW
N
785.368 605.292 M
785.368 552 L
708.316 552 L
708.316 565.323 L
769.958 565.323 L
769.958 605.292 L
785.368 605.292 L
S
GR
GS
[0.3 0 0 0.30019 0 0.10001] CT
1 0 0 RC
1 LJ
4.167 LW
N
735.284 442.085 M
758.4 462.069 L
S
GR
GS
[0.3 0 0 0.30019 0 0.10001] CT
1 0 0 RC
1 LJ
4.167 LW
N
735.284 462.069 M
758.4 442.085 L
S
GR
GS
[0.3 0 0 0.30019 0 0.10001] CT
0 1 0 RC
[4 4] 0 setdash
2 LJ
4.167 LW
N
438.632 918.385 M
746.842 918.385 L
S
GR
GS
[0.3 0 0 0.30019 0 0.10001] CT
0 1 0 RC
[4 4] 0 setdash
2 LJ
4.167 LW
N
438.632 452.077 M
746.842 452.077 L
S
GR
GS
[0.3 0 0 0.30019 0 0.10001] CT
0 1 0 RC
1 LJ
4.167 LW
N
438.632 918.385 M
438.632 452.077 L
S
GR
GS
[0.3 0 0 0.30019 0 0.10001] CT
1 LJ
1.667 LW
N
1546.494 1232.776 M
1632.947 1251.462 L
1546.494 1270.147 L
S
GR
GS
[0.3 0 0 0.30019 0 0.10001] CT
1 LJ
1.667 LW
N
323.053 1251.462 M
1632.947 1251.462 L
S
GR
GS
[0.3 0 0 0.30019 0 0.10001] CT
1 LJ
1.667 LW
N
302.711 255.961 M
323.053 185.615 L
343.395 255.961 L
S
GR
GS
[0.3 0 0 0.30019 0 0.10001] CT
1 LJ
1.667 LW
N
323.053 1251.462 M
323.053 185.615 L
S
GR
GS
[0.3 0 0 0.30019 489.88422 385.77289] CT
/Helvetica 33 F
GS
[1 0 0 1 0 0] CT
0 13 moveto 
1 -1 scale
(x) t 
GR
GR
GS
[0.3 0 0 0.30019 85.35789 55.8196] CT
/Helvetica 33 F
GS
[1 0 0 1 0 0] CT
0 13 moveto 
1 -1 scale
(y) t 
GR
GR
GS
[0.3 0 0 0.30019 305.1 361.52689] CT
/Helvetica 33 F
GS
[1 0 0 1 0 0] CT
0 0 moveto 
1 -1 scale
(x) t 
GR
GR
GS
[0.3 0 0 0.30019 310.2 366.3299] CT
/Helvetica 27 F
GS
[1 0 0 1 0 0] CT
0 0 moveto 
1 -1 scale
(e,x) t 
GR
GR
GS
[0.3 0 0 0.30019 321.3 361.52689] CT
/Helvetica 33 F
GS
[1 0 0 1 0 0] CT
0 0 moveto 
1 -1 scale
( - x) t 
GR
GR
GS
[0.3 0 0 0.30019 335.1 366.3299] CT
/Helvetica 27 F
GS
[1 0 0 1 0 0] CT
0 0 moveto 
1 -1 scale
(s,x) t 
GR
GR
GS
[0.3 0 0 0.30019 138.6 197.624] CT
/Helvetica 33 F
GS
[1 0 0 1 0 0] CT
0 0 moveto 
1 -1 scale
(x) t 
GR
GR
GS
[0.3 0 0 0.30019 143.7 202.42701] CT
/Helvetica 27 F
GS
[1 0 0 1 0 0] CT
0 0 moveto 
1 -1 scale
(e,y) t 
GR
GR
GS
[0.3 0 0 0.30019 154.8 197.624] CT
/Helvetica 33 F
GS
[1 0 0 1 0 0] CT
0 0 moveto 
1 -1 scale
( - x) t 
GR
GR
GS
[0.3 0 0 0.30019 168.6 202.42701] CT
/Helvetica 27 F
GS
[1 0 0 1 0 0] CT
0 0 moveto 
1 -1 scale
(s,y) t 
GR
GR
%%Trailer
%%Pages: 1
%%EOF
