%!PS-Adobe-3.0 EPSF-3.0
%%Creator: (MATLAB, The Mathworks, Inc. Version 8.6.0.267246 \(R2015b\). Operating System: Windows 8)
%%Title: (C:/Users/Daniel/OneDrive - CertiCon a.s/Documents/skola/CVUT/Semester_7/Individualny_projekt/Report/dataGrafy/Snake_4_move.eps)
%%CreationDate: 2016-05-01T12:15:09
%%Pages: (atend)
%%BoundingBox: 0 0 1152 352
%%LanguageLevel: 2
%%EndComments
%%BeginProlog
%%BeginResource: procset (Apache XML Graphics Std ProcSet) 1.2 0
%%Version: 1.2 0
%%Copyright: (Copyright 2001-2003,2010 The Apache Software Foundation. License terms: http://www.apache.org/licenses/LICENSE-2.0)
/bd{bind def}bind def
/ld{load def}bd
/GR/grestore ld
/M/moveto ld
/LJ/setlinejoin ld
/C/curveto ld
/f/fill ld
/LW/setlinewidth ld
/GC/setgray ld
/t/show ld
/N/newpath ld
/CT/concat ld
/cp/closepath ld
/S/stroke ld
/L/lineto ld
/CC/setcmykcolor ld
/A/ashow ld
/GS/gsave ld
/RC/setrgbcolor ld
/RM/rmoveto ld
/ML/setmiterlimit ld
/re {4 2 roll M
1 index 0 rlineto
0 exch rlineto
neg 0 rlineto
cp } bd
/_ctm matrix def
/_tm matrix def
/BT { _ctm currentmatrix pop matrix _tm copy pop 0 0 moveto } bd
/ET { _ctm setmatrix } bd
/iTm { _ctm setmatrix _tm concat } bd
/Tm { _tm astore pop iTm 0 0 moveto } bd
/ux 0.0 def
/uy 0.0 def
/F {
  /Tp exch def
  /Tf exch def
  Tf findfont Tp scalefont setfont
  /cf Tf def  /cs Tp def
} bd
/ULS {currentpoint /uy exch def /ux exch def} bd
/ULE {
  /Tcx currentpoint pop def
  gsave
  newpath
  cf findfont cs scalefont dup
  /FontMatrix get 0 get /Ts exch def /FontInfo get dup
  /UnderlinePosition get Ts mul /To exch def
  /UnderlineThickness get Ts mul /Tt exch def
  ux uy To add moveto  Tcx uy To add lineto
  Tt setlinewidth stroke
  grestore
} bd
/OLE {
  /Tcx currentpoint pop def
  gsave
  newpath
  cf findfont cs scalefont dup
  /FontMatrix get 0 get /Ts exch def /FontInfo get dup
  /UnderlinePosition get Ts mul /To exch def
  /UnderlineThickness get Ts mul /Tt exch def
  ux uy To add cs add moveto Tcx uy To add cs add lineto
  Tt setlinewidth stroke
  grestore
} bd
/SOE {
  /Tcx currentpoint pop def
  gsave
  newpath
  cf findfont cs scalefont dup
  /FontMatrix get 0 get /Ts exch def /FontInfo get dup
  /UnderlinePosition get Ts mul /To exch def
  /UnderlineThickness get Ts mul /Tt exch def
  ux uy To add cs 10 mul 26 idiv add moveto Tcx uy To add cs 10 mul 26 idiv add lineto
  Tt setlinewidth stroke
  grestore
} bd
/QT {
/Y22 exch store
/X22 exch store
/Y21 exch store
/X21 exch store
currentpoint
/Y21 load 2 mul add 3 div exch
/X21 load 2 mul add 3 div exch
/X21 load 2 mul /X22 load add 3 div
/Y21 load 2 mul /Y22 load add 3 div
/X22 load /Y22 load curveto
} bd
/SSPD {
dup length /d exch dict def
{
/v exch def
/k exch def
currentpagedevice k known {
/cpdv currentpagedevice k get def
v cpdv ne {
/upd false def
/nullv v type /nulltype eq def
/nullcpdv cpdv type /nulltype eq def
nullv nullcpdv or
{
/upd true def
} {
/sametype v type cpdv type eq def
sametype {
v type /arraytype eq {
/vlen v length def
/cpdvlen cpdv length def
vlen cpdvlen eq {
0 1 vlen 1 sub {
/i exch def
/obj v i get def
/cpdobj cpdv i get def
obj cpdobj ne {
/upd true def
exit
} if
} for
} {
/upd true def
} ifelse
} {
v type /dicttype eq {
v {
/dv exch def
/dk exch def
/cpddv cpdv dk get def
dv cpddv ne {
/upd true def
exit
} if
} forall
} {
/upd true def
} ifelse
} ifelse
} if
} ifelse
upd true eq {
d k v put
} if
} if
} if
} forall
d length 0 gt {
d setpagedevice
} if
} bd
%%EndResource
%%BeginResource: procset (Apache XML Graphics EPS ProcSet) 1.0 0
%%Version: 1.0 0
%%Copyright: (Copyright 2002-2003 The Apache Software Foundation. License terms: http://www.apache.org/licenses/LICENSE-2.0)
/BeginEPSF { %def
/b4_Inc_state save def         % Save state for cleanup
/dict_count countdictstack def % Count objects on dict stack
/op_count count 1 sub def      % Count objects on operand stack
userdict begin                 % Push userdict on dict stack
/showpage { } def              % Redefine showpage, { } = null proc
0 setgray 0 setlinecap         % Prepare graphics state
1 setlinewidth 0 setlinejoin
10 setmiterlimit [ ] 0 setdash newpath
/languagelevel where           % If level not equal to 1 then
{pop languagelevel             % set strokeadjust and
1 ne                           % overprint to their defaults.
{false setstrokeadjust false setoverprint
} if
} if
} bd
/EndEPSF { %def
count op_count sub {pop} repeat            % Clean up stacks
countdictstack dict_count sub {end} repeat
b4_Inc_state restore
} bd
%%EndResource
%FOPBeginFontDict
%%IncludeResource: font Courier-Bold
%%IncludeResource: font Helvetica
%%IncludeResource: font Courier-BoldOblique
%%IncludeResource: font Courier-Oblique
%%IncludeResource: font Times-Roman
%%IncludeResource: font Helvetica-BoldOblique
%%IncludeResource: font Helvetica-Bold
%%IncludeResource: font Helvetica-Oblique
%%IncludeResource: font Times-BoldItalic
%%IncludeResource: font Courier
%%IncludeResource: font Times-Italic
%%IncludeResource: font Times-Bold
%%IncludeResource: font Symbol
%%IncludeResource: font ZapfDingbats
%FOPEndFontDict
%%BeginResource: encoding WinAnsiEncoding
/WinAnsiEncoding [
/.notdef /.notdef /.notdef /.notdef /.notdef
/.notdef /.notdef /.notdef /.notdef /.notdef
/.notdef /.notdef /.notdef /.notdef /.notdef
/.notdef /.notdef /.notdef /.notdef /.notdef
/.notdef /.notdef /.notdef /.notdef /.notdef
/.notdef /.notdef /.notdef /.notdef /.notdef
/.notdef /.notdef /space /exclam /quotedbl
/numbersign /dollar /percent /ampersand /quotesingle
/parenleft /parenright /asterisk /plus /comma
/hyphen /period /slash /zero /one
/two /three /four /five /six
/seven /eight /nine /colon /semicolon
/less /equal /greater /question /at
/A /B /C /D /E
/F /G /H /I /J
/K /L /M /N /O
/P /Q /R /S /T
/U /V /W /X /Y
/Z /bracketleft /backslash /bracketright /asciicircum
/underscore /quoteleft /a /b /c
/d /e /f /g /h
/i /j /k /l /m
/n /o /p /q /r
/s /t /u /v /w
/x /y /z /braceleft /bar
/braceright /asciitilde /bullet /Euro /bullet
/quotesinglbase /florin /quotedblbase /ellipsis /dagger
/daggerdbl /circumflex /perthousand /Scaron /guilsinglleft
/OE /bullet /Zcaron /bullet /bullet
/quoteleft /quoteright /quotedblleft /quotedblright /bullet
/endash /emdash /asciitilde /trademark /scaron
/guilsinglright /oe /bullet /zcaron /Ydieresis
/space /exclamdown /cent /sterling /currency
/yen /brokenbar /section /dieresis /copyright
/ordfeminine /guillemotleft /logicalnot /sfthyphen /registered
/macron /degree /plusminus /twosuperior /threesuperior
/acute /mu /paragraph /middot /cedilla
/onesuperior /ordmasculine /guillemotright /onequarter /onehalf
/threequarters /questiondown /Agrave /Aacute /Acircumflex
/Atilde /Adieresis /Aring /AE /Ccedilla
/Egrave /Eacute /Ecircumflex /Edieresis /Igrave
/Iacute /Icircumflex /Idieresis /Eth /Ntilde
/Ograve /Oacute /Ocircumflex /Otilde /Odieresis
/multiply /Oslash /Ugrave /Uacute /Ucircumflex
/Udieresis /Yacute /Thorn /germandbls /agrave
/aacute /acircumflex /atilde /adieresis /aring
/ae /ccedilla /egrave /eacute /ecircumflex
/edieresis /igrave /iacute /icircumflex /idieresis
/eth /ntilde /ograve /oacute /ocircumflex
/otilde /odieresis /divide /oslash /ugrave
/uacute /ucircumflex /udieresis /yacute /thorn
/ydieresis
] def
%%EndResource
%FOPBeginFontReencode
/Courier-Bold findfont
dup length dict begin
  {1 index /FID ne {def} {pop pop} ifelse} forall
  /Encoding WinAnsiEncoding def
  currentdict
end
/Courier-Bold exch definefont pop
/Helvetica findfont
dup length dict begin
  {1 index /FID ne {def} {pop pop} ifelse} forall
  /Encoding WinAnsiEncoding def
  currentdict
end
/Helvetica exch definefont pop
/Courier-BoldOblique findfont
dup length dict begin
  {1 index /FID ne {def} {pop pop} ifelse} forall
  /Encoding WinAnsiEncoding def
  currentdict
end
/Courier-BoldOblique exch definefont pop
/Courier-Oblique findfont
dup length dict begin
  {1 index /FID ne {def} {pop pop} ifelse} forall
  /Encoding WinAnsiEncoding def
  currentdict
end
/Courier-Oblique exch definefont pop
/Times-Roman findfont
dup length dict begin
  {1 index /FID ne {def} {pop pop} ifelse} forall
  /Encoding WinAnsiEncoding def
  currentdict
end
/Times-Roman exch definefont pop
/Helvetica-BoldOblique findfont
dup length dict begin
  {1 index /FID ne {def} {pop pop} ifelse} forall
  /Encoding WinAnsiEncoding def
  currentdict
end
/Helvetica-BoldOblique exch definefont pop
/Helvetica-Bold findfont
dup length dict begin
  {1 index /FID ne {def} {pop pop} ifelse} forall
  /Encoding WinAnsiEncoding def
  currentdict
end
/Helvetica-Bold exch definefont pop
/Helvetica-Oblique findfont
dup length dict begin
  {1 index /FID ne {def} {pop pop} ifelse} forall
  /Encoding WinAnsiEncoding def
  currentdict
end
/Helvetica-Oblique exch definefont pop
/Times-BoldItalic findfont
dup length dict begin
  {1 index /FID ne {def} {pop pop} ifelse} forall
  /Encoding WinAnsiEncoding def
  currentdict
end
/Times-BoldItalic exch definefont pop
/Courier findfont
dup length dict begin
  {1 index /FID ne {def} {pop pop} ifelse} forall
  /Encoding WinAnsiEncoding def
  currentdict
end
/Courier exch definefont pop
/Times-Italic findfont
dup length dict begin
  {1 index /FID ne {def} {pop pop} ifelse} forall
  /Encoding WinAnsiEncoding def
  currentdict
end
/Times-Italic exch definefont pop
/Times-Bold findfont
dup length dict begin
  {1 index /FID ne {def} {pop pop} ifelse} forall
  /Encoding WinAnsiEncoding def
  currentdict
end
/Times-Bold exch definefont pop
%FOPEndFontReencode
%%EndProlog
%%Page: 1 1
%%PageBoundingBox: 0 0 1152 352
%%BeginPageSetup
[1 0 0 -1 0 352] CT
%%EndPageSetup
GS
[0.30008 0 0 0.29974 0 -0.20001] CT
N
0 0 M
3840 0 L
3840 1175 L
0 1175 L
0 0 L
cp
clip
1 GC
N
0 0 3840 1175 re
f
GR
GS
[0.30008 0 0 0.29974 0 -0.20001] CT
1 GC
N
0 0 3840 1175 re
f
GR
GS
[0.30008 0 0 0.29974 0 -0.20001] CT
1 GC
N
499 1045 M
3476 1045 L
3476 88 L
499 88 L
cp
f
GR
GS
[0.30008 0 0 0.29974 0 -0.20001] CT
0.873 GC
1 LJ
1.667 LW
N
499 1045 M
499 88 L
S
GR
GS
[0.30008 0 0 0.29974 0 -0.20001] CT
0.873 GC
1 LJ
1.667 LW
N
796.7 1045 M
796.7 88 L
S
GR
GS
[0.30008 0 0 0.29974 0 -0.20001] CT
0.873 GC
1 LJ
1.667 LW
N
1094.4 1045 M
1094.4 88 L
S
GR
GS
[0.30008 0 0 0.29974 0 -0.20001] CT
0.873 GC
1 LJ
1.667 LW
N
1392.1 1045 M
1392.1 88 L
S
GR
GS
[0.30008 0 0 0.29974 0 -0.20001] CT
0.873 GC
1 LJ
1.667 LW
N
1689.8 1045 M
1689.8 88 L
S
GR
GS
[0.30008 0 0 0.29974 0 -0.20001] CT
0.873 GC
1 LJ
1.667 LW
N
1987.5 1045 M
1987.5 88 L
S
GR
GS
[0.30008 0 0 0.29974 0 -0.20001] CT
0.873 GC
1 LJ
1.667 LW
N
2285.2 1045 M
2285.2 88 L
S
GR
GS
[0.30008 0 0 0.29974 0 -0.20001] CT
0.873 GC
1 LJ
1.667 LW
N
2582.9 1045 M
2582.9 88 L
S
GR
GS
[0.30008 0 0 0.29974 0 -0.20001] CT
0.873 GC
1 LJ
1.667 LW
N
2880.6 1045 M
2880.6 88 L
S
GR
GS
[0.30008 0 0 0.29974 0 -0.20001] CT
0.873 GC
1 LJ
1.667 LW
N
3178.3 1045 M
3178.3 88 L
S
GR
GS
[0.30008 0 0 0.29974 0 -0.20001] CT
0.873 GC
1 LJ
1.667 LW
N
3476 1045 M
3476 88 L
S
GR
GS
[0.30008 0 0 0.29974 0 -0.20001] CT
0.873 GC
1 LJ
1.667 LW
N
3476 1044.634 M
499 1044.634 L
S
GR
GS
[0.30008 0 0 0.29974 0 -0.20001] CT
0.873 GC
1 LJ
1.667 LW
N
3476 885.256 M
499 885.256 L
S
GR
GS
[0.30008 0 0 0.29974 0 -0.20001] CT
0.873 GC
1 LJ
1.667 LW
N
3476 725.878 M
499 725.878 L
S
GR
GS
[0.30008 0 0 0.29974 0 -0.20001] CT
0.873 GC
1 LJ
1.667 LW
N
3476 566.5 M
499 566.5 L
S
GR
GS
[0.30008 0 0 0.29974 0 -0.20001] CT
0.873 GC
1 LJ
1.667 LW
N
3476 407.122 M
499 407.122 L
S
GR
GS
[0.30008 0 0 0.29974 0 -0.20001] CT
0.873 GC
1 LJ
1.667 LW
N
3476 247.744 M
499 247.744 L
S
GR
GS
[0.30008 0 0 0.29974 0 -0.20001] CT
0.873 GC
1 LJ
1.667 LW
N
3476 88.366 M
499 88.366 L
S
GR
GS
[0.30008 0 0 0.29974 0 -0.20001] CT
0.149 GC
2 setlinecap
1 LJ
1.667 LW
N
499 1045 M
3476 1045 L
S
GR
GS
[0.30008 0 0 0.29974 0 -0.20001] CT
0.149 GC
2 setlinecap
1 LJ
1.667 LW
N
499 1045 M
499 1015.23 L
S
GR
GS
[0.30008 0 0 0.29974 0 -0.20001] CT
0.149 GC
2 setlinecap
1 LJ
1.667 LW
N
796.7 1045 M
796.7 1015.23 L
S
GR
GS
[0.30008 0 0 0.29974 0 -0.20001] CT
0.149 GC
2 setlinecap
1 LJ
1.667 LW
N
1094.4 1045 M
1094.4 1015.23 L
S
GR
GS
[0.30008 0 0 0.29974 0 -0.20001] CT
0.149 GC
2 setlinecap
1 LJ
1.667 LW
N
1392.1 1045 M
1392.1 1015.23 L
S
GR
GS
[0.30008 0 0 0.29974 0 -0.20001] CT
0.149 GC
2 setlinecap
1 LJ
1.667 LW
N
1689.8 1045 M
1689.8 1015.23 L
S
GR
GS
[0.30008 0 0 0.29974 0 -0.20001] CT
0.149 GC
2 setlinecap
1 LJ
1.667 LW
N
1987.5 1045 M
1987.5 1015.23 L
S
GR
GS
[0.30008 0 0 0.29974 0 -0.20001] CT
0.149 GC
2 setlinecap
1 LJ
1.667 LW
N
2285.2 1045 M
2285.2 1015.23 L
S
GR
GS
[0.30008 0 0 0.29974 0 -0.20001] CT
0.149 GC
2 setlinecap
1 LJ
1.667 LW
N
2582.9 1045 M
2582.9 1015.23 L
S
GR
GS
[0.30008 0 0 0.29974 0 -0.20001] CT
0.149 GC
2 setlinecap
1 LJ
1.667 LW
N
2880.6 1045 M
2880.6 1015.23 L
S
GR
GS
[0.30008 0 0 0.29974 0 -0.20001] CT
0.149 GC
2 setlinecap
1 LJ
1.667 LW
N
3178.3 1045 M
3178.3 1015.23 L
S
GR
GS
[0.30008 0 0 0.29974 0 -0.20001] CT
0.149 GC
2 setlinecap
1 LJ
1.667 LW
N
3476 1045 M
3476 1015.23 L
S
GR
GS
[0.30008 0 0 0.29974 149.73899 317.0298] CT
0.149 GC
/Helvetica 33 F
GS
[1 0 0 1 0 0] CT
-9.5 34 moveto 
1 -1 scale
(0) t 
GR
GR
GS
[0.30008 0 0 0.29974 239.07226 317.0298] CT
0.149 GC
/Helvetica 33 F
GS
[1 0 0 1 0 0] CT
-23 34 moveto 
1 -1 scale
(0.5) t 
GR
GR
GS
[0.30008 0 0 0.29974 328.40552 317.0298] CT
0.149 GC
/Helvetica 33 F
GS
[1 0 0 1 0 0] CT
-9.5 34 moveto 
1 -1 scale
(1) t 
GR
GR
GS
[0.30008 0 0 0.29974 417.73877 317.0298] CT
0.149 GC
/Helvetica 33 F
GS
[1 0 0 1 0 0] CT
-23 34 moveto 
1 -1 scale
(1.5) t 
GR
GR
GS
[0.30008 0 0 0.29974 507.07205 317.0298] CT
0.149 GC
/Helvetica 33 F
GS
[1 0 0 1 0 0] CT
-9.5 34 moveto 
1 -1 scale
(2) t 
GR
GR
GS
[0.30008 0 0 0.29974 596.4053 317.0298] CT
0.149 GC
/Helvetica 33 F
GS
[1 0 0 1 0 0] CT
-23 34 moveto 
1 -1 scale
(2.5) t 
GR
GR
GS
[0.30008 0 0 0.29974 685.73855 317.0298] CT
0.149 GC
/Helvetica 33 F
GS
[1 0 0 1 0 0] CT
-9.5 34 moveto 
1 -1 scale
(3) t 
GR
GR
GS
[0.30008 0 0 0.29974 775.07179 317.0298] CT
0.149 GC
/Helvetica 33 F
GS
[1 0 0 1 0 0] CT
-23 34 moveto 
1 -1 scale
(3.5) t 
GR
GR
GS
[0.30008 0 0 0.29974 864.40511 317.0298] CT
0.149 GC
/Helvetica 33 F
GS
[1 0 0 1 0 0] CT
-9.5 34 moveto 
1 -1 scale
(4) t 
GR
GR
GS
[0.30008 0 0 0.29974 953.73836 317.0298] CT
0.149 GC
/Helvetica 33 F
GS
[1 0 0 1 0 0] CT
-23 34 moveto 
1 -1 scale
(4.5) t 
GR
GR
GS
[0.30008 0 0 0.29974 1043.07161 317.0298] CT
0.149 GC
/Helvetica 33 F
GS
[1 0 0 1 0 0] CT
-9.5 34 moveto 
1 -1 scale
(5) t 
GR
GR
GS
[0.30008 0 0 0.29974 596.40574 330.6182] CT
0.149 GC
/Helvetica 37 F
GS
[1 0 0 1 0 0] CT
-66 38 moveto 
1 -1 scale
(Time [s]) t 
GR
GR
GS
[0.30008 0 0 0.29974 0 -0.20001] CT
0.149 GC
2 setlinecap
1 LJ
1.667 LW
N
499 1045 M
499 88 L
S
GR
GS
[0.30008 0 0 0.29974 0 -0.20001] CT
0.149 GC
2 setlinecap
1 LJ
1.667 LW
N
499 1044.634 M
528.77 1044.634 L
S
GR
GS
[0.30008 0 0 0.29974 0 -0.20001] CT
0.149 GC
2 setlinecap
1 LJ
1.667 LW
N
499 885.256 M
528.77 885.256 L
S
GR
GS
[0.30008 0 0 0.29974 0 -0.20001] CT
0.149 GC
2 setlinecap
1 LJ
1.667 LW
N
499 725.878 M
528.77 725.878 L
S
GR
GS
[0.30008 0 0 0.29974 0 -0.20001] CT
0.149 GC
2 setlinecap
1 LJ
1.667 LW
N
499 566.5 M
528.77 566.5 L
S
GR
GS
[0.30008 0 0 0.29974 0 -0.20001] CT
0.149 GC
2 setlinecap
1 LJ
1.667 LW
N
499 407.122 M
528.77 407.122 L
S
GR
GS
[0.30008 0 0 0.29974 0 -0.20001] CT
0.149 GC
2 setlinecap
1 LJ
1.667 LW
N
499 247.744 M
528.77 247.744 L
S
GR
GS
[0.30008 0 0 0.29974 0 -0.20001] CT
0.149 GC
2 setlinecap
1 LJ
1.667 LW
N
499 88.366 M
528.77 88.366 L
S
GR
GS
[0.30008 0 0 0.29974 145.73795 312.92338] CT
0.149 GC
/Helvetica 33 F
GS
[1 0 0 1 0 0] CT
-96 13 moveto 
1 -1 scale
(-3*pi/8) t 
GR
GR
GS
[0.30008 0 0 0.29974 145.73795 265.1507] CT
0.149 GC
/Helvetica 33 F
GS
[1 0 0 1 0 0] CT
-65 13 moveto 
1 -1 scale
(-pi/4) t 
GR
GR
GS
[0.30008 0 0 0.29974 145.73795 217.37803] CT
0.149 GC
/Helvetica 33 F
GS
[1 0 0 1 0 0] CT
-65 13 moveto 
1 -1 scale
(-pi/8) t 
GR
GR
GS
[0.30008 0 0 0.29974 145.73795 169.60536] CT
0.149 GC
/Helvetica 33 F
GS
[1 0 0 1 0 0] CT
-19 13 moveto 
1 -1 scale
(0) t 
GR
GR
GS
[0.30008 0 0 0.29974 145.73795 121.83269] CT
0.149 GC
/Helvetica 33 F
GS
[1 0 0 1 0 0] CT
-54 13 moveto 
1 -1 scale
(pi/8) t 
GR
GR
GS
[0.30008 0 0 0.29974 145.73795 74.06001] CT
0.149 GC
/Helvetica 33 F
GS
[1 0 0 1 0 0] CT
-54 13 moveto 
1 -1 scale
(pi/4) t 
GR
GR
GS
[0.30008 0 0 0.29974 145.73795 26.28734] CT
0.149 GC
/Helvetica 33 F
GS
[1 0 0 1 0 0] CT
-85 13 moveto 
1 -1 scale
(3*pi/8) t 
GR
GR
GS
[0 -0.29974 0.30008 0 113.92966 169.60523] CT
0.149 GC
/Helvetica 37 F
GS
[1 0 0 1 0 0] CT
-89.5 -9 moveto 
1 -1 scale
(Angel [rad]) t 
GR
GR
GS
[0.30008 0 0 0.29974 0 -0.20001] CT
0 0.447 0.741 RC
1 LJ
1.667 LW
N
499 745.849 M
510.908 738.699 L
522.816 730.51 L
534.724 721.32 L
546.632 711.171 L
558.54 700.108 L
570.448 688.183 L
582.356 675.451 L
594.264 661.968 L
606.172 647.797 L
618.08 633.002 L
629.988 617.652 L
641.896 601.815 L
653.804 585.566 L
665.712 568.976 L
677.62 552.124 L
689.528 535.084 L
701.436 517.936 L
713.344 500.758 L
725.252 483.627 L
737.16 466.623 L
749.068 449.823 L
760.976 433.303 L
772.884 417.139 L
784.792 401.406 L
796.7 386.174 L
808.608 371.513 L
820.516 357.491 L
832.424 344.171 L
844.332 331.614 L
856.24 319.878 L
868.148 309.016 L
880.056 299.078 L
891.964 290.109 L
903.872 282.15 L
915.78 275.237 L
927.688 269.403 L
939.596 264.673 L
951.504 261.069 L
963.412 258.608 L
975.32 257.301 L
987.228 257.154 L
999.136 258.168 L
1011.044 260.337 L
1022.952 263.653 L
1034.86 268.1 L
1046.768 273.657 L
1058.676 280.299 L
1070.584 287.997 L
1082.492 296.714 L
S
GR
GS
[0.30008 0 0 0.29974 0 -0.20001] CT
0 0.447 0.741 RC
1 LJ
1.667 LW
N
1070.584 287.997 M
1082.492 296.714 L
1094.4 306.411 L
1106.308 317.044 L
1118.216 328.563 L
1130.124 340.918 L
1142.032 354.05 L
1153.94 367.9 L
1165.848 382.405 L
1177.756 397.499 L
1189.664 413.112 L
1201.572 429.174 L
1213.48 445.611 L
1225.388 462.347 L
1237.296 479.307 L
1249.204 496.413 L
1261.112 513.587 L
1273.02 530.75 L
1284.928 547.824 L
1296.836 564.732 L
1308.744 581.395 L
1320.652 597.738 L
1332.56 613.686 L
1344.468 629.166 L
1356.376 644.108 L
1368.284 658.443 L
1380.192 672.106 L
1392.1 685.034 L
1404.008 697.169 L
1415.916 708.454 L
1427.824 718.84 L
1439.732 728.277 L
1451.64 736.723 L
1463.548 744.139 L
1475.456 750.492 L
1487.364 755.752 L
1499.272 759.896 L
1511.18 762.904 L
1523.088 764.763 L
1534.996 765.464 L
1546.904 765.004 L
1558.812 763.385 L
1570.72 760.615 L
1582.628 756.706 L
1594.536 751.676 L
1606.444 745.548 L
1618.352 738.35 L
1630.26 730.115 L
1642.168 720.881 L
1654.076 710.689 L
1665.984 699.586 L
1677.892 687.623 L
S
GR
GS
[0.30008 0 0 0.29974 0 -0.20001] CT
0 0.447 0.741 RC
1 LJ
1.667 LW
N
1665.984 699.586 M
1677.892 687.623 L
1689.8 674.855 L
1701.708 661.34 L
1713.616 647.139 L
1725.524 632.318 L
1737.432 616.944 L
1749.34 601.087 L
1761.248 584.82 L
1773.156 568.218 L
1785.064 551.355 L
1796.972 534.309 L
1808.88 517.158 L
1820.788 499.979 L
1832.696 482.853 L
1844.604 465.856 L
1856.512 449.067 L
1868.42 432.562 L
1880.328 416.416 L
1892.236 400.704 L
1904.144 385.496 L
1916.052 370.863 L
1927.96 356.871 L
1939.868 343.585 L
1951.776 331.064 L
1963.684 319.366 L
1975.592 308.545 L
1987.5 298.65 L
1999.408 289.726 L
2011.316 281.813 L
2023.224 274.949 L
2035.132 269.164 L
2047.04 264.485 L
2058.948 260.933 L
2070.856 258.524 L
2082.764 257.269 L
2094.672 257.175 L
2106.58 258.241 L
2118.488 260.463 L
2130.396 263.83 L
2142.304 268.328 L
2154.212 273.935 L
2166.12 280.626 L
2178.028 288.37 L
2189.936 297.133 L
2201.844 306.873 L
2213.752 317.547 L
2225.66 329.106 L
2237.568 341.496 L
2249.476 354.663 L
2261.384 368.544 L
2273.292 383.077 L
S
GR
GS
[0.30008 0 0 0.29974 0 -0.20001] CT
0 0.447 0.741 RC
1 LJ
1.667 LW
N
2261.384 368.544 M
2273.292 383.077 L
2285.2 398.196 L
2297.108 413.831 L
2309.016 429.912 L
2320.924 446.363 L
2332.832 463.112 L
2344.74 480.08 L
2356.648 497.191 L
2368.556 514.366 L
2380.464 531.527 L
2392.372 548.595 L
2404.28 565.493 L
2416.188 582.143 L
2428.096 598.47 L
2440.004 614.398 L
2451.912 629.855 L
2463.82 644.771 L
2475.728 659.077 L
2487.636 672.708 L
2499.544 685.602 L
2511.452 697.699 L
2523.36 708.945 L
2535.268 719.288 L
2547.176 728.681 L
2559.084 737.082 L
2570.992 744.45 L
2582.9 750.754 L
2594.808 755.964 L
2606.716 760.057 L
2618.624 763.013 L
2630.532 764.82 L
2642.44 765.468 L
2654.348 764.956 L
2666.256 763.284 L
2678.164 760.462 L
2690.072 756.502 L
2701.98 751.422 L
2713.888 745.245 L
2725.796 737.999 L
2737.704 729.718 L
2749.612 720.439 L
2761.52 710.205 L
2773.428 699.062 L
2785.336 687.062 L
2797.244 674.258 L
2809.152 660.711 L
2821.06 646.48 L
2832.968 631.633 L
2844.876 616.235 L
2856.784 600.358 L
2868.692 584.074 L
S
GR
GS
[0.30008 0 0 0.29974 0 -0.20001] CT
0 0.447 0.741 RC
1 LJ
1.667 LW
N
2856.784 600.358 M
2868.692 584.074 L
2880.6 567.458 L
2892.508 550.585 L
2904.416 533.533 L
2916.324 516.379 L
2928.232 499.201 L
2940.14 482.079 L
2952.048 465.09 L
2963.956 448.312 L
2975.864 431.822 L
2987.772 415.694 L
2999.68 400.003 L
3011.588 384.82 L
3023.496 370.215 L
3035.404 356.253 L
3047.312 343 L
3059.22 330.516 L
3071.128 318.857 L
3083.036 308.076 L
3094.944 298.224 L
3106.852 289.345 L
3118.76 281.479 L
3130.668 274.663 L
3142.576 268.928 L
3154.484 264.299 L
3166.392 260.799 L
3178.3 258.442 L
3190.208 257.24 L
3202.116 257.198 L
3214.024 258.317 L
3225.932 260.591 L
3237.84 264.01 L
3249.748 268.558 L
3261.656 274.215 L
3273.564 280.954 L
3285.472 288.746 L
3297.38 297.553 L
3309.288 307.337 L
3321.196 318.052 L
3333.104 329.65 L
3345.012 342.077 L
3356.92 355.277 L
3368.828 369.189 L
3380.736 383.751 L
3392.644 398.894 L
3404.552 414.551 L
3416.46 430.65 L
3428.368 447.117 L
3440.276 463.877 L
3452.184 480.853 L
3464.092 497.968 L
S
GR
GS
[0.30008 0 0 0.29974 0 -0.20001] CT
0 0.447 0.741 RC
1 LJ
1.667 LW
N
3452.184 480.853 M
3464.092 497.968 L
3476 515.145 L
3476.298 515.574 L
S
GR
GS
[0.30008 0 0 0.29974 0 -0.20001] CT
0.851 0.325 0.098 RC
1 LJ
1.667 LW
N
499 520.92 M
510.908 533.692 L
522.816 546.095 L
534.724 558.069 L
546.632 569.557 L
558.54 580.503 L
570.448 590.856 L
582.356 600.566 L
594.264 609.587 L
606.172 617.875 L
618.08 625.39 L
629.988 632.097 L
641.896 637.964 L
653.804 642.962 L
665.712 647.068 L
677.62 650.263 L
689.528 652.529 L
701.436 653.858 L
713.344 654.242 L
725.252 653.68 L
737.16 652.175 L
749.068 649.732 L
760.976 646.366 L
772.884 642.09 L
784.792 636.927 L
796.7 630.9 L
808.608 624.038 L
820.516 616.374 L
832.424 607.946 L
844.332 598.792 L
856.24 588.958 L
868.148 578.489 L
880.056 567.437 L
891.964 555.853 L
903.872 543.794 L
915.78 531.317 L
927.688 518.482 L
939.596 505.35 L
951.504 491.984 L
963.412 478.448 L
975.32 464.806 L
987.228 451.125 L
999.136 437.469 L
1011.044 423.903 L
1022.952 410.493 L
1034.86 397.303 L
1046.768 384.396 L
1058.676 371.833 L
1070.584 359.676 L
1082.492 347.981 L
S
GR
GS
[0.30008 0 0 0.29974 0 -0.20001] CT
0.851 0.325 0.098 RC
1 LJ
1.667 LW
N
1070.584 359.676 M
1082.492 347.981 L
1094.4 336.804 L
1106.308 326.2 L
1118.216 316.22 L
1130.124 306.909 L
1142.032 298.315 L
1153.94 290.476 L
1165.848 283.432 L
1177.756 277.215 L
1189.664 271.855 L
1201.572 267.379 L
1213.48 263.807 L
1225.388 261.156 L
1237.296 259.44 L
1249.204 258.665 L
1261.112 258.837 L
1273.02 259.955 L
1284.928 262.012 L
1296.836 264.999 L
1308.744 268.902 L
1320.652 273.703 L
1332.56 279.377 L
1344.468 285.898 L
1356.376 293.236 L
1368.284 301.353 L
1380.192 310.213 L
1392.1 319.773 L
1404.008 329.986 L
1415.916 340.803 L
1427.824 352.175 L
1439.732 364.044 L
1451.64 376.356 L
1463.548 389.051 L
1475.456 402.068 L
1487.364 415.346 L
1499.272 428.82 L
1511.18 442.426 L
1523.088 456.099 L
1534.996 469.773 L
1546.904 483.384 L
1558.812 496.866 L
1570.72 510.154 L
1582.628 523.185 L
1594.536 535.897 L
1606.444 548.229 L
1618.352 560.122 L
1630.26 571.519 L
1642.168 582.365 L
1654.076 592.609 L
1665.984 602.201 L
1677.892 611.096 L
S
GR
GS
[0.30008 0 0 0.29974 0 -0.20001] CT
0.851 0.325 0.098 RC
1 LJ
1.667 LW
N
1665.984 602.201 M
1677.892 611.096 L
1689.8 619.251 L
1701.708 626.627 L
1713.616 633.189 L
1725.524 638.905 L
1737.432 643.748 L
1749.34 647.696 L
1761.248 650.728 L
1773.156 652.831 L
1785.064 653.994 L
1796.972 654.212 L
1808.88 653.484 L
1820.788 651.813 L
1832.696 649.208 L
1844.604 645.68 L
1856.512 641.248 L
1868.42 635.931 L
1880.328 629.755 L
1892.236 622.75 L
1904.144 614.949 L
1916.052 606.39 L
1927.96 597.114 L
1939.868 587.165 L
1951.776 576.59 L
1963.684 565.441 L
1975.592 553.77 L
1987.5 541.633 L
1999.408 529.089 L
2011.316 516.197 L
2023.224 503.019 L
2035.132 489.619 L
2047.04 476.059 L
2058.948 462.406 L
2070.856 448.724 L
2082.764 435.079 L
2094.672 421.536 L
2106.58 408.161 L
2118.488 395.016 L
2130.396 382.164 L
2142.304 369.669 L
2154.212 357.588 L
2166.12 345.98 L
2178.028 334.9 L
2189.936 324.402 L
2201.844 314.536 L
2213.752 305.348 L
2225.66 296.883 L
2237.568 289.181 L
2249.476 282.28 L
2261.384 276.211 L
2273.292 271.005 L
S
GR
GS
[0.30008 0 0 0.29974 0 -0.20001] CT
0.851 0.325 0.098 RC
1 LJ
1.667 LW
N
2261.384 276.211 M
2273.292 271.005 L
2285.2 266.686 L
2297.108 263.274 L
2309.016 260.787 L
2320.924 259.235 L
2332.832 258.627 L
2344.74 258.965 L
2356.648 260.248 L
2368.556 262.469 L
2380.464 265.619 L
2392.372 269.681 L
2404.28 274.636 L
2416.188 280.461 L
2428.096 287.128 L
2440.004 294.605 L
2451.912 302.856 L
2463.82 311.842 L
2475.728 321.519 L
2487.636 331.842 L
2499.544 342.761 L
2511.452 354.223 L
2523.36 366.175 L
2535.268 378.558 L
2547.176 391.314 L
2559.084 404.382 L
2570.992 417.698 L
2582.9 431.2 L
2594.808 444.822 L
2606.716 458.5 L
2618.624 472.168 L
2630.532 485.761 L
2642.44 499.214 L
2654.348 512.462 L
2666.256 525.441 L
2678.164 538.091 L
2690.072 550.35 L
2701.98 562.16 L
2713.888 573.464 L
2725.796 584.208 L
2737.704 594.341 L
2749.612 603.814 L
2761.52 612.582 L
2773.428 620.603 L
2785.336 627.838 L
2797.244 634.254 L
2809.152 639.819 L
2821.06 644.507 L
2832.968 648.294 L
2844.876 651.165 L
2856.784 653.103 L
2868.692 654.101 L
S
GR
GS
[0.30008 0 0 0.29974 0 -0.20001] CT
0.851 0.325 0.098 RC
1 LJ
1.667 LW
N
2856.784 653.103 M
2868.692 654.101 L
2880.6 654.153 L
2892.508 653.259 L
2904.416 651.424 L
2916.324 648.655 L
2928.232 644.967 L
2940.14 640.378 L
2952.048 634.908 L
2963.956 628.584 L
2975.864 621.437 L
2987.772 613.501 L
2999.68 604.813 L
3011.588 595.415 L
3023.496 585.353 L
3035.404 574.673 L
3047.312 563.428 L
3059.22 551.672 L
3071.128 539.459 L
3083.036 526.849 L
3094.944 513.903 L
3106.852 500.682 L
3118.76 487.248 L
3130.668 473.668 L
3142.576 460.005 L
3154.484 446.325 L
3166.392 432.693 L
3178.3 419.175 L
3190.208 405.835 L
3202.116 392.737 L
3214.024 379.944 L
3225.932 367.517 L
3237.84 355.515 L
3249.748 343.996 L
3261.656 333.014 L
3273.564 322.623 L
3285.472 312.873 L
3297.38 303.809 L
3309.288 295.475 L
3321.196 287.911 L
3333.104 281.154 L
3345.012 275.234 L
3356.92 270.182 L
3368.828 266.021 L
3380.736 262.77 L
3392.644 260.447 L
3404.552 259.06 L
3416.46 258.618 L
3428.368 259.122 L
3440.276 260.57 L
3452.184 262.955 L
3464.092 266.266 L
S
GR
GS
[0.30008 0 0 0.29974 0 -0.20001] CT
0.851 0.325 0.098 RC
1 LJ
1.667 LW
N
3452.184 262.955 M
3464.092 266.266 L
3476 270.486 L
3476.298 270.614 L
S
GR
GS
[0.30008 0 0 0.29974 0 -0.20001] CT
0.929 0.694 0.125 RC
1 LJ
1.667 LW
N
499 377.762 M
510.908 389.982 L
522.816 402.725 L
534.724 415.929 L
546.632 429.532 L
558.54 443.468 L
570.448 457.67 L
582.356 472.069 L
594.264 486.598 L
606.172 501.185 L
618.08 515.761 L
629.988 530.256 L
641.896 544.601 L
653.804 558.726 L
665.712 572.563 L
677.62 586.047 L
689.528 599.112 L
701.436 611.696 L
713.344 623.739 L
725.252 635.182 L
737.16 645.97 L
749.068 656.052 L
760.976 665.379 L
772.884 673.907 L
784.792 681.595 L
796.7 688.405 L
808.608 694.306 L
820.516 699.268 L
832.424 703.268 L
844.332 706.286 L
856.24 708.309 L
868.148 709.326 L
880.056 709.333 L
891.964 708.329 L
903.872 706.32 L
915.78 703.314 L
927.688 699.327 L
939.596 694.378 L
951.504 688.49 L
963.412 681.691 L
975.32 674.015 L
987.228 665.498 L
999.136 656.181 L
1011.044 646.108 L
1022.952 635.329 L
1034.86 623.894 L
1046.768 611.86 L
1058.676 599.282 L
1070.584 586.223 L
1082.492 572.744 L
S
GR
GS
[0.30008 0 0 0.29974 0 -0.20001] CT
0.929 0.694 0.125 RC
1 LJ
1.667 LW
N
1070.584 586.223 M
1082.492 572.744 L
1094.4 558.911 L
1106.308 544.789 L
1118.216 530.447 L
1130.124 515.954 L
1142.032 501.378 L
1153.94 486.791 L
1165.848 472.261 L
1177.756 457.859 L
1189.664 443.654 L
1201.572 429.715 L
1213.48 416.107 L
1225.388 402.897 L
1237.296 390.147 L
1249.204 377.92 L
1261.112 366.273 L
1273.02 355.263 L
1284.928 344.943 L
1296.836 335.361 L
1308.744 326.565 L
1320.652 318.596 L
1332.56 311.493 L
1344.468 305.289 L
1356.376 300.015 L
1368.284 295.695 L
1380.192 292.352 L
1392.1 289.999 L
1404.008 288.65 L
1415.916 288.31 L
1427.824 288.981 L
1439.732 290.66 L
1451.64 293.338 L
1463.548 297.003 L
1475.456 301.638 L
1487.364 307.219 L
1499.272 313.721 L
1511.18 321.112 L
1523.088 329.356 L
1534.996 338.414 L
1546.904 348.243 L
1558.812 358.795 L
1570.72 370.019 L
1582.628 381.862 L
1594.536 394.267 L
1606.444 407.175 L
1618.352 420.522 L
1630.26 434.246 L
1642.168 448.28 L
1654.076 462.557 L
1665.984 477.008 L
1677.892 491.564 L
S
GR
GS
[0.30008 0 0 0.29974 0 -0.20001] CT
0.929 0.694 0.125 RC
1 LJ
1.667 LW
N
1665.984 477.008 M
1677.892 491.564 L
1689.8 506.156 L
1701.708 520.712 L
1713.616 535.164 L
1725.524 549.441 L
1737.432 563.476 L
1749.34 577.2 L
1761.248 590.549 L
1773.156 603.457 L
1785.064 615.863 L
1796.972 627.707 L
1808.88 638.933 L
1820.788 649.487 L
1832.696 659.317 L
1844.604 668.377 L
1856.512 676.623 L
1868.42 684.016 L
1880.328 690.519 L
1892.236 696.103 L
1904.144 700.74 L
1916.052 704.407 L
1927.96 707.088 L
1939.868 708.769 L
1951.776 709.442 L
1963.684 709.104 L
1975.592 707.757 L
1987.5 705.407 L
1999.408 702.065 L
2011.316 697.748 L
2023.224 692.476 L
2035.132 686.274 L
2047.04 679.173 L
2058.948 671.206 L
2070.856 662.411 L
2082.764 652.831 L
2094.672 642.513 L
2106.58 631.504 L
2118.488 619.859 L
2130.396 607.633 L
2142.304 594.884 L
2154.212 581.675 L
2166.12 568.068 L
2178.028 554.129 L
2189.936 539.925 L
2201.844 525.523 L
2213.752 510.994 L
2225.66 496.406 L
2237.568 481.83 L
2249.476 467.337 L
2261.384 452.994 L
2273.292 438.872 L
S
GR
GS
[0.30008 0 0 0.29974 0 -0.20001] CT
0.929 0.694 0.125 RC
1 LJ
1.667 LW
N
2261.384 452.994 M
2273.292 438.872 L
2285.2 425.038 L
2297.108 411.558 L
2309.016 398.498 L
2320.924 385.92 L
2332.832 373.884 L
2344.74 362.448 L
2356.648 351.667 L
2368.556 341.593 L
2380.464 332.274 L
2392.372 323.755 L
2404.28 316.077 L
2416.188 309.277 L
2428.096 303.386 L
2440.004 298.435 L
2451.912 294.446 L
2463.82 291.438 L
2475.728 289.427 L
2487.636 288.42 L
2499.544 288.425 L
2511.452 289.44 L
2523.36 291.46 L
2535.268 294.477 L
2547.176 298.474 L
2559.084 303.434 L
2570.992 309.333 L
2582.9 316.141 L
2594.808 323.827 L
2606.716 332.353 L
2618.624 341.679 L
2630.532 351.759 L
2642.44 362.546 L
2654.348 373.987 L
2666.256 386.028 L
2678.164 398.611 L
2690.072 411.676 L
2701.98 425.159 L
2713.888 438.995 L
2725.796 453.12 L
2737.704 467.464 L
2749.612 481.959 L
2761.52 496.535 L
2773.428 511.122 L
2785.336 525.651 L
2797.244 540.051 L
2809.152 554.253 L
2821.06 568.19 L
2832.968 581.793 L
2844.876 594.999 L
2856.784 607.743 L
2868.692 619.964 L
S
GR
GS
[0.30008 0 0 0.29974 0 -0.20001] CT
0.929 0.694 0.125 RC
1 LJ
1.667 LW
N
2856.784 607.743 M
2868.692 619.964 L
2880.6 631.604 L
2892.508 642.607 L
2904.416 652.919 L
2916.324 662.492 L
2928.232 671.28 L
2940.14 679.239 L
2952.048 686.333 L
2963.956 692.526 L
2975.864 697.79 L
2987.772 702.099 L
2999.68 705.432 L
3011.588 707.773 L
3023.496 709.112 L
3035.404 709.44 L
3047.312 708.758 L
3059.22 707.068 L
3071.128 704.379 L
3083.036 700.703 L
3094.944 696.058 L
3106.852 690.466 L
3118.76 683.954 L
3130.668 676.554 L
3142.576 668.3 L
3154.484 659.233 L
3166.392 649.397 L
3178.3 638.837 L
3190.208 627.605 L
3202.116 615.756 L
3214.024 603.345 L
3225.932 590.433 L
3237.84 577.081 L
3249.748 563.353 L
3261.656 549.316 L
3273.564 535.037 L
3285.472 520.584 L
3297.38 506.027 L
3309.288 491.436 L
3321.196 476.88 L
3333.104 462.43 L
3345.012 448.155 L
3356.92 434.123 L
3368.828 420.403 L
3380.736 407.059 L
3392.644 394.156 L
3404.552 381.755 L
3416.46 369.918 L
3428.368 358.699 L
3440.276 348.153 L
3452.184 338.331 L
3464.092 329.28 L
S
GR
GS
[0.30008 0 0 0.29974 0 -0.20001] CT
0.929 0.694 0.125 RC
1 LJ
1.667 LW
N
3452.184 338.331 M
3464.092 329.28 L
3476 321.043 L
3476.298 320.858 L
S
GR
GS
[0.30008 0 0 0.29974 0 -0.20001] CT
0.494 0.184 0.557 RC
1 LJ
1.667 LW
N
499 577.129 M
510.908 593.608 L
522.816 609.709 L
534.724 625.358 L
546.632 640.485 L
558.54 655.021 L
570.448 668.899 L
582.356 682.056 L
594.264 694.432 L
606.172 705.971 L
618.08 716.62 L
629.988 726.331 L
641.896 735.059 L
653.804 742.765 L
665.712 749.414 L
677.62 754.975 L
689.528 759.423 L
701.436 762.738 L
713.344 764.904 L
725.252 765.912 L
737.16 765.758 L
749.068 764.441 L
760.976 761.968 L
772.884 758.351 L
784.792 753.605 L
796.7 747.752 L
808.608 740.819 L
820.516 732.838 L
832.424 723.845 L
844.332 713.88 L
856.24 702.99 L
868.148 691.223 L
880.056 678.634 L
891.964 665.279 L
903.872 651.22 L
915.78 636.521 L
927.688 621.248 L
939.596 605.472 L
951.504 589.263 L
963.412 572.697 L
975.32 555.847 L
987.228 538.792 L
999.136 521.608 L
1011.044 504.375 L
1022.952 487.17 L
1034.86 470.071 L
1046.768 453.158 L
1058.676 436.506 L
1070.584 420.192 L
1082.492 404.29 L
S
GR
GS
[0.30008 0 0 0.29974 0 -0.20001] CT
0.494 0.184 0.557 RC
1 LJ
1.667 LW
N
1070.584 420.192 M
1082.492 404.29 L
1094.4 388.872 L
1106.308 374.009 L
1118.216 359.768 L
1130.124 346.215 L
1142.032 333.41 L
1153.94 321.413 L
1165.848 310.277 L
1177.756 300.054 L
1189.664 290.79 L
1201.572 282.528 L
1213.48 275.305 L
1225.388 269.153 L
1237.296 264.102 L
1249.204 260.173 L
1261.112 257.386 L
1273.02 255.752 L
1284.928 255.278 L
1296.836 255.968 L
1308.744 257.818 L
1320.652 260.82 L
1332.56 264.959 L
1344.468 270.218 L
1356.376 276.571 L
1368.284 283.991 L
1380.192 292.443 L
1392.1 301.889 L
1404.008 312.286 L
1415.916 323.586 L
1427.824 335.738 L
1439.732 348.687 L
1451.64 362.373 L
1463.548 376.735 L
1475.456 391.707 L
1487.364 407.22 L
1499.272 423.205 L
1511.18 439.588 L
1523.088 456.294 L
1534.996 473.248 L
1546.904 490.372 L
1558.812 507.588 L
1570.72 524.818 L
1582.628 541.984 L
1594.536 559.007 L
1606.444 575.809 L
1618.352 592.315 L
1630.26 608.449 L
1642.168 624.137 L
1654.076 639.307 L
1665.984 653.892 L
1677.892 667.825 L
S
GR
GS
[0.30008 0 0 0.29974 0 -0.20001] CT
0.494 0.184 0.557 RC
1 LJ
1.667 LW
N
1665.984 653.892 M
1677.892 667.825 L
1689.8 681.041 L
1701.708 693.481 L
1713.616 705.088 L
1725.524 715.81 L
1737.432 725.596 L
1749.34 734.404 L
1761.248 742.193 L
1773.156 748.926 L
1785.064 754.574 L
1796.972 759.111 L
1808.88 762.517 L
1820.788 764.774 L
1832.696 765.875 L
1844.604 765.812 L
1856.512 764.588 L
1868.42 762.206 L
1880.328 758.679 L
1892.236 754.021 L
1904.144 748.256 L
1916.052 741.407 L
1927.96 733.508 L
1939.868 724.593 L
1951.776 714.704 L
1963.684 703.885 L
1975.592 692.186 L
1987.5 679.66 L
1999.408 666.364 L
2011.316 652.359 L
2023.224 637.708 L
2035.132 622.478 L
2047.04 606.739 L
2058.948 590.562 L
2070.856 574.021 L
2082.764 557.191 L
2094.672 540.149 L
2106.58 522.973 L
2118.488 505.74 L
2130.396 488.53 L
2142.304 471.42 L
2154.212 454.489 L
2166.12 437.814 L
2178.028 421.471 L
2189.936 405.533 L
2201.844 390.075 L
2213.752 375.165 L
2225.66 360.872 L
2237.568 347.262 L
2249.476 334.396 L
2261.384 322.333 L
2273.292 311.127 L
S
GR
GS
[0.30008 0 0 0.29974 0 -0.20001] CT
0.494 0.184 0.557 RC
1 LJ
1.667 LW
N
2261.384 322.333 M
2273.292 311.127 L
2285.2 300.83 L
2297.108 291.488 L
2309.016 283.145 L
2320.924 275.838 L
2332.832 269.601 L
2344.74 264.461 L
2356.648 260.443 L
2368.556 257.565 L
2380.464 255.839 L
2392.372 255.273 L
2404.28 255.871 L
2416.188 257.63 L
2428.096 260.54 L
2440.004 264.59 L
2451.912 269.761 L
2463.82 276.029 L
2475.728 283.365 L
2487.636 291.737 L
2499.544 301.105 L
2511.452 311.428 L
2523.36 322.659 L
2535.268 334.745 L
2547.176 347.633 L
2559.084 361.264 L
2570.992 375.574 L
2582.9 390.5 L
2594.808 405.973 L
2606.716 421.923 L
2618.624 438.277 L
2630.532 454.96 L
2642.44 471.897 L
2654.348 489.011 L
2666.256 506.223 L
2678.164 523.455 L
2690.072 540.628 L
2701.98 557.665 L
2713.888 574.488 L
2725.796 591.02 L
2737.704 607.185 L
2749.612 622.911 L
2761.52 638.126 L
2773.428 652.76 L
2785.336 666.746 L
2797.244 680.021 L
2809.152 692.525 L
2821.06 704.2 L
2832.968 714.994 L
2844.876 724.856 L
2856.784 733.743 L
2868.692 741.613 L
S
GR
GS
[0.30008 0 0 0.29974 0 -0.20001] CT
0.494 0.184 0.557 RC
1 LJ
1.667 LW
N
2856.784 733.743 M
2868.692 741.613 L
2880.6 748.432 L
2892.508 754.167 L
2904.416 758.793 L
2916.324 762.288 L
2928.232 764.638 L
2940.14 765.83 L
2952.048 765.86 L
2963.956 764.727 L
2975.864 762.437 L
2987.772 759 L
2999.68 754.431 L
3011.588 748.752 L
3023.496 741.989 L
3035.404 734.171 L
3047.312 725.336 L
3059.22 715.522 L
3071.128 704.775 L
3083.036 693.144 L
3094.944 680.681 L
3106.852 667.444 L
3118.76 653.493 L
3130.668 638.891 L
3142.576 623.704 L
3154.484 608.003 L
3166.392 591.858 L
3178.3 575.343 L
3190.208 558.533 L
3202.116 541.505 L
3214.024 524.337 L
3225.932 507.106 L
3237.84 489.891 L
3249.748 472.771 L
3261.656 455.823 L
3273.564 439.124 L
3285.472 422.752 L
3297.38 406.78 L
3309.288 391.28 L
3321.196 376.325 L
3333.104 361.981 L
3345.012 348.314 L
3356.92 335.387 L
3368.828 323.258 L
3380.736 311.982 L
3392.644 301.611 L
3404.552 292.193 L
3416.46 283.769 L
3428.368 276.379 L
3440.276 270.056 L
3452.184 264.828 L
3464.092 260.72 L
S
GR
GS
[0.30008 0 0 0.29974 0 -0.20001] CT
0.494 0.184 0.557 RC
1 LJ
1.667 LW
N
3452.184 264.828 M
3464.092 260.72 L
3476 257.751 L
3476.298 257.705 L
S
GR
GS
[0.30008 0 0 0.29974 0 -0.20001] CT
1 GC
N
3273 1012 M
3273 789 L
3443 789 L
3443 1012 L
cp
f
GR
GS
[0.30008 0 0 0.29974 1021.1659 247.68885] CT
/Helvetica 30 F
GS
[1 0 0 1 0 0] CT
0 0 moveto 
1 -1 scale
(u) t 
GR
GR
GS
[0.30008 0 0 0.29974 1026.26723 251.88527] CT
/Helvetica 23 F
GS
[1 0 0 1 0 0] CT
0 0 moveto 
1 -1 scale
(1) t 
GR
GR
GS
[0.30008 0 0 0.29974 0 -0.20001] CT
0 0.447 0.741 RC
1 LJ
1.667 LW
N
3293 821.263 M
3393 821.263 L
S
GR
GS
[0.30008 0 0 0.29974 1021.1659 263.57532] CT
/Helvetica 30 F
GS
[1 0 0 1 0 0] CT
0 0 moveto 
1 -1 scale
(u) t 
GR
GR
GS
[0.30008 0 0 0.29974 1026.26723 267.77174] CT
/Helvetica 23 F
GS
[1 0 0 1 0 0] CT
0 0 moveto 
1 -1 scale
(2) t 
GR
GR
GS
[0.30008 0 0 0.29974 0 -0.20001] CT
0.851 0.325 0.098 RC
1 LJ
1.667 LW
N
3293 874.088 M
3393 874.088 L
S
GR
GS
[0.30008 0 0 0.29974 1021.1659 279.46178] CT
/Helvetica 30 F
GS
[1 0 0 1 0 0] CT
0 0 moveto 
1 -1 scale
(u) t 
GR
GR
GS
[0.30008 0 0 0.29974 1026.26723 283.65821] CT
/Helvetica 23 F
GS
[1 0 0 1 0 0] CT
0 0 moveto 
1 -1 scale
(3) t 
GR
GR
GS
[0.30008 0 0 0.29974 0 -0.20001] CT
0.929 0.694 0.125 RC
1 LJ
1.667 LW
N
3293 926.912 M
3393 926.912 L
S
GR
GS
[0.30008 0 0 0.29974 1021.1659 295.34825] CT
/Helvetica 30 F
GS
[1 0 0 1 0 0] CT
0 0 moveto 
1 -1 scale
(u) t 
GR
GR
GS
[0.30008 0 0 0.29974 1026.26723 299.54468] CT
/Helvetica 23 F
GS
[1 0 0 1 0 0] CT
0 0 moveto 
1 -1 scale
(4) t 
GR
GR
GS
[0.30008 0 0 0.29974 0 -0.20001] CT
0.494 0.184 0.557 RC
1 LJ
1.667 LW
N
3293 979.737 M
3393 979.737 L
S
GR
GS
[0.30008 0 0 0.29974 0 -0.20001] CT
0.149 GC
10.0 ML
1.667 LW
N
3273 1012 M
3273 789 L
3443 789 L
3443 1012 L
cp
S
GR
%%Trailer
%%Pages: 1
%%EOF
