%!PS-Adobe-3.0 EPSF-3.0
%%Creator: (MATLAB, The Mathworks, Inc. Version 8.6.0.267246 \(R2015b\). Operating System: Windows 8)
%%Title: (C:/Users/Daniel/OneDrive - CertiCon a.s/Documents/skola/CVUT/Semester_8/Bakalarska_Praca/Bachelor thesis/Figures/Snake_4_move2.eps)
%%CreationDate: 2016-05-01T21:19:57
%%Pages: (atend)
%%BoundingBox: 0 0 947 370
%%LanguageLevel: 2
%%EndComments
%%BeginProlog
%%BeginResource: procset (Apache XML Graphics Std ProcSet) 1.2 0
%%Version: 1.2 0
%%Copyright: (Copyright 2001-2003,2010 The Apache Software Foundation. License terms: http://www.apache.org/licenses/LICENSE-2.0)
/bd{bind def}bind def
/ld{load def}bd
/GR/grestore ld
/M/moveto ld
/LJ/setlinejoin ld
/C/curveto ld
/f/fill ld
/LW/setlinewidth ld
/GC/setgray ld
/t/show ld
/N/newpath ld
/CT/concat ld
/cp/closepath ld
/S/stroke ld
/L/lineto ld
/CC/setcmykcolor ld
/A/ashow ld
/GS/gsave ld
/RC/setrgbcolor ld
/RM/rmoveto ld
/ML/setmiterlimit ld
/re {4 2 roll M
1 index 0 rlineto
0 exch rlineto
neg 0 rlineto
cp } bd
/_ctm matrix def
/_tm matrix def
/BT { _ctm currentmatrix pop matrix _tm copy pop 0 0 moveto } bd
/ET { _ctm setmatrix } bd
/iTm { _ctm setmatrix _tm concat } bd
/Tm { _tm astore pop iTm 0 0 moveto } bd
/ux 0.0 def
/uy 0.0 def
/F {
  /Tp exch def
  /Tf exch def
  Tf findfont Tp scalefont setfont
  /cf Tf def  /cs Tp def
} bd
/ULS {currentpoint /uy exch def /ux exch def} bd
/ULE {
  /Tcx currentpoint pop def
  gsave
  newpath
  cf findfont cs scalefont dup
  /FontMatrix get 0 get /Ts exch def /FontInfo get dup
  /UnderlinePosition get Ts mul /To exch def
  /UnderlineThickness get Ts mul /Tt exch def
  ux uy To add moveto  Tcx uy To add lineto
  Tt setlinewidth stroke
  grestore
} bd
/OLE {
  /Tcx currentpoint pop def
  gsave
  newpath
  cf findfont cs scalefont dup
  /FontMatrix get 0 get /Ts exch def /FontInfo get dup
  /UnderlinePosition get Ts mul /To exch def
  /UnderlineThickness get Ts mul /Tt exch def
  ux uy To add cs add moveto Tcx uy To add cs add lineto
  Tt setlinewidth stroke
  grestore
} bd
/SOE {
  /Tcx currentpoint pop def
  gsave
  newpath
  cf findfont cs scalefont dup
  /FontMatrix get 0 get /Ts exch def /FontInfo get dup
  /UnderlinePosition get Ts mul /To exch def
  /UnderlineThickness get Ts mul /Tt exch def
  ux uy To add cs 10 mul 26 idiv add moveto Tcx uy To add cs 10 mul 26 idiv add lineto
  Tt setlinewidth stroke
  grestore
} bd
/QT {
/Y22 exch store
/X22 exch store
/Y21 exch store
/X21 exch store
currentpoint
/Y21 load 2 mul add 3 div exch
/X21 load 2 mul add 3 div exch
/X21 load 2 mul /X22 load add 3 div
/Y21 load 2 mul /Y22 load add 3 div
/X22 load /Y22 load curveto
} bd
/SSPD {
dup length /d exch dict def
{
/v exch def
/k exch def
currentpagedevice k known {
/cpdv currentpagedevice k get def
v cpdv ne {
/upd false def
/nullv v type /nulltype eq def
/nullcpdv cpdv type /nulltype eq def
nullv nullcpdv or
{
/upd true def
} {
/sametype v type cpdv type eq def
sametype {
v type /arraytype eq {
/vlen v length def
/cpdvlen cpdv length def
vlen cpdvlen eq {
0 1 vlen 1 sub {
/i exch def
/obj v i get def
/cpdobj cpdv i get def
obj cpdobj ne {
/upd true def
exit
} if
} for
} {
/upd true def
} ifelse
} {
v type /dicttype eq {
v {
/dv exch def
/dk exch def
/cpddv cpdv dk get def
dv cpddv ne {
/upd true def
exit
} if
} forall
} {
/upd true def
} ifelse
} ifelse
} if
} ifelse
upd true eq {
d k v put
} if
} if
} if
} forall
d length 0 gt {
d setpagedevice
} if
} bd
%%EndResource
%%BeginResource: procset (Apache XML Graphics EPS ProcSet) 1.0 0
%%Version: 1.0 0
%%Copyright: (Copyright 2002-2003 The Apache Software Foundation. License terms: http://www.apache.org/licenses/LICENSE-2.0)
/BeginEPSF { %def
/b4_Inc_state save def         % Save state for cleanup
/dict_count countdictstack def % Count objects on dict stack
/op_count count 1 sub def      % Count objects on operand stack
userdict begin                 % Push userdict on dict stack
/showpage { } def              % Redefine showpage, { } = null proc
0 setgray 0 setlinecap         % Prepare graphics state
1 setlinewidth 0 setlinejoin
10 setmiterlimit [ ] 0 setdash newpath
/languagelevel where           % If level not equal to 1 then
{pop languagelevel             % set strokeadjust and
1 ne                           % overprint to their defaults.
{false setstrokeadjust false setoverprint
} if
} if
} bd
/EndEPSF { %def
count op_count sub {pop} repeat            % Clean up stacks
countdictstack dict_count sub {end} repeat
b4_Inc_state restore
} bd
%%EndResource
%FOPBeginFontDict
%%IncludeResource: font Courier-Bold
%%IncludeResource: font Helvetica
%%IncludeResource: font Courier-BoldOblique
%%IncludeResource: font Courier-Oblique
%%IncludeResource: font Times-Roman
%%IncludeResource: font Helvetica-BoldOblique
%%IncludeResource: font Helvetica-Bold
%%IncludeResource: font Helvetica-Oblique
%%IncludeResource: font Times-BoldItalic
%%IncludeResource: font Courier
%%IncludeResource: font Times-Italic
%%IncludeResource: font Times-Bold
%%IncludeResource: font Symbol
%%IncludeResource: font ZapfDingbats
%FOPEndFontDict
%%BeginResource: encoding WinAnsiEncoding
/WinAnsiEncoding [
/.notdef /.notdef /.notdef /.notdef /.notdef
/.notdef /.notdef /.notdef /.notdef /.notdef
/.notdef /.notdef /.notdef /.notdef /.notdef
/.notdef /.notdef /.notdef /.notdef /.notdef
/.notdef /.notdef /.notdef /.notdef /.notdef
/.notdef /.notdef /.notdef /.notdef /.notdef
/.notdef /.notdef /space /exclam /quotedbl
/numbersign /dollar /percent /ampersand /quotesingle
/parenleft /parenright /asterisk /plus /comma
/hyphen /period /slash /zero /one
/two /three /four /five /six
/seven /eight /nine /colon /semicolon
/less /equal /greater /question /at
/A /B /C /D /E
/F /G /H /I /J
/K /L /M /N /O
/P /Q /R /S /T
/U /V /W /X /Y
/Z /bracketleft /backslash /bracketright /asciicircum
/underscore /quoteleft /a /b /c
/d /e /f /g /h
/i /j /k /l /m
/n /o /p /q /r
/s /t /u /v /w
/x /y /z /braceleft /bar
/braceright /asciitilde /bullet /Euro /bullet
/quotesinglbase /florin /quotedblbase /ellipsis /dagger
/daggerdbl /circumflex /perthousand /Scaron /guilsinglleft
/OE /bullet /Zcaron /bullet /bullet
/quoteleft /quoteright /quotedblleft /quotedblright /bullet
/endash /emdash /asciitilde /trademark /scaron
/guilsinglright /oe /bullet /zcaron /Ydieresis
/space /exclamdown /cent /sterling /currency
/yen /brokenbar /section /dieresis /copyright
/ordfeminine /guillemotleft /logicalnot /sfthyphen /registered
/macron /degree /plusminus /twosuperior /threesuperior
/acute /mu /paragraph /middot /cedilla
/onesuperior /ordmasculine /guillemotright /onequarter /onehalf
/threequarters /questiondown /Agrave /Aacute /Acircumflex
/Atilde /Adieresis /Aring /AE /Ccedilla
/Egrave /Eacute /Ecircumflex /Edieresis /Igrave
/Iacute /Icircumflex /Idieresis /Eth /Ntilde
/Ograve /Oacute /Ocircumflex /Otilde /Odieresis
/multiply /Oslash /Ugrave /Uacute /Ucircumflex
/Udieresis /Yacute /Thorn /germandbls /agrave
/aacute /acircumflex /atilde /adieresis /aring
/ae /ccedilla /egrave /eacute /ecircumflex
/edieresis /igrave /iacute /icircumflex /idieresis
/eth /ntilde /ograve /oacute /ocircumflex
/otilde /odieresis /divide /oslash /ugrave
/uacute /ucircumflex /udieresis /yacute /thorn
/ydieresis
] def
%%EndResource
%FOPBeginFontReencode
/Courier-Bold findfont
dup length dict begin
  {1 index /FID ne {def} {pop pop} ifelse} forall
  /Encoding WinAnsiEncoding def
  currentdict
end
/Courier-Bold exch definefont pop
/Helvetica findfont
dup length dict begin
  {1 index /FID ne {def} {pop pop} ifelse} forall
  /Encoding WinAnsiEncoding def
  currentdict
end
/Helvetica exch definefont pop
/Courier-BoldOblique findfont
dup length dict begin
  {1 index /FID ne {def} {pop pop} ifelse} forall
  /Encoding WinAnsiEncoding def
  currentdict
end
/Courier-BoldOblique exch definefont pop
/Courier-Oblique findfont
dup length dict begin
  {1 index /FID ne {def} {pop pop} ifelse} forall
  /Encoding WinAnsiEncoding def
  currentdict
end
/Courier-Oblique exch definefont pop
/Times-Roman findfont
dup length dict begin
  {1 index /FID ne {def} {pop pop} ifelse} forall
  /Encoding WinAnsiEncoding def
  currentdict
end
/Times-Roman exch definefont pop
/Helvetica-BoldOblique findfont
dup length dict begin
  {1 index /FID ne {def} {pop pop} ifelse} forall
  /Encoding WinAnsiEncoding def
  currentdict
end
/Helvetica-BoldOblique exch definefont pop
/Helvetica-Bold findfont
dup length dict begin
  {1 index /FID ne {def} {pop pop} ifelse} forall
  /Encoding WinAnsiEncoding def
  currentdict
end
/Helvetica-Bold exch definefont pop
/Helvetica-Oblique findfont
dup length dict begin
  {1 index /FID ne {def} {pop pop} ifelse} forall
  /Encoding WinAnsiEncoding def
  currentdict
end
/Helvetica-Oblique exch definefont pop
/Times-BoldItalic findfont
dup length dict begin
  {1 index /FID ne {def} {pop pop} ifelse} forall
  /Encoding WinAnsiEncoding def
  currentdict
end
/Times-BoldItalic exch definefont pop
/Courier findfont
dup length dict begin
  {1 index /FID ne {def} {pop pop} ifelse} forall
  /Encoding WinAnsiEncoding def
  currentdict
end
/Courier exch definefont pop
/Times-Italic findfont
dup length dict begin
  {1 index /FID ne {def} {pop pop} ifelse} forall
  /Encoding WinAnsiEncoding def
  currentdict
end
/Times-Italic exch definefont pop
/Times-Bold findfont
dup length dict begin
  {1 index /FID ne {def} {pop pop} ifelse} forall
  /Encoding WinAnsiEncoding def
  currentdict
end
/Times-Bold exch definefont pop
%FOPEndFontReencode
%%EndProlog
%%Page: 1 1
%%PageBoundingBox: 0 0 947 370
%%BeginPageSetup
[1 0 0 -1 0 370] CT
%%EndPageSetup
GS
[0.3 0 0 0.29976 0 -0.20001] CT
1 GC
N
0 0 3157 1235 re
f
GR
GS
[0.3 0 0 0.29976 0 -0.20001] CT
1 GC
N
0 0 3157 1235 re
f
GR
GS
[0.3 0 0 0.29976 0 -0.20001] CT
1 GC
N
410 1098 M
2857 1098 L
2857 93 L
410 93 L
cp
f
GR
GS
[0.3 0 0 0.29976 0 -0.20001] CT
0.873 GC
1 LJ
1.667 LW
N
410 1098 M
410 93 L
S
GR
GS
[0.3 0 0 0.29976 0 -0.20001] CT
0.873 GC
1 LJ
1.667 LW
N
654.7 1098 M
654.7 93 L
S
GR
GS
[0.3 0 0 0.29976 0 -0.20001] CT
0.873 GC
1 LJ
1.667 LW
N
899.4 1098 M
899.4 93 L
S
GR
GS
[0.3 0 0 0.29976 0 -0.20001] CT
0.873 GC
1 LJ
1.667 LW
N
1144.1 1098 M
1144.1 93 L
S
GR
GS
[0.3 0 0 0.29976 0 -0.20001] CT
0.873 GC
1 LJ
1.667 LW
N
1388.8 1098 M
1388.8 93 L
S
GR
GS
[0.3 0 0 0.29976 0 -0.20001] CT
0.873 GC
1 LJ
1.667 LW
N
1633.5 1098 M
1633.5 93 L
S
GR
GS
[0.3 0 0 0.29976 0 -0.20001] CT
0.873 GC
1 LJ
1.667 LW
N
1878.2 1098 M
1878.2 93 L
S
GR
GS
[0.3 0 0 0.29976 0 -0.20001] CT
0.873 GC
1 LJ
1.667 LW
N
2122.9 1098 M
2122.9 93 L
S
GR
GS
[0.3 0 0 0.29976 0 -0.20001] CT
0.873 GC
1 LJ
1.667 LW
N
2367.6 1098 M
2367.6 93 L
S
GR
GS
[0.3 0 0 0.29976 0 -0.20001] CT
0.873 GC
1 LJ
1.667 LW
N
2612.3 1098 M
2612.3 93 L
S
GR
GS
[0.3 0 0 0.29976 0 -0.20001] CT
0.873 GC
1 LJ
1.667 LW
N
2857 1098 M
2857 93 L
S
GR
GS
[0.3 0 0 0.29976 0 -0.20001] CT
0.873 GC
1 LJ
1.667 LW
N
2857 1097.615 M
410 1097.615 L
S
GR
GS
[0.3 0 0 0.29976 0 -0.20001] CT
0.873 GC
1 LJ
1.667 LW
N
2857 930.244 M
410 930.244 L
S
GR
GS
[0.3 0 0 0.29976 0 -0.20001] CT
0.873 GC
1 LJ
1.667 LW
N
2857 762.872 M
410 762.872 L
S
GR
GS
[0.3 0 0 0.29976 0 -0.20001] CT
0.873 GC
1 LJ
1.667 LW
N
2857 595.5 M
410 595.5 L
S
GR
GS
[0.3 0 0 0.29976 0 -0.20001] CT
0.873 GC
1 LJ
1.667 LW
N
2857 428.128 M
410 428.128 L
S
GR
GS
[0.3 0 0 0.29976 0 -0.20001] CT
0.873 GC
1 LJ
1.667 LW
N
2857 260.757 M
410 260.757 L
S
GR
GS
[0.3 0 0 0.29976 0 -0.20001] CT
0.873 GC
1 LJ
1.667 LW
N
2857 93.385 M
410 93.385 L
S
GR
GS
[0.3 0 0 0.29976 0 -0.20001] CT
0.149 GC
2 setlinecap
1 LJ
1.667 LW
N
410 1098 M
2857 1098 L
S
GR
GS
[0.3 0 0 0.29976 0 -0.20001] CT
0.149 GC
2 setlinecap
1 LJ
1.667 LW
N
410 1098 M
410 1073.53 L
S
GR
GS
[0.3 0 0 0.29976 0 -0.20001] CT
0.149 GC
2 setlinecap
1 LJ
1.667 LW
N
654.7 1098 M
654.7 1073.53 L
S
GR
GS
[0.3 0 0 0.29976 0 -0.20001] CT
0.149 GC
2 setlinecap
1 LJ
1.667 LW
N
899.4 1098 M
899.4 1073.53 L
S
GR
GS
[0.3 0 0 0.29976 0 -0.20001] CT
0.149 GC
2 setlinecap
1 LJ
1.667 LW
N
1144.1 1098 M
1144.1 1073.53 L
S
GR
GS
[0.3 0 0 0.29976 0 -0.20001] CT
0.149 GC
2 setlinecap
1 LJ
1.667 LW
N
1388.8 1098 M
1388.8 1073.53 L
S
GR
GS
[0.3 0 0 0.29976 0 -0.20001] CT
0.149 GC
2 setlinecap
1 LJ
1.667 LW
N
1633.5 1098 M
1633.5 1073.53 L
S
GR
GS
[0.3 0 0 0.29976 0 -0.20001] CT
0.149 GC
2 setlinecap
1 LJ
1.667 LW
N
1878.2 1098 M
1878.2 1073.53 L
S
GR
GS
[0.3 0 0 0.29976 0 -0.20001] CT
0.149 GC
2 setlinecap
1 LJ
1.667 LW
N
2122.9 1098 M
2122.9 1073.53 L
S
GR
GS
[0.3 0 0 0.29976 0 -0.20001] CT
0.149 GC
2 setlinecap
1 LJ
1.667 LW
N
2367.6 1098 M
2367.6 1073.53 L
S
GR
GS
[0.3 0 0 0.29976 0 -0.20001] CT
0.149 GC
2 setlinecap
1 LJ
1.667 LW
N
2612.3 1098 M
2612.3 1073.53 L
S
GR
GS
[0.3 0 0 0.29976 0 -0.20001] CT
0.149 GC
2 setlinecap
1 LJ
1.667 LW
N
2857 1098 M
2857 1073.53 L
S
GR
GS
[0.3 0 0 0.29976 123 332.93005] CT
0.149 GC
/Helvetica 33 F
GS
[1 0 0 1 0 0] CT
-9.5 34 moveto 
1 -1 scale
(0) t 
GR
GR
GS
[0.3 0 0 0.29976 196.41 332.93005] CT
0.149 GC
/Helvetica 33 F
GS
[1 0 0 1 0 0] CT
-23 34 moveto 
1 -1 scale
(0.2) t 
GR
GR
GS
[0.3 0 0 0.29976 269.82 332.93005] CT
0.149 GC
/Helvetica 33 F
GS
[1 0 0 1 0 0] CT
-23 34 moveto 
1 -1 scale
(0.4) t 
GR
GR
GS
[0.3 0 0 0.29976 343.22998 332.93005] CT
0.149 GC
/Helvetica 33 F
GS
[1 0 0 1 0 0] CT
-23 34 moveto 
1 -1 scale
(0.6) t 
GR
GR
GS
[0.3 0 0 0.29976 416.64 332.93005] CT
0.149 GC
/Helvetica 33 F
GS
[1 0 0 1 0 0] CT
-23 34 moveto 
1 -1 scale
(0.8) t 
GR
GR
GS
[0.3 0 0 0.29976 490.04999 332.93005] CT
0.149 GC
/Helvetica 33 F
GS
[1 0 0 1 0 0] CT
-9.5 34 moveto 
1 -1 scale
(1) t 
GR
GR
GS
[0.3 0 0 0.29976 563.46001 332.93005] CT
0.149 GC
/Helvetica 33 F
GS
[1 0 0 1 0 0] CT
-23 34 moveto 
1 -1 scale
(1.2) t 
GR
GR
GS
[0.3 0 0 0.29976 636.86995 332.93005] CT
0.149 GC
/Helvetica 33 F
GS
[1 0 0 1 0 0] CT
-23 34 moveto 
1 -1 scale
(1.4) t 
GR
GR
GS
[0.3 0 0 0.29976 710.28001 332.93005] CT
0.149 GC
/Helvetica 33 F
GS
[1 0 0 1 0 0] CT
-23 34 moveto 
1 -1 scale
(1.6) t 
GR
GR
GS
[0.3 0 0 0.29976 783.68999 332.93005] CT
0.149 GC
/Helvetica 33 F
GS
[1 0 0 1 0 0] CT
-23 34 moveto 
1 -1 scale
(1.8) t 
GR
GR
GS
[0.3 0 0 0.29976 857.09998 332.93005] CT
0.149 GC
/Helvetica 33 F
GS
[1 0 0 1 0 0] CT
-9.5 34 moveto 
1 -1 scale
(2) t 
GR
GR
GS
[0.3 0 0 0.29976 490.05035 346.51902] CT
0.149 GC
/Helvetica 37 F
GS
[1 0 0 1 0 0] CT
-66 38 moveto 
1 -1 scale
(Time [s]) t 
GR
GR
GS
[0.3 0 0 0.29976 0 -0.20001] CT
0.149 GC
2 setlinecap
1 LJ
1.667 LW
N
410 1098 M
410 93 L
S
GR
GS
[0.3 0 0 0.29976 0 -0.20001] CT
0.149 GC
2 setlinecap
1 LJ
1.667 LW
N
410 1097.615 M
434.47 1097.615 L
S
GR
GS
[0.3 0 0 0.29976 0 -0.20001] CT
0.149 GC
2 setlinecap
1 LJ
1.667 LW
N
410 930.244 M
434.47 930.244 L
S
GR
GS
[0.3 0 0 0.29976 0 -0.20001] CT
0.149 GC
2 setlinecap
1 LJ
1.667 LW
N
410 762.872 M
434.47 762.872 L
S
GR
GS
[0.3 0 0 0.29976 0 -0.20001] CT
0.149 GC
2 setlinecap
1 LJ
1.667 LW
N
410 595.5 M
434.47 595.5 L
S
GR
GS
[0.3 0 0 0.29976 0 -0.20001] CT
0.149 GC
2 setlinecap
1 LJ
1.667 LW
N
410 428.128 M
434.47 428.128 L
S
GR
GS
[0.3 0 0 0.29976 0 -0.20001] CT
0.149 GC
2 setlinecap
1 LJ
1.667 LW
N
410 260.757 M
434.47 260.757 L
S
GR
GS
[0.3 0 0 0.29976 0 -0.20001] CT
0.149 GC
2 setlinecap
1 LJ
1.667 LW
N
410 93.385 M
434.47 93.385 L
S
GR
GS
[0.3 0 0 0.29976 118.99999 328.81794] CT
0.149 GC
/Helvetica 33 F
GS
[1 0 0 1 0 0] CT
-96 13 moveto 
1 -1 scale
(-3*pi/8) t 
GR
GR
GS
[0.3 0 0 0.29976 118.99999 278.64709] CT
0.149 GC
/Helvetica 33 F
GS
[1 0 0 1 0 0] CT
-65 13 moveto 
1 -1 scale
(-pi/4) t 
GR
GR
GS
[0.3 0 0 0.29976 118.99999 228.47621] CT
0.149 GC
/Helvetica 33 F
GS
[1 0 0 1 0 0] CT
-65 13 moveto 
1 -1 scale
(-pi/8) t 
GR
GR
GS
[0.3 0 0 0.29976 118.99999 178.30534] CT
0.149 GC
/Helvetica 33 F
GS
[1 0 0 1 0 0] CT
-19 13 moveto 
1 -1 scale
(0) t 
GR
GR
GS
[0.3 0 0 0.29976 118.99999 128.13446] CT
0.149 GC
/Helvetica 33 F
GS
[1 0 0 1 0 0] CT
-54 13 moveto 
1 -1 scale
(pi/8) t 
GR
GR
GS
[0.3 0 0 0.29976 118.99999 77.9636] CT
0.149 GC
/Helvetica 33 F
GS
[1 0 0 1 0 0] CT
-54 13 moveto 
1 -1 scale
(pi/4) t 
GR
GR
GS
[0.3 0 0 0.29976 118.99999 27.79273] CT
0.149 GC
/Helvetica 33 F
GS
[1 0 0 1 0 0] CT
-85 13 moveto 
1 -1 scale
(3*pi/8) t 
GR
GR
GS
[0 -0.29976 0.3 0 87.19999 178.30519] CT
0.149 GC
/Helvetica 37 F
GS
[1 0 0 1 0 0] CT
-89.5 -9 moveto 
1 -1 scale
(Angle [rad]) t 
GR
GR
GS
[0.3 0 0 0.29976 0 -0.20001] CT
0.424 0.251 0.392 RC
1 LJ
3.333 LW
N
410 783.845 M
471.175 763.04 L
532.35 735.81 L
593.525 702.93 L
654.7 665.338 L
715.875 624.104 L
777.05 580.403 L
838.225 535.479 L
899.4 490.613 L
960.575 447.083 L
1021.75 406.129 L
1082.925 368.917 L
1144.1 336.508 L
1205.275 309.825 L
1266.45 289.628 L
1327.625 276.493 L
1388.8 270.793 L
1449.975 272.691 L
1511.15 282.133 L
1572.325 298.85 L
1633.5 322.366 L
1694.675 352.01 L
1755.85 386.939 L
1817.025 426.157 L
1878.2 468.547 L
1939.375 512.902 L
2000.55 557.957 L
2061.725 602.43 L
2122.9 645.052 L
2184.075 684.611 L
2245.25 719.979 L
2306.425 750.149 L
2367.6 774.261 L
2428.775 791.627 L
2489.95 801.755 L
2551.125 804.354 L
2612.3 799.351 L
2673.475 786.889 L
2734.65 767.322 L
2795.825 741.207 L
2857 709.29 L
2857.245 709.143 L
S
GR
GS
[0.3 0 0 0.29976 0 -0.20001] CT
0.204 0.302 0.494 RC
1 LJ
3.333 LW
N
410 547.633 M
471.175 580.419 L
532.35 610.206 L
593.525 636.105 L
654.7 657.344 L
715.875 673.289 L
777.05 683.464 L
838.225 687.566 L
899.4 685.472 L
960.575 677.245 L
1021.75 663.13 L
1082.925 643.548 L
1144.1 619.084 L
1205.275 590.468 L
1266.45 558.553 L
1327.625 524.291 L
1388.8 488.706 L
1449.975 452.858 L
1511.15 417.817 L
1572.325 384.629 L
1633.5 354.284 L
1694.675 327.687 L
1755.85 305.632 L
1817.025 288.777 L
1878.2 277.624 L
1939.375 272.508 L
2000.55 273.579 L
2061.725 280.807 L
2122.9 293.976 L
2184.075 312.692 L
2245.25 336.397 L
2306.425 364.385 L
2367.6 395.819 L
2428.775 429.763 L
2489.95 465.202 L
2551.125 501.081 L
2612.3 536.328 L
2673.475 569.891 L
2734.65 600.77 L
2795.825 628.043 L
2857 650.896 L
2857.245 650.967 L
S
GR
GS
[0.3 0 0 0.29976 0 -0.20001] CT
0.451 0.263 0.263 RC
1 LJ
3.333 LW
N
410 397.295 M
471.175 430.387 L
532.35 466.297 L
593.525 503.949 L
654.7 542.216 L
715.875 579.952 L
777.05 616.028 L
838.225 649.361 L
899.4 678.956 L
960.575 703.924 L
1021.75 723.52 L
1082.925 737.155 L
1144.1 744.422 L
1205.275 745.102 L
1266.45 739.176 L
1327.625 726.821 L
1388.8 708.407 L
1449.975 684.486 L
1511.15 655.773 L
1572.325 623.129 L
1633.5 587.53 L
1694.675 550.044 L
1755.85 511.793 L
1817.025 473.921 L
1878.2 437.564 L
1939.375 403.809 L
2000.55 373.668 L
2061.725 348.044 L
2122.9 327.702 L
2184.075 313.254 L
2245.25 305.131 L
2306.425 303.576 L
2367.6 308.637 L
2428.775 320.161 L
2489.95 337.804 L
2551.125 361.037 L
2612.3 389.164 L
2673.475 421.344 L
2734.65 456.612 L
2795.825 493.913 L
2857 532.129 L
2857.245 532.281 L
S
GR
GS
[0.3 0 0 0.29976 0 -0.20001] CT
0.106 0.31 0.208 RC
1 LJ
3.333 LW
N
410 606.662 M
471.175 649.157 L
532.35 688.461 L
593.525 723.456 L
654.7 753.149 L
715.875 776.696 L
777.05 793.428 L
838.225 802.869 L
899.4 804.752 L
960.575 799.022 L
1021.75 785.843 L
1082.925 765.589 L
1144.1 738.835 L
1205.275 706.342 L
1266.45 669.033 L
1327.625 627.968 L
1388.8 584.313 L
1449.975 539.309 L
1511.15 494.235 L
1572.325 450.371 L
1633.5 408.963 L
1694.675 371.188 L
1755.85 338.12 L
1817.025 310.697 L
1878.2 289.699 L
1939.375 275.723 L
2000.55 269.165 L
2061.725 270.213 L
2122.9 278.835 L
2184.075 294.787 L
2245.25 317.617 L
2306.425 346.675 L
2367.6 381.135 L
2428.775 420.019 L
2489.95 462.222 L
2551.125 506.545 L
2612.3 551.728 L
2673.475 596.488 L
2734.65 639.553 L
2795.825 679.699 L
2857 715.786 L
2857.245 715.91 L
S
GR
GS
[0.3 0 0 0.29976 0 -0.20001] CT
0.953 0.871 0.733 RC
1 LJ
3.333 LW
N
410 397.298 M
471.175 431.01 L
532.35 469.204 L
593.525 512.001 L
654.7 554.444 L
715.875 594.237 L
777.05 630.381 L
838.225 661.979 L
899.4 688.258 L
960.575 709.514 L
1021.75 724.926 L
1082.925 733.892 L
1144.1 735.628 L
1205.275 729.574 L
1266.45 716.953 L
1327.625 698.532 L
1388.8 674.97 L
1449.975 647.077 L
1511.15 615.787 L
1572.325 582.13 L
1633.5 547.201 L
1694.675 512.129 L
1755.85 478.044 L
1817.025 446.044 L
1878.2 417.153 L
1939.375 391.216 L
2000.55 367.804 L
2061.725 348.542 L
2122.9 339.447 L
2184.075 337.793 L
2245.25 342.548 L
2306.425 353.634 L
2367.6 370.781 L
2428.775 393.534 L
2489.95 421.268 L
2551.125 453.209 L
2612.3 488.447 L
2673.475 525.977 L
2734.65 564.72 L
2795.825 603.557 L
2857 641.369 L
2857.245 641.512 L
S
GR
GS
[0.3 0 0 0.29976 0 -0.20001] CT
0.729 0.831 0.957 RC
1 LJ
3.333 LW
N
410 547.635 M
471.175 582.81 L
532.35 613.229 L
593.525 638.241 L
654.7 657.346 L
715.875 670.203 L
777.05 676.648 L
838.225 676.699 L
899.4 670.553 L
960.575 658.581 L
1021.75 641.32 L
1082.925 619.454 L
1144.1 593.799 L
1205.275 565.275 L
1266.45 534.878 L
1327.625 503.652 L
1388.8 472.661 L
1449.975 442.956 L
1511.15 415.544 L
1572.325 391.352 L
1633.5 371.213 L
1694.675 355.826 L
1755.85 345.747 L
1817.025 341.373 L
1878.2 342.913 L
1939.375 350.412 L
2000.55 363.734 L
2061.725 382.546 L
2122.9 406.355 L
2184.075 434.522 L
2245.25 466.271 L
2306.425 500.716 L
2367.6 536.886 L
2428.775 573.757 L
2489.95 610.282 L
2551.125 645.421 L
2612.3 678.172 L
2673.475 707.601 L
2734.65 732.875 L
2795.825 753.279 L
2857 768.244 L
2857.245 768.281 L
S
GR
GS
[0.3 0 0 0.29976 0 -0.20001] CT
0.925 0.839 0.839 RC
1 LJ
3.333 LW
N
410 783.846 M
471.175 753.627 L
532.35 718.493 L
593.525 679.464 L
654.7 637.676 L
715.875 594.336 L
777.05 550.695 L
838.225 508.016 L
899.4 467.528 L
960.575 430.4 L
1021.75 397.706 L
1082.925 370.387 L
1144.1 349.238 L
1205.275 334.871 L
1266.45 327.708 L
1327.625 327.962 L
1388.8 335.638 L
1449.975 350.527 L
1511.15 372.215 L
1572.325 400.091 L
1633.5 433.372 L
1694.675 471.118 L
1755.85 512.262 L
1817.025 555.638 L
1878.2 600.019 L
1939.375 644.147 L
2000.55 686.771 L
2061.725 726.682 L
2122.9 762.748 L
2184.075 793.947 L
2245.25 819.396 L
2306.425 838.373 L
2367.6 850.344 L
2428.775 854.97 L
2489.95 852.125 L
2551.125 841.893 L
2612.3 824.571 L
2673.475 800.655 L
2734.65 770.831 L
2795.825 735.952 L
2857 697.014 L
2857.245 696.846 L
S
GR
GS
[0.3 0 0 0.29976 0 -0.20001] CT
0.757 0.867 0.776 RC
1 LJ
3.333 LW
N
410 606.663 M
471.175 648.595 L
532.35 685.237 L
593.525 715.742 L
654.7 739.426 L
715.875 755.783 L
777.05 764.505 L
838.225 765.503 L
899.4 758.893 L
960.575 745.001 L
1021.75 724.355 L
1082.925 697.666 L
1144.1 665.811 L
1205.275 629.81 L
1266.45 592.317 L
1327.625 551.418 L
1388.8 509.971 L
1449.975 469.246 L
1511.15 430.487 L
1572.325 394.875 L
1633.5 363.5 L
1694.675 337.325 L
1755.85 317.164 L
1817.025 303.658 L
1878.2 297.25 L
1939.375 298.181 L
2000.55 293.586 L
2061.725 294.757 L
2122.9 303.417 L
2184.075 319.445 L
2245.25 342.369 L
2306.425 371.499 L
2367.6 408.133 L
2428.775 451.519 L
2489.95 500.879 L
2551.125 549.927 L
2612.3 597.384 L
2673.475 642.047 L
2734.65 682.782 L
2795.825 718.564 L
2857 748.498 L
2857.245 748.591 L
S
GR
GS
[0.3 0 0 0.29976 0 -0.20001] CT
1 GC
N
2654 1065 M
2654 842 L
2824 842 L
2824 1065 L
cp
f
GR
GS
[0.3 0 0 0.29976 835.19998 263.58623] CT
/Helvetica 30 F
GS
[1 0 0 1 0 0] CT
0 0 moveto 
1 -1 scale
(u) t 
GR
GR
GS
[0.3 0 0 0.29976 840.29998 267.78283] CT
/Helvetica 23 F
GS
[1 0 0 1 0 0] CT
0 0 moveto 
1 -1 scale
(1) t 
GR
GR
GS
[0.3 0 0 0.29976 0 -0.20001] CT
0.424 0.251 0.392 RC
1 LJ
3.333 LW
N
2674 874.263 M
2774 874.263 L
S
GR
GS
[0.3 0 0 0.29976 835.19998 279.47336] CT
/Helvetica 30 F
GS
[1 0 0 1 0 0] CT
0 0 moveto 
1 -1 scale
(u) t 
GR
GR
GS
[0.3 0 0 0.29976 840.29998 283.66996] CT
/Helvetica 23 F
GS
[1 0 0 1 0 0] CT
0 0 moveto 
1 -1 scale
(2) t 
GR
GR
GS
[0.3 0 0 0.29976 0 -0.20001] CT
0.204 0.302 0.494 RC
1 LJ
3.333 LW
N
2674 927.088 M
2774 927.088 L
S
GR
GS
[0.3 0 0 0.29976 835.19998 295.36048] CT
/Helvetica 30 F
GS
[1 0 0 1 0 0] CT
0 0 moveto 
1 -1 scale
(u) t 
GR
GR
GS
[0.3 0 0 0.29976 840.29998 299.55708] CT
/Helvetica 23 F
GS
[1 0 0 1 0 0] CT
0 0 moveto 
1 -1 scale
(3) t 
GR
GR
GS
[0.3 0 0 0.29976 0 -0.20001] CT
0.451 0.263 0.263 RC
1 LJ
3.333 LW
N
2674 979.912 M
2774 979.912 L
S
GR
GS
[0.3 0 0 0.29976 835.19998 311.24761] CT
/Helvetica 30 F
GS
[1 0 0 1 0 0] CT
0 0 moveto 
1 -1 scale
(u) t 
GR
GR
GS
[0.3 0 0 0.29976 840.29998 315.44421] CT
/Helvetica 23 F
GS
[1 0 0 1 0 0] CT
0 0 moveto 
1 -1 scale
(4) t 
GR
GR
GS
[0.3 0 0 0.29976 0 -0.20001] CT
0.106 0.31 0.208 RC
1 LJ
3.333 LW
N
2674 1032.737 M
2774 1032.737 L
S
GR
GS
[0.3 0 0 0.29976 0 -0.20001] CT
0.149 GC
10.0 ML
1.667 LW
N
2654 1065 M
2654 842 L
2824 842 L
2824 1065 L
cp
S
GR
%%Trailer
%%Pages: 1
%%EOF
