%!PS-Adobe-3.0 EPSF-3.0
%%Creator: (MATLAB, The Mathworks, Inc. Version 8.6.0.267246 \(R2015b\). Operating System: Windows 8)
%%Title: (C:/Users/Daniel/OneDrive - CertiCon a.s/Documents/skola/CVUT/Semester_8/Bakalarska_Praca/CoSMO_convData/Snake_convergence.eps)
%%CreationDate: 2016-05-10T20:51:46
%%Pages: (atend)
%%BoundingBox: 0 0 420 315
%%LanguageLevel: 2
%%EndComments
%%BeginProlog
%%BeginResource: procset (Apache XML Graphics Std ProcSet) 1.2 0
%%Version: 1.2 0
%%Copyright: (Copyright 2001-2003,2010 The Apache Software Foundation. License terms: http://www.apache.org/licenses/LICENSE-2.0)
/bd{bind def}bind def
/ld{load def}bd
/GR/grestore ld
/M/moveto ld
/LJ/setlinejoin ld
/C/curveto ld
/f/fill ld
/LW/setlinewidth ld
/GC/setgray ld
/t/show ld
/N/newpath ld
/CT/concat ld
/cp/closepath ld
/S/stroke ld
/L/lineto ld
/CC/setcmykcolor ld
/A/ashow ld
/GS/gsave ld
/RC/setrgbcolor ld
/RM/rmoveto ld
/ML/setmiterlimit ld
/re {4 2 roll M
1 index 0 rlineto
0 exch rlineto
neg 0 rlineto
cp } bd
/_ctm matrix def
/_tm matrix def
/BT { _ctm currentmatrix pop matrix _tm copy pop 0 0 moveto } bd
/ET { _ctm setmatrix } bd
/iTm { _ctm setmatrix _tm concat } bd
/Tm { _tm astore pop iTm 0 0 moveto } bd
/ux 0.0 def
/uy 0.0 def
/F {
  /Tp exch def
  /Tf exch def
  Tf findfont Tp scalefont setfont
  /cf Tf def  /cs Tp def
} bd
/ULS {currentpoint /uy exch def /ux exch def} bd
/ULE {
  /Tcx currentpoint pop def
  gsave
  newpath
  cf findfont cs scalefont dup
  /FontMatrix get 0 get /Ts exch def /FontInfo get dup
  /UnderlinePosition get Ts mul /To exch def
  /UnderlineThickness get Ts mul /Tt exch def
  ux uy To add moveto  Tcx uy To add lineto
  Tt setlinewidth stroke
  grestore
} bd
/OLE {
  /Tcx currentpoint pop def
  gsave
  newpath
  cf findfont cs scalefont dup
  /FontMatrix get 0 get /Ts exch def /FontInfo get dup
  /UnderlinePosition get Ts mul /To exch def
  /UnderlineThickness get Ts mul /Tt exch def
  ux uy To add cs add moveto Tcx uy To add cs add lineto
  Tt setlinewidth stroke
  grestore
} bd
/SOE {
  /Tcx currentpoint pop def
  gsave
  newpath
  cf findfont cs scalefont dup
  /FontMatrix get 0 get /Ts exch def /FontInfo get dup
  /UnderlinePosition get Ts mul /To exch def
  /UnderlineThickness get Ts mul /Tt exch def
  ux uy To add cs 10 mul 26 idiv add moveto Tcx uy To add cs 10 mul 26 idiv add lineto
  Tt setlinewidth stroke
  grestore
} bd
/QT {
/Y22 exch store
/X22 exch store
/Y21 exch store
/X21 exch store
currentpoint
/Y21 load 2 mul add 3 div exch
/X21 load 2 mul add 3 div exch
/X21 load 2 mul /X22 load add 3 div
/Y21 load 2 mul /Y22 load add 3 div
/X22 load /Y22 load curveto
} bd
/SSPD {
dup length /d exch dict def
{
/v exch def
/k exch def
currentpagedevice k known {
/cpdv currentpagedevice k get def
v cpdv ne {
/upd false def
/nullv v type /nulltype eq def
/nullcpdv cpdv type /nulltype eq def
nullv nullcpdv or
{
/upd true def
} {
/sametype v type cpdv type eq def
sametype {
v type /arraytype eq {
/vlen v length def
/cpdvlen cpdv length def
vlen cpdvlen eq {
0 1 vlen 1 sub {
/i exch def
/obj v i get def
/cpdobj cpdv i get def
obj cpdobj ne {
/upd true def
exit
} if
} for
} {
/upd true def
} ifelse
} {
v type /dicttype eq {
v {
/dv exch def
/dk exch def
/cpddv cpdv dk get def
dv cpddv ne {
/upd true def
exit
} if
} forall
} {
/upd true def
} ifelse
} ifelse
} if
} ifelse
upd true eq {
d k v put
} if
} if
} if
} forall
d length 0 gt {
d setpagedevice
} if
} bd
%%EndResource
%%BeginResource: procset (Apache XML Graphics EPS ProcSet) 1.0 0
%%Version: 1.0 0
%%Copyright: (Copyright 2002-2003 The Apache Software Foundation. License terms: http://www.apache.org/licenses/LICENSE-2.0)
/BeginEPSF { %def
/b4_Inc_state save def         % Save state for cleanup
/dict_count countdictstack def % Count objects on dict stack
/op_count count 1 sub def      % Count objects on operand stack
userdict begin                 % Push userdict on dict stack
/showpage { } def              % Redefine showpage, { } = null proc
0 setgray 0 setlinecap         % Prepare graphics state
1 setlinewidth 0 setlinejoin
10 setmiterlimit [ ] 0 setdash newpath
/languagelevel where           % If level not equal to 1 then
{pop languagelevel             % set strokeadjust and
1 ne                           % overprint to their defaults.
{false setstrokeadjust false setoverprint
} if
} if
} bd
/EndEPSF { %def
count op_count sub {pop} repeat            % Clean up stacks
countdictstack dict_count sub {end} repeat
b4_Inc_state restore
} bd
%%EndResource
%FOPBeginFontDict
%%IncludeResource: font Courier-Bold
%%IncludeResource: font Helvetica
%%IncludeResource: font Courier-BoldOblique
%%IncludeResource: font Courier-Oblique
%%IncludeResource: font Times-Roman
%%IncludeResource: font Helvetica-BoldOblique
%%IncludeResource: font Helvetica-Bold
%%IncludeResource: font Helvetica-Oblique
%%IncludeResource: font Times-BoldItalic
%%IncludeResource: font Courier
%%IncludeResource: font Times-Italic
%%IncludeResource: font Times-Bold
%%IncludeResource: font Symbol
%%IncludeResource: font ZapfDingbats
%FOPEndFontDict
%%BeginResource: encoding WinAnsiEncoding
/WinAnsiEncoding [
/.notdef /.notdef /.notdef /.notdef /.notdef
/.notdef /.notdef /.notdef /.notdef /.notdef
/.notdef /.notdef /.notdef /.notdef /.notdef
/.notdef /.notdef /.notdef /.notdef /.notdef
/.notdef /.notdef /.notdef /.notdef /.notdef
/.notdef /.notdef /.notdef /.notdef /.notdef
/.notdef /.notdef /space /exclam /quotedbl
/numbersign /dollar /percent /ampersand /quotesingle
/parenleft /parenright /asterisk /plus /comma
/hyphen /period /slash /zero /one
/two /three /four /five /six
/seven /eight /nine /colon /semicolon
/less /equal /greater /question /at
/A /B /C /D /E
/F /G /H /I /J
/K /L /M /N /O
/P /Q /R /S /T
/U /V /W /X /Y
/Z /bracketleft /backslash /bracketright /asciicircum
/underscore /quoteleft /a /b /c
/d /e /f /g /h
/i /j /k /l /m
/n /o /p /q /r
/s /t /u /v /w
/x /y /z /braceleft /bar
/braceright /asciitilde /bullet /Euro /bullet
/quotesinglbase /florin /quotedblbase /ellipsis /dagger
/daggerdbl /circumflex /perthousand /Scaron /guilsinglleft
/OE /bullet /Zcaron /bullet /bullet
/quoteleft /quoteright /quotedblleft /quotedblright /bullet
/endash /emdash /asciitilde /trademark /scaron
/guilsinglright /oe /bullet /zcaron /Ydieresis
/space /exclamdown /cent /sterling /currency
/yen /brokenbar /section /dieresis /copyright
/ordfeminine /guillemotleft /logicalnot /sfthyphen /registered
/macron /degree /plusminus /twosuperior /threesuperior
/acute /mu /paragraph /middot /cedilla
/onesuperior /ordmasculine /guillemotright /onequarter /onehalf
/threequarters /questiondown /Agrave /Aacute /Acircumflex
/Atilde /Adieresis /Aring /AE /Ccedilla
/Egrave /Eacute /Ecircumflex /Edieresis /Igrave
/Iacute /Icircumflex /Idieresis /Eth /Ntilde
/Ograve /Oacute /Ocircumflex /Otilde /Odieresis
/multiply /Oslash /Ugrave /Uacute /Ucircumflex
/Udieresis /Yacute /Thorn /germandbls /agrave
/aacute /acircumflex /atilde /adieresis /aring
/ae /ccedilla /egrave /eacute /ecircumflex
/edieresis /igrave /iacute /icircumflex /idieresis
/eth /ntilde /ograve /oacute /ocircumflex
/otilde /odieresis /divide /oslash /ugrave
/uacute /ucircumflex /udieresis /yacute /thorn
/ydieresis
] def
%%EndResource
%FOPBeginFontReencode
/Courier-Bold findfont
dup length dict begin
  {1 index /FID ne {def} {pop pop} ifelse} forall
  /Encoding WinAnsiEncoding def
  currentdict
end
/Courier-Bold exch definefont pop
/Helvetica findfont
dup length dict begin
  {1 index /FID ne {def} {pop pop} ifelse} forall
  /Encoding WinAnsiEncoding def
  currentdict
end
/Helvetica exch definefont pop
/Courier-BoldOblique findfont
dup length dict begin
  {1 index /FID ne {def} {pop pop} ifelse} forall
  /Encoding WinAnsiEncoding def
  currentdict
end
/Courier-BoldOblique exch definefont pop
/Courier-Oblique findfont
dup length dict begin
  {1 index /FID ne {def} {pop pop} ifelse} forall
  /Encoding WinAnsiEncoding def
  currentdict
end
/Courier-Oblique exch definefont pop
/Times-Roman findfont
dup length dict begin
  {1 index /FID ne {def} {pop pop} ifelse} forall
  /Encoding WinAnsiEncoding def
  currentdict
end
/Times-Roman exch definefont pop
/Helvetica-BoldOblique findfont
dup length dict begin
  {1 index /FID ne {def} {pop pop} ifelse} forall
  /Encoding WinAnsiEncoding def
  currentdict
end
/Helvetica-BoldOblique exch definefont pop
/Helvetica-Bold findfont
dup length dict begin
  {1 index /FID ne {def} {pop pop} ifelse} forall
  /Encoding WinAnsiEncoding def
  currentdict
end
/Helvetica-Bold exch definefont pop
/Helvetica-Oblique findfont
dup length dict begin
  {1 index /FID ne {def} {pop pop} ifelse} forall
  /Encoding WinAnsiEncoding def
  currentdict
end
/Helvetica-Oblique exch definefont pop
/Times-BoldItalic findfont
dup length dict begin
  {1 index /FID ne {def} {pop pop} ifelse} forall
  /Encoding WinAnsiEncoding def
  currentdict
end
/Times-BoldItalic exch definefont pop
/Courier findfont
dup length dict begin
  {1 index /FID ne {def} {pop pop} ifelse} forall
  /Encoding WinAnsiEncoding def
  currentdict
end
/Courier exch definefont pop
/Times-Italic findfont
dup length dict begin
  {1 index /FID ne {def} {pop pop} ifelse} forall
  /Encoding WinAnsiEncoding def
  currentdict
end
/Times-Italic exch definefont pop
/Times-Bold findfont
dup length dict begin
  {1 index /FID ne {def} {pop pop} ifelse} forall
  /Encoding WinAnsiEncoding def
  currentdict
end
/Times-Bold exch definefont pop
%FOPEndFontReencode
%%EndProlog
%%Page: 1 1
%%PageBoundingBox: 0 0 420 315
%%BeginPageSetup
[1 0 0 -1 0 315] CT
%%EndPageSetup
GS
[0.3 0 0 0.3 0 0] CT
1 GC
N
0 0 1400 1050 re
f
GR
GS
[0.3 0 0 0.3 0 0] CT
1 GC
N
0 0 1400 1050 re
f
GR
GS
[0.3 0 0 0.3 0 0] CT
1 GC
N
182 934 M
1267 934 L
1267 79 L
182 79 L
cp
f
GR
GS
[0.3 0 0 0.3 0 0] CT
0.149 GC
2 setlinecap
1 LJ
1.667 LW
N
182 934 M
1267 934 L
S
GR
GS
[0.3 0 0 0.3 0 0] CT
0.149 GC
2 setlinecap
1 LJ
1.667 LW
N
182 934 M
182 923.15 L
S
GR
GS
[0.3 0 0 0.3 0 0] CT
0.149 GC
2 setlinecap
1 LJ
1.667 LW
N
281.087 934 M
281.087 923.15 L
S
GR
GS
[0.3 0 0 0.3 0 0] CT
0.149 GC
2 setlinecap
1 LJ
1.667 LW
N
380.174 934 M
380.174 923.15 L
S
GR
GS
[0.3 0 0 0.3 0 0] CT
0.149 GC
2 setlinecap
1 LJ
1.667 LW
N
479.26 934 M
479.26 923.15 L
S
GR
GS
[0.3 0 0 0.3 0 0] CT
0.149 GC
2 setlinecap
1 LJ
1.667 LW
N
578.347 934 M
578.347 923.15 L
S
GR
GS
[0.3 0 0 0.3 0 0] CT
0.149 GC
2 setlinecap
1 LJ
1.667 LW
N
677.434 934 M
677.434 923.15 L
S
GR
GS
[0.3 0 0 0.3 0 0] CT
0.149 GC
2 setlinecap
1 LJ
1.667 LW
N
776.521 934 M
776.521 923.15 L
S
GR
GS
[0.3 0 0 0.3 0 0] CT
0.149 GC
2 setlinecap
1 LJ
1.667 LW
N
875.607 934 M
875.607 923.15 L
S
GR
GS
[0.3 0 0 0.3 0 0] CT
0.149 GC
2 setlinecap
1 LJ
1.667 LW
N
974.694 934 M
974.694 923.15 L
S
GR
GS
[0.3 0 0 0.3 0 0] CT
0.149 GC
2 setlinecap
1 LJ
1.667 LW
N
1073.781 934 M
1073.781 923.15 L
S
GR
GS
[0.3 0 0 0.3 0 0] CT
0.149 GC
2 setlinecap
1 LJ
1.667 LW
N
1172.868 934 M
1172.868 923.15 L
S
GR
GS
[0.3 0 0 0.3 54.6 284.19999] CT
0.149 GC
/Helvetica 33 F
GS
[1 0 0 1 0 0] CT
-9.5 34 moveto 
1 -1 scale
(0) t 
GR
GR
GS
[0.3 0 0 0.3 84.32603 284.19999] CT
0.149 GC
/Helvetica 33 F
GS
[1 0 0 1 0 0] CT
-18.5 34 moveto 
1 -1 scale
(20) t 
GR
GR
GS
[0.3 0 0 0.3 114.05206 284.19999] CT
0.149 GC
/Helvetica 33 F
GS
[1 0 0 1 0 0] CT
-18.5 34 moveto 
1 -1 scale
(40) t 
GR
GR
GS
[0.3 0 0 0.3 143.77809 284.19999] CT
0.149 GC
/Helvetica 33 F
GS
[1 0 0 1 0 0] CT
-18.5 34 moveto 
1 -1 scale
(60) t 
GR
GR
GS
[0.3 0 0 0.3 173.50411 284.19999] CT
0.149 GC
/Helvetica 33 F
GS
[1 0 0 1 0 0] CT
-18.5 34 moveto 
1 -1 scale
(80) t 
GR
GR
GS
[0.3 0 0 0.3 203.23013 284.19999] CT
0.149 GC
/Helvetica 33 F
GS
[1 0 0 1 0 0] CT
-28 34 moveto 
1 -1 scale
(100) t 
GR
GR
GS
[0.3 0 0 0.3 232.95617 284.19999] CT
0.149 GC
/Helvetica 33 F
GS
[1 0 0 1 0 0] CT
-28 34 moveto 
1 -1 scale
(120) t 
GR
GR
GS
[0.3 0 0 0.3 262.68219 284.19999] CT
0.149 GC
/Helvetica 33 F
GS
[1 0 0 1 0 0] CT
-28 34 moveto 
1 -1 scale
(140) t 
GR
GR
GS
[0.3 0 0 0.3 292.40823 284.19999] CT
0.149 GC
/Helvetica 33 F
GS
[1 0 0 1 0 0] CT
-28 34 moveto 
1 -1 scale
(160) t 
GR
GR
GS
[0.3 0 0 0.3 322.13423 284.19999] CT
0.149 GC
/Helvetica 33 F
GS
[1 0 0 1 0 0] CT
-28 34 moveto 
1 -1 scale
(180) t 
GR
GR
GS
[0.3 0 0 0.3 351.86027 284.19999] CT
0.149 GC
/Helvetica 33 F
GS
[1 0 0 1 0 0] CT
-28 34 moveto 
1 -1 scale
(200) t 
GR
GR
GS
[0.3 0 0 0.3 217.35016 297.80001] CT
0.149 GC
/Helvetica 37 F
GS
[1 0 0 1 0 0] CT
-76.5 38 moveto 
1 -1 scale
(Iterations) t 
GR
GR
GS
[0.3 0 0 0.3 0 0] CT
0.149 GC
2 setlinecap
1 LJ
1.667 LW
N
182 934 M
182 79 L
S
GR
GS
[0.3 0 0 0.3 0 0] CT
0.149 GC
2 setlinecap
1 LJ
1.667 LW
N
182 934 M
192.85 934 L
S
GR
GS
[0.3 0 0 0.3 0 0] CT
0.149 GC
2 setlinecap
1 LJ
1.667 LW
N
182 763 M
192.85 763 L
S
GR
GS
[0.3 0 0 0.3 0 0] CT
0.149 GC
2 setlinecap
1 LJ
1.667 LW
N
182 592 M
192.85 592 L
S
GR
GS
[0.3 0 0 0.3 0 0] CT
0.149 GC
2 setlinecap
1 LJ
1.667 LW
N
182 421 M
192.85 421 L
S
GR
GS
[0.3 0 0 0.3 0 0] CT
0.149 GC
2 setlinecap
1 LJ
1.667 LW
N
182 250 M
192.85 250 L
S
GR
GS
[0.3 0 0 0.3 0 0] CT
0.149 GC
2 setlinecap
1 LJ
1.667 LW
N
182 79 M
192.85 79 L
S
GR
GS
[0.3 0 0 0.3 50.6 280.2] CT
0.149 GC
/Helvetica 33 F
GS
[1 0 0 1 0 0] CT
-19 13 moveto 
1 -1 scale
(0) t 
GR
GR
GS
[0.3 0 0 0.3 50.6 228.9] CT
0.149 GC
/Helvetica 33 F
GS
[1 0 0 1 0 0] CT
-46 13 moveto 
1 -1 scale
(0.5) t 
GR
GR
GS
[0.3 0 0 0.3 50.6 177.6] CT
0.149 GC
/Helvetica 33 F
GS
[1 0 0 1 0 0] CT
-19 13 moveto 
1 -1 scale
(1) t 
GR
GR
GS
[0.3 0 0 0.3 50.6 126.3] CT
0.149 GC
/Helvetica 33 F
GS
[1 0 0 1 0 0] CT
-46 13 moveto 
1 -1 scale
(1.5) t 
GR
GR
GS
[0.3 0 0 0.3 50.6 75] CT
0.149 GC
/Helvetica 33 F
GS
[1 0 0 1 0 0] CT
-19 13 moveto 
1 -1 scale
(2) t 
GR
GR
GS
[0.3 0 0 0.3 50.6 23.7] CT
0.149 GC
/Helvetica 33 F
GS
[1 0 0 1 0 0] CT
-46 13 moveto 
1 -1 scale
(2.5) t 
GR
GR
GS
[0 -0.3 0.3 0 33.8 151.94988] CT
0.149 GC
/Helvetica 37 F
GS
[1 0 0 1 0 0] CT
-72 -9 moveto 
1 -1 scale
(Distance) t 
GR
GR
GS
[0.3 0 0 0.3 0 0] CT
0 0.447 0.741 RC
1 LJ
6.667 LW
N
182 934 M
186.954 934 L
191.909 934 L
196.863 934 L
201.817 934 L
206.772 913.323 L
211.726 913.323 L
216.68 913.323 L
221.635 913.323 L
226.589 913.323 L
231.543 913.323 L
236.498 913.323 L
241.452 913.323 L
246.406 913.323 L
251.361 913.323 L
256.315 854.493 L
261.269 854.493 L
266.224 854.493 L
271.178 854.493 L
276.132 816.919 L
281.087 816.919 L
286.041 790.51 L
290.995 790.51 L
295.95 790.51 L
300.904 790.51 L
305.858 758.469 L
310.813 758.469 L
315.767 758.469 L
320.721 758.469 L
325.676 758.469 L
330.63 758.469 L
335.584 758.469 L
340.539 748.805 L
345.493 733.192 L
350.447 674.765 L
355.402 616.756 L
360.356 590.472 L
365.311 590.472 L
370.265 586.724 L
375.219 586.017 L
380.174 583.939 L
385.128 580.974 L
390.082 580.974 L
395.037 580.974 L
399.991 489.522 L
404.945 471.527 L
409.9 471.527 L
414.854 471.527 L
419.808 454.103 L
424.763 432.014 L
S
GR
GS
[0.3 0 0 0.3 0 0] CT
0 0.447 0.741 RC
1 LJ
6.667 LW
N
419.808 454.103 M
424.763 432.014 L
429.717 418.72 L
434.671 418.72 L
439.626 418.007 L
444.58 416.707 L
449.534 416.059 L
454.489 413.914 L
459.443 413.914 L
464.397 413.914 L
469.352 413.194 L
474.306 412.314 L
479.26 411.612 L
484.215 411.48 L
489.169 411.338 L
494.123 411.294 L
499.078 411.253 L
504.032 411.069 L
508.986 410.756 L
513.941 410.569 L
518.895 410.493 L
523.849 410.366 L
528.804 410.256 L
533.758 410.256 L
538.712 410.256 L
543.667 410.256 L
548.621 410.256 L
553.575 410.245 L
558.53 410.221 L
563.484 410.192 L
568.438 410.184 L
573.393 410.166 L
578.347 410.134 L
583.301 410.131 L
588.256 410.125 L
593.21 410.124 L
598.164 410.124 L
603.119 410.119 L
608.073 410.111 L
613.027 410.106 L
617.982 410.101 L
622.936 410.093 L
627.89 410.092 L
632.845 410.089 L
637.799 410.089 L
642.753 410.089 L
647.708 410.089 L
652.662 410.089 L
657.616 410.088 L
662.571 410.088 L
667.525 410.088 L
672.479 410.088 L
S
GR
GS
[0.3 0 0 0.3 0 0] CT
0 0.447 0.741 RC
1 LJ
6.667 LW
N
667.525 410.088 M
672.479 410.088 L
677.434 410.086 L
682.388 410.086 L
687.342 410.086 L
692.297 410.086 L
697.251 410.086 L
702.206 410.086 L
707.16 410.086 L
712.114 410.086 L
717.068 410.086 L
722.023 410.086 L
726.977 410.086 L
731.932 410.086 L
736.886 410.086 L
741.84 410.086 L
746.794 410.086 L
751.749 410.086 L
756.703 410.086 L
761.658 410.086 L
766.612 410.086 L
771.566 410.086 L
776.521 410.086 L
781.475 410.086 L
786.429 410.086 L
791.384 410.086 L
796.338 410.086 L
801.292 410.086 L
806.247 410.086 L
811.201 410.086 L
816.155 410.086 L
821.11 410.086 L
826.064 410.086 L
831.018 410.086 L
835.973 410.086 L
840.927 410.086 L
845.881 410.086 L
850.836 410.086 L
855.79 410.086 L
860.744 410.086 L
865.699 410.086 L
870.653 410.086 L
875.607 410.086 L
880.562 410.086 L
885.516 410.086 L
890.47 410.086 L
895.425 410.086 L
900.379 410.086 L
905.333 410.086 L
910.288 410.084 L
915.242 410.084 L
920.196 410.084 L
S
GR
GS
[0.3 0 0 0.3 0 0] CT
0 0.447 0.741 RC
1 LJ
6.667 LW
N
915.242 410.084 M
920.196 410.084 L
925.151 410.084 L
930.105 410.084 L
935.059 410.084 L
940.014 410.084 L
944.968 410.084 L
949.922 410.084 L
954.877 410.084 L
959.831 410.084 L
964.785 410.084 L
969.74 410.084 L
974.694 410.084 L
979.648 410.084 L
984.603 410.084 L
989.557 410.084 L
994.511 410.084 L
999.466 410.084 L
1004.42 410.084 L
1009.374 410.084 L
1014.329 410.084 L
1019.283 410.084 L
1024.237 410.084 L
1029.192 410.084 L
1034.146 410.084 L
1039.1 410.084 L
1044.055 410.084 L
1049.009 410.084 L
1053.964 410.084 L
1058.918 410.084 L
1063.872 410.084 L
1068.827 410.084 L
1073.781 410.084 L
1078.735 410.084 L
1083.689 410.084 L
1088.644 410.084 L
1093.598 410.084 L
1098.552 410.084 L
1103.507 410.084 L
1108.461 410.084 L
1113.416 410.084 L
1118.37 410.084 L
1123.324 410.084 L
1128.279 410.084 L
1133.233 410.084 L
1138.187 410.084 L
1143.142 410.084 L
1148.096 410.084 L
1153.05 410.084 L
1158.005 410.084 L
1162.959 410.084 L
1167.913 410.084 L
S
GR
GS
[0.3 0 0 0.3 0 0] CT
0 0.447 0.741 RC
1 LJ
6.667 LW
N
1162.959 410.084 M
1167.913 410.084 L
1172.868 410.084 L
1177.822 410.084 L
1182.776 410.084 L
1187.731 410.083 L
1192.685 410.083 L
1197.639 410.083 L
1202.594 410.083 L
1207.548 410.083 L
1212.502 410.083 L
1217.457 410.083 L
1222.411 410.083 L
1227.365 410.083 L
1232.32 410.083 L
1237.274 410.083 L
1242.228 410.083 L
1247.183 410.083 L
1252.137 410.083 L
1257.091 410.083 L
1262.046 410.083 L
1267 410.083 L
S
GR
GS
[0.3 0 0 0.3 0 0] CT
0.851 0.325 0.098 RC
1 LJ
6.667 LW
N
182 934 M
186.954 934 L
191.909 919.353 L
196.863 917.579 L
201.817 917.579 L
206.772 904.275 L
211.726 853.023 L
216.68 853.023 L
221.635 841.859 L
226.589 841.859 L
231.543 841.859 L
236.498 841.859 L
241.452 841.859 L
246.406 841.859 L
251.361 841.859 L
256.315 841.859 L
261.269 841.859 L
266.224 841.859 L
271.178 841.859 L
276.132 841.859 L
281.087 841.859 L
286.041 717.591 L
290.995 671.57 L
295.95 654.282 L
300.904 635.83 L
305.858 594.307 L
310.813 594.307 L
315.767 577.934 L
320.721 577.934 L
325.676 563.597 L
330.63 541.253 L
335.584 530.732 L
340.539 530.732 L
345.493 526.445 L
350.447 519.664 L
355.402 496.299 L
360.356 496.179 L
365.311 482.325 L
370.265 481.687 L
375.219 481.687 L
380.174 481.438 L
385.128 480.329 L
390.082 476.52 L
395.037 476.52 L
399.991 476.472 L
404.945 475.733 L
409.9 474.65 L
414.854 473.013 L
419.808 472.71 L
424.763 472.117 L
S
GR
GS
[0.3 0 0 0.3 0 0] CT
0.851 0.325 0.098 RC
1 LJ
6.667 LW
N
419.808 472.71 M
424.763 472.117 L
429.717 471.544 L
434.671 471.167 L
439.626 470.855 L
444.58 470.423 L
449.534 470.331 L
454.489 469.481 L
459.443 469.26 L
464.397 468.955 L
469.352 468.598 L
474.306 468.546 L
479.26 468.505 L
484.215 468.482 L
489.169 468.471 L
494.123 468.471 L
499.078 468.471 L
504.032 468.468 L
508.986 468.461 L
513.941 468.461 L
518.895 468.458 L
523.849 468.457 L
528.804 468.456 L
533.758 468.456 L
538.712 468.456 L
543.667 468.456 L
548.621 468.454 L
553.575 468.454 L
558.53 468.454 L
563.484 468.454 L
568.438 468.454 L
573.393 468.454 L
578.347 468.453 L
583.301 468.453 L
588.256 468.453 L
593.21 468.453 L
598.164 468.453 L
603.119 468.453 L
608.073 468.453 L
613.027 468.453 L
617.982 468.453 L
622.936 468.453 L
627.89 468.453 L
632.845 468.453 L
637.799 468.453 L
642.753 468.453 L
647.708 468.453 L
652.662 468.453 L
657.616 468.452 L
662.571 468.452 L
667.525 468.452 L
672.479 468.452 L
S
GR
GS
[0.3 0 0 0.3 0 0] CT
0.851 0.325 0.098 RC
1 LJ
6.667 LW
N
667.525 468.452 M
672.479 468.452 L
677.434 468.452 L
682.388 468.452 L
687.342 468.452 L
692.297 468.452 L
697.251 468.452 L
702.206 468.451 L
707.16 468.451 L
712.114 468.451 L
717.068 468.451 L
722.023 468.451 L
726.977 468.451 L
731.932 468.451 L
736.886 468.451 L
741.84 468.451 L
746.794 468.451 L
751.749 468.45 L
756.703 468.45 L
761.658 468.45 L
766.612 468.45 L
771.566 468.45 L
776.521 468.45 L
781.475 468.45 L
786.429 468.45 L
791.384 468.45 L
796.338 468.45 L
801.292 468.45 L
806.247 468.45 L
811.201 468.45 L
816.155 468.45 L
821.11 468.45 L
826.064 468.45 L
831.018 468.45 L
835.973 468.45 L
840.927 468.45 L
845.881 468.45 L
850.836 468.45 L
855.79 468.45 L
860.744 468.45 L
865.699 468.45 L
870.653 468.45 L
875.607 468.45 L
880.562 468.45 L
885.516 468.45 L
890.47 468.45 L
895.425 468.45 L
900.379 468.45 L
905.333 468.45 L
910.288 468.45 L
915.242 468.45 L
920.196 468.45 L
S
GR
GS
[0.3 0 0 0.3 0 0] CT
0.851 0.325 0.098 RC
1 LJ
6.667 LW
N
915.242 468.45 M
920.196 468.45 L
925.151 468.45 L
930.105 468.45 L
935.059 468.45 L
940.014 468.45 L
944.968 468.45 L
949.922 468.45 L
954.877 468.45 L
959.831 468.45 L
964.785 468.45 L
969.74 468.45 L
974.694 468.45 L
979.648 468.45 L
984.603 468.45 L
989.557 468.45 L
994.511 468.45 L
999.466 468.45 L
1004.42 468.45 L
1009.374 468.45 L
1014.329 468.45 L
1019.283 468.45 L
1024.237 468.45 L
1029.192 468.45 L
1034.146 468.45 L
1039.1 468.45 L
1044.055 468.45 L
1049.009 468.45 L
1053.964 468.45 L
1058.918 468.45 L
1063.872 468.45 L
1068.827 468.45 L
1073.781 468.45 L
1078.735 468.449 L
1083.689 468.449 L
1088.644 468.449 L
1093.598 468.449 L
1098.552 468.449 L
1103.507 468.449 L
1108.461 468.449 L
1113.416 468.449 L
1118.37 468.449 L
1123.324 468.449 L
1128.279 468.449 L
1133.233 468.449 L
1138.187 468.449 L
1143.142 468.449 L
1148.096 468.449 L
1153.05 468.449 L
1158.005 468.449 L
1162.959 468.449 L
1167.913 468.449 L
S
GR
GS
[0.3 0 0 0.3 0 0] CT
0.851 0.325 0.098 RC
1 LJ
6.667 LW
N
1162.959 468.449 M
1167.913 468.449 L
1172.868 468.449 L
1177.822 468.449 L
1182.776 468.449 L
1187.731 468.449 L
1192.685 468.449 L
1197.639 468.449 L
1202.594 468.449 L
1207.548 468.449 L
1212.502 468.449 L
1217.457 468.449 L
1222.411 468.449 L
1227.365 468.449 L
1232.32 468.449 L
1237.274 468.449 L
1242.228 468.449 L
1247.183 468.449 L
1252.137 468.449 L
1257.091 468.449 L
1262.046 468.449 L
1267 468.449 L
S
GR
GS
[0.3 0 0 0.3 0 0] CT
0.929 0.694 0.125 RC
[6 6] 0 setdash
2 LJ
6.667 LW
N
182 934 M
186.954 895.097 L
191.909 895.097 L
196.863 895.097 L
201.817 895.097 L
206.772 895.097 L
211.726 895.097 L
216.68 895.097 L
221.635 895.097 L
226.589 838.57 L
231.543 838.57 L
236.498 838.57 L
241.452 838.57 L
246.406 756.39 L
251.361 756.39 L
256.315 756.39 L
261.269 756.39 L
266.224 756.39 L
271.178 756.39 L
276.132 756.39 L
281.087 756.39 L
286.041 736.984 L
290.995 736.984 L
295.95 646.01 L
300.904 622.673 L
305.858 533.39 L
310.813 460.336 L
315.767 460.336 L
320.721 431.095 L
325.676 382.878 L
330.63 382.878 L
335.584 350.2 L
340.539 303.134 L
345.493 275.359 L
350.447 236.541 L
355.402 206.111 L
360.356 204.572 L
365.311 194.522 L
370.265 189.2 L
375.219 183.648 L
380.174 181.151 L
385.128 180.414 L
390.082 174.799 L
395.037 169.158 L
399.991 156.495 L
404.945 156.495 L
409.9 156.495 L
414.854 156.495 L
419.808 156.495 L
424.763 156.495 L
429.717 156.495 L
434.671 156.495 L
439.626 156.495 L
444.58 156.495 L
449.534 156.495 L
454.489 156.495 L
459.443 156.495 L
464.397 156.495 L
469.352 156.495 L
474.306 154.648 L
479.26 154.648 L
484.215 154.648 L
489.169 154.648 L
494.123 154.648 L
499.078 154.648 L
504.032 154.648 L
508.986 154.648 L
513.941 154.648 L
518.895 154.648 L
523.849 154.648 L
528.804 154.648 L
533.758 154.648 L
538.712 154.648 L
543.667 154.648 L
548.621 154.648 L
553.575 154.648 L
558.53 154.648 L
563.484 154.648 L
568.438 154.648 L
573.393 154.648 L
578.347 154.648 L
583.301 154.648 L
588.256 154.648 L
593.21 154.648 L
598.164 154.648 L
603.119 154.648 L
608.073 154.648 L
613.027 154.648 L
617.982 154.648 L
622.936 154.648 L
627.89 154.648 L
632.845 154.648 L
637.799 154.61 L
642.753 154.61 L
647.708 154.61 L
652.662 154.61 L
657.616 154.61 L
662.571 154.61 L
667.525 154.61 L
672.479 154.61 L
677.434 154.437 L
682.388 154.437 L
687.342 154.437 L
692.297 154.437 L
697.251 154.437 L
702.206 154.437 L
707.16 154.437 L
712.114 154.437 L
717.068 154.437 L
722.023 154.437 L
726.977 154.437 L
731.932 154.437 L
736.886 154.437 L
741.84 154.437 L
746.794 154.437 L
751.749 154.437 L
756.703 154.437 L
761.658 154.437 L
766.612 154.437 L
771.566 154.437 L
776.521 154.437 L
781.475 154.437 L
786.429 154.437 L
791.384 154.437 L
796.338 154.437 L
801.292 154.437 L
806.247 154.437 L
811.201 154.437 L
816.155 154.437 L
821.11 154.437 L
826.064 154.437 L
831.018 154.437 L
835.973 154.437 L
840.927 154.437 L
845.881 154.437 L
850.836 154.437 L
855.79 154.437 L
860.744 154.437 L
865.699 154.43 L
870.653 154.43 L
875.607 154.43 L
880.562 154.43 L
885.516 154.43 L
890.47 154.43 L
895.425 154.43 L
900.379 154.43 L
905.333 154.43 L
910.288 154.43 L
915.242 154.43 L
920.196 154.43 L
925.151 154.43 L
930.105 154.43 L
935.059 154.43 L
940.014 154.43 L
944.968 154.43 L
949.922 154.43 L
954.877 154.43 L
959.831 154.43 L
964.785 154.43 L
969.74 154.43 L
974.694 154.43 L
979.648 154.43 L
984.603 154.43 L
989.557 154.43 L
994.511 154.43 L
999.466 154.43 L
1004.42 154.43 L
1009.374 154.43 L
1014.329 154.43 L
1019.283 154.43 L
1024.237 154.43 L
1029.192 154.43 L
1034.146 154.43 L
1039.1 154.43 L
1044.055 154.43 L
1049.009 154.43 L
1053.964 154.43 L
1058.918 154.43 L
1063.872 154.43 L
1068.827 154.43 L
1073.781 154.43 L
1078.735 154.43 L
1083.689 154.43 L
1088.644 154.43 L
1093.598 154.43 L
1098.552 154.43 L
1103.507 154.43 L
1108.461 154.43 L
1113.416 154.43 L
1118.37 154.43 L
1123.324 154.43 L
1128.279 154.43 L
1133.233 154.43 L
1138.187 154.43 L
1143.142 154.43 L
1148.096 154.43 L
1153.05 154.43 L
1158.005 154.43 L
1162.959 154.43 L
1167.913 154.43 L
1172.868 154.43 L
1177.822 154.43 L
1182.776 154.43 L
1187.731 154.43 L
1192.685 154.43 L
1197.639 154.43 L
1202.594 154.43 L
1207.548 154.43 L
1212.502 154.43 L
1217.457 154.43 L
1222.411 154.43 L
1227.365 154.43 L
1232.32 154.43 L
1237.274 154.43 L
1242.228 154.43 L
1247.183 154.43 L
1252.137 154.43 L
1257.091 154.43 L
1262.046 154.43 L
1267 154.43 L
S
GR
GS
[0.3 0 0 0.3 0 0] CT
0.494 0.184 0.557 RC
[6 6] 0 setdash
2 LJ
6.667 LW
N
182 934 M
186.954 934 L
191.909 934 L
196.863 921.227 L
201.817 861.34 L
206.772 861.34 L
211.726 861.34 L
216.68 861.34 L
221.635 861.34 L
226.589 861.34 L
231.543 861.34 L
236.498 861.34 L
241.452 861.34 L
246.406 861.34 L
251.361 861.34 L
256.315 861.34 L
261.269 861.34 L
266.224 861.34 L
271.178 848.843 L
276.132 848.843 L
281.087 848.843 L
286.041 655.269 L
290.995 650.376 L
295.95 646.628 L
300.904 640.59 L
305.858 569.239 L
310.813 569.239 L
315.767 563.325 L
320.721 540.865 L
325.676 531.261 L
330.63 509.188 L
335.584 488.283 L
340.539 488.283 L
345.493 469.555 L
350.447 455.389 L
355.402 433.799 L
360.356 422.032 L
365.311 406.83 L
370.265 405.253 L
375.219 402.35 L
380.174 399.35 L
385.128 394.063 L
390.082 387.129 L
395.037 386.662 L
399.991 386.499 L
404.945 385.952 L
409.9 385.173 L
414.854 385.173 L
419.808 385.029 L
424.763 384.705 L
429.717 384.705 L
434.671 384.627 L
439.626 384.627 L
444.58 384.622 L
449.534 384.581 L
454.489 384.494 L
459.443 384.442 L
464.397 384.357 L
469.352 384.227 L
474.306 384.11 L
479.26 384.05 L
484.215 383.942 L
489.169 383.884 L
494.123 383.87 L
499.078 383.805 L
504.032 383.727 L
508.986 383.724 L
513.941 383.693 L
518.895 383.615 L
523.849 383.524 L
528.804 383.41 L
533.758 383.388 L
538.712 383.13 L
543.667 382.959 L
548.621 382.687 L
553.575 382.263 L
558.53 382.008 L
563.484 381.765 L
568.438 381.398 L
573.393 381.146 L
578.347 381.053 L
583.301 380.996 L
588.256 380.987 L
593.21 375.246 L
598.164 375.246 L
603.119 375.246 L
608.073 375.246 L
613.027 375.246 L
617.982 375.246 L
622.936 375.246 L
627.89 375.246 L
632.845 375.246 L
637.799 375.246 L
642.753 375.246 L
647.708 375.246 L
652.662 375.246 L
657.616 375.246 L
662.571 375.246 L
667.525 375.246 L
672.479 375.246 L
677.434 375.246 L
682.388 375.246 L
687.342 375.246 L
692.297 375.246 L
697.251 375.246 L
702.206 375.246 L
707.16 375.246 L
712.114 375.246 L
717.068 375.246 L
722.023 375.246 L
726.977 375.246 L
731.932 375.246 L
736.886 375.246 L
741.84 375.246 L
746.794 375.246 L
751.749 375.246 L
756.703 375.246 L
761.658 375.246 L
766.612 375.246 L
771.566 375.246 L
776.521 375.246 L
781.475 375.246 L
786.429 375.246 L
791.384 375.246 L
796.338 375.246 L
801.292 375.246 L
806.247 375.246 L
811.201 375.246 L
816.155 375.246 L
821.11 375.246 L
826.064 375.246 L
831.018 375.246 L
835.973 375.246 L
840.927 375.246 L
845.881 375.246 L
850.836 375.246 L
855.79 375.246 L
860.744 375.246 L
865.699 375.246 L
870.653 375.246 L
875.607 375.246 L
880.562 375.246 L
885.516 375.246 L
890.47 375.246 L
895.425 375.246 L
900.379 375.246 L
905.333 375.246 L
910.288 375.246 L
915.242 375.246 L
920.196 375.246 L
925.151 375.246 L
930.105 375.246 L
935.059 375.246 L
940.014 375.246 L
944.968 375.246 L
949.922 375.246 L
954.877 375.246 L
959.831 375.246 L
964.785 375.246 L
969.74 375.246 L
974.694 375.246 L
979.648 375.246 L
984.603 375.246 L
989.557 375.246 L
994.511 375.246 L
999.466 375.246 L
1004.42 375.246 L
1009.374 375.246 L
1014.329 375.246 L
1019.283 375.246 L
1024.237 375.246 L
1029.192 375.246 L
1034.146 375.246 L
1039.1 375.246 L
1044.055 375.246 L
1049.009 375.246 L
1053.964 375.246 L
1058.918 375.246 L
1063.872 375.246 L
1068.827 375.246 L
1073.781 375.246 L
1078.735 375.246 L
1083.689 375.246 L
1088.644 375.246 L
1093.598 375.246 L
1098.552 375.246 L
1103.507 375.246 L
1108.461 375.246 L
1113.416 375.246 L
1118.37 375.246 L
1123.324 375.246 L
1128.279 375.246 L
1133.233 375.246 L
1138.187 375.246 L
1143.142 375.246 L
1148.096 375.246 L
1153.05 375.246 L
1158.005 375.246 L
1162.959 375.246 L
1167.913 375.246 L
1172.868 375.246 L
1177.822 375.246 L
1182.776 375.246 L
1187.731 375.246 L
1192.685 375.246 L
1197.639 375.246 L
1202.594 375.246 L
1207.548 375.246 L
1212.502 375.246 L
1217.457 375.246 L
1222.411 375.246 L
1227.365 375.246 L
1232.32 375.246 L
1237.274 375.246 L
1242.228 375.246 L
1247.183 375.246 L
1252.137 375.246 L
1257.091 375.246 L
1262.046 375.246 L
1267 375.246 L
S
GR
GS
[0.3 0 0 0.3 0 0] CT
0.467 0.675 0.188 RC
[24 24] 0 setdash
2 LJ
6.667 LW
N
182 934 M
186.954 898.171 L
191.909 898.171 L
196.863 898.171 L
201.817 898.171 L
206.772 898.171 L
211.726 898.171 L
216.68 898.171 L
221.635 898.171 L
226.589 898.171 L
231.543 898.171 L
236.498 898.171 L
241.452 898.171 L
246.406 898.171 L
251.361 898.171 L
256.315 898.171 L
261.269 898.171 L
266.224 898.171 L
271.178 898.171 L
276.132 871.542 L
281.087 871.542 L
286.041 849.589 L
290.995 849.589 L
295.95 823.824 L
300.904 823.824 L
305.858 814.495 L
310.813 814.495 L
315.767 789.556 L
320.721 785.526 L
325.676 778.901 L
330.63 771.812 L
335.584 758.026 L
340.539 751.807 L
345.493 739.443 L
350.447 736.383 L
355.402 734.18 L
360.356 734.18 L
365.311 734.18 L
370.265 734.18 L
375.219 732.438 L
380.174 732.291 L
385.128 728.669 L
390.082 727.41 L
395.037 727.328 L
399.991 727.328 L
404.945 725.471 L
409.9 725.395 L
414.854 723.862 L
419.808 723.851 L
424.763 723.851 L
429.717 723.848 L
434.671 723.571 L
439.626 723.559 L
444.58 723.35 L
449.534 722.547 L
454.489 722.032 L
459.443 721.432 L
464.397 721.249 L
469.352 721.001 L
474.306 720.977 L
479.26 720.977 L
484.215 720.936 L
489.169 720.918 L
494.123 720.252 L
499.078 720.243 L
504.032 720.236 L
508.986 720.235 L
513.941 720.235 L
518.895 720.233 L
523.849 720.233 L
528.804 720.228 L
533.758 720.228 L
538.712 720.227 L
543.667 720.222 L
548.621 719.094 L
553.575 719.094 L
558.53 719.094 L
563.484 719.094 L
568.438 719.094 L
573.393 719.094 L
578.347 719.094 L
583.301 719.094 L
588.256 719.094 L
593.21 719.094 L
598.164 719.094 L
603.119 717.237 L
608.073 713.504 L
613.027 713.504 L
617.982 713.504 L
622.936 713.504 L
627.89 713.504 L
632.845 713.504 L
637.799 713.504 L
642.753 713.504 L
647.708 713.504 L
652.662 713.504 L
657.616 713.504 L
662.571 713.504 L
667.525 713.504 L
672.479 713.504 L
677.434 713.504 L
682.388 713.504 L
687.342 713.504 L
692.297 713.504 L
697.251 713.504 L
702.206 713.504 L
707.16 713.504 L
712.114 713.504 L
717.068 713.504 L
722.023 713.504 L
726.977 713.504 L
731.932 713.504 L
736.886 713.504 L
741.84 713.504 L
746.794 713.504 L
751.749 713.504 L
756.703 713.504 L
761.658 713.504 L
766.612 713.504 L
771.566 713.504 L
776.521 713.504 L
781.475 713.504 L
786.429 713.504 L
791.384 713.504 L
796.338 713.504 L
801.292 713.504 L
806.247 713.504 L
811.201 713.504 L
816.155 713.504 L
821.11 713.504 L
826.064 713.504 L
831.018 713.504 L
835.973 713.504 L
840.927 713.504 L
845.881 713.504 L
850.836 713.504 L
855.79 713.504 L
860.744 713.504 L
865.699 713.504 L
870.653 713.504 L
875.607 713.504 L
880.562 713.504 L
885.516 713.504 L
890.47 713.504 L
895.425 713.504 L
900.379 713.504 L
905.333 713.504 L
910.288 713.504 L
915.242 713.504 L
920.196 713.504 L
925.151 713.504 L
930.105 713.504 L
935.059 713.504 L
940.014 713.504 L
944.968 713.504 L
949.922 713.504 L
954.877 713.504 L
959.831 713.504 L
964.785 713.504 L
969.74 713.504 L
974.694 713.504 L
979.648 713.504 L
984.603 713.504 L
989.557 713.504 L
994.511 713.504 L
999.466 713.504 L
1004.42 713.504 L
1009.374 713.504 L
1014.329 713.504 L
1019.283 713.504 L
1024.237 713.504 L
1029.192 713.504 L
1034.146 713.504 L
1039.1 713.504 L
1044.055 713.504 L
1049.009 713.504 L
1053.964 713.504 L
1058.918 713.504 L
1063.872 713.504 L
1068.827 713.504 L
1073.781 713.504 L
1078.735 713.504 L
1083.689 713.504 L
1088.644 713.504 L
1093.598 713.504 L
1098.552 713.504 L
1103.507 713.504 L
1108.461 713.504 L
1113.416 713.504 L
1118.37 713.504 L
1123.324 713.504 L
1128.279 713.504 L
1133.233 713.504 L
1138.187 713.504 L
1143.142 713.504 L
1148.096 713.504 L
1153.05 713.504 L
1158.005 713.504 L
1162.959 713.504 L
1167.913 713.504 L
1172.868 713.504 L
1177.822 713.504 L
1182.776 713.504 L
1187.731 713.504 L
1192.685 713.504 L
1197.639 713.504 L
1202.594 713.504 L
1207.548 713.504 L
1212.502 713.504 L
1217.457 713.504 L
1222.411 713.504 L
1227.365 713.504 L
1232.32 713.504 L
1237.274 713.504 L
1242.228 713.504 L
1247.183 713.504 L
1252.137 713.504 L
1257.091 713.504 L
1262.046 713.504 L
1267 713.504 L
S
GR
GS
[0.3 0 0 0.3 0 0] CT
0.302 0.745 0.933 RC
[24 24] 0 setdash
2 LJ
6.667 LW
N
182 934 M
186.954 880.726 L
191.909 880.726 L
196.863 880.726 L
201.817 861.104 L
206.772 861.104 L
211.726 861.104 L
216.68 861.104 L
221.635 860.228 L
226.589 860.228 L
231.543 860.228 L
236.498 860.228 L
241.452 860.228 L
246.406 860.228 L
251.361 860.228 L
256.315 860.228 L
261.269 860.228 L
266.224 860.228 L
271.178 860.228 L
276.132 860.228 L
281.087 860.228 L
286.041 785.642 L
290.995 785.642 L
295.95 734.023 L
300.904 734.023 L
305.858 718.442 L
310.813 706.62 L
315.767 697.458 L
320.721 688.583 L
325.676 680.554 L
330.63 674.13 L
335.584 669.516 L
340.539 657.079 L
345.493 657.079 L
350.447 647.293 L
355.402 645.683 L
360.356 643.071 L
365.311 640.099 L
370.265 638.846 L
375.219 638.439 L
380.174 637.965 L
385.128 636.929 L
390.082 636.929 L
395.037 634.61 L
399.991 634.61 L
404.945 634.04 L
409.9 630.404 L
414.854 621.744 L
419.808 621.744 L
424.763 621.744 L
429.717 621.744 L
434.671 621.744 L
439.626 621.744 L
444.58 621.744 L
449.534 621.744 L
454.489 621.744 L
459.443 621.744 L
464.397 621.744 L
469.352 621.744 L
474.306 621.744 L
479.26 621.744 L
484.215 621.744 L
489.169 621.744 L
494.123 621.744 L
499.078 621.744 L
504.032 621.744 L
508.986 621.744 L
513.941 621.744 L
518.895 621.744 L
523.849 621.744 L
528.804 621.744 L
533.758 621.744 L
538.712 621.744 L
543.667 621.744 L
548.621 621.744 L
553.575 621.744 L
558.53 621.744 L
563.484 621.744 L
568.438 615.61 L
573.393 615.61 L
578.347 615.61 L
583.301 615.61 L
588.256 615.61 L
593.21 615.61 L
598.164 615.61 L
603.119 615.61 L
608.073 615.61 L
613.027 615.61 L
617.982 615.61 L
622.936 615.61 L
627.89 615.61 L
632.845 615.61 L
637.799 615.61 L
642.753 615.61 L
647.708 615.61 L
652.662 615.61 L
657.616 615.61 L
662.571 615.61 L
667.525 615.607 L
672.479 615.607 L
677.434 615.607 L
682.388 615.607 L
687.342 615.607 L
692.297 615.607 L
697.251 615.607 L
702.206 615.607 L
707.16 615.607 L
712.114 615.607 L
717.068 615.607 L
722.023 615.607 L
726.977 615.607 L
731.932 615.607 L
736.886 615.607 L
741.84 615.607 L
746.794 615.607 L
751.749 615.607 L
756.703 615.607 L
761.658 615.607 L
766.612 615.607 L
771.566 615.607 L
776.521 615.607 L
781.475 615.607 L
786.429 615.607 L
791.384 615.607 L
796.338 615.607 L
801.292 615.607 L
806.247 615.607 L
811.201 615.607 L
816.155 615.607 L
821.11 615.607 L
826.064 615.607 L
831.018 615.607 L
835.973 615.607 L
840.927 615.607 L
845.881 615.607 L
850.836 615.607 L
855.79 615.607 L
860.744 615.607 L
865.699 615.607 L
870.653 615.607 L
875.607 615.607 L
880.562 615.607 L
885.516 615.607 L
890.47 615.607 L
895.425 615.607 L
900.379 615.607 L
905.333 615.607 L
910.288 615.607 L
915.242 615.607 L
920.196 615.607 L
925.151 615.607 L
930.105 615.607 L
935.059 615.607 L
940.014 615.607 L
944.968 615.607 L
949.922 615.607 L
954.877 615.607 L
959.831 615.607 L
964.785 615.607 L
969.74 615.607 L
974.694 615.607 L
979.648 615.607 L
984.603 615.607 L
989.557 615.607 L
994.511 615.607 L
999.466 615.607 L
1004.42 615.607 L
1009.374 615.607 L
1014.329 615.607 L
1019.283 615.607 L
1024.237 615.607 L
1029.192 615.607 L
1034.146 615.607 L
1039.1 615.607 L
1044.055 615.607 L
1049.009 615.607 L
1053.964 615.607 L
1058.918 615.607 L
1063.872 615.607 L
1068.827 615.607 L
1073.781 615.607 L
1078.735 615.607 L
1083.689 615.607 L
1088.644 615.607 L
1093.598 615.607 L
1098.552 615.607 L
1103.507 615.607 L
1108.461 615.607 L
1113.416 615.607 L
1118.37 615.607 L
1123.324 615.607 L
1128.279 615.607 L
1133.233 615.607 L
1138.187 615.607 L
1143.142 615.607 L
1148.096 615.607 L
1153.05 615.607 L
1158.005 615.607 L
1162.959 615.607 L
1167.913 615.607 L
1172.868 615.607 L
1177.822 615.607 L
1182.776 615.607 L
1187.731 615.607 L
1192.685 615.607 L
1197.639 615.607 L
1202.594 615.607 L
1207.548 615.607 L
1212.502 615.607 L
1217.457 615.607 L
1222.411 615.607 L
1227.365 615.607 L
1232.32 615.607 L
1237.274 615.607 L
1242.228 615.607 L
1247.183 615.607 L
1252.137 615.607 L
1257.091 615.607 L
1262.046 615.607 L
1267 615.607 L
S
GR
GS
[0.3 0 0 0.3 0 0] CT
1 GC
N
920 901 M
920 651 L
1234 651 L
1234 901 L
cp
f
GR
GS
[0.3 0 0 0.3 315 203.01028] CT
/Helvetica 30 F
GS
[1 0 0 1 0 0] CT
0 12 moveto 
1 -1 scale
(Snake4 front) t 
GR
GR
GS
[0.3 0 0 0.3 0 0] CT
0 0.447 0.741 RC
1 LJ
6.667 LW
N
940 676.701 M
1040 676.701 L
S
GR
GS
[0.3 0 0 0.3 315 214.92618] CT
/Helvetica 30 F
GS
[1 0 0 1 0 0] CT
0 12 moveto 
1 -1 scale
(Snake4 back) t 
GR
GR
GS
[0.3 0 0 0.3 0 0] CT
0.851 0.325 0.098 RC
1 LJ
6.667 LW
N
940 716.421 M
1040 716.421 L
S
GR
GS
[0.3 0 0 0.3 315 226.84206] CT
/Helvetica 30 F
GS
[1 0 0 1 0 0] CT
0 12 moveto 
1 -1 scale
(Snake5 front) t 
GR
GR
GS
[0.3 0 0 0.3 0 0] CT
0.929 0.694 0.125 RC
[6 6] 0 setdash
2 LJ
6.667 LW
N
940 756.14 M
1040 756.14 L
S
GR
GS
[0.3 0 0 0.3 315 238.75794] CT
/Helvetica 30 F
GS
[1 0 0 1 0 0] CT
0 12 moveto 
1 -1 scale
(Snake5 back) t 
GR
GR
GS
[0.3 0 0 0.3 0 0] CT
0.494 0.184 0.557 RC
[6 6] 0 setdash
2 LJ
6.667 LW
N
940 795.86 M
1040 795.86 L
S
GR
GS
[0.3 0 0 0.3 315 250.67384] CT
/Helvetica 30 F
GS
[1 0 0 1 0 0] CT
0 12 moveto 
1 -1 scale
(Snake6 front) t 
GR
GR
GS
[0.3 0 0 0.3 0 0] CT
0.467 0.675 0.188 RC
[24 24] 0 setdash
2 LJ
6.667 LW
N
940 835.579 M
1040 835.579 L
S
GR
GS
[0.3 0 0 0.3 315 262.58972] CT
/Helvetica 30 F
GS
[1 0 0 1 0 0] CT
0 12 moveto 
1 -1 scale
(Snake6 back) t 
GR
GR
GS
[0.3 0 0 0.3 0 0] CT
0.302 0.745 0.933 RC
[24 24] 0 setdash
2 LJ
6.667 LW
N
940 875.299 M
1040 875.299 L
S
GR
GS
[0.3 0 0 0.3 0 0] CT
0.149 GC
10.0 ML
1.667 LW
N
920 901 M
920 651 L
1234 651 L
1234 901 L
cp
S
GR
%%Trailer
%%Pages: 1
%%EOF
