%!PS-Adobe-3.0 EPSF-3.0
%%Creator: (MATLAB, The Mathworks, Inc. Version 8.6.0.267246 \(R2015b\). Operating System: Windows 8)
%%Title: (C:/Users/Daniel/OneDrive - CertiCon a.s/Documents/skola/CVUT/Semester_8/Bakalarska_Praca/CoSMO_convData/Srobot_convergence.eps)
%%CreationDate: 2016-05-10T20:41:35
%%Pages: (atend)
%%BoundingBox: 0 0 420 315
%%LanguageLevel: 2
%%EndComments
%%BeginProlog
%%BeginResource: procset (Apache XML Graphics Std ProcSet) 1.2 0
%%Version: 1.2 0
%%Copyright: (Copyright 2001-2003,2010 The Apache Software Foundation. License terms: http://www.apache.org/licenses/LICENSE-2.0)
/bd{bind def}bind def
/ld{load def}bd
/GR/grestore ld
/M/moveto ld
/LJ/setlinejoin ld
/C/curveto ld
/f/fill ld
/LW/setlinewidth ld
/GC/setgray ld
/t/show ld
/N/newpath ld
/CT/concat ld
/cp/closepath ld
/S/stroke ld
/L/lineto ld
/CC/setcmykcolor ld
/A/ashow ld
/GS/gsave ld
/RC/setrgbcolor ld
/RM/rmoveto ld
/ML/setmiterlimit ld
/re {4 2 roll M
1 index 0 rlineto
0 exch rlineto
neg 0 rlineto
cp } bd
/_ctm matrix def
/_tm matrix def
/BT { _ctm currentmatrix pop matrix _tm copy pop 0 0 moveto } bd
/ET { _ctm setmatrix } bd
/iTm { _ctm setmatrix _tm concat } bd
/Tm { _tm astore pop iTm 0 0 moveto } bd
/ux 0.0 def
/uy 0.0 def
/F {
  /Tp exch def
  /Tf exch def
  Tf findfont Tp scalefont setfont
  /cf Tf def  /cs Tp def
} bd
/ULS {currentpoint /uy exch def /ux exch def} bd
/ULE {
  /Tcx currentpoint pop def
  gsave
  newpath
  cf findfont cs scalefont dup
  /FontMatrix get 0 get /Ts exch def /FontInfo get dup
  /UnderlinePosition get Ts mul /To exch def
  /UnderlineThickness get Ts mul /Tt exch def
  ux uy To add moveto  Tcx uy To add lineto
  Tt setlinewidth stroke
  grestore
} bd
/OLE {
  /Tcx currentpoint pop def
  gsave
  newpath
  cf findfont cs scalefont dup
  /FontMatrix get 0 get /Ts exch def /FontInfo get dup
  /UnderlinePosition get Ts mul /To exch def
  /UnderlineThickness get Ts mul /Tt exch def
  ux uy To add cs add moveto Tcx uy To add cs add lineto
  Tt setlinewidth stroke
  grestore
} bd
/SOE {
  /Tcx currentpoint pop def
  gsave
  newpath
  cf findfont cs scalefont dup
  /FontMatrix get 0 get /Ts exch def /FontInfo get dup
  /UnderlinePosition get Ts mul /To exch def
  /UnderlineThickness get Ts mul /Tt exch def
  ux uy To add cs 10 mul 26 idiv add moveto Tcx uy To add cs 10 mul 26 idiv add lineto
  Tt setlinewidth stroke
  grestore
} bd
/QT {
/Y22 exch store
/X22 exch store
/Y21 exch store
/X21 exch store
currentpoint
/Y21 load 2 mul add 3 div exch
/X21 load 2 mul add 3 div exch
/X21 load 2 mul /X22 load add 3 div
/Y21 load 2 mul /Y22 load add 3 div
/X22 load /Y22 load curveto
} bd
/SSPD {
dup length /d exch dict def
{
/v exch def
/k exch def
currentpagedevice k known {
/cpdv currentpagedevice k get def
v cpdv ne {
/upd false def
/nullv v type /nulltype eq def
/nullcpdv cpdv type /nulltype eq def
nullv nullcpdv or
{
/upd true def
} {
/sametype v type cpdv type eq def
sametype {
v type /arraytype eq {
/vlen v length def
/cpdvlen cpdv length def
vlen cpdvlen eq {
0 1 vlen 1 sub {
/i exch def
/obj v i get def
/cpdobj cpdv i get def
obj cpdobj ne {
/upd true def
exit
} if
} for
} {
/upd true def
} ifelse
} {
v type /dicttype eq {
v {
/dv exch def
/dk exch def
/cpddv cpdv dk get def
dv cpddv ne {
/upd true def
exit
} if
} forall
} {
/upd true def
} ifelse
} ifelse
} if
} ifelse
upd true eq {
d k v put
} if
} if
} if
} forall
d length 0 gt {
d setpagedevice
} if
} bd
%%EndResource
%%BeginResource: procset (Apache XML Graphics EPS ProcSet) 1.0 0
%%Version: 1.0 0
%%Copyright: (Copyright 2002-2003 The Apache Software Foundation. License terms: http://www.apache.org/licenses/LICENSE-2.0)
/BeginEPSF { %def
/b4_Inc_state save def         % Save state for cleanup
/dict_count countdictstack def % Count objects on dict stack
/op_count count 1 sub def      % Count objects on operand stack
userdict begin                 % Push userdict on dict stack
/showpage { } def              % Redefine showpage, { } = null proc
0 setgray 0 setlinecap         % Prepare graphics state
1 setlinewidth 0 setlinejoin
10 setmiterlimit [ ] 0 setdash newpath
/languagelevel where           % If level not equal to 1 then
{pop languagelevel             % set strokeadjust and
1 ne                           % overprint to their defaults.
{false setstrokeadjust false setoverprint
} if
} if
} bd
/EndEPSF { %def
count op_count sub {pop} repeat            % Clean up stacks
countdictstack dict_count sub {end} repeat
b4_Inc_state restore
} bd
%%EndResource
%FOPBeginFontDict
%%IncludeResource: font Courier-Bold
%%IncludeResource: font Helvetica
%%IncludeResource: font Courier-BoldOblique
%%IncludeResource: font Courier-Oblique
%%IncludeResource: font Times-Roman
%%IncludeResource: font Helvetica-BoldOblique
%%IncludeResource: font Helvetica-Bold
%%IncludeResource: font Helvetica-Oblique
%%IncludeResource: font Times-BoldItalic
%%IncludeResource: font Courier
%%IncludeResource: font Times-Italic
%%IncludeResource: font Times-Bold
%%IncludeResource: font Symbol
%%IncludeResource: font ZapfDingbats
%FOPEndFontDict
%%BeginResource: encoding WinAnsiEncoding
/WinAnsiEncoding [
/.notdef /.notdef /.notdef /.notdef /.notdef
/.notdef /.notdef /.notdef /.notdef /.notdef
/.notdef /.notdef /.notdef /.notdef /.notdef
/.notdef /.notdef /.notdef /.notdef /.notdef
/.notdef /.notdef /.notdef /.notdef /.notdef
/.notdef /.notdef /.notdef /.notdef /.notdef
/.notdef /.notdef /space /exclam /quotedbl
/numbersign /dollar /percent /ampersand /quotesingle
/parenleft /parenright /asterisk /plus /comma
/hyphen /period /slash /zero /one
/two /three /four /five /six
/seven /eight /nine /colon /semicolon
/less /equal /greater /question /at
/A /B /C /D /E
/F /G /H /I /J
/K /L /M /N /O
/P /Q /R /S /T
/U /V /W /X /Y
/Z /bracketleft /backslash /bracketright /asciicircum
/underscore /quoteleft /a /b /c
/d /e /f /g /h
/i /j /k /l /m
/n /o /p /q /r
/s /t /u /v /w
/x /y /z /braceleft /bar
/braceright /asciitilde /bullet /Euro /bullet
/quotesinglbase /florin /quotedblbase /ellipsis /dagger
/daggerdbl /circumflex /perthousand /Scaron /guilsinglleft
/OE /bullet /Zcaron /bullet /bullet
/quoteleft /quoteright /quotedblleft /quotedblright /bullet
/endash /emdash /asciitilde /trademark /scaron
/guilsinglright /oe /bullet /zcaron /Ydieresis
/space /exclamdown /cent /sterling /currency
/yen /brokenbar /section /dieresis /copyright
/ordfeminine /guillemotleft /logicalnot /sfthyphen /registered
/macron /degree /plusminus /twosuperior /threesuperior
/acute /mu /paragraph /middot /cedilla
/onesuperior /ordmasculine /guillemotright /onequarter /onehalf
/threequarters /questiondown /Agrave /Aacute /Acircumflex
/Atilde /Adieresis /Aring /AE /Ccedilla
/Egrave /Eacute /Ecircumflex /Edieresis /Igrave
/Iacute /Icircumflex /Idieresis /Eth /Ntilde
/Ograve /Oacute /Ocircumflex /Otilde /Odieresis
/multiply /Oslash /Ugrave /Uacute /Ucircumflex
/Udieresis /Yacute /Thorn /germandbls /agrave
/aacute /acircumflex /atilde /adieresis /aring
/ae /ccedilla /egrave /eacute /ecircumflex
/edieresis /igrave /iacute /icircumflex /idieresis
/eth /ntilde /ograve /oacute /ocircumflex
/otilde /odieresis /divide /oslash /ugrave
/uacute /ucircumflex /udieresis /yacute /thorn
/ydieresis
] def
%%EndResource
%FOPBeginFontReencode
/Courier-Bold findfont
dup length dict begin
  {1 index /FID ne {def} {pop pop} ifelse} forall
  /Encoding WinAnsiEncoding def
  currentdict
end
/Courier-Bold exch definefont pop
/Helvetica findfont
dup length dict begin
  {1 index /FID ne {def} {pop pop} ifelse} forall
  /Encoding WinAnsiEncoding def
  currentdict
end
/Helvetica exch definefont pop
/Courier-BoldOblique findfont
dup length dict begin
  {1 index /FID ne {def} {pop pop} ifelse} forall
  /Encoding WinAnsiEncoding def
  currentdict
end
/Courier-BoldOblique exch definefont pop
/Courier-Oblique findfont
dup length dict begin
  {1 index /FID ne {def} {pop pop} ifelse} forall
  /Encoding WinAnsiEncoding def
  currentdict
end
/Courier-Oblique exch definefont pop
/Times-Roman findfont
dup length dict begin
  {1 index /FID ne {def} {pop pop} ifelse} forall
  /Encoding WinAnsiEncoding def
  currentdict
end
/Times-Roman exch definefont pop
/Helvetica-BoldOblique findfont
dup length dict begin
  {1 index /FID ne {def} {pop pop} ifelse} forall
  /Encoding WinAnsiEncoding def
  currentdict
end
/Helvetica-BoldOblique exch definefont pop
/Helvetica-Bold findfont
dup length dict begin
  {1 index /FID ne {def} {pop pop} ifelse} forall
  /Encoding WinAnsiEncoding def
  currentdict
end
/Helvetica-Bold exch definefont pop
/Helvetica-Oblique findfont
dup length dict begin
  {1 index /FID ne {def} {pop pop} ifelse} forall
  /Encoding WinAnsiEncoding def
  currentdict
end
/Helvetica-Oblique exch definefont pop
/Times-BoldItalic findfont
dup length dict begin
  {1 index /FID ne {def} {pop pop} ifelse} forall
  /Encoding WinAnsiEncoding def
  currentdict
end
/Times-BoldItalic exch definefont pop
/Courier findfont
dup length dict begin
  {1 index /FID ne {def} {pop pop} ifelse} forall
  /Encoding WinAnsiEncoding def
  currentdict
end
/Courier exch definefont pop
/Times-Italic findfont
dup length dict begin
  {1 index /FID ne {def} {pop pop} ifelse} forall
  /Encoding WinAnsiEncoding def
  currentdict
end
/Times-Italic exch definefont pop
/Times-Bold findfont
dup length dict begin
  {1 index /FID ne {def} {pop pop} ifelse} forall
  /Encoding WinAnsiEncoding def
  currentdict
end
/Times-Bold exch definefont pop
%FOPEndFontReencode
%%EndProlog
%%Page: 1 1
%%PageBoundingBox: 0 0 420 315
%%BeginPageSetup
[1 0 0 -1 0 315] CT
%%EndPageSetup
GS
[0.3 0 0 0.3 0 0] CT
1 GC
N
0 0 1400 1050 re
f
GR
GS
[0.3 0 0 0.3 0 0] CT
1 GC
N
0 0 1400 1050 re
f
GR
GS
[0.3 0 0 0.3 0 0] CT
1 GC
N
182 934 M
1267 934 L
1267 79 L
182 79 L
cp
f
GR
GS
[0.3 0 0 0.3 0 0] CT
0.149 GC
2 setlinecap
1 LJ
1.667 LW
N
182 934 M
1267 934 L
S
GR
GS
[0.3 0 0 0.3 0 0] CT
0.149 GC
2 setlinecap
1 LJ
1.667 LW
N
182 934 M
182 923.15 L
S
GR
GS
[0.3 0 0 0.3 0 0] CT
0.149 GC
2 setlinecap
1 LJ
1.667 LW
N
281.087 934 M
281.087 923.15 L
S
GR
GS
[0.3 0 0 0.3 0 0] CT
0.149 GC
2 setlinecap
1 LJ
1.667 LW
N
380.174 934 M
380.174 923.15 L
S
GR
GS
[0.3 0 0 0.3 0 0] CT
0.149 GC
2 setlinecap
1 LJ
1.667 LW
N
479.26 934 M
479.26 923.15 L
S
GR
GS
[0.3 0 0 0.3 0 0] CT
0.149 GC
2 setlinecap
1 LJ
1.667 LW
N
578.347 934 M
578.347 923.15 L
S
GR
GS
[0.3 0 0 0.3 0 0] CT
0.149 GC
2 setlinecap
1 LJ
1.667 LW
N
677.434 934 M
677.434 923.15 L
S
GR
GS
[0.3 0 0 0.3 0 0] CT
0.149 GC
2 setlinecap
1 LJ
1.667 LW
N
776.521 934 M
776.521 923.15 L
S
GR
GS
[0.3 0 0 0.3 0 0] CT
0.149 GC
2 setlinecap
1 LJ
1.667 LW
N
875.607 934 M
875.607 923.15 L
S
GR
GS
[0.3 0 0 0.3 0 0] CT
0.149 GC
2 setlinecap
1 LJ
1.667 LW
N
974.694 934 M
974.694 923.15 L
S
GR
GS
[0.3 0 0 0.3 0 0] CT
0.149 GC
2 setlinecap
1 LJ
1.667 LW
N
1073.781 934 M
1073.781 923.15 L
S
GR
GS
[0.3 0 0 0.3 0 0] CT
0.149 GC
2 setlinecap
1 LJ
1.667 LW
N
1172.868 934 M
1172.868 923.15 L
S
GR
GS
[0.3 0 0 0.3 54.6 284.19999] CT
0.149 GC
/Helvetica 33 F
GS
[1 0 0 1 0 0] CT
-9.5 34 moveto 
1 -1 scale
(0) t 
GR
GR
GS
[0.3 0 0 0.3 84.32603 284.19999] CT
0.149 GC
/Helvetica 33 F
GS
[1 0 0 1 0 0] CT
-18.5 34 moveto 
1 -1 scale
(20) t 
GR
GR
GS
[0.3 0 0 0.3 114.05206 284.19999] CT
0.149 GC
/Helvetica 33 F
GS
[1 0 0 1 0 0] CT
-18.5 34 moveto 
1 -1 scale
(40) t 
GR
GR
GS
[0.3 0 0 0.3 143.77809 284.19999] CT
0.149 GC
/Helvetica 33 F
GS
[1 0 0 1 0 0] CT
-18.5 34 moveto 
1 -1 scale
(60) t 
GR
GR
GS
[0.3 0 0 0.3 173.50411 284.19999] CT
0.149 GC
/Helvetica 33 F
GS
[1 0 0 1 0 0] CT
-18.5 34 moveto 
1 -1 scale
(80) t 
GR
GR
GS
[0.3 0 0 0.3 203.23013 284.19999] CT
0.149 GC
/Helvetica 33 F
GS
[1 0 0 1 0 0] CT
-28 34 moveto 
1 -1 scale
(100) t 
GR
GR
GS
[0.3 0 0 0.3 232.95617 284.19999] CT
0.149 GC
/Helvetica 33 F
GS
[1 0 0 1 0 0] CT
-28 34 moveto 
1 -1 scale
(120) t 
GR
GR
GS
[0.3 0 0 0.3 262.68219 284.19999] CT
0.149 GC
/Helvetica 33 F
GS
[1 0 0 1 0 0] CT
-28 34 moveto 
1 -1 scale
(140) t 
GR
GR
GS
[0.3 0 0 0.3 292.40823 284.19999] CT
0.149 GC
/Helvetica 33 F
GS
[1 0 0 1 0 0] CT
-28 34 moveto 
1 -1 scale
(160) t 
GR
GR
GS
[0.3 0 0 0.3 322.13423 284.19999] CT
0.149 GC
/Helvetica 33 F
GS
[1 0 0 1 0 0] CT
-28 34 moveto 
1 -1 scale
(180) t 
GR
GR
GS
[0.3 0 0 0.3 351.86027 284.19999] CT
0.149 GC
/Helvetica 33 F
GS
[1 0 0 1 0 0] CT
-28 34 moveto 
1 -1 scale
(200) t 
GR
GR
GS
[0.3 0 0 0.3 217.35016 297.80001] CT
0.149 GC
/Helvetica 37 F
GS
[1 0 0 1 0 0] CT
-76.5 38 moveto 
1 -1 scale
(Iterations) t 
GR
GR
GS
[0.3 0 0 0.3 0 0] CT
0.149 GC
2 setlinecap
1 LJ
1.667 LW
N
182 934 M
182 79 L
S
GR
GS
[0.3 0 0 0.3 0 0] CT
0.149 GC
2 setlinecap
1 LJ
1.667 LW
N
182 934 M
192.85 934 L
S
GR
GS
[0.3 0 0 0.3 0 0] CT
0.149 GC
2 setlinecap
1 LJ
1.667 LW
N
182 791.5 M
192.85 791.5 L
S
GR
GS
[0.3 0 0 0.3 0 0] CT
0.149 GC
2 setlinecap
1 LJ
1.667 LW
N
182 649 M
192.85 649 L
S
GR
GS
[0.3 0 0 0.3 0 0] CT
0.149 GC
2 setlinecap
1 LJ
1.667 LW
N
182 506.5 M
192.85 506.5 L
S
GR
GS
[0.3 0 0 0.3 0 0] CT
0.149 GC
2 setlinecap
1 LJ
1.667 LW
N
182 364 M
192.85 364 L
S
GR
GS
[0.3 0 0 0.3 0 0] CT
0.149 GC
2 setlinecap
1 LJ
1.667 LW
N
182 221.5 M
192.85 221.5 L
S
GR
GS
[0.3 0 0 0.3 0 0] CT
0.149 GC
2 setlinecap
1 LJ
1.667 LW
N
182 79 M
192.85 79 L
S
GR
GS
[0.3 0 0 0.3 50.6 280.2] CT
0.149 GC
/Helvetica 33 F
GS
[1 0 0 1 0 0] CT
-19 13 moveto 
1 -1 scale
(0) t 
GR
GR
GS
[0.3 0 0 0.3 50.6 237.45] CT
0.149 GC
/Helvetica 33 F
GS
[1 0 0 1 0 0] CT
-46 13 moveto 
1 -1 scale
(0.5) t 
GR
GR
GS
[0.3 0 0 0.3 50.6 194.7] CT
0.149 GC
/Helvetica 33 F
GS
[1 0 0 1 0 0] CT
-19 13 moveto 
1 -1 scale
(1) t 
GR
GR
GS
[0.3 0 0 0.3 50.6 151.95] CT
0.149 GC
/Helvetica 33 F
GS
[1 0 0 1 0 0] CT
-46 13 moveto 
1 -1 scale
(1.5) t 
GR
GR
GS
[0.3 0 0 0.3 50.6 109.2] CT
0.149 GC
/Helvetica 33 F
GS
[1 0 0 1 0 0] CT
-19 13 moveto 
1 -1 scale
(2) t 
GR
GR
GS
[0.3 0 0 0.3 50.6 66.45] CT
0.149 GC
/Helvetica 33 F
GS
[1 0 0 1 0 0] CT
-46 13 moveto 
1 -1 scale
(2.5) t 
GR
GR
GS
[0.3 0 0 0.3 50.6 23.7] CT
0.149 GC
/Helvetica 33 F
GS
[1 0 0 1 0 0] CT
-19 13 moveto 
1 -1 scale
(3) t 
GR
GR
GS
[0 -0.3 0.3 0 33.8 151.94988] CT
0.149 GC
/Helvetica 37 F
GS
[1 0 0 1 0 0] CT
-72 -9 moveto 
1 -1 scale
(Distance) t 
GR
GR
GS
[0.3 0 0 0.3 0 0] CT
0 0.447 0.741 RC
1 LJ
6.667 LW
N
182 934 M
186.954 934 L
191.909 919.833 L
196.863 880.917 L
201.817 880.917 L
206.772 880.917 L
211.726 880.917 L
216.68 880.917 L
221.635 878.388 L
226.589 798.404 L
231.543 798.404 L
236.498 798.404 L
241.452 798.404 L
246.406 798.404 L
251.361 798.404 L
256.315 798.404 L
261.269 798.404 L
266.224 798.404 L
271.178 798.404 L
276.132 798.404 L
281.087 798.404 L
286.041 798.404 L
290.995 455.362 L
295.95 455.362 L
300.904 455.362 L
305.858 455.362 L
310.813 361.281 L
315.767 332.401 L
320.721 291.295 L
325.676 287.838 L
330.63 267.141 L
335.584 267.141 L
340.539 267.141 L
345.493 263.585 L
350.447 251.89 L
355.402 245.77 L
360.356 242.967 L
365.311 237.129 L
370.265 235.926 L
375.219 233.34 L
380.174 232.76 L
385.128 228.972 L
390.082 227.712 L
395.037 227.653 L
399.991 225.265 L
404.945 223.437 L
409.9 222.49 L
414.854 222.49 L
419.808 222.485 L
424.763 221.645 L
S
GR
GS
[0.3 0 0 0.3 0 0] CT
0 0.447 0.741 RC
1 LJ
6.667 LW
N
419.808 222.485 M
424.763 221.645 L
429.717 221.645 L
434.671 221.567 L
439.626 221.288 L
444.58 221.147 L
449.534 221.147 L
454.489 221.134 L
459.443 221.134 L
464.397 221.119 L
469.352 221.103 L
474.306 221.09 L
479.26 221.078 L
484.215 221.037 L
489.169 220.979 L
494.123 220.919 L
499.078 220.892 L
504.032 220.82 L
508.986 220.785 L
513.941 220.762 L
518.895 220.762 L
523.849 220.758 L
528.804 220.749 L
533.758 220.749 L
538.712 220.742 L
543.667 220.737 L
548.621 220.734 L
553.575 220.728 L
558.53 220.728 L
563.484 220.728 L
568.438 220.728 L
573.393 220.728 L
578.347 220.728 L
583.301 220.728 L
588.256 220.728 L
593.21 220.728 L
598.164 220.728 L
603.119 220.728 L
608.073 220.728 L
613.027 220.728 L
617.982 220.728 L
622.936 220.728 L
627.89 220.728 L
632.845 220.728 L
637.799 220.728 L
642.753 220.728 L
647.708 220.728 L
652.662 220.728 L
657.616 220.728 L
662.571 220.728 L
667.525 220.728 L
672.479 220.728 L
S
GR
GS
[0.3 0 0 0.3 0 0] CT
0 0.447 0.741 RC
1 LJ
6.667 LW
N
667.525 220.728 M
672.479 220.728 L
677.434 220.728 L
682.388 220.728 L
687.342 220.727 L
692.297 220.727 L
697.251 220.727 L
702.206 220.727 L
707.16 220.727 L
712.114 220.727 L
717.068 220.727 L
722.023 220.727 L
726.977 220.727 L
731.932 220.727 L
736.886 220.727 L
741.84 220.727 L
746.794 220.727 L
751.749 220.727 L
756.703 220.727 L
761.658 220.727 L
766.612 220.727 L
771.566 220.727 L
776.521 220.727 L
781.475 220.727 L
786.429 220.727 L
791.384 220.727 L
796.338 220.726 L
801.292 220.726 L
806.247 220.726 L
811.201 220.726 L
816.155 220.726 L
821.11 220.726 L
826.064 220.726 L
831.018 220.726 L
835.973 220.726 L
840.927 220.726 L
845.881 220.726 L
850.836 220.726 L
855.79 220.726 L
860.744 220.726 L
865.699 220.726 L
870.653 220.726 L
875.607 220.726 L
880.562 220.726 L
885.516 220.726 L
890.47 220.726 L
895.425 220.726 L
900.379 220.726 L
905.333 220.726 L
910.288 220.726 L
915.242 220.726 L
920.196 220.726 L
S
GR
GS
[0.3 0 0 0.3 0 0] CT
0 0.447 0.741 RC
1 LJ
6.667 LW
N
915.242 220.726 M
920.196 220.726 L
925.151 220.726 L
930.105 220.726 L
935.059 220.726 L
940.014 220.726 L
944.968 220.726 L
949.922 220.726 L
954.877 220.726 L
959.831 220.726 L
964.785 220.726 L
969.74 220.726 L
974.694 220.726 L
979.648 220.726 L
984.603 220.726 L
989.557 220.726 L
994.511 220.726 L
999.466 220.726 L
1004.42 220.726 L
1009.374 220.726 L
1014.329 220.726 L
1019.283 220.726 L
1024.237 220.726 L
1029.192 220.726 L
1034.146 220.726 L
1039.1 220.726 L
1044.055 220.726 L
1049.009 220.726 L
1053.964 220.726 L
1058.918 220.726 L
1063.872 220.726 L
1068.827 220.726 L
1073.781 220.726 L
1078.735 220.726 L
1083.689 220.726 L
1088.644 220.726 L
1093.598 220.726 L
1098.552 220.726 L
1103.507 220.726 L
1108.461 220.726 L
1113.416 220.726 L
1118.37 220.726 L
1123.324 220.726 L
1128.279 220.726 L
1133.233 220.726 L
1138.187 220.726 L
1143.142 220.726 L
1148.096 220.726 L
1153.05 220.726 L
1158.005 220.726 L
1162.959 220.726 L
1167.913 220.726 L
S
GR
GS
[0.3 0 0 0.3 0 0] CT
0 0.447 0.741 RC
1 LJ
6.667 LW
N
1162.959 220.726 M
1167.913 220.726 L
1172.868 220.726 L
1177.822 220.726 L
1182.776 220.726 L
1187.731 220.726 L
1192.685 220.726 L
1197.639 220.726 L
1202.594 220.726 L
1207.548 220.726 L
1212.502 220.726 L
1217.457 220.726 L
1222.411 220.726 L
1227.365 220.642 L
1232.32 220.642 L
1237.274 220.642 L
1242.228 220.642 L
1247.183 220.642 L
1252.137 220.642 L
1257.091 220.642 L
1262.046 220.642 L
1267 220.642 L
S
GR
GS
[0.3 0 0 0.3 0 0] CT
0.851 0.325 0.098 RC
1 LJ
6.667 LW
N
182 934 M
186.954 924.01 L
191.909 782.171 L
196.863 782.171 L
201.817 782.171 L
206.772 782.171 L
211.726 782.171 L
216.68 782.171 L
221.635 782.171 L
226.589 782.171 L
231.543 782.171 L
236.498 782.171 L
241.452 782.171 L
246.406 782.171 L
251.361 782.171 L
256.315 782.171 L
261.269 782.171 L
266.224 782.171 L
271.178 782.171 L
276.132 782.171 L
281.087 782.171 L
286.041 782.171 L
290.995 769.306 L
295.95 690.474 L
300.904 690.474 L
305.858 610.613 L
310.813 548.156 L
315.767 548.156 L
320.721 532.926 L
325.676 471.423 L
330.63 467.705 L
335.584 463.05 L
340.539 458.938 L
345.493 419.073 L
350.447 383.969 L
355.402 383.969 L
360.356 383.969 L
365.311 383.969 L
370.265 382.88 L
375.219 382.88 L
380.174 382.88 L
385.128 380.596 L
390.082 378.364 L
395.037 375.945 L
399.991 375.378 L
404.945 373.909 L
409.9 372.8 L
414.854 372.8 L
419.808 372.8 L
424.763 370.969 L
S
GR
GS
[0.3 0 0 0.3 0 0] CT
0.851 0.325 0.098 RC
1 LJ
6.667 LW
N
419.808 372.8 M
424.763 370.969 L
429.717 370.969 L
434.671 370.874 L
439.626 370.874 L
444.58 370.581 L
449.534 370.581 L
454.489 370.581 L
459.443 370.442 L
464.397 370.35 L
469.352 370.35 L
474.306 370.308 L
479.26 370.308 L
484.215 370.249 L
489.169 370.178 L
494.123 370.161 L
499.078 370.078 L
504.032 370.012 L
508.986 369.979 L
513.941 369.933 L
518.895 369.895 L
523.849 369.762 L
528.804 369.615 L
533.758 369.615 L
538.712 369.614 L
543.667 369.607 L
548.621 369.598 L
553.575 369.591 L
558.53 369.581 L
563.484 369.571 L
568.438 369.564 L
573.393 369.564 L
578.347 369.558 L
583.301 369.553 L
588.256 369.552 L
593.21 369.55 L
598.164 369.549 L
603.119 369.549 L
608.073 369.545 L
613.027 369.545 L
617.982 369.543 L
622.936 369.543 L
627.89 369.543 L
632.845 369.543 L
637.799 369.543 L
642.753 369.543 L
647.708 369.54 L
652.662 369.54 L
657.616 369.54 L
662.571 369.54 L
667.525 369.54 L
672.479 369.54 L
S
GR
GS
[0.3 0 0 0.3 0 0] CT
0.851 0.325 0.098 RC
1 LJ
6.667 LW
N
667.525 369.54 M
672.479 369.54 L
677.434 369.54 L
682.388 369.54 L
687.342 369.54 L
692.297 369.54 L
697.251 369.54 L
702.206 369.54 L
707.16 369.54 L
712.114 369.54 L
717.068 369.54 L
722.023 369.54 L
726.977 369.54 L
731.932 369.54 L
736.886 369.54 L
741.84 369.54 L
746.794 369.54 L
751.749 369.54 L
756.703 369.54 L
761.658 369.54 L
766.612 369.54 L
771.566 369.54 L
776.521 369.54 L
781.475 369.54 L
786.429 369.54 L
791.384 369.54 L
796.338 369.54 L
801.292 369.54 L
806.247 369.54 L
811.201 369.54 L
816.155 369.54 L
821.11 369.54 L
826.064 369.54 L
831.018 369.54 L
835.973 369.54 L
840.927 369.54 L
845.881 369.54 L
850.836 369.54 L
855.79 369.54 L
860.744 369.54 L
865.699 369.54 L
870.653 369.54 L
875.607 369.54 L
880.562 369.54 L
885.516 369.54 L
890.47 369.54 L
895.425 369.54 L
900.379 369.54 L
905.333 369.54 L
910.288 369.54 L
915.242 369.54 L
920.196 369.54 L
S
GR
GS
[0.3 0 0 0.3 0 0] CT
0.851 0.325 0.098 RC
1 LJ
6.667 LW
N
915.242 369.54 M
920.196 369.54 L
925.151 369.54 L
930.105 369.54 L
935.059 369.54 L
940.014 369.54 L
944.968 369.54 L
949.922 369.54 L
954.877 369.54 L
959.831 369.54 L
964.785 369.54 L
969.74 369.54 L
974.694 369.54 L
979.648 369.54 L
984.603 369.54 L
989.557 369.54 L
994.511 369.54 L
999.466 369.54 L
1004.42 369.54 L
1009.374 369.54 L
1014.329 369.54 L
1019.283 369.54 L
1024.237 369.54 L
1029.192 369.54 L
1034.146 369.54 L
1039.1 369.54 L
1044.055 369.54 L
1049.009 369.54 L
1053.964 369.54 L
1058.918 369.54 L
1063.872 369.54 L
1068.827 369.54 L
1073.781 369.54 L
1078.735 369.54 L
1083.689 369.54 L
1088.644 369.54 L
1093.598 369.54 L
1098.552 369.54 L
1103.507 369.54 L
1108.461 369.54 L
1113.416 369.54 L
1118.37 369.54 L
1123.324 369.54 L
1128.279 369.54 L
1133.233 369.54 L
1138.187 369.54 L
1143.142 369.54 L
1148.096 369.54 L
1153.05 369.54 L
1158.005 369.54 L
1162.959 369.54 L
1167.913 369.54 L
S
GR
GS
[0.3 0 0 0.3 0 0] CT
0.851 0.325 0.098 RC
1 LJ
6.667 LW
N
1162.959 369.54 M
1167.913 369.54 L
1172.868 369.54 L
1177.822 369.54 L
1182.776 369.54 L
1187.731 369.54 L
1192.685 369.54 L
1197.639 369.54 L
1202.594 369.54 L
1207.548 369.54 L
1212.502 369.54 L
1217.457 369.54 L
1222.411 369.54 L
1227.365 369.54 L
1232.32 369.54 L
1237.274 369.54 L
1242.228 369.54 L
1247.183 369.54 L
1252.137 369.54 L
1257.091 369.54 L
1262.046 369.54 L
1267 369.54 L
S
GR
GS
[0.3 0 0 0.3 0 0] CT
0.929 0.694 0.125 RC
1 LJ
6.667 LW
N
182 934 M
186.954 934 L
191.909 927.515 L
196.863 927.515 L
201.817 922.349 L
206.772 922.349 L
211.726 922.349 L
216.68 922.349 L
221.635 922.349 L
226.589 903.409 L
231.543 903.409 L
236.498 903.409 L
241.452 903.409 L
246.406 903.409 L
251.361 903.409 L
256.315 903.409 L
261.269 903.409 L
266.224 903.409 L
271.178 903.409 L
276.132 903.409 L
281.087 903.409 L
286.041 873.903 L
290.995 873.903 L
295.95 871.097 L
300.904 867.833 L
305.858 867.833 L
310.813 867.833 L
315.767 864.336 L
320.721 861.25 L
325.676 857.961 L
330.63 856.92 L
335.584 856.92 L
340.539 856.779 L
345.493 856.779 L
350.447 856.52 L
355.402 856.252 L
360.356 856.176 L
365.311 855.869 L
370.265 855.565 L
375.219 855.565 L
380.174 855.565 L
385.128 855.547 L
390.082 855.501 L
395.037 854.409 L
399.991 853.654 L
404.945 853.077 L
409.9 853.077 L
414.854 853.002 L
419.808 853.002 L
424.763 852.987 L
S
GR
GS
[0.3 0 0 0.3 0 0] CT
0.929 0.694 0.125 RC
1 LJ
6.667 LW
N
419.808 853.002 M
424.763 852.987 L
429.717 852.943 L
434.671 852.871 L
439.626 852.817 L
444.58 852.736 L
449.534 852.687 L
454.489 852.623 L
459.443 852.434 L
464.397 852.403 L
469.352 852.399 L
474.306 852.389 L
479.26 852.376 L
484.215 852.375 L
489.169 852.372 L
494.123 852.348 L
499.078 852.328 L
504.032 852.321 L
508.986 852.313 L
513.941 852.312 L
518.895 852.309 L
523.849 852.306 L
528.804 852.301 L
533.758 852.299 L
538.712 852.299 L
543.667 846.624 L
548.621 846.624 L
553.575 846.549 L
558.53 845.754 L
563.484 845.754 L
568.438 844.796 L
573.393 844.796 L
578.347 844.446 L
583.301 844.446 L
588.256 844.446 L
593.21 843.003 L
598.164 843.003 L
603.119 843 L
608.073 843 L
613.027 843 L
617.982 842.972 L
622.936 842.958 L
627.89 842.944 L
632.845 842.944 L
637.799 842.944 L
642.753 842.944 L
647.708 842.944 L
652.662 842.944 L
657.616 842.944 L
662.571 842.944 L
667.525 842.944 L
672.479 842.944 L
S
GR
GS
[0.3 0 0 0.3 0 0] CT
0.929 0.694 0.125 RC
1 LJ
6.667 LW
N
667.525 842.944 M
672.479 842.944 L
677.434 842.845 L
682.388 842.834 L
687.342 842.834 L
692.297 842.834 L
697.251 842.834 L
702.206 842.834 L
707.16 842.834 L
712.114 842.834 L
717.068 842.832 L
722.023 842.831 L
726.977 842.831 L
731.932 842.831 L
736.886 842.831 L
741.84 842.831 L
746.794 842.831 L
751.749 842.83 L
756.703 842.83 L
761.658 842.83 L
766.612 842.83 L
771.566 842.83 L
776.521 842.606 L
781.475 842.606 L
786.429 842.606 L
791.384 842.606 L
796.338 841.283 L
801.292 841.283 L
806.247 841.283 L
811.201 841.283 L
816.155 841.283 L
821.11 841.283 L
826.064 841.283 L
831.018 841.283 L
835.973 841.283 L
840.927 841.283 L
845.881 841.283 L
850.836 841.279 L
855.79 841.279 L
860.744 841.279 L
865.699 841.279 L
870.653 841.279 L
875.607 841.279 L
880.562 841.279 L
885.516 841.279 L
890.47 841.279 L
895.425 841.279 L
900.379 841.279 L
905.333 841.279 L
910.288 841.279 L
915.242 841.279 L
920.196 841.279 L
S
GR
GS
[0.3 0 0 0.3 0 0] CT
0.929 0.694 0.125 RC
1 LJ
6.667 LW
N
915.242 841.279 M
920.196 841.279 L
925.151 841.279 L
930.105 841.279 L
935.059 841.279 L
940.014 841.279 L
944.968 841.279 L
949.922 841.279 L
954.877 841.279 L
959.831 841.279 L
964.785 841.279 L
969.74 841.279 L
974.694 841.279 L
979.648 841.279 L
984.603 841.279 L
989.557 841.279 L
994.511 841.279 L
999.466 841.279 L
1004.42 841.279 L
1009.374 841.279 L
1014.329 841.279 L
1019.283 841.279 L
1024.237 841.279 L
1029.192 841.279 L
1034.146 841.279 L
1039.1 841.279 L
1044.055 841.279 L
1049.009 841.279 L
1053.964 841.279 L
1058.918 841.279 L
1063.872 841.279 L
1068.827 841.279 L
1073.781 841.279 L
1078.735 841.279 L
1083.689 841.279 L
1088.644 841.279 L
1093.598 841.279 L
1098.552 841.279 L
1103.507 841.279 L
1108.461 841.279 L
1113.416 841.279 L
1118.37 841.279 L
1123.324 841.279 L
1128.279 841.279 L
1133.233 841.279 L
1138.187 841.279 L
1143.142 841.279 L
1148.096 841.279 L
1153.05 841.279 L
1158.005 841.279 L
1162.959 841.279 L
1167.913 841.279 L
S
GR
GS
[0.3 0 0 0.3 0 0] CT
0.929 0.694 0.125 RC
1 LJ
6.667 LW
N
1162.959 841.279 M
1167.913 841.279 L
1172.868 841.279 L
1177.822 841.279 L
1182.776 841.279 L
1187.731 841.279 L
1192.685 841.279 L
1197.639 841.279 L
1202.594 841.279 L
1207.548 841.279 L
1212.502 841.279 L
1217.457 841.279 L
1222.411 841.279 L
1227.365 841.279 L
1232.32 841.279 L
1237.274 841.279 L
1242.228 841.279 L
1247.183 841.279 L
1252.137 841.279 L
1257.091 841.279 L
1262.046 841.279 L
1267 841.279 L
S
GR
GS
[0.3 0 0 0.3 0 0] CT
0.494 0.184 0.557 RC
1 LJ
6.667 LW
N
182 934 M
186.954 933.646 L
191.909 929.521 L
196.863 914.642 L
201.817 914.642 L
206.772 914.642 L
211.726 914.642 L
216.68 914.642 L
221.635 908.632 L
226.589 908.632 L
231.543 908.632 L
236.498 908.632 L
241.452 908.632 L
246.406 908.632 L
251.361 908.632 L
256.315 908.632 L
261.269 908.632 L
266.224 908.632 L
271.178 908.632 L
276.132 908.632 L
281.087 908.632 L
286.041 884.605 L
290.995 884.605 L
295.95 873.846 L
300.904 873.846 L
305.858 858.406 L
310.813 843.609 L
315.767 829.904 L
320.721 823.539 L
325.676 802.067 L
330.63 802.067 L
335.584 787.596 L
340.539 787.108 L
345.493 783.454 L
350.447 782.915 L
355.402 779.107 L
360.356 779.107 L
365.311 778.932 L
370.265 778.596 L
375.219 778.596 L
380.174 778.596 L
385.128 778.596 L
390.082 778.256 L
395.037 778.256 L
399.991 777.557 L
404.945 776.881 L
409.9 776.413 L
414.854 776.413 L
419.808 776.413 L
424.763 776.392 L
S
GR
GS
[0.3 0 0 0.3 0 0] CT
0.494 0.184 0.557 RC
1 LJ
6.667 LW
N
419.808 776.413 M
424.763 776.392 L
429.717 769.831 L
434.671 769.831 L
439.626 769.831 L
444.58 769.831 L
449.534 769.831 L
454.489 769.831 L
459.443 769.831 L
464.397 769.831 L
469.352 769.831 L
474.306 769.831 L
479.26 769.831 L
484.215 769.831 L
489.169 769.831 L
494.123 769.831 L
499.078 769.831 L
504.032 769.831 L
508.986 769.831 L
513.941 768.906 L
518.895 768.906 L
523.849 768.906 L
528.804 768.906 L
533.758 768.906 L
538.712 768.906 L
543.667 768.906 L
548.621 768.906 L
553.575 768.906 L
558.53 768.906 L
563.484 768.906 L
568.438 768.906 L
573.393 768.906 L
578.347 768.906 L
583.301 768.906 L
588.256 768.906 L
593.21 768.906 L
598.164 768.906 L
603.119 768.906 L
608.073 768.906 L
613.027 768.906 L
617.982 768.906 L
622.936 768.906 L
627.89 768.906 L
632.845 768.906 L
637.799 768.906 L
642.753 768.906 L
647.708 768.906 L
652.662 768.906 L
657.616 768.906 L
662.571 768.906 L
667.525 768.906 L
672.479 768.906 L
S
GR
GS
[0.3 0 0 0.3 0 0] CT
0.494 0.184 0.557 RC
1 LJ
6.667 LW
N
667.525 768.906 M
672.479 768.906 L
677.434 768.906 L
682.388 768.906 L
687.342 768.906 L
692.297 768.906 L
697.251 768.885 L
702.206 768.885 L
707.16 768.885 L
712.114 768.885 L
717.068 768.885 L
722.023 768.885 L
726.977 768.885 L
731.932 768.885 L
736.886 768.885 L
741.84 768.885 L
746.794 768.885 L
751.749 768.885 L
756.703 768.885 L
761.658 768.885 L
766.612 768.885 L
771.566 768.885 L
776.521 768.885 L
781.475 768.885 L
786.429 768.885 L
791.384 768.885 L
796.338 768.885 L
801.292 768.885 L
806.247 768.885 L
811.201 768.885 L
816.155 768.885 L
821.11 768.885 L
826.064 768.885 L
831.018 768.885 L
835.973 768.885 L
840.927 768.885 L
845.881 768.885 L
850.836 768.885 L
855.79 768.885 L
860.744 768.885 L
865.699 768.885 L
870.653 768.885 L
875.607 768.885 L
880.562 768.885 L
885.516 768.885 L
890.47 768.885 L
895.425 768.885 L
900.379 768.885 L
905.333 768.885 L
910.288 768.885 L
915.242 768.885 L
920.196 768.885 L
S
GR
GS
[0.3 0 0 0.3 0 0] CT
0.494 0.184 0.557 RC
1 LJ
6.667 LW
N
915.242 768.885 M
920.196 768.885 L
925.151 768.885 L
930.105 768.885 L
935.059 767.551 L
940.014 767.551 L
944.968 767.551 L
949.922 767.551 L
954.877 767.551 L
959.831 767.551 L
964.785 767.551 L
969.74 767.551 L
974.694 767.551 L
979.648 767.551 L
984.603 767.551 L
989.557 767.551 L
994.511 767.551 L
999.466 767.551 L
1004.42 767.551 L
1009.374 767.551 L
1014.329 767.551 L
1019.283 767.551 L
1024.237 767.551 L
1029.192 767.551 L
1034.146 767.551 L
1039.1 767.551 L
1044.055 767.551 L
1049.009 767.551 L
1053.964 767.551 L
1058.918 767.551 L
1063.872 767.551 L
1068.827 767.551 L
1073.781 767.551 L
1078.735 767.551 L
1083.689 767.551 L
1088.644 767.551 L
1093.598 767.551 L
1098.552 767.551 L
1103.507 767.551 L
1108.461 767.551 L
1113.416 767.551 L
1118.37 767.551 L
1123.324 767.551 L
1128.279 767.551 L
1133.233 767.551 L
1138.187 767.551 L
1143.142 767.551 L
1148.096 767.551 L
1153.05 767.551 L
1158.005 767.551 L
1162.959 767.551 L
1167.913 767.551 L
S
GR
GS
[0.3 0 0 0.3 0 0] CT
0.494 0.184 0.557 RC
1 LJ
6.667 LW
N
1162.959 767.551 M
1167.913 767.551 L
1172.868 767.551 L
1177.822 767.551 L
1182.776 767.551 L
1187.731 767.551 L
1192.685 767.551 L
1197.639 767.551 L
1202.594 767.551 L
1207.548 767.551 L
1212.502 767.551 L
1217.457 767.551 L
1222.411 767.551 L
1227.365 767.551 L
1232.32 767.551 L
1237.274 767.551 L
1242.228 767.551 L
1247.183 767.551 L
1252.137 767.551 L
1257.091 767.551 L
1262.046 767.551 L
1267 767.551 L
S
GR
GS
[0.3 0 0 0.3 0 0] CT
1 GC
N
882 901 M
882 730 L
1234 730 L
1234 901 L
cp
f
GR
GS
[0.3 0 0 0.3 303.6 226.73015] CT
/Helvetica 30 F
GS
[1 0 0 1 0 0] CT
0 12 moveto 
1 -1 scale
(front movement) t 
GR
GR
GS
[0.3 0 0 0.3 0 0] CT
0 0.447 0.741 RC
1 LJ
6.667 LW
N
902 755.767 M
1002 755.767 L
S
GR
GS
[0.3 0 0 0.3 303.6 238.67672] CT
/Helvetica 30 F
GS
[1 0 0 1 0 0] CT
0 12 moveto 
1 -1 scale
(back movement) t 
GR
GR
GS
[0.3 0 0 0.3 0 0] CT
0.851 0.325 0.098 RC
1 LJ
6.667 LW
N
902 795.589 M
1002 795.589 L
S
GR
GS
[0.3 0 0 0.3 303.6 250.62328] CT
/Helvetica 30 F
GS
[1 0 0 1 0 0] CT
0 12 moveto 
1 -1 scale
(right movement) t 
GR
GR
GS
[0.3 0 0 0.3 0 0] CT
0.929 0.694 0.125 RC
1 LJ
6.667 LW
N
902 835.411 M
1002 835.411 L
S
GR
GS
[0.3 0 0 0.3 303.6 262.56985] CT
/Helvetica 30 F
GS
[1 0 0 1 0 0] CT
0 12 moveto 
1 -1 scale
(left movement) t 
GR
GR
GS
[0.3 0 0 0.3 0 0] CT
0.494 0.184 0.557 RC
1 LJ
6.667 LW
N
902 875.233 M
1002 875.233 L
S
GR
GS
[0.3 0 0 0.3 0 0] CT
0.149 GC
10.0 ML
1.667 LW
N
882 901 M
882 730 L
1234 730 L
1234 901 L
cp
S
GR
%%Trailer
%%Pages: 1
%%EOF
