9
0.000000 0.000000 0.000000
0.000000
3
0.000000 2.000000 0.000000
0.000000
0
0.000000 1.000000 0.000000
0.000000
2
0.000000 -1.000000 0.000000
0.000000
1
1.000000 0.000000 0.000000
1.5707963267948966192313216916398
1
-1.000000 0.000000 0.000000
-1.5707963267948966192313216916398
1
0.000000 -2.000000 0.000000
0.000000
4
2.000000 0.000000 0.000000
1.5707963267948966192313216916398
5
-2.000000 0.000000 0.000000
-1.5707963267948966192313216916398
6