%!PS-Adobe-3.0 EPSF-3.0
%%Creator: (MATLAB, The Mathworks, Inc. Version 8.6.0.267246 \(R2015b\). Operating System: Windows 8)
%%Title: (C:/Users/Daniel/OneDrive - CertiCon a.s/Documents/skola/CVUT/Semester_8/Bakalarska_Praca/CoSMO_convData/grafy/convergence_Cross_left.eps)
%%CreationDate: 2016-05-10T20:05:56
%%Pages: (atend)
%%BoundingBox: 0 0 420 315
%%LanguageLevel: 2
%%EndComments
%%BeginProlog
%%BeginResource: procset (Apache XML Graphics Std ProcSet) 1.2 0
%%Version: 1.2 0
%%Copyright: (Copyright 2001-2003,2010 The Apache Software Foundation. License terms: http://www.apache.org/licenses/LICENSE-2.0)
/bd{bind def}bind def
/ld{load def}bd
/GR/grestore ld
/M/moveto ld
/LJ/setlinejoin ld
/C/curveto ld
/f/fill ld
/LW/setlinewidth ld
/GC/setgray ld
/t/show ld
/N/newpath ld
/CT/concat ld
/cp/closepath ld
/S/stroke ld
/L/lineto ld
/CC/setcmykcolor ld
/A/ashow ld
/GS/gsave ld
/RC/setrgbcolor ld
/RM/rmoveto ld
/ML/setmiterlimit ld
/re {4 2 roll M
1 index 0 rlineto
0 exch rlineto
neg 0 rlineto
cp } bd
/_ctm matrix def
/_tm matrix def
/BT { _ctm currentmatrix pop matrix _tm copy pop 0 0 moveto } bd
/ET { _ctm setmatrix } bd
/iTm { _ctm setmatrix _tm concat } bd
/Tm { _tm astore pop iTm 0 0 moveto } bd
/ux 0.0 def
/uy 0.0 def
/F {
  /Tp exch def
  /Tf exch def
  Tf findfont Tp scalefont setfont
  /cf Tf def  /cs Tp def
} bd
/ULS {currentpoint /uy exch def /ux exch def} bd
/ULE {
  /Tcx currentpoint pop def
  gsave
  newpath
  cf findfont cs scalefont dup
  /FontMatrix get 0 get /Ts exch def /FontInfo get dup
  /UnderlinePosition get Ts mul /To exch def
  /UnderlineThickness get Ts mul /Tt exch def
  ux uy To add moveto  Tcx uy To add lineto
  Tt setlinewidth stroke
  grestore
} bd
/OLE {
  /Tcx currentpoint pop def
  gsave
  newpath
  cf findfont cs scalefont dup
  /FontMatrix get 0 get /Ts exch def /FontInfo get dup
  /UnderlinePosition get Ts mul /To exch def
  /UnderlineThickness get Ts mul /Tt exch def
  ux uy To add cs add moveto Tcx uy To add cs add lineto
  Tt setlinewidth stroke
  grestore
} bd
/SOE {
  /Tcx currentpoint pop def
  gsave
  newpath
  cf findfont cs scalefont dup
  /FontMatrix get 0 get /Ts exch def /FontInfo get dup
  /UnderlinePosition get Ts mul /To exch def
  /UnderlineThickness get Ts mul /Tt exch def
  ux uy To add cs 10 mul 26 idiv add moveto Tcx uy To add cs 10 mul 26 idiv add lineto
  Tt setlinewidth stroke
  grestore
} bd
/QT {
/Y22 exch store
/X22 exch store
/Y21 exch store
/X21 exch store
currentpoint
/Y21 load 2 mul add 3 div exch
/X21 load 2 mul add 3 div exch
/X21 load 2 mul /X22 load add 3 div
/Y21 load 2 mul /Y22 load add 3 div
/X22 load /Y22 load curveto
} bd
/SSPD {
dup length /d exch dict def
{
/v exch def
/k exch def
currentpagedevice k known {
/cpdv currentpagedevice k get def
v cpdv ne {
/upd false def
/nullv v type /nulltype eq def
/nullcpdv cpdv type /nulltype eq def
nullv nullcpdv or
{
/upd true def
} {
/sametype v type cpdv type eq def
sametype {
v type /arraytype eq {
/vlen v length def
/cpdvlen cpdv length def
vlen cpdvlen eq {
0 1 vlen 1 sub {
/i exch def
/obj v i get def
/cpdobj cpdv i get def
obj cpdobj ne {
/upd true def
exit
} if
} for
} {
/upd true def
} ifelse
} {
v type /dicttype eq {
v {
/dv exch def
/dk exch def
/cpddv cpdv dk get def
dv cpddv ne {
/upd true def
exit
} if
} forall
} {
/upd true def
} ifelse
} ifelse
} if
} ifelse
upd true eq {
d k v put
} if
} if
} if
} forall
d length 0 gt {
d setpagedevice
} if
} bd
%%EndResource
%%BeginResource: procset (Apache XML Graphics EPS ProcSet) 1.0 0
%%Version: 1.0 0
%%Copyright: (Copyright 2002-2003 The Apache Software Foundation. License terms: http://www.apache.org/licenses/LICENSE-2.0)
/BeginEPSF { %def
/b4_Inc_state save def         % Save state for cleanup
/dict_count countdictstack def % Count objects on dict stack
/op_count count 1 sub def      % Count objects on operand stack
userdict begin                 % Push userdict on dict stack
/showpage { } def              % Redefine showpage, { } = null proc
0 setgray 0 setlinecap         % Prepare graphics state
1 setlinewidth 0 setlinejoin
10 setmiterlimit [ ] 0 setdash newpath
/languagelevel where           % If level not equal to 1 then
{pop languagelevel             % set strokeadjust and
1 ne                           % overprint to their defaults.
{false setstrokeadjust false setoverprint
} if
} if
} bd
/EndEPSF { %def
count op_count sub {pop} repeat            % Clean up stacks
countdictstack dict_count sub {end} repeat
b4_Inc_state restore
} bd
%%EndResource
%FOPBeginFontDict
%%IncludeResource: font Courier-Bold
%%IncludeResource: font Helvetica
%%IncludeResource: font Courier-BoldOblique
%%IncludeResource: font Courier-Oblique
%%IncludeResource: font Times-Roman
%%IncludeResource: font Helvetica-BoldOblique
%%IncludeResource: font Helvetica-Bold
%%IncludeResource: font Helvetica-Oblique
%%IncludeResource: font Times-BoldItalic
%%IncludeResource: font Courier
%%IncludeResource: font Times-Italic
%%IncludeResource: font Times-Bold
%%IncludeResource: font Symbol
%%IncludeResource: font ZapfDingbats
%FOPEndFontDict
%%BeginResource: encoding WinAnsiEncoding
/WinAnsiEncoding [
/.notdef /.notdef /.notdef /.notdef /.notdef
/.notdef /.notdef /.notdef /.notdef /.notdef
/.notdef /.notdef /.notdef /.notdef /.notdef
/.notdef /.notdef /.notdef /.notdef /.notdef
/.notdef /.notdef /.notdef /.notdef /.notdef
/.notdef /.notdef /.notdef /.notdef /.notdef
/.notdef /.notdef /space /exclam /quotedbl
/numbersign /dollar /percent /ampersand /quotesingle
/parenleft /parenright /asterisk /plus /comma
/hyphen /period /slash /zero /one
/two /three /four /five /six
/seven /eight /nine /colon /semicolon
/less /equal /greater /question /at
/A /B /C /D /E
/F /G /H /I /J
/K /L /M /N /O
/P /Q /R /S /T
/U /V /W /X /Y
/Z /bracketleft /backslash /bracketright /asciicircum
/underscore /quoteleft /a /b /c
/d /e /f /g /h
/i /j /k /l /m
/n /o /p /q /r
/s /t /u /v /w
/x /y /z /braceleft /bar
/braceright /asciitilde /bullet /Euro /bullet
/quotesinglbase /florin /quotedblbase /ellipsis /dagger
/daggerdbl /circumflex /perthousand /Scaron /guilsinglleft
/OE /bullet /Zcaron /bullet /bullet
/quoteleft /quoteright /quotedblleft /quotedblright /bullet
/endash /emdash /asciitilde /trademark /scaron
/guilsinglright /oe /bullet /zcaron /Ydieresis
/space /exclamdown /cent /sterling /currency
/yen /brokenbar /section /dieresis /copyright
/ordfeminine /guillemotleft /logicalnot /sfthyphen /registered
/macron /degree /plusminus /twosuperior /threesuperior
/acute /mu /paragraph /middot /cedilla
/onesuperior /ordmasculine /guillemotright /onequarter /onehalf
/threequarters /questiondown /Agrave /Aacute /Acircumflex
/Atilde /Adieresis /Aring /AE /Ccedilla
/Egrave /Eacute /Ecircumflex /Edieresis /Igrave
/Iacute /Icircumflex /Idieresis /Eth /Ntilde
/Ograve /Oacute /Ocircumflex /Otilde /Odieresis
/multiply /Oslash /Ugrave /Uacute /Ucircumflex
/Udieresis /Yacute /Thorn /germandbls /agrave
/aacute /acircumflex /atilde /adieresis /aring
/ae /ccedilla /egrave /eacute /ecircumflex
/edieresis /igrave /iacute /icircumflex /idieresis
/eth /ntilde /ograve /oacute /ocircumflex
/otilde /odieresis /divide /oslash /ugrave
/uacute /ucircumflex /udieresis /yacute /thorn
/ydieresis
] def
%%EndResource
%FOPBeginFontReencode
/Courier-Bold findfont
dup length dict begin
  {1 index /FID ne {def} {pop pop} ifelse} forall
  /Encoding WinAnsiEncoding def
  currentdict
end
/Courier-Bold exch definefont pop
/Helvetica findfont
dup length dict begin
  {1 index /FID ne {def} {pop pop} ifelse} forall
  /Encoding WinAnsiEncoding def
  currentdict
end
/Helvetica exch definefont pop
/Courier-BoldOblique findfont
dup length dict begin
  {1 index /FID ne {def} {pop pop} ifelse} forall
  /Encoding WinAnsiEncoding def
  currentdict
end
/Courier-BoldOblique exch definefont pop
/Courier-Oblique findfont
dup length dict begin
  {1 index /FID ne {def} {pop pop} ifelse} forall
  /Encoding WinAnsiEncoding def
  currentdict
end
/Courier-Oblique exch definefont pop
/Times-Roman findfont
dup length dict begin
  {1 index /FID ne {def} {pop pop} ifelse} forall
  /Encoding WinAnsiEncoding def
  currentdict
end
/Times-Roman exch definefont pop
/Helvetica-BoldOblique findfont
dup length dict begin
  {1 index /FID ne {def} {pop pop} ifelse} forall
  /Encoding WinAnsiEncoding def
  currentdict
end
/Helvetica-BoldOblique exch definefont pop
/Helvetica-Bold findfont
dup length dict begin
  {1 index /FID ne {def} {pop pop} ifelse} forall
  /Encoding WinAnsiEncoding def
  currentdict
end
/Helvetica-Bold exch definefont pop
/Helvetica-Oblique findfont
dup length dict begin
  {1 index /FID ne {def} {pop pop} ifelse} forall
  /Encoding WinAnsiEncoding def
  currentdict
end
/Helvetica-Oblique exch definefont pop
/Times-BoldItalic findfont
dup length dict begin
  {1 index /FID ne {def} {pop pop} ifelse} forall
  /Encoding WinAnsiEncoding def
  currentdict
end
/Times-BoldItalic exch definefont pop
/Courier findfont
dup length dict begin
  {1 index /FID ne {def} {pop pop} ifelse} forall
  /Encoding WinAnsiEncoding def
  currentdict
end
/Courier exch definefont pop
/Times-Italic findfont
dup length dict begin
  {1 index /FID ne {def} {pop pop} ifelse} forall
  /Encoding WinAnsiEncoding def
  currentdict
end
/Times-Italic exch definefont pop
/Times-Bold findfont
dup length dict begin
  {1 index /FID ne {def} {pop pop} ifelse} forall
  /Encoding WinAnsiEncoding def
  currentdict
end
/Times-Bold exch definefont pop
%FOPEndFontReencode
%%EndProlog
%%Page: 1 1
%%PageBoundingBox: 0 0 420 315
%%BeginPageSetup
[1 0 0 -1 0 315] CT
%%EndPageSetup
GS
[0.3 0 0 0.3 0 0] CT
1 GC
N
0 0 1400 1050 re
f
GR
GS
[0.3 0 0 0.3 0 0] CT
1 GC
N
0 0 1400 1050 re
f
GR
GS
[0.3 0 0 0.3 0 0] CT
1 GC
N
182 934 M
1267 934 L
1267 79 L
182 79 L
cp
f
GR
GS
[0.3 0 0 0.3 0 0] CT
0.149 GC
2 setlinecap
1 LJ
1.667 LW
N
182 934 M
1267 934 L
S
GR
GS
[0.3 0 0 0.3 0 0] CT
0.149 GC
2 setlinecap
1 LJ
1.667 LW
N
182 934 M
182 923.15 L
S
GR
GS
[0.3 0 0 0.3 0 0] CT
0.149 GC
2 setlinecap
1 LJ
1.667 LW
N
281.087 934 M
281.087 923.15 L
S
GR
GS
[0.3 0 0 0.3 0 0] CT
0.149 GC
2 setlinecap
1 LJ
1.667 LW
N
380.174 934 M
380.174 923.15 L
S
GR
GS
[0.3 0 0 0.3 0 0] CT
0.149 GC
2 setlinecap
1 LJ
1.667 LW
N
479.26 934 M
479.26 923.15 L
S
GR
GS
[0.3 0 0 0.3 0 0] CT
0.149 GC
2 setlinecap
1 LJ
1.667 LW
N
578.347 934 M
578.347 923.15 L
S
GR
GS
[0.3 0 0 0.3 0 0] CT
0.149 GC
2 setlinecap
1 LJ
1.667 LW
N
677.434 934 M
677.434 923.15 L
S
GR
GS
[0.3 0 0 0.3 0 0] CT
0.149 GC
2 setlinecap
1 LJ
1.667 LW
N
776.521 934 M
776.521 923.15 L
S
GR
GS
[0.3 0 0 0.3 0 0] CT
0.149 GC
2 setlinecap
1 LJ
1.667 LW
N
875.607 934 M
875.607 923.15 L
S
GR
GS
[0.3 0 0 0.3 0 0] CT
0.149 GC
2 setlinecap
1 LJ
1.667 LW
N
974.694 934 M
974.694 923.15 L
S
GR
GS
[0.3 0 0 0.3 0 0] CT
0.149 GC
2 setlinecap
1 LJ
1.667 LW
N
1073.781 934 M
1073.781 923.15 L
S
GR
GS
[0.3 0 0 0.3 0 0] CT
0.149 GC
2 setlinecap
1 LJ
1.667 LW
N
1172.868 934 M
1172.868 923.15 L
S
GR
GS
[0.3 0 0 0.3 54.6 284.19999] CT
0.149 GC
/Helvetica 33 F
GS
[1 0 0 1 0 0] CT
-9.5 34 moveto 
1 -1 scale
(0) t 
GR
GR
GS
[0.3 0 0 0.3 84.32603 284.19999] CT
0.149 GC
/Helvetica 33 F
GS
[1 0 0 1 0 0] CT
-18.5 34 moveto 
1 -1 scale
(20) t 
GR
GR
GS
[0.3 0 0 0.3 114.05206 284.19999] CT
0.149 GC
/Helvetica 33 F
GS
[1 0 0 1 0 0] CT
-18.5 34 moveto 
1 -1 scale
(40) t 
GR
GR
GS
[0.3 0 0 0.3 143.77809 284.19999] CT
0.149 GC
/Helvetica 33 F
GS
[1 0 0 1 0 0] CT
-18.5 34 moveto 
1 -1 scale
(60) t 
GR
GR
GS
[0.3 0 0 0.3 173.50411 284.19999] CT
0.149 GC
/Helvetica 33 F
GS
[1 0 0 1 0 0] CT
-18.5 34 moveto 
1 -1 scale
(80) t 
GR
GR
GS
[0.3 0 0 0.3 203.23013 284.19999] CT
0.149 GC
/Helvetica 33 F
GS
[1 0 0 1 0 0] CT
-28 34 moveto 
1 -1 scale
(100) t 
GR
GR
GS
[0.3 0 0 0.3 232.95617 284.19999] CT
0.149 GC
/Helvetica 33 F
GS
[1 0 0 1 0 0] CT
-28 34 moveto 
1 -1 scale
(120) t 
GR
GR
GS
[0.3 0 0 0.3 262.68219 284.19999] CT
0.149 GC
/Helvetica 33 F
GS
[1 0 0 1 0 0] CT
-28 34 moveto 
1 -1 scale
(140) t 
GR
GR
GS
[0.3 0 0 0.3 292.40823 284.19999] CT
0.149 GC
/Helvetica 33 F
GS
[1 0 0 1 0 0] CT
-28 34 moveto 
1 -1 scale
(160) t 
GR
GR
GS
[0.3 0 0 0.3 322.13423 284.19999] CT
0.149 GC
/Helvetica 33 F
GS
[1 0 0 1 0 0] CT
-28 34 moveto 
1 -1 scale
(180) t 
GR
GR
GS
[0.3 0 0 0.3 351.86027 284.19999] CT
0.149 GC
/Helvetica 33 F
GS
[1 0 0 1 0 0] CT
-28 34 moveto 
1 -1 scale
(200) t 
GR
GR
GS
[0.3 0 0 0.3 217.35016 297.80001] CT
0.149 GC
/Helvetica 37 F
GS
[1 0 0 1 0 0] CT
-76.5 38 moveto 
1 -1 scale
(Iterations) t 
GR
GR
GS
[0.3 0 0 0.3 0 0] CT
0.149 GC
2 setlinecap
1 LJ
1.667 LW
N
182 934 M
182 79 L
S
GR
GS
[0.3 0 0 0.3 0 0] CT
0.149 GC
2 setlinecap
1 LJ
1.667 LW
N
182 934 M
192.85 934 L
S
GR
GS
[0.3 0 0 0.3 0 0] CT
0.149 GC
2 setlinecap
1 LJ
1.667 LW
N
182 791.5 M
192.85 791.5 L
S
GR
GS
[0.3 0 0 0.3 0 0] CT
0.149 GC
2 setlinecap
1 LJ
1.667 LW
N
182 649 M
192.85 649 L
S
GR
GS
[0.3 0 0 0.3 0 0] CT
0.149 GC
2 setlinecap
1 LJ
1.667 LW
N
182 506.5 M
192.85 506.5 L
S
GR
GS
[0.3 0 0 0.3 0 0] CT
0.149 GC
2 setlinecap
1 LJ
1.667 LW
N
182 364 M
192.85 364 L
S
GR
GS
[0.3 0 0 0.3 0 0] CT
0.149 GC
2 setlinecap
1 LJ
1.667 LW
N
182 221.5 M
192.85 221.5 L
S
GR
GS
[0.3 0 0 0.3 0 0] CT
0.149 GC
2 setlinecap
1 LJ
1.667 LW
N
182 79 M
192.85 79 L
S
GR
GS
[0.3 0 0 0.3 50.6 280.2] CT
0.149 GC
/Helvetica 33 F
GS
[1 0 0 1 0 0] CT
-19 13 moveto 
1 -1 scale
(0) t 
GR
GR
GS
[0.3 0 0 0.3 50.6 237.45] CT
0.149 GC
/Helvetica 33 F
GS
[1 0 0 1 0 0] CT
-46 13 moveto 
1 -1 scale
(0.5) t 
GR
GR
GS
[0.3 0 0 0.3 50.6 194.7] CT
0.149 GC
/Helvetica 33 F
GS
[1 0 0 1 0 0] CT
-19 13 moveto 
1 -1 scale
(1) t 
GR
GR
GS
[0.3 0 0 0.3 50.6 151.95] CT
0.149 GC
/Helvetica 33 F
GS
[1 0 0 1 0 0] CT
-46 13 moveto 
1 -1 scale
(1.5) t 
GR
GR
GS
[0.3 0 0 0.3 50.6 109.2] CT
0.149 GC
/Helvetica 33 F
GS
[1 0 0 1 0 0] CT
-19 13 moveto 
1 -1 scale
(2) t 
GR
GR
GS
[0.3 0 0 0.3 50.6 66.45] CT
0.149 GC
/Helvetica 33 F
GS
[1 0 0 1 0 0] CT
-46 13 moveto 
1 -1 scale
(2.5) t 
GR
GR
GS
[0.3 0 0 0.3 50.6 23.7] CT
0.149 GC
/Helvetica 33 F
GS
[1 0 0 1 0 0] CT
-19 13 moveto 
1 -1 scale
(3) t 
GR
GR
GS
[0 -0.3 0.3 0 33.8 151.94988] CT
0.149 GC
/Helvetica 37 F
GS
[1 0 0 1 0 0] CT
-69 -9 moveto 
1 -1 scale
(distance) t 
GR
GR
GS
[0.3 0 0 0.3 0 0] CT
0 0.447 0.741 RC
1 LJ
6.667 LW
N
182 934 M
186.954 934 L
191.909 934 L
196.863 934 L
201.817 930.217 L
206.772 930.217 L
211.726 922.979 L
216.68 922.979 L
221.635 902.836 L
226.589 902.836 L
231.543 902.836 L
236.498 902.836 L
241.452 902.836 L
246.406 902.836 L
251.361 902.836 L
256.315 902.836 L
261.269 902.836 L
266.224 902.836 L
271.178 902.836 L
276.132 902.836 L
281.087 902.836 L
286.041 861.531 L
290.995 834.798 L
295.95 789.354 L
300.904 789.354 L
305.858 763.857 L
310.813 763.857 L
315.767 750.38 L
320.721 750.38 L
325.676 750.38 L
330.63 750.38 L
335.584 748.084 L
340.539 748.084 L
345.493 737.125 L
350.447 737.125 L
355.402 737.125 L
360.356 737.125 L
365.311 737.125 L
370.265 737.125 L
375.219 737.125 L
380.174 737.125 L
385.128 737.125 L
390.082 737.125 L
395.037 737.125 L
399.991 737.125 L
404.945 737.125 L
409.9 737.125 L
414.854 737.125 L
419.808 737.125 L
424.763 737.125 L
S
GR
GS
[0.3 0 0 0.3 0 0] CT
0 0.447 0.741 RC
1 LJ
6.667 LW
N
419.808 737.125 M
424.763 737.125 L
429.717 737.125 L
434.671 737.125 L
439.626 737.125 L
444.58 737.125 L
449.534 737.125 L
454.489 737.125 L
459.443 737.125 L
464.397 737.125 L
469.352 737.125 L
474.306 737.125 L
479.26 737.125 L
484.215 737.125 L
489.169 737.125 L
494.123 737.125 L
499.078 737.125 L
504.032 737.125 L
508.986 737.125 L
513.941 737.125 L
518.895 737.125 L
523.849 737.125 L
528.804 737.125 L
533.758 737.125 L
538.712 737.125 L
543.667 737.125 L
548.621 737.125 L
553.575 737.125 L
558.53 737.125 L
563.484 737.125 L
568.438 737.125 L
573.393 737.125 L
578.347 737.125 L
583.301 737.125 L
588.256 737.125 L
593.21 737.125 L
598.164 737.125 L
603.119 737.125 L
608.073 737.125 L
613.027 737.125 L
617.982 737.125 L
622.936 737.125 L
627.89 737.125 L
632.845 737.125 L
637.799 737.125 L
642.753 737.125 L
647.708 737.125 L
652.662 737.125 L
657.616 737.125 L
662.571 737.125 L
667.525 737.125 L
672.479 737.125 L
S
GR
GS
[0.3 0 0 0.3 0 0] CT
0 0.447 0.741 RC
1 LJ
6.667 LW
N
667.525 737.125 M
672.479 737.125 L
677.434 737.125 L
682.388 737.125 L
687.342 737.125 L
692.297 737.125 L
697.251 737.125 L
702.206 737.125 L
707.16 737.125 L
712.114 737.125 L
717.068 737.125 L
722.023 737.125 L
726.977 737.125 L
731.932 737.125 L
736.886 737.125 L
741.84 737.125 L
746.794 737.125 L
751.749 737.125 L
756.703 737.125 L
761.658 737.125 L
766.612 737.125 L
771.566 737.125 L
776.521 737.125 L
781.475 737.125 L
786.429 737.125 L
791.384 737.125 L
796.338 737.125 L
801.292 737.125 L
806.247 737.125 L
811.201 737.125 L
816.155 737.125 L
821.11 737.125 L
826.064 737.125 L
831.018 737.125 L
835.973 737.125 L
840.927 737.125 L
845.881 737.125 L
850.836 737.125 L
855.79 737.125 L
860.744 737.125 L
865.699 737.125 L
870.653 737.125 L
875.607 737.125 L
880.562 737.125 L
885.516 737.125 L
890.47 737.125 L
895.425 737.125 L
900.379 737.125 L
905.333 737.125 L
910.288 737.125 L
915.242 737.125 L
920.196 737.125 L
S
GR
GS
[0.3 0 0 0.3 0 0] CT
0 0.447 0.741 RC
1 LJ
6.667 LW
N
915.242 737.125 M
920.196 737.125 L
925.151 737.125 L
930.105 737.125 L
935.059 737.125 L
940.014 737.125 L
944.968 737.125 L
949.922 737.125 L
954.877 737.125 L
959.831 737.125 L
964.785 737.125 L
969.74 737.125 L
974.694 737.125 L
979.648 737.125 L
984.603 737.125 L
989.557 737.125 L
994.511 737.125 L
999.466 737.125 L
1004.42 737.125 L
1009.374 737.125 L
1014.329 737.125 L
1019.283 737.125 L
1024.237 737.125 L
1029.192 737.125 L
1034.146 737.125 L
1039.1 737.125 L
1044.055 737.125 L
1049.009 737.125 L
1053.964 737.125 L
1058.918 737.125 L
1063.872 737.125 L
1068.827 737.125 L
1073.781 737.125 L
1078.735 737.125 L
1083.689 737.125 L
1088.644 737.125 L
1093.598 737.125 L
1098.552 737.125 L
1103.507 737.125 L
1108.461 737.125 L
1113.416 737.125 L
1118.37 737.125 L
1123.324 735.439 L
1128.279 735.439 L
1133.233 735.439 L
1138.187 735.439 L
1143.142 735.439 L
1148.096 735.439 L
1153.05 735.439 L
1158.005 735.439 L
1162.959 728.139 L
1167.913 728.139 L
S
GR
GS
[0.3 0 0 0.3 0 0] CT
0 0.447 0.741 RC
1 LJ
6.667 LW
N
1162.959 728.139 M
1167.913 728.139 L
1172.868 728.139 L
1177.822 728.139 L
1182.776 728.139 L
1187.731 728.139 L
1192.685 728.139 L
1197.639 728.139 L
1202.594 728.139 L
1207.548 728.139 L
1212.502 728.139 L
1217.457 728.139 L
1222.411 728.139 L
1227.365 728.139 L
1232.32 728.139 L
1237.274 728.139 L
1242.228 728.139 L
1247.183 728.139 L
1252.137 728.139 L
1257.091 728.139 L
1262.046 728.139 L
1267 728.139 L
S
GR
%%Trailer
%%Pages: 1
%%EOF
