9
0.000000 2.000000 0.000000
0.000000
0
0.000000 1.000000 0.000000
0.000000
1
0.000000 0.000000 0.000000
0.000000
2
0.000000 -1.000000 0.000000
0.000000
3
0.000000 -2.000000 0.000000
0.000000
4
-1.000000 1.000000 0.000000
-1.570796
2
1.000000 1.000000 0.000000
1.570796
2
1.000000 -1.000000 0.000000
1.570796
4
-1.000000 -1.000000 0.000000
-1.570796
4