%!PS-Adobe-3.0 EPSF-3.0
%%Creator: (MATLAB, The Mathworks, Inc. Version 8.6.0.267246 \(R2015b\). Operating System: Windows 8)
%%Title: (C:/Users/Daniel/OneDrive - CertiCon a.s/Documents/skola/CVUT/Semester_8/Bakalarska_Praca/BT/matlab/measure_new/Percentil/Cross/BAD_Cross.eps)
%%CreationDate: 2016-05-21T12:17:16
%%Pages: (atend)
%%BoundingBox: 0 0 420 315
%%LanguageLevel: 2
%%EndComments
%%BeginProlog
%%BeginResource: procset (Apache XML Graphics Std ProcSet) 1.2 0
%%Version: 1.2 0
%%Copyright: (Copyright 2001-2003,2010 The Apache Software Foundation. License terms: http://www.apache.org/licenses/LICENSE-2.0)
/bd{bind def}bind def
/ld{load def}bd
/GR/grestore ld
/M/moveto ld
/LJ/setlinejoin ld
/C/curveto ld
/f/fill ld
/LW/setlinewidth ld
/GC/setgray ld
/t/show ld
/N/newpath ld
/CT/concat ld
/cp/closepath ld
/S/stroke ld
/L/lineto ld
/CC/setcmykcolor ld
/A/ashow ld
/GS/gsave ld
/RC/setrgbcolor ld
/RM/rmoveto ld
/ML/setmiterlimit ld
/re {4 2 roll M
1 index 0 rlineto
0 exch rlineto
neg 0 rlineto
cp } bd
/_ctm matrix def
/_tm matrix def
/BT { _ctm currentmatrix pop matrix _tm copy pop 0 0 moveto } bd
/ET { _ctm setmatrix } bd
/iTm { _ctm setmatrix _tm concat } bd
/Tm { _tm astore pop iTm 0 0 moveto } bd
/ux 0.0 def
/uy 0.0 def
/F {
  /Tp exch def
  /Tf exch def
  Tf findfont Tp scalefont setfont
  /cf Tf def  /cs Tp def
} bd
/ULS {currentpoint /uy exch def /ux exch def} bd
/ULE {
  /Tcx currentpoint pop def
  gsave
  newpath
  cf findfont cs scalefont dup
  /FontMatrix get 0 get /Ts exch def /FontInfo get dup
  /UnderlinePosition get Ts mul /To exch def
  /UnderlineThickness get Ts mul /Tt exch def
  ux uy To add moveto  Tcx uy To add lineto
  Tt setlinewidth stroke
  grestore
} bd
/OLE {
  /Tcx currentpoint pop def
  gsave
  newpath
  cf findfont cs scalefont dup
  /FontMatrix get 0 get /Ts exch def /FontInfo get dup
  /UnderlinePosition get Ts mul /To exch def
  /UnderlineThickness get Ts mul /Tt exch def
  ux uy To add cs add moveto Tcx uy To add cs add lineto
  Tt setlinewidth stroke
  grestore
} bd
/SOE {
  /Tcx currentpoint pop def
  gsave
  newpath
  cf findfont cs scalefont dup
  /FontMatrix get 0 get /Ts exch def /FontInfo get dup
  /UnderlinePosition get Ts mul /To exch def
  /UnderlineThickness get Ts mul /Tt exch def
  ux uy To add cs 10 mul 26 idiv add moveto Tcx uy To add cs 10 mul 26 idiv add lineto
  Tt setlinewidth stroke
  grestore
} bd
/QT {
/Y22 exch store
/X22 exch store
/Y21 exch store
/X21 exch store
currentpoint
/Y21 load 2 mul add 3 div exch
/X21 load 2 mul add 3 div exch
/X21 load 2 mul /X22 load add 3 div
/Y21 load 2 mul /Y22 load add 3 div
/X22 load /Y22 load curveto
} bd
/SSPD {
dup length /d exch dict def
{
/v exch def
/k exch def
currentpagedevice k known {
/cpdv currentpagedevice k get def
v cpdv ne {
/upd false def
/nullv v type /nulltype eq def
/nullcpdv cpdv type /nulltype eq def
nullv nullcpdv or
{
/upd true def
} {
/sametype v type cpdv type eq def
sametype {
v type /arraytype eq {
/vlen v length def
/cpdvlen cpdv length def
vlen cpdvlen eq {
0 1 vlen 1 sub {
/i exch def
/obj v i get def
/cpdobj cpdv i get def
obj cpdobj ne {
/upd true def
exit
} if
} for
} {
/upd true def
} ifelse
} {
v type /dicttype eq {
v {
/dv exch def
/dk exch def
/cpddv cpdv dk get def
dv cpddv ne {
/upd true def
exit
} if
} forall
} {
/upd true def
} ifelse
} ifelse
} if
} ifelse
upd true eq {
d k v put
} if
} if
} if
} forall
d length 0 gt {
d setpagedevice
} if
} bd
%%EndResource
%%BeginResource: procset (Apache XML Graphics EPS ProcSet) 1.0 0
%%Version: 1.0 0
%%Copyright: (Copyright 2002-2003 The Apache Software Foundation. License terms: http://www.apache.org/licenses/LICENSE-2.0)
/BeginEPSF { %def
/b4_Inc_state save def         % Save state for cleanup
/dict_count countdictstack def % Count objects on dict stack
/op_count count 1 sub def      % Count objects on operand stack
userdict begin                 % Push userdict on dict stack
/showpage { } def              % Redefine showpage, { } = null proc
0 setgray 0 setlinecap         % Prepare graphics state
1 setlinewidth 0 setlinejoin
10 setmiterlimit [ ] 0 setdash newpath
/languagelevel where           % If level not equal to 1 then
{pop languagelevel             % set strokeadjust and
1 ne                           % overprint to their defaults.
{false setstrokeadjust false setoverprint
} if
} if
} bd
/EndEPSF { %def
count op_count sub {pop} repeat            % Clean up stacks
countdictstack dict_count sub {end} repeat
b4_Inc_state restore
} bd
%%EndResource
%FOPBeginFontDict
%%IncludeResource: font Courier-Bold
%%IncludeResource: font Helvetica
%%IncludeResource: font Courier-BoldOblique
%%IncludeResource: font Courier-Oblique
%%IncludeResource: font Times-Roman
%%IncludeResource: font Helvetica-BoldOblique
%%IncludeResource: font Helvetica-Bold
%%IncludeResource: font Helvetica-Oblique
%%IncludeResource: font Times-BoldItalic
%%IncludeResource: font Courier
%%IncludeResource: font Times-Italic
%%IncludeResource: font Times-Bold
%%IncludeResource: font Symbol
%%IncludeResource: font ZapfDingbats
%FOPEndFontDict
%%BeginResource: encoding WinAnsiEncoding
/WinAnsiEncoding [
/.notdef /.notdef /.notdef /.notdef /.notdef
/.notdef /.notdef /.notdef /.notdef /.notdef
/.notdef /.notdef /.notdef /.notdef /.notdef
/.notdef /.notdef /.notdef /.notdef /.notdef
/.notdef /.notdef /.notdef /.notdef /.notdef
/.notdef /.notdef /.notdef /.notdef /.notdef
/.notdef /.notdef /space /exclam /quotedbl
/numbersign /dollar /percent /ampersand /quotesingle
/parenleft /parenright /asterisk /plus /comma
/hyphen /period /slash /zero /one
/two /three /four /five /six
/seven /eight /nine /colon /semicolon
/less /equal /greater /question /at
/A /B /C /D /E
/F /G /H /I /J
/K /L /M /N /O
/P /Q /R /S /T
/U /V /W /X /Y
/Z /bracketleft /backslash /bracketright /asciicircum
/underscore /quoteleft /a /b /c
/d /e /f /g /h
/i /j /k /l /m
/n /o /p /q /r
/s /t /u /v /w
/x /y /z /braceleft /bar
/braceright /asciitilde /bullet /Euro /bullet
/quotesinglbase /florin /quotedblbase /ellipsis /dagger
/daggerdbl /circumflex /perthousand /Scaron /guilsinglleft
/OE /bullet /Zcaron /bullet /bullet
/quoteleft /quoteright /quotedblleft /quotedblright /bullet
/endash /emdash /asciitilde /trademark /scaron
/guilsinglright /oe /bullet /zcaron /Ydieresis
/space /exclamdown /cent /sterling /currency
/yen /brokenbar /section /dieresis /copyright
/ordfeminine /guillemotleft /logicalnot /sfthyphen /registered
/macron /degree /plusminus /twosuperior /threesuperior
/acute /mu /paragraph /middot /cedilla
/onesuperior /ordmasculine /guillemotright /onequarter /onehalf
/threequarters /questiondown /Agrave /Aacute /Acircumflex
/Atilde /Adieresis /Aring /AE /Ccedilla
/Egrave /Eacute /Ecircumflex /Edieresis /Igrave
/Iacute /Icircumflex /Idieresis /Eth /Ntilde
/Ograve /Oacute /Ocircumflex /Otilde /Odieresis
/multiply /Oslash /Ugrave /Uacute /Ucircumflex
/Udieresis /Yacute /Thorn /germandbls /agrave
/aacute /acircumflex /atilde /adieresis /aring
/ae /ccedilla /egrave /eacute /ecircumflex
/edieresis /igrave /iacute /icircumflex /idieresis
/eth /ntilde /ograve /oacute /ocircumflex
/otilde /odieresis /divide /oslash /ugrave
/uacute /ucircumflex /udieresis /yacute /thorn
/ydieresis
] def
%%EndResource
%FOPBeginFontReencode
/Courier-Bold findfont
dup length dict begin
  {1 index /FID ne {def} {pop pop} ifelse} forall
  /Encoding WinAnsiEncoding def
  currentdict
end
/Courier-Bold exch definefont pop
/Helvetica findfont
dup length dict begin
  {1 index /FID ne {def} {pop pop} ifelse} forall
  /Encoding WinAnsiEncoding def
  currentdict
end
/Helvetica exch definefont pop
/Courier-BoldOblique findfont
dup length dict begin
  {1 index /FID ne {def} {pop pop} ifelse} forall
  /Encoding WinAnsiEncoding def
  currentdict
end
/Courier-BoldOblique exch definefont pop
/Courier-Oblique findfont
dup length dict begin
  {1 index /FID ne {def} {pop pop} ifelse} forall
  /Encoding WinAnsiEncoding def
  currentdict
end
/Courier-Oblique exch definefont pop
/Times-Roman findfont
dup length dict begin
  {1 index /FID ne {def} {pop pop} ifelse} forall
  /Encoding WinAnsiEncoding def
  currentdict
end
/Times-Roman exch definefont pop
/Helvetica-BoldOblique findfont
dup length dict begin
  {1 index /FID ne {def} {pop pop} ifelse} forall
  /Encoding WinAnsiEncoding def
  currentdict
end
/Helvetica-BoldOblique exch definefont pop
/Helvetica-Bold findfont
dup length dict begin
  {1 index /FID ne {def} {pop pop} ifelse} forall
  /Encoding WinAnsiEncoding def
  currentdict
end
/Helvetica-Bold exch definefont pop
/Helvetica-Oblique findfont
dup length dict begin
  {1 index /FID ne {def} {pop pop} ifelse} forall
  /Encoding WinAnsiEncoding def
  currentdict
end
/Helvetica-Oblique exch definefont pop
/Times-BoldItalic findfont
dup length dict begin
  {1 index /FID ne {def} {pop pop} ifelse} forall
  /Encoding WinAnsiEncoding def
  currentdict
end
/Times-BoldItalic exch definefont pop
/Courier findfont
dup length dict begin
  {1 index /FID ne {def} {pop pop} ifelse} forall
  /Encoding WinAnsiEncoding def
  currentdict
end
/Courier exch definefont pop
/Times-Italic findfont
dup length dict begin
  {1 index /FID ne {def} {pop pop} ifelse} forall
  /Encoding WinAnsiEncoding def
  currentdict
end
/Times-Italic exch definefont pop
/Times-Bold findfont
dup length dict begin
  {1 index /FID ne {def} {pop pop} ifelse} forall
  /Encoding WinAnsiEncoding def
  currentdict
end
/Times-Bold exch definefont pop
%FOPEndFontReencode
%%EndProlog
%%Page: 1 1
%%PageBoundingBox: 0 0 420 315
%%BeginPageSetup
[1 0 0 -1 0 315] CT
%%EndPageSetup
GS
[0.3 0 0 0.3 0 0] CT
1 GC
N
0 0 1400 1050 re
f
GR
GS
[0.3 0 0 0.3 0 0] CT
1 GC
N
0 0 1400 1050 re
f
GR
GS
[0.3 0 0 0.3 0 0] CT
1 GC
N
182 725 M
1267 725 L
1267 79 L
182 79 L
cp
f
GR
GS
[0.3 0 0 0.3 0 0] CT
0.149 GC
2 setlinecap
1 LJ
1.667 LW
N
182 725 M
1267 725 L
S
GR
GS
[0.3 0 0 0.3 0 0] CT
0.149 GC
2 setlinecap
1 LJ
1.667 LW
N
182 79 M
1267 79 L
S
GR
GS
[0.3 0 0 0.3 0 0] CT
0.149 GC
2 setlinecap
1 LJ
1.667 LW
N
182 725 M
182 79 L
S
GR
GS
[0.3 0 0 0.3 0 0] CT
0.149 GC
2 setlinecap
1 LJ
1.667 LW
N
1267 725 M
1267 79 L
S
GR
GS
[0.3 0 0 0.3 0 0] CT
0.149 GC
2 setlinecap
1 LJ
1.667 LW
N
182 725 M
192.85 725 L
S
GR
GS
[0.3 0 0 0.3 0 0] CT
0.149 GC
2 setlinecap
1 LJ
1.667 LW
N
182 625.615 M
192.85 625.615 L
S
GR
GS
[0.3 0 0 0.3 0 0] CT
0.149 GC
2 setlinecap
1 LJ
1.667 LW
N
182 526.231 M
192.85 526.231 L
S
GR
GS
[0.3 0 0 0.3 0 0] CT
0.149 GC
2 setlinecap
1 LJ
1.667 LW
N
182 426.846 M
192.85 426.846 L
S
GR
GS
[0.3 0 0 0.3 0 0] CT
0.149 GC
2 setlinecap
1 LJ
1.667 LW
N
182 327.462 M
192.85 327.462 L
S
GR
GS
[0.3 0 0 0.3 0 0] CT
0.149 GC
2 setlinecap
1 LJ
1.667 LW
N
182 228.077 M
192.85 228.077 L
S
GR
GS
[0.3 0 0 0.3 0 0] CT
0.149 GC
2 setlinecap
1 LJ
1.667 LW
N
182 128.692 M
192.85 128.692 L
S
GR
GS
[0.3 0 0 0.3 0 0] CT
0.149 GC
2 setlinecap
1 LJ
1.667 LW
N
1267 725 M
1256.15 725 L
S
GR
GS
[0.3 0 0 0.3 0 0] CT
0.149 GC
2 setlinecap
1 LJ
1.667 LW
N
1267 625.615 M
1256.15 625.615 L
S
GR
GS
[0.3 0 0 0.3 0 0] CT
0.149 GC
2 setlinecap
1 LJ
1.667 LW
N
1267 526.231 M
1256.15 526.231 L
S
GR
GS
[0.3 0 0 0.3 0 0] CT
0.149 GC
2 setlinecap
1 LJ
1.667 LW
N
1267 426.846 M
1256.15 426.846 L
S
GR
GS
[0.3 0 0 0.3 0 0] CT
0.149 GC
2 setlinecap
1 LJ
1.667 LW
N
1267 327.462 M
1256.15 327.462 L
S
GR
GS
[0.3 0 0 0.3 0 0] CT
0.149 GC
2 setlinecap
1 LJ
1.667 LW
N
1267 228.077 M
1256.15 228.077 L
S
GR
GS
[0.3 0 0 0.3 0 0] CT
0.149 GC
2 setlinecap
1 LJ
1.667 LW
N
1267 128.692 M
1256.15 128.692 L
S
GR
GS
[0.3 0 0 0.3 50.6 217.5] CT
0.149 GC
/Helvetica 33 F
GS
[1 0 0 1 0 0] CT
-19 13 moveto 
1 -1 scale
(0) t 
GR
GR
GS
[0.3 0 0 0.3 50.6 187.68461] CT
0.149 GC
/Helvetica 33 F
GS
[1 0 0 1 0 0] CT
-37 13 moveto 
1 -1 scale
(10) t 
GR
GR
GS
[0.3 0 0 0.3 50.6 157.86923] CT
0.149 GC
/Helvetica 33 F
GS
[1 0 0 1 0 0] CT
-37 13 moveto 
1 -1 scale
(20) t 
GR
GR
GS
[0.3 0 0 0.3 50.6 128.05385] CT
0.149 GC
/Helvetica 33 F
GS
[1 0 0 1 0 0] CT
-37 13 moveto 
1 -1 scale
(30) t 
GR
GR
GS
[0.3 0 0 0.3 50.6 98.23846] CT
0.149 GC
/Helvetica 33 F
GS
[1 0 0 1 0 0] CT
-37 13 moveto 
1 -1 scale
(40) t 
GR
GR
GS
[0.3 0 0 0.3 50.6 68.42308] CT
0.149 GC
/Helvetica 33 F
GS
[1 0 0 1 0 0] CT
-37 13 moveto 
1 -1 scale
(50) t 
GR
GR
GS
[0.3 0 0 0.3 50.6 38.60769] CT
0.149 GC
/Helvetica 33 F
GS
[1 0 0 1 0 0] CT
-37 13 moveto 
1 -1 scale
(60) t 
GR
GR
GS
[0 -0.3 0.3 0 36.5 120.59991] CT
0.149 GC
/Helvetica 37 F
GS
[1 0 0 1 0 0] CT
-194.5 -9 moveto 
1 -1 scale
(Visited environment [%]) t 
GR
GR
GS
[0.3 0 0 0.3 0 0] CT
[10 6] 0 setdash
2 LJ
1.667 LW
N
223.731 146.085 M
223.731 116.269 L
S
GR
GS
[0.3 0 0 0.3 0 0] CT
[10 6] 0 setdash
2 LJ
1.667 LW
N
307.192 277.769 M
307.192 247.954 L
S
GR
GS
[0.3 0 0 0.3 0 0] CT
[10 6] 0 setdash
2 LJ
1.667 LW
N
390.654 228.077 M
390.654 223.108 L
S
GR
GS
[0.3 0 0 0.3 0 0] CT
[10 6] 0 setdash
2 LJ
1.667 LW
N
474.115 262.862 M
474.115 250.438 L
S
GR
GS
[0.3 0 0 0.3 0 0] CT
[10 6] 0 setdash
2 LJ
1.667 LW
N
557.577 409.454 M
557.577 402 L
S
GR
GS
[0.3 0 0 0.3 0 0] CT
[10 6] 0 setdash
2 LJ
1.667 LW
N
641.038 533.685 M
641.038 533.685 L
S
GR
GS
[0.3 0 0 0.3 0 0] CT
[10 6] 0 setdash
2 LJ
1.667 LW
N
724.5 285.223 M
724.5 280.254 L
S
GR
GS
[0.3 0 0 0.3 0 0] CT
[10 6] 0 setdash
2 LJ
1.667 LW
N
807.962 334.915 M
807.962 225.592 L
S
GR
GS
[0.3 0 0 0.3 0 0] CT
[10 6] 0 setdash
2 LJ
1.667 LW
N
891.423 416.908 M
891.423 409.454 L
S
GR
GS
[0.3 0 0 0.3 0 0] CT
[10 6] 0 setdash
2 LJ
1.667 LW
N
974.885 267.831 M
974.885 215.654 L
S
GR
GS
[0.3 0 0 0.3 0 0] CT
[10 6] 0 setdash
2 LJ
1.667 LW
N
1058.346 235.531 M
1058.346 225.592 L
S
GR
GS
[0.3 0 0 0.3 0 0] CT
[10 6] 0 setdash
2 LJ
1.667 LW
N
1141.808 414.423 M
1141.808 411.938 L
S
GR
GS
[0.3 0 0 0.3 0 0] CT
[10 6] 0 setdash
2 LJ
1.667 LW
N
1225.269 280.254 M
1225.269 228.077 L
S
GR
GS
[0.3 0 0 0.3 0 0] CT
[10 6] 0 setdash
2 LJ
1.667 LW
N
223.731 190.808 M
223.731 173.415 L
S
GR
GS
[0.3 0 0 0.3 0 0] CT
[10 6] 0 setdash
2 LJ
1.667 LW
N
307.192 342.369 M
307.192 329.946 L
S
GR
GS
[0.3 0 0 0.3 0 0] CT
[10 6] 0 setdash
2 LJ
1.667 LW
N
390.654 247.954 M
390.654 240.5 L
S
GR
GS
[0.3 0 0 0.3 0 0] CT
[10 6] 0 setdash
2 LJ
1.667 LW
N
474.115 295.162 M
474.115 285.223 L
S
GR
GS
[0.3 0 0 0.3 0 0] CT
[10 6] 0 setdash
2 LJ
1.667 LW
N
557.577 426.846 M
557.577 421.877 L
S
GR
GS
[0.3 0 0 0.3 0 0] CT
[10 6] 0 setdash
2 LJ
1.667 LW
N
641.038 548.592 M
641.038 546.108 L
S
GR
GS
[0.3 0 0 0.3 0 0] CT
[10 6] 0 setdash
2 LJ
1.667 LW
N
724.5 322.492 M
724.5 300.131 L
S
GR
GS
[0.3 0 0 0.3 0 0] CT
[10 6] 0 setdash
2 LJ
1.667 LW
N
807.962 553.562 M
807.962 503.869 L
S
GR
GS
[0.3 0 0 0.3 0 0] CT
[10 6] 0 setdash
2 LJ
1.667 LW
N
891.423 461.631 M
891.423 461.631 L
S
GR
GS
[0.3 0 0 0.3 0 0] CT
[10 6] 0 setdash
2 LJ
1.667 LW
N
974.885 402 M
974.885 327.462 L
S
GR
GS
[0.3 0 0 0.3 0 0] CT
[10 6] 0 setdash
2 LJ
1.667 LW
N
1058.346 262.862 M
1058.346 257.892 L
S
GR
GS
[0.3 0 0 0.3 0 0] CT
[10 6] 0 setdash
2 LJ
1.667 LW
N
1141.808 441.754 M
1141.808 441.754 L
S
GR
GS
[0.3 0 0 0.3 0 0] CT
[10 6] 0 setdash
2 LJ
1.667 LW
N
1225.269 315.038 M
1225.269 315.038 L
S
GR
GS
[0.3 0 0 0.3 0 0] CT
1 LJ
1.667 LW
N
213.298 116.269 M
234.163 116.269 L
S
GR
GS
[0.3 0 0 0.3 0 0] CT
1 LJ
1.667 LW
N
296.76 247.954 M
317.625 247.954 L
S
GR
GS
[0.3 0 0 0.3 0 0] CT
1 LJ
1.667 LW
N
380.221 223.108 M
401.087 223.108 L
S
GR
GS
[0.3 0 0 0.3 0 0] CT
1 LJ
1.667 LW
N
463.683 250.438 M
484.548 250.438 L
S
GR
GS
[0.3 0 0 0.3 0 0] CT
1 LJ
1.667 LW
N
547.144 402 M
568.01 402 L
S
GR
GS
[0.3 0 0 0.3 0 0] CT
1 LJ
1.667 LW
N
630.606 533.685 M
651.471 533.685 L
S
GR
GS
[0.3 0 0 0.3 0 0] CT
1 LJ
1.667 LW
N
714.067 280.254 M
734.933 280.254 L
S
GR
GS
[0.3 0 0 0.3 0 0] CT
1 LJ
1.667 LW
N
797.529 225.592 M
818.394 225.592 L
S
GR
GS
[0.3 0 0 0.3 0 0] CT
1 LJ
1.667 LW
N
880.99 409.454 M
901.856 409.454 L
S
GR
GS
[0.3 0 0 0.3 0 0] CT
1 LJ
1.667 LW
N
964.452 215.654 M
985.317 215.654 L
S
GR
GS
[0.3 0 0 0.3 0 0] CT
1 LJ
1.667 LW
N
1047.913 225.592 M
1068.779 225.592 L
S
GR
GS
[0.3 0 0 0.3 0 0] CT
1 LJ
1.667 LW
N
1131.375 411.938 M
1152.24 411.938 L
S
GR
GS
[0.3 0 0 0.3 0 0] CT
1 LJ
1.667 LW
N
1214.837 228.077 M
1235.702 228.077 L
S
GR
GS
[0.3 0 0 0.3 0 0] CT
1 LJ
1.667 LW
N
213.298 190.808 M
234.163 190.808 L
S
GR
GS
[0.3 0 0 0.3 0 0] CT
1 LJ
1.667 LW
N
296.76 342.369 M
317.625 342.369 L
S
GR
GS
[0.3 0 0 0.3 0 0] CT
1 LJ
1.667 LW
N
380.221 247.954 M
401.087 247.954 L
S
GR
GS
[0.3 0 0 0.3 0 0] CT
1 LJ
1.667 LW
N
463.683 295.162 M
484.548 295.162 L
S
GR
GS
[0.3 0 0 0.3 0 0] CT
1 LJ
1.667 LW
N
547.144 426.846 M
568.01 426.846 L
S
GR
GS
[0.3 0 0 0.3 0 0] CT
1 LJ
1.667 LW
N
630.606 548.592 M
651.471 548.592 L
S
GR
GS
[0.3 0 0 0.3 0 0] CT
1 LJ
1.667 LW
N
714.067 322.492 M
734.933 322.492 L
S
GR
GS
[0.3 0 0 0.3 0 0] CT
1 LJ
1.667 LW
N
797.529 553.562 M
818.394 553.562 L
S
GR
GS
[0.3 0 0 0.3 0 0] CT
1 LJ
1.667 LW
N
880.99 461.631 M
901.856 461.631 L
S
GR
GS
[0.3 0 0 0.3 0 0] CT
1 LJ
1.667 LW
N
964.452 402 M
985.317 402 L
S
GR
GS
[0.3 0 0 0.3 0 0] CT
1 LJ
1.667 LW
N
1047.913 262.862 M
1068.779 262.862 L
S
GR
GS
[0.3 0 0 0.3 0 0] CT
1 LJ
1.667 LW
N
1131.375 441.754 M
1152.24 441.754 L
S
GR
GS
[0.3 0 0 0.3 0 0] CT
1 LJ
1.667 LW
N
1214.837 315.038 M
1235.702 315.038 L
S
GR
GS
[0.3 0 0 0.3 0 0] CT
0 0 1 RC
1 LJ
1.667 LW
N
202.865 173.415 M
202.865 146.085 L
244.596 146.085 L
244.596 173.415 L
202.865 173.415 L
S
GR
GS
[0.3 0 0 0.3 0 0] CT
0 0 1 RC
1 LJ
1.667 LW
N
286.327 329.946 M
286.327 277.769 L
328.058 277.769 L
328.058 329.946 L
286.327 329.946 L
S
GR
GS
[0.3 0 0 0.3 0 0] CT
0 0 1 RC
1 LJ
1.667 LW
N
369.788 240.5 M
369.788 228.077 L
411.519 228.077 L
411.519 240.5 L
369.788 240.5 L
S
GR
GS
[0.3 0 0 0.3 0 0] CT
0 0 1 RC
1 LJ
1.667 LW
N
453.25 285.223 M
453.25 262.862 L
494.981 262.862 L
494.981 285.223 L
453.25 285.223 L
S
GR
GS
[0.3 0 0 0.3 0 0] CT
0 0 1 RC
1 LJ
1.667 LW
N
536.712 421.877 M
536.712 409.454 L
578.442 409.454 L
578.442 421.877 L
536.712 421.877 L
S
GR
GS
[0.3 0 0 0.3 0 0] CT
0 0 1 RC
1 LJ
1.667 LW
N
620.173 546.108 M
620.173 533.685 L
661.904 533.685 L
661.904 546.108 L
620.173 546.108 L
S
GR
GS
[0.3 0 0 0.3 0 0] CT
0 0 1 RC
1 LJ
1.667 LW
N
703.635 300.131 M
703.635 285.223 L
745.365 285.223 L
745.365 300.131 L
703.635 300.131 L
S
GR
GS
[0.3 0 0 0.3 0 0] CT
0 0 1 RC
1 LJ
1.667 LW
N
787.096 503.869 M
787.096 334.915 L
828.827 334.915 L
828.827 503.869 L
787.096 503.869 L
S
GR
GS
[0.3 0 0 0.3 0 0] CT
0 0 1 RC
1 LJ
1.667 LW
N
870.558 461.631 M
870.558 416.908 L
912.288 416.908 L
912.288 461.631 L
870.558 461.631 L
S
GR
GS
[0.3 0 0 0.3 0 0] CT
0 0 1 RC
1 LJ
1.667 LW
N
954.019 327.462 M
954.019 267.831 L
995.75 267.831 L
995.75 327.462 L
954.019 327.462 L
S
GR
GS
[0.3 0 0 0.3 0 0] CT
0 0 1 RC
1 LJ
1.667 LW
N
1037.481 257.892 M
1037.481 235.531 L
1079.212 235.531 L
1079.212 257.892 L
1037.481 257.892 L
S
GR
GS
[0.3 0 0 0.3 0 0] CT
0 0 1 RC
1 LJ
1.667 LW
N
1120.942 441.754 M
1120.942 414.423 L
1162.673 414.423 L
1162.673 441.754 L
1120.942 441.754 L
S
GR
GS
[0.3 0 0 0.3 0 0] CT
0 0 1 RC
1 LJ
1.667 LW
N
1204.404 315.038 M
1204.404 280.254 L
1246.135 280.254 L
1246.135 315.038 L
1204.404 315.038 L
S
GR
GS
[0.3 0 0 0.3 0 0] CT
1 0 0 RC
1 LJ
1.667 LW
N
202.865 164.719 M
244.596 164.719 L
S
GR
GS
[0.3 0 0 0.3 0 0] CT
1 0 0 RC
1 LJ
1.667 LW
N
286.327 303.858 M
328.058 303.858 L
S
GR
GS
[0.3 0 0 0.3 0 0] CT
1 0 0 RC
1 LJ
1.667 LW
N
369.788 234.288 M
411.519 234.288 L
S
GR
GS
[0.3 0 0 0.3 0 0] CT
1 0 0 RC
1 LJ
1.667 LW
N
453.25 270.315 M
494.981 270.315 L
S
GR
GS
[0.3 0 0 0.3 0 0] CT
1 0 0 RC
1 LJ
1.667 LW
N
536.712 415.665 M
578.442 415.665 L
S
GR
GS
[0.3 0 0 0.3 0 0] CT
1 0 0 RC
1 LJ
1.667 LW
N
620.173 538.654 M
661.904 538.654 L
S
GR
GS
[0.3 0 0 0.3 0 0] CT
1 0 0 RC
1 LJ
1.667 LW
N
703.635 297.646 M
745.365 297.646 L
S
GR
GS
[0.3 0 0 0.3 0 0] CT
1 0 0 RC
1 LJ
1.667 LW
N
787.096 462.873 M
828.827 462.873 L
S
GR
GS
[0.3 0 0 0.3 0 0] CT
1 0 0 RC
1 LJ
1.667 LW
N
870.558 455.419 M
912.288 455.419 L
S
GR
GS
[0.3 0 0 0.3 0 0] CT
1 0 0 RC
1 LJ
1.667 LW
N
954.019 298.888 M
995.75 298.888 L
S
GR
GS
[0.3 0 0 0.3 0 0] CT
1 0 0 RC
1 LJ
1.667 LW
N
1037.481 245.469 M
1079.212 245.469 L
S
GR
GS
[0.3 0 0 0.3 0 0] CT
1 0 0 RC
1 LJ
1.667 LW
N
1120.942 439.269 M
1162.673 439.269 L
S
GR
GS
[0.3 0 0 0.3 0 0] CT
1 0 0 RC
1 LJ
1.667 LW
N
1204.404 305.1 M
1246.135 305.1 L
S
GR
GS
[0.3 0 0 0.3 0 0] CT
1 0 0 RC
1 LJ
1.667 LW
N
380.654 205.715 M
400.654 205.715 L
S
GR
GS
[0.3 0 0 0.3 0 0] CT
1 0 0 RC
1 LJ
1.667 LW
N
390.654 215.715 M
390.654 195.715 L
S
GR
GS
[0.3 0 0 0.3 0 0] CT
1 0 0 RC
1 LJ
1.667 LW
N
631.038 491.446 M
651.038 491.446 L
S
GR
GS
[0.3 0 0 0.3 0 0] CT
1 0 0 RC
1 LJ
1.667 LW
N
641.038 501.446 M
641.038 481.446 L
S
GR
GS
[0.3 0 0 0.3 0 0] CT
1 0 0 RC
1 LJ
1.667 LW
N
631.038 434.3 M
651.038 434.3 L
S
GR
GS
[0.3 0 0 0.3 0 0] CT
1 0 0 RC
1 LJ
1.667 LW
N
641.038 444.3 M
641.038 424.3 L
S
GR
GS
[0.3 0 0 0.3 0 0] CT
1 0 0 RC
1 LJ
1.667 LW
N
881.423 200.746 M
901.423 200.746 L
S
GR
GS
[0.3 0 0 0.3 0 0] CT
1 0 0 RC
1 LJ
1.667 LW
N
891.423 210.746 M
891.423 190.746 L
S
GR
GS
[0.3 0 0 0.3 0 0] CT
1 0 0 RC
1 LJ
1.667 LW
N
964.885 426.846 M
984.885 426.846 L
S
GR
GS
[0.3 0 0 0.3 0 0] CT
1 0 0 RC
1 LJ
1.667 LW
N
974.885 436.846 M
974.885 416.846 L
S
GR
GS
[0.3 0 0 0.3 0 0] CT
1 0 0 RC
1 LJ
1.667 LW
N
1131.808 541.138 M
1151.808 541.138 L
S
GR
GS
[0.3 0 0 0.3 0 0] CT
1 0 0 RC
1 LJ
1.667 LW
N
1141.808 551.138 M
1141.808 531.138 L
S
GR
GS
[0.3 0 0 0.3 0 0] CT
1 0 0 RC
1 LJ
1.667 LW
N
1131.808 501.385 M
1151.808 501.385 L
S
GR
GS
[0.3 0 0 0.3 0 0] CT
1 0 0 RC
1 LJ
1.667 LW
N
1141.808 511.385 M
1141.808 491.385 L
S
GR
GS
[0.3 0 0 0.3 0 0] CT
1 0 0 RC
1 LJ
1.667 LW
N
1131.808 349.823 M
1151.808 349.823 L
S
GR
GS
[0.3 0 0 0.3 0 0] CT
1 0 0 RC
1 LJ
1.667 LW
N
1141.808 359.823 M
1141.808 339.823 L
S
GR
GS
[0.3 0 0 0.3 0 0] CT
1 0 0 RC
1 LJ
1.667 LW
N
1215.269 454.177 M
1235.269 454.177 L
S
GR
GS
[0.3 0 0 0.3 0 0] CT
1 0 0 RC
1 LJ
1.667 LW
N
1225.269 464.177 M
1225.269 444.177 L
S
GR
GS
[0.3 0 0 0.3 0 0] CT
1 0 0 RC
1 LJ
1.667 LW
N
1215.269 414.423 M
1235.269 414.423 L
S
GR
GS
[0.3 0 0 0.3 0 0] CT
1 0 0 RC
1 LJ
1.667 LW
N
1225.269 424.423 M
1225.269 404.423 L
S
GR
GS
[0.3 0 0 0.3 0 0] CT
1 0 1 RC
1 LJ
3.333 LW
N
181.892 228.077 M
1267.109 228.077 L
S
GR
GS
[0.3 0 0 0.3 0 0] CT
0 1 1 RC
[3 3] 0 setdash
2 LJ
3.333 LW
N
766.231 725 M
766.231 78.935 L
S
GR
GS
[0 -0.3 0.3 0 67.11923 280.2] CT
/Helvetica 33 F
GS
[1 0 0 1 0 0] CT
0 13 moveto 
1 -1 scale
(Cross) t 
GR
GR
GS
[0 -0.3 0.3 0 92.1577 280.2] CT
/Helvetica 33 F
GS
[1 0 0 1 0 0] CT
0 13 moveto 
1 -1 scale
(BD_cross_4) t 
GR
GR
GS
[0 -0.3 0.3 0 117.19615 280.2] CT
/Helvetica 33 F
GS
[1 0 0 1 0 0] CT
0 13 moveto 
1 -1 scale
(BD_cross_6) t 
GR
GR
GS
[0 -0.3 0.3 0 142.23462 280.2] CT
/Helvetica 33 F
GS
[1 0 0 1 0 0] CT
0 13 moveto 
1 -1 scale
(BD_cross_7) t 
GR
GR
GS
[0 -0.3 0.3 0 167.27307 280.2] CT
/Helvetica 33 F
GS
[1 0 0 1 0 0] CT
0 13 moveto 
1 -1 scale
(BD_cross_11) t 
GR
GR
GS
[0 -0.3 0.3 0 192.31154 280.2] CT
/Helvetica 33 F
GS
[1 0 0 1 0 0] CT
0 13 moveto 
1 -1 scale
(BD_cross_13) t 
GR
GR
GS
[0 -0.3 0.3 0 217.35 280.2] CT
/Helvetica 33 F
GS
[1 0 0 1 0 0] CT
0 13 moveto 
1 -1 scale
(BD_cross_14) t 
GR
GR
GS
[0 -0.3 0.3 0 242.38846 280.2] CT
/Helvetica 33 F
GS
[1 0 0 1 0 0] CT
0 13 moveto 
1 -1 scale
(AD_cross_4) t 
GR
GR
GS
[0 -0.3 0.3 0 267.42693 280.2] CT
/Helvetica 33 F
GS
[1 0 0 1 0 0] CT
0 13 moveto 
1 -1 scale
(AD_cross_6) t 
GR
GR
GS
[0 -0.3 0.3 0 292.46539 280.2] CT
/Helvetica 33 F
GS
[1 0 0 1 0 0] CT
0 13 moveto 
1 -1 scale
(AD_cross_7) t 
GR
GR
GS
[0 -0.3 0.3 0 317.50382 280.2] CT
/Helvetica 33 F
GS
[1 0 0 1 0 0] CT
0 13 moveto 
1 -1 scale
(AD_cross_11) t 
GR
GR
GS
[0 -0.3 0.3 0 342.54229 280.2] CT
/Helvetica 33 F
GS
[1 0 0 1 0 0] CT
0 13 moveto 
1 -1 scale
(AD_cross_13) t 
GR
GR
GS
[0 -0.3 0.3 0 367.58079 280.2] CT
/Helvetica 33 F
GS
[1 0 0 1 0 0] CT
0 13 moveto 
1 -1 scale
(AD_cross_14) t 
GR
GR
%%Trailer
%%Pages: 1
%%EOF
