%!PS-Adobe-3.0 EPSF-3.0
%%Creator: (MATLAB, The Mathworks, Inc. Version 8.6.0.267246 \(R2015b\). Operating System: Windows 8)
%%Title: (C:/Users/Daniel/OneDrive - CertiCon a.s/Documents/skola/CVUT/Semester_8/Bakalarska_Praca/BT/matlab/measure_new/Percentil/Dog/BAD_Dog.eps)
%%CreationDate: 2016-05-23T09:35:11
%%Pages: (atend)
%%BoundingBox: 0 0 420 315
%%LanguageLevel: 2
%%EndComments
%%BeginProlog
%%BeginResource: procset (Apache XML Graphics Std ProcSet) 1.2 0
%%Version: 1.2 0
%%Copyright: (Copyright 2001-2003,2010 The Apache Software Foundation. License terms: http://www.apache.org/licenses/LICENSE-2.0)
/bd{bind def}bind def
/ld{load def}bd
/GR/grestore ld
/M/moveto ld
/LJ/setlinejoin ld
/C/curveto ld
/f/fill ld
/LW/setlinewidth ld
/GC/setgray ld
/t/show ld
/N/newpath ld
/CT/concat ld
/cp/closepath ld
/S/stroke ld
/L/lineto ld
/CC/setcmykcolor ld
/A/ashow ld
/GS/gsave ld
/RC/setrgbcolor ld
/RM/rmoveto ld
/ML/setmiterlimit ld
/re {4 2 roll M
1 index 0 rlineto
0 exch rlineto
neg 0 rlineto
cp } bd
/_ctm matrix def
/_tm matrix def
/BT { _ctm currentmatrix pop matrix _tm copy pop 0 0 moveto } bd
/ET { _ctm setmatrix } bd
/iTm { _ctm setmatrix _tm concat } bd
/Tm { _tm astore pop iTm 0 0 moveto } bd
/ux 0.0 def
/uy 0.0 def
/F {
  /Tp exch def
  /Tf exch def
  Tf findfont Tp scalefont setfont
  /cf Tf def  /cs Tp def
} bd
/ULS {currentpoint /uy exch def /ux exch def} bd
/ULE {
  /Tcx currentpoint pop def
  gsave
  newpath
  cf findfont cs scalefont dup
  /FontMatrix get 0 get /Ts exch def /FontInfo get dup
  /UnderlinePosition get Ts mul /To exch def
  /UnderlineThickness get Ts mul /Tt exch def
  ux uy To add moveto  Tcx uy To add lineto
  Tt setlinewidth stroke
  grestore
} bd
/OLE {
  /Tcx currentpoint pop def
  gsave
  newpath
  cf findfont cs scalefont dup
  /FontMatrix get 0 get /Ts exch def /FontInfo get dup
  /UnderlinePosition get Ts mul /To exch def
  /UnderlineThickness get Ts mul /Tt exch def
  ux uy To add cs add moveto Tcx uy To add cs add lineto
  Tt setlinewidth stroke
  grestore
} bd
/SOE {
  /Tcx currentpoint pop def
  gsave
  newpath
  cf findfont cs scalefont dup
  /FontMatrix get 0 get /Ts exch def /FontInfo get dup
  /UnderlinePosition get Ts mul /To exch def
  /UnderlineThickness get Ts mul /Tt exch def
  ux uy To add cs 10 mul 26 idiv add moveto Tcx uy To add cs 10 mul 26 idiv add lineto
  Tt setlinewidth stroke
  grestore
} bd
/QT {
/Y22 exch store
/X22 exch store
/Y21 exch store
/X21 exch store
currentpoint
/Y21 load 2 mul add 3 div exch
/X21 load 2 mul add 3 div exch
/X21 load 2 mul /X22 load add 3 div
/Y21 load 2 mul /Y22 load add 3 div
/X22 load /Y22 load curveto
} bd
/SSPD {
dup length /d exch dict def
{
/v exch def
/k exch def
currentpagedevice k known {
/cpdv currentpagedevice k get def
v cpdv ne {
/upd false def
/nullv v type /nulltype eq def
/nullcpdv cpdv type /nulltype eq def
nullv nullcpdv or
{
/upd true def
} {
/sametype v type cpdv type eq def
sametype {
v type /arraytype eq {
/vlen v length def
/cpdvlen cpdv length def
vlen cpdvlen eq {
0 1 vlen 1 sub {
/i exch def
/obj v i get def
/cpdobj cpdv i get def
obj cpdobj ne {
/upd true def
exit
} if
} for
} {
/upd true def
} ifelse
} {
v type /dicttype eq {
v {
/dv exch def
/dk exch def
/cpddv cpdv dk get def
dv cpddv ne {
/upd true def
exit
} if
} forall
} {
/upd true def
} ifelse
} ifelse
} if
} ifelse
upd true eq {
d k v put
} if
} if
} if
} forall
d length 0 gt {
d setpagedevice
} if
} bd
%%EndResource
%%BeginResource: procset (Apache XML Graphics EPS ProcSet) 1.0 0
%%Version: 1.0 0
%%Copyright: (Copyright 2002-2003 The Apache Software Foundation. License terms: http://www.apache.org/licenses/LICENSE-2.0)
/BeginEPSF { %def
/b4_Inc_state save def         % Save state for cleanup
/dict_count countdictstack def % Count objects on dict stack
/op_count count 1 sub def      % Count objects on operand stack
userdict begin                 % Push userdict on dict stack
/showpage { } def              % Redefine showpage, { } = null proc
0 setgray 0 setlinecap         % Prepare graphics state
1 setlinewidth 0 setlinejoin
10 setmiterlimit [ ] 0 setdash newpath
/languagelevel where           % If level not equal to 1 then
{pop languagelevel             % set strokeadjust and
1 ne                           % overprint to their defaults.
{false setstrokeadjust false setoverprint
} if
} if
} bd
/EndEPSF { %def
count op_count sub {pop} repeat            % Clean up stacks
countdictstack dict_count sub {end} repeat
b4_Inc_state restore
} bd
%%EndResource
%FOPBeginFontDict
%%IncludeResource: font Courier-Bold
%%IncludeResource: font Helvetica
%%IncludeResource: font Courier-BoldOblique
%%IncludeResource: font Courier-Oblique
%%IncludeResource: font Times-Roman
%%IncludeResource: font Helvetica-BoldOblique
%%IncludeResource: font Helvetica-Bold
%%IncludeResource: font Helvetica-Oblique
%%IncludeResource: font Times-BoldItalic
%%IncludeResource: font Courier
%%IncludeResource: font Times-Italic
%%IncludeResource: font Times-Bold
%%IncludeResource: font Symbol
%%IncludeResource: font ZapfDingbats
%FOPEndFontDict
%%BeginResource: encoding WinAnsiEncoding
/WinAnsiEncoding [
/.notdef /.notdef /.notdef /.notdef /.notdef
/.notdef /.notdef /.notdef /.notdef /.notdef
/.notdef /.notdef /.notdef /.notdef /.notdef
/.notdef /.notdef /.notdef /.notdef /.notdef
/.notdef /.notdef /.notdef /.notdef /.notdef
/.notdef /.notdef /.notdef /.notdef /.notdef
/.notdef /.notdef /space /exclam /quotedbl
/numbersign /dollar /percent /ampersand /quotesingle
/parenleft /parenright /asterisk /plus /comma
/hyphen /period /slash /zero /one
/two /three /four /five /six
/seven /eight /nine /colon /semicolon
/less /equal /greater /question /at
/A /B /C /D /E
/F /G /H /I /J
/K /L /M /N /O
/P /Q /R /S /T
/U /V /W /X /Y
/Z /bracketleft /backslash /bracketright /asciicircum
/underscore /quoteleft /a /b /c
/d /e /f /g /h
/i /j /k /l /m
/n /o /p /q /r
/s /t /u /v /w
/x /y /z /braceleft /bar
/braceright /asciitilde /bullet /Euro /bullet
/quotesinglbase /florin /quotedblbase /ellipsis /dagger
/daggerdbl /circumflex /perthousand /Scaron /guilsinglleft
/OE /bullet /Zcaron /bullet /bullet
/quoteleft /quoteright /quotedblleft /quotedblright /bullet
/endash /emdash /asciitilde /trademark /scaron
/guilsinglright /oe /bullet /zcaron /Ydieresis
/space /exclamdown /cent /sterling /currency
/yen /brokenbar /section /dieresis /copyright
/ordfeminine /guillemotleft /logicalnot /sfthyphen /registered
/macron /degree /plusminus /twosuperior /threesuperior
/acute /mu /paragraph /middot /cedilla
/onesuperior /ordmasculine /guillemotright /onequarter /onehalf
/threequarters /questiondown /Agrave /Aacute /Acircumflex
/Atilde /Adieresis /Aring /AE /Ccedilla
/Egrave /Eacute /Ecircumflex /Edieresis /Igrave
/Iacute /Icircumflex /Idieresis /Eth /Ntilde
/Ograve /Oacute /Ocircumflex /Otilde /Odieresis
/multiply /Oslash /Ugrave /Uacute /Ucircumflex
/Udieresis /Yacute /Thorn /germandbls /agrave
/aacute /acircumflex /atilde /adieresis /aring
/ae /ccedilla /egrave /eacute /ecircumflex
/edieresis /igrave /iacute /icircumflex /idieresis
/eth /ntilde /ograve /oacute /ocircumflex
/otilde /odieresis /divide /oslash /ugrave
/uacute /ucircumflex /udieresis /yacute /thorn
/ydieresis
] def
%%EndResource
%FOPBeginFontReencode
/Courier-Bold findfont
dup length dict begin
  {1 index /FID ne {def} {pop pop} ifelse} forall
  /Encoding WinAnsiEncoding def
  currentdict
end
/Courier-Bold exch definefont pop
/Helvetica findfont
dup length dict begin
  {1 index /FID ne {def} {pop pop} ifelse} forall
  /Encoding WinAnsiEncoding def
  currentdict
end
/Helvetica exch definefont pop
/Courier-BoldOblique findfont
dup length dict begin
  {1 index /FID ne {def} {pop pop} ifelse} forall
  /Encoding WinAnsiEncoding def
  currentdict
end
/Courier-BoldOblique exch definefont pop
/Courier-Oblique findfont
dup length dict begin
  {1 index /FID ne {def} {pop pop} ifelse} forall
  /Encoding WinAnsiEncoding def
  currentdict
end
/Courier-Oblique exch definefont pop
/Times-Roman findfont
dup length dict begin
  {1 index /FID ne {def} {pop pop} ifelse} forall
  /Encoding WinAnsiEncoding def
  currentdict
end
/Times-Roman exch definefont pop
/Helvetica-BoldOblique findfont
dup length dict begin
  {1 index /FID ne {def} {pop pop} ifelse} forall
  /Encoding WinAnsiEncoding def
  currentdict
end
/Helvetica-BoldOblique exch definefont pop
/Helvetica-Bold findfont
dup length dict begin
  {1 index /FID ne {def} {pop pop} ifelse} forall
  /Encoding WinAnsiEncoding def
  currentdict
end
/Helvetica-Bold exch definefont pop
/Helvetica-Oblique findfont
dup length dict begin
  {1 index /FID ne {def} {pop pop} ifelse} forall
  /Encoding WinAnsiEncoding def
  currentdict
end
/Helvetica-Oblique exch definefont pop
/Times-BoldItalic findfont
dup length dict begin
  {1 index /FID ne {def} {pop pop} ifelse} forall
  /Encoding WinAnsiEncoding def
  currentdict
end
/Times-BoldItalic exch definefont pop
/Courier findfont
dup length dict begin
  {1 index /FID ne {def} {pop pop} ifelse} forall
  /Encoding WinAnsiEncoding def
  currentdict
end
/Courier exch definefont pop
/Times-Italic findfont
dup length dict begin
  {1 index /FID ne {def} {pop pop} ifelse} forall
  /Encoding WinAnsiEncoding def
  currentdict
end
/Times-Italic exch definefont pop
/Times-Bold findfont
dup length dict begin
  {1 index /FID ne {def} {pop pop} ifelse} forall
  /Encoding WinAnsiEncoding def
  currentdict
end
/Times-Bold exch definefont pop
%FOPEndFontReencode
%%EndProlog
%%Page: 1 1
%%PageBoundingBox: 0 0 420 315
%%BeginPageSetup
[1 0 0 -1 0 315] CT
%%EndPageSetup
GS
[0.3 0 0 0.3 0 0] CT
1 GC
N
0 0 1400 1050 re
f
GR
GS
[0.3 0 0 0.3 0 0] CT
1 GC
N
0 0 1400 1050 re
f
GR
GS
[0.3 0 0 0.3 0 0] CT
1 GC
N
182 744 M
1267 744 L
1267 79 L
182 79 L
cp
f
GR
GS
[0.3 0 0 0.3 0 0] CT
0.149 GC
2 setlinecap
1 LJ
1.667 LW
N
182 744 M
1267 744 L
S
GR
GS
[0.3 0 0 0.3 0 0] CT
0.149 GC
2 setlinecap
1 LJ
1.667 LW
N
182 79 M
1267 79 L
S
GR
GS
[0.3 0 0 0.3 0 0] CT
0.149 GC
2 setlinecap
1 LJ
1.667 LW
N
182 744 M
182 79 L
S
GR
GS
[0.3 0 0 0.3 0 0] CT
0.149 GC
2 setlinecap
1 LJ
1.667 LW
N
1267 744 M
1267 79 L
S
GR
GS
[0.3 0 0 0.3 0 0] CT
0.149 GC
2 setlinecap
1 LJ
1.667 LW
N
182 744 M
192.85 744 L
S
GR
GS
[0.3 0 0 0.3 0 0] CT
0.149 GC
2 setlinecap
1 LJ
1.667 LW
N
182 670.111 M
192.85 670.111 L
S
GR
GS
[0.3 0 0 0.3 0 0] CT
0.149 GC
2 setlinecap
1 LJ
1.667 LW
N
182 596.222 M
192.85 596.222 L
S
GR
GS
[0.3 0 0 0.3 0 0] CT
0.149 GC
2 setlinecap
1 LJ
1.667 LW
N
182 522.333 M
192.85 522.333 L
S
GR
GS
[0.3 0 0 0.3 0 0] CT
0.149 GC
2 setlinecap
1 LJ
1.667 LW
N
182 448.444 M
192.85 448.444 L
S
GR
GS
[0.3 0 0 0.3 0 0] CT
0.149 GC
2 setlinecap
1 LJ
1.667 LW
N
182 374.556 M
192.85 374.556 L
S
GR
GS
[0.3 0 0 0.3 0 0] CT
0.149 GC
2 setlinecap
1 LJ
1.667 LW
N
182 300.667 M
192.85 300.667 L
S
GR
GS
[0.3 0 0 0.3 0 0] CT
0.149 GC
2 setlinecap
1 LJ
1.667 LW
N
182 226.778 M
192.85 226.778 L
S
GR
GS
[0.3 0 0 0.3 0 0] CT
0.149 GC
2 setlinecap
1 LJ
1.667 LW
N
182 152.889 M
192.85 152.889 L
S
GR
GS
[0.3 0 0 0.3 0 0] CT
0.149 GC
2 setlinecap
1 LJ
1.667 LW
N
182 79 M
192.85 79 L
S
GR
GS
[0.3 0 0 0.3 0 0] CT
0.149 GC
2 setlinecap
1 LJ
1.667 LW
N
1267 744 M
1256.15 744 L
S
GR
GS
[0.3 0 0 0.3 0 0] CT
0.149 GC
2 setlinecap
1 LJ
1.667 LW
N
1267 670.111 M
1256.15 670.111 L
S
GR
GS
[0.3 0 0 0.3 0 0] CT
0.149 GC
2 setlinecap
1 LJ
1.667 LW
N
1267 596.222 M
1256.15 596.222 L
S
GR
GS
[0.3 0 0 0.3 0 0] CT
0.149 GC
2 setlinecap
1 LJ
1.667 LW
N
1267 522.333 M
1256.15 522.333 L
S
GR
GS
[0.3 0 0 0.3 0 0] CT
0.149 GC
2 setlinecap
1 LJ
1.667 LW
N
1267 448.444 M
1256.15 448.444 L
S
GR
GS
[0.3 0 0 0.3 0 0] CT
0.149 GC
2 setlinecap
1 LJ
1.667 LW
N
1267 374.556 M
1256.15 374.556 L
S
GR
GS
[0.3 0 0 0.3 0 0] CT
0.149 GC
2 setlinecap
1 LJ
1.667 LW
N
1267 300.667 M
1256.15 300.667 L
S
GR
GS
[0.3 0 0 0.3 0 0] CT
0.149 GC
2 setlinecap
1 LJ
1.667 LW
N
1267 226.778 M
1256.15 226.778 L
S
GR
GS
[0.3 0 0 0.3 0 0] CT
0.149 GC
2 setlinecap
1 LJ
1.667 LW
N
1267 152.889 M
1256.15 152.889 L
S
GR
GS
[0.3 0 0 0.3 0 0] CT
0.149 GC
2 setlinecap
1 LJ
1.667 LW
N
1267 79 M
1256.15 79 L
S
GR
GS
[0.3 0 0 0.3 50.6 223.2] CT
0.149 GC
/Helvetica 33 F
GS
[1 0 0 1 0 0] CT
-19 13 moveto 
1 -1 scale
(0) t 
GR
GR
GS
[0.3 0 0 0.3 50.6 201.03333] CT
0.149 GC
/Helvetica 33 F
GS
[1 0 0 1 0 0] CT
-19 13 moveto 
1 -1 scale
(5) t 
GR
GR
GS
[0.3 0 0 0.3 50.6 178.86667] CT
0.149 GC
/Helvetica 33 F
GS
[1 0 0 1 0 0] CT
-37 13 moveto 
1 -1 scale
(10) t 
GR
GR
GS
[0.3 0 0 0.3 50.6 156.69999] CT
0.149 GC
/Helvetica 33 F
GS
[1 0 0 1 0 0] CT
-37 13 moveto 
1 -1 scale
(15) t 
GR
GR
GS
[0.3 0 0 0.3 50.6 134.53334] CT
0.149 GC
/Helvetica 33 F
GS
[1 0 0 1 0 0] CT
-37 13 moveto 
1 -1 scale
(20) t 
GR
GR
GS
[0.3 0 0 0.3 50.6 112.36666] CT
0.149 GC
/Helvetica 33 F
GS
[1 0 0 1 0 0] CT
-37 13 moveto 
1 -1 scale
(25) t 
GR
GR
GS
[0.3 0 0 0.3 50.6 90.2] CT
0.149 GC
/Helvetica 33 F
GS
[1 0 0 1 0 0] CT
-37 13 moveto 
1 -1 scale
(30) t 
GR
GR
GS
[0.3 0 0 0.3 50.6 68.03333] CT
0.149 GC
/Helvetica 33 F
GS
[1 0 0 1 0 0] CT
-37 13 moveto 
1 -1 scale
(35) t 
GR
GR
GS
[0.3 0 0 0.3 50.6 45.86667] CT
0.149 GC
/Helvetica 33 F
GS
[1 0 0 1 0 0] CT
-37 13 moveto 
1 -1 scale
(40) t 
GR
GR
GS
[0.3 0 0 0.3 50.6 23.7] CT
0.149 GC
/Helvetica 33 F
GS
[1 0 0 1 0 0] CT
-37 13 moveto 
1 -1 scale
(45) t 
GR
GR
GS
[0 -0.3 0.3 0 36.5 123.44991] CT
0.149 GC
/Helvetica 37 F
GS
[1 0 0 1 0 0] CT
-194.5 -9 moveto 
1 -1 scale
(Visited environment [%]) t 
GR
GR
GS
[0.3 0 0 0.3 217.3502 22.87501] CT
/Helvetica-Bold 37 F
GS
[1 0 0 1 0 0] CT
-299.5 -9 moveto 
1 -1 scale
(Before and after modules removel) t 
GR
GR
GS
[0.3 0 0 0.3 0 0] CT
[10 6] 0 setdash
2 LJ
1.667 LW
N
207.833 189.833 M
207.833 160.278 L
S
GR
GS
[0.3 0 0 0.3 0 0] CT
[10 6] 0 setdash
2 LJ
1.667 LW
N
259.5 418.889 M
259.5 381.944 L
S
GR
GS
[0.3 0 0 0.3 0 0] CT
[10 6] 0 setdash
2 LJ
1.667 LW
N
311.167 319.139 M
311.167 296.972 L
S
GR
GS
[0.3 0 0 0.3 0 0] CT
[10 6] 0 setdash
2 LJ
1.667 LW
N
362.833 459.528 M
362.833 381.944 L
S
GR
GS
[0.3 0 0 0.3 0 0] CT
[10 6] 0 setdash
2 LJ
1.667 LW
N
414.5 603.611 M
414.5 599.917 L
S
GR
GS
[0.3 0 0 0.3 0 0] CT
[10 6] 0 setdash
2 LJ
1.667 LW
N
466.167 197.222 M
466.167 186.139 L
S
GR
GS
[0.3 0 0 0.3 0 0] CT
[10 6] 0 setdash
2 LJ
1.667 LW
N
517.833 485.389 M
517.833 444.75 L
S
GR
GS
[0.3 0 0 0.3 0 0] CT
[10 6] 0 setdash
2 LJ
1.667 LW
N
569.5 374.556 M
569.5 345 L
S
GR
GS
[0.3 0 0 0.3 0 0] CT
[10 6] 0 setdash
2 LJ
1.667 LW
N
621.167 459.528 M
621.167 459.528 L
S
GR
GS
[0.3 0 0 0.3 0 0] CT
[10 6] 0 setdash
2 LJ
1.667 LW
N
672.833 522.333 M
672.833 470.611 L
S
GR
GS
[0.3 0 0 0.3 0 0] CT
[10 6] 0 setdash
2 LJ
1.667 LW
N
724.5 385.639 M
724.5 333.917 L
S
GR
GS
[0.3 0 0 0.3 0 0] CT
[10 6] 0 setdash
2 LJ
1.667 LW
N
776.167 429.972 M
776.167 407.806 L
S
GR
GS
[0.3 0 0 0.3 0 0] CT
[10 6] 0 setdash
2 LJ
1.667 LW
N
827.833 337.611 M
827.833 237.861 L
S
GR
GS
[0.3 0 0 0.3 0 0] CT
[10 6] 0 setdash
2 LJ
1.667 LW
N
879.5 474.306 M
879.5 452.139 L
S
GR
GS
[0.3 0 0 0.3 0 0] CT
[10 6] 0 setdash
2 LJ
1.667 LW
N
931.167 426.278 M
931.167 271.111 L
S
GR
GS
[0.3 0 0 0.3 0 0] CT
[10 6] 0 setdash
2 LJ
1.667 LW
N
982.833 459.528 M
982.833 396.722 L
S
GR
GS
[0.3 0 0 0.3 0 0] CT
[10 6] 0 setdash
2 LJ
1.667 LW
N
1034.5 455.833 M
1034.5 378.25 L
S
GR
GS
[0.3 0 0 0.3 0 0] CT
[10 6] 0 setdash
2 LJ
1.667 LW
N
1086.167 300.667 M
1086.167 208.306 L
S
GR
GS
[0.3 0 0 0.3 0 0] CT
[10 6] 0 setdash
2 LJ
1.667 LW
N
1137.833 396.722 M
1137.833 267.417 L
S
GR
GS
[0.3 0 0 0.3 0 0] CT
[10 6] 0 setdash
2 LJ
1.667 LW
N
1189.5 444.75 M
1189.5 404.111 L
S
GR
GS
[0.3 0 0 0.3 0 0] CT
[10 6] 0 setdash
2 LJ
1.667 LW
N
1241.167 289.583 M
1241.167 274.806 L
S
GR
GS
[0.3 0 0 0.3 0 0] CT
[10 6] 0 setdash
2 LJ
1.667 LW
N
207.833 237.861 M
207.833 219.389 L
S
GR
GS
[0.3 0 0 0.3 0 0] CT
[10 6] 0 setdash
2 LJ
1.667 LW
N
259.5 603.611 M
259.5 581.444 L
S
GR
GS
[0.3 0 0 0.3 0 0] CT
[10 6] 0 setdash
2 LJ
1.667 LW
N
311.167 363.472 M
311.167 345 L
S
GR
GS
[0.3 0 0 0.3 0 0] CT
[10 6] 0 setdash
2 LJ
1.667 LW
N
362.833 566.667 M
362.833 533.417 L
S
GR
GS
[0.3 0 0 0.3 0 0] CT
[10 6] 0 setdash
2 LJ
1.667 LW
N
414.5 622.083 M
414.5 618.389 L
S
GR
GS
[0.3 0 0 0.3 0 0] CT
[10 6] 0 setdash
2 LJ
1.667 LW
N
466.167 263.722 M
466.167 230.472 L
S
GR
GS
[0.3 0 0 0.3 0 0] CT
[10 6] 0 setdash
2 LJ
1.667 LW
N
517.833 666.417 M
517.833 614.694 L
S
GR
GS
[0.3 0 0 0.3 0 0] CT
[10 6] 0 setdash
2 LJ
1.667 LW
N
569.5 433.667 M
569.5 418.889 L
S
GR
GS
[0.3 0 0 0.3 0 0] CT
[10 6] 0 setdash
2 LJ
1.667 LW
N
621.167 518.639 M
621.167 507.556 L
S
GR
GS
[0.3 0 0 0.3 0 0] CT
[10 6] 0 setdash
2 LJ
1.667 LW
N
672.833 651.639 M
672.833 607.306 L
S
GR
GS
[0.3 0 0 0.3 0 0] CT
[10 6] 0 setdash
2 LJ
1.667 LW
N
724.5 426.278 M
724.5 422.583 L
S
GR
GS
[0.3 0 0 0.3 0 0] CT
[10 6] 0 setdash
2 LJ
1.667 LW
N
776.167 699.667 M
776.167 544.5 L
S
GR
GS
[0.3 0 0 0.3 0 0] CT
[10 6] 0 setdash
2 LJ
1.667 LW
N
827.833 666.417 M
827.833 548.194 L
S
GR
GS
[0.3 0 0 0.3 0 0] CT
[10 6] 0 setdash
2 LJ
1.667 LW
N
879.5 588.833 M
879.5 537.111 L
S
GR
GS
[0.3 0 0 0.3 0 0] CT
[10 6] 0 setdash
2 LJ
1.667 LW
N
931.167 585.139 M
931.167 566.667 L
S
GR
GS
[0.3 0 0 0.3 0 0] CT
[10 6] 0 setdash
2 LJ
1.667 LW
N
982.833 526.028 M
982.833 526.028 L
S
GR
GS
[0.3 0 0 0.3 0 0] CT
[10 6] 0 setdash
2 LJ
1.667 LW
N
1034.5 684.889 M
1034.5 618.389 L
S
GR
GS
[0.3 0 0 0.3 0 0] CT
[10 6] 0 setdash
2 LJ
1.667 LW
N
1086.167 670.111 M
1086.167 585.139 L
S
GR
GS
[0.3 0 0 0.3 0 0] CT
[10 6] 0 setdash
2 LJ
1.667 LW
N
1137.833 659.028 M
1137.833 518.639 L
S
GR
GS
[0.3 0 0 0.3 0 0] CT
[10 6] 0 setdash
2 LJ
1.667 LW
N
1189.5 544.5 M
1189.5 518.639 L
S
GR
GS
[0.3 0 0 0.3 0 0] CT
[10 6] 0 setdash
2 LJ
1.667 LW
N
1241.167 507.556 M
1241.167 455.833 L
S
GR
GS
[0.3 0 0 0.3 0 0] CT
1 LJ
1.667 LW
N
201.375 160.278 M
214.292 160.278 L
S
GR
GS
[0.3 0 0 0.3 0 0] CT
1 LJ
1.667 LW
N
253.042 381.944 M
265.958 381.944 L
S
GR
GS
[0.3 0 0 0.3 0 0] CT
1 LJ
1.667 LW
N
304.708 296.972 M
317.625 296.972 L
S
GR
GS
[0.3 0 0 0.3 0 0] CT
1 LJ
1.667 LW
N
356.375 381.944 M
369.292 381.944 L
S
GR
GS
[0.3 0 0 0.3 0 0] CT
1 LJ
1.667 LW
N
408.042 599.917 M
420.958 599.917 L
S
GR
GS
[0.3 0 0 0.3 0 0] CT
1 LJ
1.667 LW
N
459.708 186.139 M
472.625 186.139 L
S
GR
GS
[0.3 0 0 0.3 0 0] CT
1 LJ
1.667 LW
N
511.375 444.75 M
524.292 444.75 L
S
GR
GS
[0.3 0 0 0.3 0 0] CT
1 LJ
1.667 LW
N
563.042 345 M
575.958 345 L
S
GR
GS
[0.3 0 0 0.3 0 0] CT
1 LJ
1.667 LW
N
614.708 459.528 M
627.625 459.528 L
S
GR
GS
[0.3 0 0 0.3 0 0] CT
1 LJ
1.667 LW
N
666.375 470.611 M
679.292 470.611 L
S
GR
GS
[0.3 0 0 0.3 0 0] CT
1 LJ
1.667 LW
N
718.042 333.917 M
730.958 333.917 L
S
GR
GS
[0.3 0 0 0.3 0 0] CT
1 LJ
1.667 LW
N
769.708 407.806 M
782.625 407.806 L
S
GR
GS
[0.3 0 0 0.3 0 0] CT
1 LJ
1.667 LW
N
821.375 237.861 M
834.292 237.861 L
S
GR
GS
[0.3 0 0 0.3 0 0] CT
1 LJ
1.667 LW
N
873.042 452.139 M
885.958 452.139 L
S
GR
GS
[0.3 0 0 0.3 0 0] CT
1 LJ
1.667 LW
N
924.708 271.111 M
937.625 271.111 L
S
GR
GS
[0.3 0 0 0.3 0 0] CT
1 LJ
1.667 LW
N
976.375 396.722 M
989.292 396.722 L
S
GR
GS
[0.3 0 0 0.3 0 0] CT
1 LJ
1.667 LW
N
1028.042 378.25 M
1040.958 378.25 L
S
GR
GS
[0.3 0 0 0.3 0 0] CT
1 LJ
1.667 LW
N
1079.708 208.306 M
1092.625 208.306 L
S
GR
GS
[0.3 0 0 0.3 0 0] CT
1 LJ
1.667 LW
N
1131.375 267.417 M
1144.292 267.417 L
S
GR
GS
[0.3 0 0 0.3 0 0] CT
1 LJ
1.667 LW
N
1183.042 404.111 M
1195.958 404.111 L
S
GR
GS
[0.3 0 0 0.3 0 0] CT
1 LJ
1.667 LW
N
1234.708 274.806 M
1247.625 274.806 L
S
GR
GS
[0.3 0 0 0.3 0 0] CT
1 LJ
1.667 LW
N
201.375 237.861 M
214.292 237.861 L
S
GR
GS
[0.3 0 0 0.3 0 0] CT
1 LJ
1.667 LW
N
253.042 603.611 M
265.958 603.611 L
S
GR
GS
[0.3 0 0 0.3 0 0] CT
1 LJ
1.667 LW
N
304.708 363.472 M
317.625 363.472 L
S
GR
GS
[0.3 0 0 0.3 0 0] CT
1 LJ
1.667 LW
N
356.375 566.667 M
369.292 566.667 L
S
GR
GS
[0.3 0 0 0.3 0 0] CT
1 LJ
1.667 LW
N
408.042 622.083 M
420.958 622.083 L
S
GR
GS
[0.3 0 0 0.3 0 0] CT
1 LJ
1.667 LW
N
459.708 263.722 M
472.625 263.722 L
S
GR
GS
[0.3 0 0 0.3 0 0] CT
1 LJ
1.667 LW
N
511.375 666.417 M
524.292 666.417 L
S
GR
GS
[0.3 0 0 0.3 0 0] CT
1 LJ
1.667 LW
N
563.042 433.667 M
575.958 433.667 L
S
GR
GS
[0.3 0 0 0.3 0 0] CT
1 LJ
1.667 LW
N
614.708 518.639 M
627.625 518.639 L
S
GR
GS
[0.3 0 0 0.3 0 0] CT
1 LJ
1.667 LW
N
666.375 651.639 M
679.292 651.639 L
S
GR
GS
[0.3 0 0 0.3 0 0] CT
1 LJ
1.667 LW
N
718.042 426.278 M
730.958 426.278 L
S
GR
GS
[0.3 0 0 0.3 0 0] CT
1 LJ
1.667 LW
N
769.708 699.667 M
782.625 699.667 L
S
GR
GS
[0.3 0 0 0.3 0 0] CT
1 LJ
1.667 LW
N
821.375 666.417 M
834.292 666.417 L
S
GR
GS
[0.3 0 0 0.3 0 0] CT
1 LJ
1.667 LW
N
873.042 588.833 M
885.958 588.833 L
S
GR
GS
[0.3 0 0 0.3 0 0] CT
1 LJ
1.667 LW
N
924.708 585.139 M
937.625 585.139 L
S
GR
GS
[0.3 0 0 0.3 0 0] CT
1 LJ
1.667 LW
N
976.375 526.028 M
989.292 526.028 L
S
GR
GS
[0.3 0 0 0.3 0 0] CT
1 LJ
1.667 LW
N
1028.042 684.889 M
1040.958 684.889 L
S
GR
GS
[0.3 0 0 0.3 0 0] CT
1 LJ
1.667 LW
N
1079.708 670.111 M
1092.625 670.111 L
S
GR
GS
[0.3 0 0 0.3 0 0] CT
1 LJ
1.667 LW
N
1131.375 659.028 M
1144.292 659.028 L
S
GR
GS
[0.3 0 0 0.3 0 0] CT
1 LJ
1.667 LW
N
1183.042 544.5 M
1195.958 544.5 L
S
GR
GS
[0.3 0 0 0.3 0 0] CT
1 LJ
1.667 LW
N
1234.708 507.556 M
1247.625 507.556 L
S
GR
GS
[0.3 0 0 0.3 0 0] CT
0 0 1 RC
1 LJ
1.667 LW
N
194.917 219.389 M
194.917 189.833 L
220.75 189.833 L
220.75 219.389 L
194.917 219.389 L
S
GR
GS
[0.3 0 0 0.3 0 0] CT
0 0 1 RC
1 LJ
1.667 LW
N
246.583 581.444 M
246.583 418.889 L
272.417 418.889 L
272.417 581.444 L
246.583 581.444 L
S
GR
GS
[0.3 0 0 0.3 0 0] CT
0 0 1 RC
1 LJ
1.667 LW
N
298.25 345 M
298.25 319.139 L
324.083 319.139 L
324.083 345 L
298.25 345 L
S
GR
GS
[0.3 0 0 0.3 0 0] CT
0 0 1 RC
1 LJ
1.667 LW
N
349.917 533.417 M
349.917 459.528 L
375.75 459.528 L
375.75 533.417 L
349.917 533.417 L
S
GR
GS
[0.3 0 0 0.3 0 0] CT
0 0 1 RC
1 LJ
1.667 LW
N
401.583 618.389 M
401.583 603.611 L
427.417 603.611 L
427.417 618.389 L
401.583 618.389 L
S
GR
GS
[0.3 0 0 0.3 0 0] CT
0 0 1 RC
1 LJ
1.667 LW
N
453.25 230.472 M
453.25 197.222 L
479.083 197.222 L
479.083 230.472 L
453.25 230.472 L
S
GR
GS
[0.3 0 0 0.3 0 0] CT
0 0 1 RC
1 LJ
1.667 LW
N
504.917 614.694 M
504.917 485.389 L
530.75 485.389 L
530.75 614.694 L
504.917 614.694 L
S
GR
GS
[0.3 0 0 0.3 0 0] CT
0 0 1 RC
1 LJ
1.667 LW
N
556.583 418.889 M
556.583 374.556 L
582.417 374.556 L
582.417 418.889 L
556.583 418.889 L
S
GR
GS
[0.3 0 0 0.3 0 0] CT
0 0 1 RC
1 LJ
1.667 LW
N
608.25 507.556 M
608.25 459.528 L
634.083 459.528 L
634.083 507.556 L
608.25 507.556 L
S
GR
GS
[0.3 0 0 0.3 0 0] CT
0 0 1 RC
1 LJ
1.667 LW
N
659.917 607.306 M
659.917 522.333 L
685.75 522.333 L
685.75 607.306 L
659.917 607.306 L
S
GR
GS
[0.3 0 0 0.3 0 0] CT
0 0 1 RC
1 LJ
1.667 LW
N
711.583 422.583 M
711.583 385.639 L
737.417 385.639 L
737.417 422.583 L
711.583 422.583 L
S
GR
GS
[0.3 0 0 0.3 0 0] CT
0 0 1 RC
1 LJ
1.667 LW
N
763.25 544.5 M
763.25 429.972 L
789.083 429.972 L
789.083 544.5 L
763.25 544.5 L
S
GR
GS
[0.3 0 0 0.3 0 0] CT
0 0 1 RC
1 LJ
1.667 LW
N
814.917 548.194 M
814.917 337.611 L
840.75 337.611 L
840.75 548.194 L
814.917 548.194 L
S
GR
GS
[0.3 0 0 0.3 0 0] CT
0 0 1 RC
1 LJ
1.667 LW
N
866.583 537.111 M
866.583 474.306 L
892.417 474.306 L
892.417 537.111 L
866.583 537.111 L
S
GR
GS
[0.3 0 0 0.3 0 0] CT
0 0 1 RC
1 LJ
1.667 LW
N
918.25 566.667 M
918.25 426.278 L
944.083 426.278 L
944.083 566.667 L
918.25 566.667 L
S
GR
GS
[0.3 0 0 0.3 0 0] CT
0 0 1 RC
1 LJ
1.667 LW
N
969.917 526.028 M
969.917 459.528 L
995.75 459.528 L
995.75 526.028 L
969.917 526.028 L
S
GR
GS
[0.3 0 0 0.3 0 0] CT
0 0 1 RC
1 LJ
1.667 LW
N
1021.583 618.389 M
1021.583 455.833 L
1047.417 455.833 L
1047.417 618.389 L
1021.583 618.389 L
S
GR
GS
[0.3 0 0 0.3 0 0] CT
0 0 1 RC
1 LJ
1.667 LW
N
1073.25 585.139 M
1073.25 300.667 L
1099.083 300.667 L
1099.083 585.139 L
1073.25 585.139 L
S
GR
GS
[0.3 0 0 0.3 0 0] CT
0 0 1 RC
1 LJ
1.667 LW
N
1124.917 518.639 M
1124.917 396.722 L
1150.75 396.722 L
1150.75 518.639 L
1124.917 518.639 L
S
GR
GS
[0.3 0 0 0.3 0 0] CT
0 0 1 RC
1 LJ
1.667 LW
N
1176.583 518.639 M
1176.583 444.75 L
1202.417 444.75 L
1202.417 518.639 L
1176.583 518.639 L
S
GR
GS
[0.3 0 0 0.3 0 0] CT
0 0 1 RC
1 LJ
1.667 LW
N
1228.25 455.833 M
1228.25 289.583 L
1254.083 289.583 L
1254.083 455.833 L
1228.25 455.833 L
S
GR
GS
[0.3 0 0 0.3 0 0] CT
1 0 0 RC
1 LJ
1.667 LW
N
194.917 199.069 M
220.75 199.069 L
S
GR
GS
[0.3 0 0 0.3 0 0] CT
1 0 0 RC
1 LJ
1.667 LW
N
246.583 559.278 M
272.417 559.278 L
S
GR
GS
[0.3 0 0 0.3 0 0] CT
1 0 0 RC
1 LJ
1.667 LW
N
298.25 320.986 M
324.083 320.986 L
S
GR
GS
[0.3 0 0 0.3 0 0] CT
1 0 0 RC
1 LJ
1.667 LW
N
349.917 487.236 M
375.75 487.236 L
S
GR
GS
[0.3 0 0 0.3 0 0] CT
1 0 0 RC
1 LJ
1.667 LW
N
401.583 607.306 M
427.417 607.306 L
S
GR
GS
[0.3 0 0 0.3 0 0] CT
1 0 0 RC
1 LJ
1.667 LW
N
453.25 212 M
479.083 212 L
S
GR
GS
[0.3 0 0 0.3 0 0] CT
1 0 0 RC
1 LJ
1.667 LW
N
504.917 557.431 M
530.75 557.431 L
S
GR
GS
[0.3 0 0 0.3 0 0] CT
1 0 0 RC
1 LJ
1.667 LW
N
556.583 394.875 M
582.417 394.875 L
S
GR
GS
[0.3 0 0 0.3 0 0] CT
1 0 0 RC
1 LJ
1.667 LW
N
608.25 479.847 M
634.083 479.847 L
S
GR
GS
[0.3 0 0 0.3 0 0] CT
1 0 0 RC
1 LJ
1.667 LW
N
659.917 544.5 M
685.75 544.5 L
S
GR
GS
[0.3 0 0 0.3 0 0] CT
1 0 0 RC
1 LJ
1.667 LW
N
711.583 407.806 M
737.417 407.806 L
S
GR
GS
[0.3 0 0 0.3 0 0] CT
1 0 0 RC
1 LJ
1.667 LW
N
763.25 500.167 M
789.083 500.167 L
S
GR
GS
[0.3 0 0 0.3 0 0] CT
1 0 0 RC
1 LJ
1.667 LW
N
814.917 444.75 M
840.75 444.75 L
S
GR
GS
[0.3 0 0 0.3 0 0] CT
1 0 0 RC
1 LJ
1.667 LW
N
866.583 502.014 M
892.417 502.014 L
S
GR
GS
[0.3 0 0 0.3 0 0] CT
1 0 0 RC
1 LJ
1.667 LW
N
918.25 448.444 M
944.083 448.444 L
S
GR
GS
[0.3 0 0 0.3 0 0] CT
1 0 0 RC
1 LJ
1.667 LW
N
969.917 489.083 M
995.75 489.083 L
S
GR
GS
[0.3 0 0 0.3 0 0] CT
1 0 0 RC
1 LJ
1.667 LW
N
1021.583 555.583 M
1047.417 555.583 L
S
GR
GS
[0.3 0 0 0.3 0 0] CT
1 0 0 RC
1 LJ
1.667 LW
N
1073.25 420.736 M
1099.083 420.736 L
S
GR
GS
[0.3 0 0 0.3 0 0] CT
1 0 0 RC
1 LJ
1.667 LW
N
1124.917 429.972 M
1150.75 429.972 L
S
GR
GS
[0.3 0 0 0.3 0 0] CT
1 0 0 RC
1 LJ
1.667 LW
N
1176.583 483.542 M
1202.417 483.542 L
S
GR
GS
[0.3 0 0 0.3 0 0] CT
1 0 0 RC
1 LJ
1.667 LW
N
1228.25 389.333 M
1254.083 389.333 L
S
GR
GS
[0.3 0 0 0.3 0 0] CT
1 0 0 RC
1 LJ
1.667 LW
N
352.833 319.139 M
372.833 319.139 L
S
GR
GS
[0.3 0 0 0.3 0 0] CT
1 0 0 RC
1 LJ
1.667 LW
N
362.833 329.139 M
362.833 309.139 L
S
GR
GS
[0.3 0 0 0.3 0 0] CT
1 0 0 RC
1 LJ
1.667 LW
N
404.5 404.111 M
424.5 404.111 L
S
GR
GS
[0.3 0 0 0.3 0 0] CT
1 0 0 RC
1 LJ
1.667 LW
N
414.5 414.111 M
414.5 394.111 L
S
GR
GS
[0.3 0 0 0.3 0 0] CT
1 0 0 RC
1 LJ
1.667 LW
N
611.167 282.194 M
631.167 282.194 L
S
GR
GS
[0.3 0 0 0.3 0 0] CT
1 0 0 RC
1 LJ
1.667 LW
N
621.167 292.194 M
621.167 272.194 L
S
GR
GS
[0.3 0 0 0.3 0 0] CT
1 0 0 RC
1 LJ
1.667 LW
N
869.5 673.806 M
889.5 673.806 L
S
GR
GS
[0.3 0 0 0.3 0 0] CT
1 0 0 RC
1 LJ
1.667 LW
N
879.5 683.806 M
879.5 663.806 L
S
GR
GS
[0.3 0 0 0.3 0 0] CT
1 0 0 RC
1 LJ
1.667 LW
N
1024.5 167.667 M
1044.5 167.667 L
S
GR
GS
[0.3 0 0 0.3 0 0] CT
1 0 0 RC
1 LJ
1.667 LW
N
1034.5 177.667 M
1034.5 157.667 L
S
GR
GS
[0.3 0 0 0.3 0 0] CT
1 0 1 RC
1 LJ
3.333 LW
N
181.892 300.667 M
1267.109 300.667 L
S
GR
GS
[0.3 0 0 0.3 0 0] CT
0 1 1 RC
[3 3] 0 setdash
2 LJ
3.333 LW
N
750.333 744 M
750.333 78.933 L
S
GR
GS
[0 -0.3 0.3 0 62.35 280.2] CT
/Helvetica 33 F
GS
[1 0 0 1 0 0] CT
0 13 moveto 
1 -1 scale
(NoFailure) t 
GR
GR
GS
[0 -0.3 0.3 0 77.85 280.2] CT
/Helvetica 33 F
GS
[1 0 0 1 0 0] CT
0 13 moveto 
1 -1 scale
(BD_Dog_1) t 
GR
GR
GS
[0 -0.3 0.3 0 93.35 280.2] CT
/Helvetica 33 F
GS
[1 0 0 1 0 0] CT
0 13 moveto 
1 -1 scale
(BD_Dog_2) t 
GR
GR
GS
[0 -0.3 0.3 0 108.84999 280.2] CT
/Helvetica 33 F
GS
[1 0 0 1 0 0] CT
0 13 moveto 
1 -1 scale
(BD_Dog_3) t 
GR
GR
GS
[0 -0.3 0.3 0 124.35 280.2] CT
/Helvetica 33 F
GS
[1 0 0 1 0 0] CT
0 13 moveto 
1 -1 scale
(BD_Dog_4) t 
GR
GR
GS
[0 -0.3 0.3 0 139.85 280.2] CT
/Helvetica 33 F
GS
[1 0 0 1 0 0] CT
0 13 moveto 
1 -1 scale
(BD_Dog_5) t 
GR
GR
GS
[0 -0.3 0.3 0 155.35001 280.2] CT
/Helvetica 33 F
GS
[1 0 0 1 0 0] CT
0 13 moveto 
1 -1 scale
(BD_Dog_6) t 
GR
GR
GS
[0 -0.3 0.3 0 170.85 280.2] CT
/Helvetica 33 F
GS
[1 0 0 1 0 0] CT
0 13 moveto 
1 -1 scale
(BD_Dog_7) t 
GR
GR
GS
[0 -0.3 0.3 0 186.34999 280.2] CT
/Helvetica 33 F
GS
[1 0 0 1 0 0] CT
0 13 moveto 
1 -1 scale
(BD_Dog_8) t 
GR
GR
GS
[0 -0.3 0.3 0 201.84999 280.2] CT
/Helvetica 33 F
GS
[1 0 0 1 0 0] CT
0 13 moveto 
1 -1 scale
(BD_Dog_9) t 
GR
GR
GS
[0 -0.3 0.3 0 217.35 280.2] CT
/Helvetica 33 F
GS
[1 0 0 1 0 0] CT
0 13 moveto 
1 -1 scale
(BD_Dog_10) t 
GR
GR
GS
[0 -0.3 0.3 0 232.85001 280.2] CT
/Helvetica 33 F
GS
[1 0 0 1 0 0] CT
0 13 moveto 
1 -1 scale
(AD_Dog_1) t 
GR
GR
GS
[0 -0.3 0.3 0 248.34999 280.2] CT
/Helvetica 33 F
GS
[1 0 0 1 0 0] CT
0 13 moveto 
1 -1 scale
(AD_Dog_2) t 
GR
GR
GS
[0 -0.3 0.3 0 263.85 280.2] CT
/Helvetica 33 F
GS
[1 0 0 1 0 0] CT
0 13 moveto 
1 -1 scale
(AD_Dog_3) t 
GR
GR
GS
[0 -0.3 0.3 0 279.35001 280.2] CT
/Helvetica 33 F
GS
[1 0 0 1 0 0] CT
0 13 moveto 
1 -1 scale
(AD_Dog_4) t 
GR
GR
GS
[0 -0.3 0.3 0 294.84999 280.2] CT
/Helvetica 33 F
GS
[1 0 0 1 0 0] CT
0 13 moveto 
1 -1 scale
(AD_Dog_5) t 
GR
GR
GS
[0 -0.3 0.3 0 310.35 280.2] CT
/Helvetica 33 F
GS
[1 0 0 1 0 0] CT
0 13 moveto 
1 -1 scale
(AD_Dog_6) t 
GR
GR
GS
[0 -0.3 0.3 0 325.84999 280.2] CT
/Helvetica 33 F
GS
[1 0 0 1 0 0] CT
0 13 moveto 
1 -1 scale
(AD_Dog_7) t 
GR
GR
GS
[0 -0.3 0.3 0 341.34998 280.2] CT
/Helvetica 33 F
GS
[1 0 0 1 0 0] CT
0 13 moveto 
1 -1 scale
(AD_Dog_8) t 
GR
GR
GS
[0 -0.3 0.3 0 356.85 280.2] CT
/Helvetica 33 F
GS
[1 0 0 1 0 0] CT
0 13 moveto 
1 -1 scale
(AD_Dog_9) t 
GR
GR
GS
[0 -0.3 0.3 0 372.34999 280.2] CT
/Helvetica 33 F
GS
[1 0 0 1 0 0] CT
0 13 moveto 
1 -1 scale
(AD_Dog_10) t 
GR
GR
%%Trailer
%%Pages: 1
%%EOF
