%!PS-Adobe-3.0 EPSF-3.0
%%Creator: (MATLAB, The Mathworks, Inc. Version 8.6.0.267246 \(R2015b\). Operating System: Windows 8)
%%Title: (C:/Users/Daniel/OneDrive - CertiCon a.s/Documents/skola/CVUT/Semester_8/Bakalarska_Praca/BT/matlab/measure_new/Percentil/Srobot/BAD_Srobot.eps)
%%CreationDate: 2016-05-21T12:21:11
%%Pages: (atend)
%%BoundingBox: 0 0 420 315
%%LanguageLevel: 2
%%EndComments
%%BeginProlog
%%BeginResource: procset (Apache XML Graphics Std ProcSet) 1.2 0
%%Version: 1.2 0
%%Copyright: (Copyright 2001-2003,2010 The Apache Software Foundation. License terms: http://www.apache.org/licenses/LICENSE-2.0)
/bd{bind def}bind def
/ld{load def}bd
/GR/grestore ld
/M/moveto ld
/LJ/setlinejoin ld
/C/curveto ld
/f/fill ld
/LW/setlinewidth ld
/GC/setgray ld
/t/show ld
/N/newpath ld
/CT/concat ld
/cp/closepath ld
/S/stroke ld
/L/lineto ld
/CC/setcmykcolor ld
/A/ashow ld
/GS/gsave ld
/RC/setrgbcolor ld
/RM/rmoveto ld
/ML/setmiterlimit ld
/re {4 2 roll M
1 index 0 rlineto
0 exch rlineto
neg 0 rlineto
cp } bd
/_ctm matrix def
/_tm matrix def
/BT { _ctm currentmatrix pop matrix _tm copy pop 0 0 moveto } bd
/ET { _ctm setmatrix } bd
/iTm { _ctm setmatrix _tm concat } bd
/Tm { _tm astore pop iTm 0 0 moveto } bd
/ux 0.0 def
/uy 0.0 def
/F {
  /Tp exch def
  /Tf exch def
  Tf findfont Tp scalefont setfont
  /cf Tf def  /cs Tp def
} bd
/ULS {currentpoint /uy exch def /ux exch def} bd
/ULE {
  /Tcx currentpoint pop def
  gsave
  newpath
  cf findfont cs scalefont dup
  /FontMatrix get 0 get /Ts exch def /FontInfo get dup
  /UnderlinePosition get Ts mul /To exch def
  /UnderlineThickness get Ts mul /Tt exch def
  ux uy To add moveto  Tcx uy To add lineto
  Tt setlinewidth stroke
  grestore
} bd
/OLE {
  /Tcx currentpoint pop def
  gsave
  newpath
  cf findfont cs scalefont dup
  /FontMatrix get 0 get /Ts exch def /FontInfo get dup
  /UnderlinePosition get Ts mul /To exch def
  /UnderlineThickness get Ts mul /Tt exch def
  ux uy To add cs add moveto Tcx uy To add cs add lineto
  Tt setlinewidth stroke
  grestore
} bd
/SOE {
  /Tcx currentpoint pop def
  gsave
  newpath
  cf findfont cs scalefont dup
  /FontMatrix get 0 get /Ts exch def /FontInfo get dup
  /UnderlinePosition get Ts mul /To exch def
  /UnderlineThickness get Ts mul /Tt exch def
  ux uy To add cs 10 mul 26 idiv add moveto Tcx uy To add cs 10 mul 26 idiv add lineto
  Tt setlinewidth stroke
  grestore
} bd
/QT {
/Y22 exch store
/X22 exch store
/Y21 exch store
/X21 exch store
currentpoint
/Y21 load 2 mul add 3 div exch
/X21 load 2 mul add 3 div exch
/X21 load 2 mul /X22 load add 3 div
/Y21 load 2 mul /Y22 load add 3 div
/X22 load /Y22 load curveto
} bd
/SSPD {
dup length /d exch dict def
{
/v exch def
/k exch def
currentpagedevice k known {
/cpdv currentpagedevice k get def
v cpdv ne {
/upd false def
/nullv v type /nulltype eq def
/nullcpdv cpdv type /nulltype eq def
nullv nullcpdv or
{
/upd true def
} {
/sametype v type cpdv type eq def
sametype {
v type /arraytype eq {
/vlen v length def
/cpdvlen cpdv length def
vlen cpdvlen eq {
0 1 vlen 1 sub {
/i exch def
/obj v i get def
/cpdobj cpdv i get def
obj cpdobj ne {
/upd true def
exit
} if
} for
} {
/upd true def
} ifelse
} {
v type /dicttype eq {
v {
/dv exch def
/dk exch def
/cpddv cpdv dk get def
dv cpddv ne {
/upd true def
exit
} if
} forall
} {
/upd true def
} ifelse
} ifelse
} if
} ifelse
upd true eq {
d k v put
} if
} if
} if
} forall
d length 0 gt {
d setpagedevice
} if
} bd
%%EndResource
%%BeginResource: procset (Apache XML Graphics EPS ProcSet) 1.0 0
%%Version: 1.0 0
%%Copyright: (Copyright 2002-2003 The Apache Software Foundation. License terms: http://www.apache.org/licenses/LICENSE-2.0)
/BeginEPSF { %def
/b4_Inc_state save def         % Save state for cleanup
/dict_count countdictstack def % Count objects on dict stack
/op_count count 1 sub def      % Count objects on operand stack
userdict begin                 % Push userdict on dict stack
/showpage { } def              % Redefine showpage, { } = null proc
0 setgray 0 setlinecap         % Prepare graphics state
1 setlinewidth 0 setlinejoin
10 setmiterlimit [ ] 0 setdash newpath
/languagelevel where           % If level not equal to 1 then
{pop languagelevel             % set strokeadjust and
1 ne                           % overprint to their defaults.
{false setstrokeadjust false setoverprint
} if
} if
} bd
/EndEPSF { %def
count op_count sub {pop} repeat            % Clean up stacks
countdictstack dict_count sub {end} repeat
b4_Inc_state restore
} bd
%%EndResource
%FOPBeginFontDict
%%IncludeResource: font Courier-Bold
%%IncludeResource: font Helvetica
%%IncludeResource: font Courier-BoldOblique
%%IncludeResource: font Courier-Oblique
%%IncludeResource: font Times-Roman
%%IncludeResource: font Helvetica-BoldOblique
%%IncludeResource: font Helvetica-Bold
%%IncludeResource: font Helvetica-Oblique
%%IncludeResource: font Times-BoldItalic
%%IncludeResource: font Courier
%%IncludeResource: font Times-Italic
%%IncludeResource: font Times-Bold
%%IncludeResource: font Symbol
%%IncludeResource: font ZapfDingbats
%FOPEndFontDict
%%BeginResource: encoding WinAnsiEncoding
/WinAnsiEncoding [
/.notdef /.notdef /.notdef /.notdef /.notdef
/.notdef /.notdef /.notdef /.notdef /.notdef
/.notdef /.notdef /.notdef /.notdef /.notdef
/.notdef /.notdef /.notdef /.notdef /.notdef
/.notdef /.notdef /.notdef /.notdef /.notdef
/.notdef /.notdef /.notdef /.notdef /.notdef
/.notdef /.notdef /space /exclam /quotedbl
/numbersign /dollar /percent /ampersand /quotesingle
/parenleft /parenright /asterisk /plus /comma
/hyphen /period /slash /zero /one
/two /three /four /five /six
/seven /eight /nine /colon /semicolon
/less /equal /greater /question /at
/A /B /C /D /E
/F /G /H /I /J
/K /L /M /N /O
/P /Q /R /S /T
/U /V /W /X /Y
/Z /bracketleft /backslash /bracketright /asciicircum
/underscore /quoteleft /a /b /c
/d /e /f /g /h
/i /j /k /l /m
/n /o /p /q /r
/s /t /u /v /w
/x /y /z /braceleft /bar
/braceright /asciitilde /bullet /Euro /bullet
/quotesinglbase /florin /quotedblbase /ellipsis /dagger
/daggerdbl /circumflex /perthousand /Scaron /guilsinglleft
/OE /bullet /Zcaron /bullet /bullet
/quoteleft /quoteright /quotedblleft /quotedblright /bullet
/endash /emdash /asciitilde /trademark /scaron
/guilsinglright /oe /bullet /zcaron /Ydieresis
/space /exclamdown /cent /sterling /currency
/yen /brokenbar /section /dieresis /copyright
/ordfeminine /guillemotleft /logicalnot /sfthyphen /registered
/macron /degree /plusminus /twosuperior /threesuperior
/acute /mu /paragraph /middot /cedilla
/onesuperior /ordmasculine /guillemotright /onequarter /onehalf
/threequarters /questiondown /Agrave /Aacute /Acircumflex
/Atilde /Adieresis /Aring /AE /Ccedilla
/Egrave /Eacute /Ecircumflex /Edieresis /Igrave
/Iacute /Icircumflex /Idieresis /Eth /Ntilde
/Ograve /Oacute /Ocircumflex /Otilde /Odieresis
/multiply /Oslash /Ugrave /Uacute /Ucircumflex
/Udieresis /Yacute /Thorn /germandbls /agrave
/aacute /acircumflex /atilde /adieresis /aring
/ae /ccedilla /egrave /eacute /ecircumflex
/edieresis /igrave /iacute /icircumflex /idieresis
/eth /ntilde /ograve /oacute /ocircumflex
/otilde /odieresis /divide /oslash /ugrave
/uacute /ucircumflex /udieresis /yacute /thorn
/ydieresis
] def
%%EndResource
%FOPBeginFontReencode
/Courier-Bold findfont
dup length dict begin
  {1 index /FID ne {def} {pop pop} ifelse} forall
  /Encoding WinAnsiEncoding def
  currentdict
end
/Courier-Bold exch definefont pop
/Helvetica findfont
dup length dict begin
  {1 index /FID ne {def} {pop pop} ifelse} forall
  /Encoding WinAnsiEncoding def
  currentdict
end
/Helvetica exch definefont pop
/Courier-BoldOblique findfont
dup length dict begin
  {1 index /FID ne {def} {pop pop} ifelse} forall
  /Encoding WinAnsiEncoding def
  currentdict
end
/Courier-BoldOblique exch definefont pop
/Courier-Oblique findfont
dup length dict begin
  {1 index /FID ne {def} {pop pop} ifelse} forall
  /Encoding WinAnsiEncoding def
  currentdict
end
/Courier-Oblique exch definefont pop
/Times-Roman findfont
dup length dict begin
  {1 index /FID ne {def} {pop pop} ifelse} forall
  /Encoding WinAnsiEncoding def
  currentdict
end
/Times-Roman exch definefont pop
/Helvetica-BoldOblique findfont
dup length dict begin
  {1 index /FID ne {def} {pop pop} ifelse} forall
  /Encoding WinAnsiEncoding def
  currentdict
end
/Helvetica-BoldOblique exch definefont pop
/Helvetica-Bold findfont
dup length dict begin
  {1 index /FID ne {def} {pop pop} ifelse} forall
  /Encoding WinAnsiEncoding def
  currentdict
end
/Helvetica-Bold exch definefont pop
/Helvetica-Oblique findfont
dup length dict begin
  {1 index /FID ne {def} {pop pop} ifelse} forall
  /Encoding WinAnsiEncoding def
  currentdict
end
/Helvetica-Oblique exch definefont pop
/Times-BoldItalic findfont
dup length dict begin
  {1 index /FID ne {def} {pop pop} ifelse} forall
  /Encoding WinAnsiEncoding def
  currentdict
end
/Times-BoldItalic exch definefont pop
/Courier findfont
dup length dict begin
  {1 index /FID ne {def} {pop pop} ifelse} forall
  /Encoding WinAnsiEncoding def
  currentdict
end
/Courier exch definefont pop
/Times-Italic findfont
dup length dict begin
  {1 index /FID ne {def} {pop pop} ifelse} forall
  /Encoding WinAnsiEncoding def
  currentdict
end
/Times-Italic exch definefont pop
/Times-Bold findfont
dup length dict begin
  {1 index /FID ne {def} {pop pop} ifelse} forall
  /Encoding WinAnsiEncoding def
  currentdict
end
/Times-Bold exch definefont pop
%FOPEndFontReencode
%%EndProlog
%%Page: 1 1
%%PageBoundingBox: 0 0 420 315
%%BeginPageSetup
[1 0 0 -1 0 315] CT
%%EndPageSetup
GS
[0.3 0 0 0.3 0 0] CT
1 GC
N
0 0 1400 1050 re
f
GR
GS
[0.3 0 0 0.3 0 0] CT
1 GC
N
0 0 1400 1050 re
f
GR
GS
[0.3 0 0 0.3 0 0] CT
1 GC
N
182 700 M
1267 700 L
1267 79 L
182 79 L
cp
f
GR
GS
[0.3 0 0 0.3 0 0] CT
0.149 GC
2 setlinecap
1 LJ
1.667 LW
N
182 700 M
1267 700 L
S
GR
GS
[0.3 0 0 0.3 0 0] CT
0.149 GC
2 setlinecap
1 LJ
1.667 LW
N
182 79 M
1267 79 L
S
GR
GS
[0.3 0 0 0.3 0 0] CT
0.149 GC
2 setlinecap
1 LJ
1.667 LW
N
182 700 M
182 79 L
S
GR
GS
[0.3 0 0 0.3 0 0] CT
0.149 GC
2 setlinecap
1 LJ
1.667 LW
N
1267 700 M
1267 79 L
S
GR
GS
[0.3 0 0 0.3 0 0] CT
0.149 GC
2 setlinecap
1 LJ
1.667 LW
N
182 700 M
192.85 700 L
S
GR
GS
[0.3 0 0 0.3 0 0] CT
0.149 GC
2 setlinecap
1 LJ
1.667 LW
N
182 575.8 M
192.85 575.8 L
S
GR
GS
[0.3 0 0 0.3 0 0] CT
0.149 GC
2 setlinecap
1 LJ
1.667 LW
N
182 451.6 M
192.85 451.6 L
S
GR
GS
[0.3 0 0 0.3 0 0] CT
0.149 GC
2 setlinecap
1 LJ
1.667 LW
N
182 327.4 M
192.85 327.4 L
S
GR
GS
[0.3 0 0 0.3 0 0] CT
0.149 GC
2 setlinecap
1 LJ
1.667 LW
N
182 203.2 M
192.85 203.2 L
S
GR
GS
[0.3 0 0 0.3 0 0] CT
0.149 GC
2 setlinecap
1 LJ
1.667 LW
N
182 79 M
192.85 79 L
S
GR
GS
[0.3 0 0 0.3 0 0] CT
0.149 GC
2 setlinecap
1 LJ
1.667 LW
N
1267 700 M
1256.15 700 L
S
GR
GS
[0.3 0 0 0.3 0 0] CT
0.149 GC
2 setlinecap
1 LJ
1.667 LW
N
1267 575.8 M
1256.15 575.8 L
S
GR
GS
[0.3 0 0 0.3 0 0] CT
0.149 GC
2 setlinecap
1 LJ
1.667 LW
N
1267 451.6 M
1256.15 451.6 L
S
GR
GS
[0.3 0 0 0.3 0 0] CT
0.149 GC
2 setlinecap
1 LJ
1.667 LW
N
1267 327.4 M
1256.15 327.4 L
S
GR
GS
[0.3 0 0 0.3 0 0] CT
0.149 GC
2 setlinecap
1 LJ
1.667 LW
N
1267 203.2 M
1256.15 203.2 L
S
GR
GS
[0.3 0 0 0.3 0 0] CT
0.149 GC
2 setlinecap
1 LJ
1.667 LW
N
1267 79 M
1256.15 79 L
S
GR
GS
[0.3 0 0 0.3 50.6 210] CT
0.149 GC
/Helvetica 33 F
GS
[1 0 0 1 0 0] CT
-19 13 moveto 
1 -1 scale
(0) t 
GR
GR
GS
[0.3 0 0 0.3 50.6 172.74] CT
0.149 GC
/Helvetica 33 F
GS
[1 0 0 1 0 0] CT
-37 13 moveto 
1 -1 scale
(10) t 
GR
GR
GS
[0.3 0 0 0.3 50.6 135.48] CT
0.149 GC
/Helvetica 33 F
GS
[1 0 0 1 0 0] CT
-37 13 moveto 
1 -1 scale
(20) t 
GR
GR
GS
[0.3 0 0 0.3 50.6 98.22] CT
0.149 GC
/Helvetica 33 F
GS
[1 0 0 1 0 0] CT
-37 13 moveto 
1 -1 scale
(30) t 
GR
GR
GS
[0.3 0 0 0.3 50.6 60.96] CT
0.149 GC
/Helvetica 33 F
GS
[1 0 0 1 0 0] CT
-37 13 moveto 
1 -1 scale
(40) t 
GR
GR
GS
[0.3 0 0 0.3 50.6 23.7] CT
0.149 GC
/Helvetica 33 F
GS
[1 0 0 1 0 0] CT
-37 13 moveto 
1 -1 scale
(50) t 
GR
GR
GS
[0 -0.3 0.3 0 36.5 116.84991] CT
0.149 GC
/Helvetica 37 F
GS
[1 0 0 1 0 0] CT
-194.5 -9 moveto 
1 -1 scale
(Visited environment [%]) t 
GR
GR
GS
[0.3 0 0 0.3 0 0] CT
[10 6] 0 setdash
2 LJ
1.667 LW
N
242.278 175.255 M
242.278 150.415 L
S
GR
GS
[0.3 0 0 0.3 0 0] CT
[10 6] 0 setdash
2 LJ
1.667 LW
N
362.833 426.76 M
362.833 324.295 L
S
GR
GS
[0.3 0 0 0.3 0 0] CT
[10 6] 0 setdash
2 LJ
1.667 LW
N
483.389 488.86 M
483.389 460.915 L
S
GR
GS
[0.3 0 0 0.3 0 0] CT
[10 6] 0 setdash
2 LJ
1.667 LW
N
603.944 383.29 M
603.944 318.085 L
S
GR
GS
[0.3 0 0 0.3 0 0] CT
[10 6] 0 setdash
2 LJ
1.667 LW
N
724.5 529.225 M
724.5 516.805 L
S
GR
GS
[0.3 0 0 0.3 0 0] CT
[10 6] 0 setdash
2 LJ
1.667 LW
N
845.056 495.07 M
845.056 467.125 L
S
GR
GS
[0.3 0 0 0.3 0 0] CT
[10 6] 0 setdash
2 LJ
1.667 LW
N
965.611 504.385 M
965.611 429.865 L
S
GR
GS
[0.3 0 0 0.3 0 0] CT
[10 6] 0 setdash
2 LJ
1.667 LW
N
1086.167 420.55 M
1086.167 308.77 L
S
GR
GS
[0.3 0 0 0.3 0 0] CT
[10 6] 0 setdash
2 LJ
1.667 LW
N
1206.722 439.18 M
1206.722 411.235 L
S
GR
GS
[0.3 0 0 0.3 0 0] CT
[10 6] 0 setdash
2 LJ
1.667 LW
N
242.278 215.62 M
242.278 209.41 L
S
GR
GS
[0.3 0 0 0.3 0 0] CT
[10 6] 0 setdash
2 LJ
1.667 LW
N
362.833 535.435 M
362.833 495.07 L
S
GR
GS
[0.3 0 0 0.3 0 0] CT
[10 6] 0 setdash
2 LJ
1.667 LW
N
483.389 566.485 M
483.389 538.54 L
S
GR
GS
[0.3 0 0 0.3 0 0] CT
[10 6] 0 setdash
2 LJ
1.667 LW
N
603.944 464.02 M
603.944 448.495 L
S
GR
GS
[0.3 0 0 0.3 0 0] CT
[10 6] 0 setdash
2 LJ
1.667 LW
N
724.5 560.275 M
724.5 554.065 L
S
GR
GS
[0.3 0 0 0.3 0 0] CT
[10 6] 0 setdash
2 LJ
1.667 LW
N
845.056 588.22 M
845.056 541.645 L
S
GR
GS
[0.3 0 0 0.3 0 0] CT
[10 6] 0 setdash
2 LJ
1.667 LW
N
965.611 637.9 M
965.611 613.06 L
S
GR
GS
[0.3 0 0 0.3 0 0] CT
[10 6] 0 setdash
2 LJ
1.667 LW
N
1086.167 628.585 M
1086.167 535.435 L
S
GR
GS
[0.3 0 0 0.3 0 0] CT
[10 6] 0 setdash
2 LJ
1.667 LW
N
1206.722 631.69 M
1206.722 575.8 L
S
GR
GS
[0.3 0 0 0.3 0 0] CT
1 LJ
1.667 LW
N
227.208 150.415 M
257.347 150.415 L
S
GR
GS
[0.3 0 0 0.3 0 0] CT
1 LJ
1.667 LW
N
347.764 324.295 M
377.903 324.295 L
S
GR
GS
[0.3 0 0 0.3 0 0] CT
1 LJ
1.667 LW
N
468.319 460.915 M
498.458 460.915 L
S
GR
GS
[0.3 0 0 0.3 0 0] CT
1 LJ
1.667 LW
N
588.875 318.085 M
619.014 318.085 L
S
GR
GS
[0.3 0 0 0.3 0 0] CT
1 LJ
1.667 LW
N
709.431 516.805 M
739.569 516.805 L
S
GR
GS
[0.3 0 0 0.3 0 0] CT
1 LJ
1.667 LW
N
829.986 467.125 M
860.125 467.125 L
S
GR
GS
[0.3 0 0 0.3 0 0] CT
1 LJ
1.667 LW
N
950.542 429.865 M
980.681 429.865 L
S
GR
GS
[0.3 0 0 0.3 0 0] CT
1 LJ
1.667 LW
N
1071.097 308.77 M
1101.236 308.77 L
S
GR
GS
[0.3 0 0 0.3 0 0] CT
1 LJ
1.667 LW
N
1191.653 411.235 M
1221.792 411.235 L
S
GR
GS
[0.3 0 0 0.3 0 0] CT
1 LJ
1.667 LW
N
227.208 215.62 M
257.347 215.62 L
S
GR
GS
[0.3 0 0 0.3 0 0] CT
1 LJ
1.667 LW
N
347.764 535.435 M
377.903 535.435 L
S
GR
GS
[0.3 0 0 0.3 0 0] CT
1 LJ
1.667 LW
N
468.319 566.485 M
498.458 566.485 L
S
GR
GS
[0.3 0 0 0.3 0 0] CT
1 LJ
1.667 LW
N
588.875 464.02 M
619.014 464.02 L
S
GR
GS
[0.3 0 0 0.3 0 0] CT
1 LJ
1.667 LW
N
709.431 560.275 M
739.569 560.275 L
S
GR
GS
[0.3 0 0 0.3 0 0] CT
1 LJ
1.667 LW
N
829.986 588.22 M
860.125 588.22 L
S
GR
GS
[0.3 0 0 0.3 0 0] CT
1 LJ
1.667 LW
N
950.542 637.9 M
980.681 637.9 L
S
GR
GS
[0.3 0 0 0.3 0 0] CT
1 LJ
1.667 LW
N
1071.097 628.585 M
1101.236 628.585 L
S
GR
GS
[0.3 0 0 0.3 0 0] CT
1 LJ
1.667 LW
N
1191.653 631.69 M
1221.792 631.69 L
S
GR
GS
[0.3 0 0 0.3 0 0] CT
0 0 1 RC
1 LJ
1.667 LW
N
212.139 209.41 M
212.139 175.255 L
272.417 175.255 L
272.417 209.41 L
212.139 209.41 L
S
GR
GS
[0.3 0 0 0.3 0 0] CT
0 0 1 RC
1 LJ
1.667 LW
N
332.694 495.07 M
332.694 426.76 L
392.972 426.76 L
392.972 495.07 L
332.694 495.07 L
S
GR
GS
[0.3 0 0 0.3 0 0] CT
0 0 1 RC
1 LJ
1.667 LW
N
453.25 538.54 M
453.25 488.86 L
513.528 488.86 L
513.528 538.54 L
453.25 538.54 L
S
GR
GS
[0.3 0 0 0.3 0 0] CT
0 0 1 RC
1 LJ
1.667 LW
N
573.806 448.495 M
573.806 383.29 L
634.083 383.29 L
634.083 448.495 L
573.806 448.495 L
S
GR
GS
[0.3 0 0 0.3 0 0] CT
0 0 1 RC
1 LJ
1.667 LW
N
694.361 554.065 M
694.361 529.225 L
754.639 529.225 L
754.639 554.065 L
694.361 554.065 L
S
GR
GS
[0.3 0 0 0.3 0 0] CT
0 0 1 RC
1 LJ
1.667 LW
N
814.917 541.645 M
814.917 495.07 L
875.194 495.07 L
875.194 541.645 L
814.917 541.645 L
S
GR
GS
[0.3 0 0 0.3 0 0] CT
0 0 1 RC
1 LJ
1.667 LW
N
935.472 613.06 M
935.472 504.385 L
995.75 504.385 L
995.75 613.06 L
935.472 613.06 L
S
GR
GS
[0.3 0 0 0.3 0 0] CT
0 0 1 RC
1 LJ
1.667 LW
N
1056.028 535.435 M
1056.028 420.55 L
1116.306 420.55 L
1116.306 535.435 L
1056.028 535.435 L
S
GR
GS
[0.3 0 0 0.3 0 0] CT
0 0 1 RC
1 LJ
1.667 LW
N
1176.583 575.8 M
1176.583 439.18 L
1236.861 439.18 L
1236.861 575.8 L
1176.583 575.8 L
S
GR
GS
[0.3 0 0 0.3 0 0] CT
1 0 0 RC
1 LJ
1.667 LW
N
212.139 193.885 M
272.417 193.885 L
S
GR
GS
[0.3 0 0 0.3 0 0] CT
1 0 0 RC
1 LJ
1.667 LW
N
332.694 479.545 M
392.972 479.545 L
S
GR
GS
[0.3 0 0 0.3 0 0] CT
1 0 0 RC
1 LJ
1.667 LW
N
453.25 515.253 M
513.528 515.253 L
S
GR
GS
[0.3 0 0 0.3 0 0] CT
1 0 0 RC
1 LJ
1.667 LW
N
573.806 418.997 M
634.083 418.997 L
S
GR
GS
[0.3 0 0 0.3 0 0] CT
1 0 0 RC
1 LJ
1.667 LW
N
694.361 541.645 M
754.639 541.645 L
S
GR
GS
[0.3 0 0 0.3 0 0] CT
1 0 0 RC
1 LJ
1.667 LW
N
814.917 524.568 M
875.194 524.568 L
S
GR
GS
[0.3 0 0 0.3 0 0] CT
1 0 0 RC
1 LJ
1.667 LW
N
935.472 591.325 M
995.75 591.325 L
S
GR
GS
[0.3 0 0 0.3 0 0] CT
1 0 0 RC
1 LJ
1.667 LW
N
1056.028 504.385 M
1116.306 504.385 L
S
GR
GS
[0.3 0 0 0.3 0 0] CT
1 0 0 RC
1 LJ
1.667 LW
N
1176.583 484.203 M
1236.861 484.203 L
S
GR
GS
[0.3 0 0 0.3 0 0] CT
1 0 0 RC
1 LJ
1.667 LW
N
473.389 392.605 M
493.389 392.605 L
S
GR
GS
[0.3 0 0 0.3 0 0] CT
1 0 0 RC
1 LJ
1.667 LW
N
483.389 402.605 M
483.389 382.605 L
S
GR
GS
[0.3 0 0 0.3 0 0] CT
1 0 0 RC
1 LJ
1.667 LW
N
835.056 631.69 M
855.056 631.69 L
S
GR
GS
[0.3 0 0 0.3 0 0] CT
1 0 0 RC
1 LJ
1.667 LW
N
845.056 641.69 M
845.056 621.69 L
S
GR
GS
[0.3 0 0 0.3 0 0] CT
1 0 0 RC
1 LJ
1.667 LW
N
955.611 296.35 M
975.611 296.35 L
S
GR
GS
[0.3 0 0 0.3 0 0] CT
1 0 0 RC
1 LJ
1.667 LW
N
965.611 306.35 M
965.611 286.35 L
S
GR
GS
[0.3 0 0 0.3 0 0] CT
1 0 1 RC
1 LJ
3.333 LW
N
181.892 265.3 M
1267.109 265.3 L
S
GR
GS
[0.3 0 0 0.3 0 0] CT
0 1 1 RC
[3 3] 0 setdash
2 LJ
3.333 LW
N
784.778 700 M
784.778 79 L
S
GR
GS
[0 -0.3 0.3 0 72.68333 280.2] CT
/Helvetica 33 F
GS
[1 0 0 1 0 0] CT
0 13 moveto 
1 -1 scale
(S-shape) t 
GR
GR
GS
[0 -0.3 0.3 0 108.84999 280.2] CT
/Helvetica 33 F
GS
[1 0 0 1 0 0] CT
0 13 moveto 
1 -1 scale
(BD_S-shape_1) t 
GR
GR
GS
[0 -0.3 0.3 0 145.01667 280.2] CT
/Helvetica 33 F
GS
[1 0 0 1 0 0] CT
0 13 moveto 
1 -1 scale
(BD_S-shape_2) t 
GR
GR
GS
[0 -0.3 0.3 0 181.18334 280.2] CT
/Helvetica 33 F
GS
[1 0 0 1 0 0] CT
0 13 moveto 
1 -1 scale
(BD_S-shape_3) t 
GR
GR
GS
[0 -0.3 0.3 0 217.35 280.2] CT
/Helvetica 33 F
GS
[1 0 0 1 0 0] CT
0 13 moveto 
1 -1 scale
(BD_S-shape_4) t 
GR
GR
GS
[0 -0.3 0.3 0 253.51666 280.2] CT
/Helvetica 33 F
GS
[1 0 0 1 0 0] CT
0 13 moveto 
1 -1 scale
(AD_S-shape_1) t 
GR
GR
GS
[0 -0.3 0.3 0 289.68333 280.2] CT
/Helvetica 33 F
GS
[1 0 0 1 0 0] CT
0 13 moveto 
1 -1 scale
(AD_S-shape_2) t 
GR
GR
GS
[0 -0.3 0.3 0 325.85002 280.2] CT
/Helvetica 33 F
GS
[1 0 0 1 0 0] CT
0 13 moveto 
1 -1 scale
(AD_S-shape_3) t 
GR
GR
GS
[0 -0.3 0.3 0 362.01665 280.2] CT
/Helvetica 33 F
GS
[1 0 0 1 0 0] CT
0 13 moveto 
1 -1 scale
(AD_S-shape_4) t 
GR
GR
%%Trailer
%%Pages: 1
%%EOF
