%!PS-Adobe-3.0 EPSF-3.0
%%Creator: (MATLAB, The Mathworks, Inc. Version 8.6.0.267246 \(R2015b\). Operating System: Windows 8)
%%Title: (C:/Users/Daniel/OneDrive - CertiCon a.s/Documents/skola/CVUT/Semester_8/Bakalarska_Praca/BT/matlab/measure_new/Percentil/Cross/Cross_Passed.eps)
%%CreationDate: 2016-05-21T12:17:47
%%Pages: (atend)
%%BoundingBox: 0 0 420 315
%%LanguageLevel: 2
%%EndComments
%%BeginProlog
%%BeginResource: procset (Apache XML Graphics Std ProcSet) 1.2 0
%%Version: 1.2 0
%%Copyright: (Copyright 2001-2003,2010 The Apache Software Foundation. License terms: http://www.apache.org/licenses/LICENSE-2.0)
/bd{bind def}bind def
/ld{load def}bd
/GR/grestore ld
/M/moveto ld
/LJ/setlinejoin ld
/C/curveto ld
/f/fill ld
/LW/setlinewidth ld
/GC/setgray ld
/t/show ld
/N/newpath ld
/CT/concat ld
/cp/closepath ld
/S/stroke ld
/L/lineto ld
/CC/setcmykcolor ld
/A/ashow ld
/GS/gsave ld
/RC/setrgbcolor ld
/RM/rmoveto ld
/ML/setmiterlimit ld
/re {4 2 roll M
1 index 0 rlineto
0 exch rlineto
neg 0 rlineto
cp } bd
/_ctm matrix def
/_tm matrix def
/BT { _ctm currentmatrix pop matrix _tm copy pop 0 0 moveto } bd
/ET { _ctm setmatrix } bd
/iTm { _ctm setmatrix _tm concat } bd
/Tm { _tm astore pop iTm 0 0 moveto } bd
/ux 0.0 def
/uy 0.0 def
/F {
  /Tp exch def
  /Tf exch def
  Tf findfont Tp scalefont setfont
  /cf Tf def  /cs Tp def
} bd
/ULS {currentpoint /uy exch def /ux exch def} bd
/ULE {
  /Tcx currentpoint pop def
  gsave
  newpath
  cf findfont cs scalefont dup
  /FontMatrix get 0 get /Ts exch def /FontInfo get dup
  /UnderlinePosition get Ts mul /To exch def
  /UnderlineThickness get Ts mul /Tt exch def
  ux uy To add moveto  Tcx uy To add lineto
  Tt setlinewidth stroke
  grestore
} bd
/OLE {
  /Tcx currentpoint pop def
  gsave
  newpath
  cf findfont cs scalefont dup
  /FontMatrix get 0 get /Ts exch def /FontInfo get dup
  /UnderlinePosition get Ts mul /To exch def
  /UnderlineThickness get Ts mul /Tt exch def
  ux uy To add cs add moveto Tcx uy To add cs add lineto
  Tt setlinewidth stroke
  grestore
} bd
/SOE {
  /Tcx currentpoint pop def
  gsave
  newpath
  cf findfont cs scalefont dup
  /FontMatrix get 0 get /Ts exch def /FontInfo get dup
  /UnderlinePosition get Ts mul /To exch def
  /UnderlineThickness get Ts mul /Tt exch def
  ux uy To add cs 10 mul 26 idiv add moveto Tcx uy To add cs 10 mul 26 idiv add lineto
  Tt setlinewidth stroke
  grestore
} bd
/QT {
/Y22 exch store
/X22 exch store
/Y21 exch store
/X21 exch store
currentpoint
/Y21 load 2 mul add 3 div exch
/X21 load 2 mul add 3 div exch
/X21 load 2 mul /X22 load add 3 div
/Y21 load 2 mul /Y22 load add 3 div
/X22 load /Y22 load curveto
} bd
/SSPD {
dup length /d exch dict def
{
/v exch def
/k exch def
currentpagedevice k known {
/cpdv currentpagedevice k get def
v cpdv ne {
/upd false def
/nullv v type /nulltype eq def
/nullcpdv cpdv type /nulltype eq def
nullv nullcpdv or
{
/upd true def
} {
/sametype v type cpdv type eq def
sametype {
v type /arraytype eq {
/vlen v length def
/cpdvlen cpdv length def
vlen cpdvlen eq {
0 1 vlen 1 sub {
/i exch def
/obj v i get def
/cpdobj cpdv i get def
obj cpdobj ne {
/upd true def
exit
} if
} for
} {
/upd true def
} ifelse
} {
v type /dicttype eq {
v {
/dv exch def
/dk exch def
/cpddv cpdv dk get def
dv cpddv ne {
/upd true def
exit
} if
} forall
} {
/upd true def
} ifelse
} ifelse
} if
} ifelse
upd true eq {
d k v put
} if
} if
} if
} forall
d length 0 gt {
d setpagedevice
} if
} bd
%%EndResource
%%BeginResource: procset (Apache XML Graphics EPS ProcSet) 1.0 0
%%Version: 1.0 0
%%Copyright: (Copyright 2002-2003 The Apache Software Foundation. License terms: http://www.apache.org/licenses/LICENSE-2.0)
/BeginEPSF { %def
/b4_Inc_state save def         % Save state for cleanup
/dict_count countdictstack def % Count objects on dict stack
/op_count count 1 sub def      % Count objects on operand stack
userdict begin                 % Push userdict on dict stack
/showpage { } def              % Redefine showpage, { } = null proc
0 setgray 0 setlinecap         % Prepare graphics state
1 setlinewidth 0 setlinejoin
10 setmiterlimit [ ] 0 setdash newpath
/languagelevel where           % If level not equal to 1 then
{pop languagelevel             % set strokeadjust and
1 ne                           % overprint to their defaults.
{false setstrokeadjust false setoverprint
} if
} if
} bd
/EndEPSF { %def
count op_count sub {pop} repeat            % Clean up stacks
countdictstack dict_count sub {end} repeat
b4_Inc_state restore
} bd
%%EndResource
%FOPBeginFontDict
%%IncludeResource: font Courier-Bold
%%IncludeResource: font Helvetica
%%IncludeResource: font Courier-BoldOblique
%%IncludeResource: font Courier-Oblique
%%IncludeResource: font Times-Roman
%%IncludeResource: font Helvetica-BoldOblique
%%IncludeResource: font Helvetica-Bold
%%IncludeResource: font Helvetica-Oblique
%%IncludeResource: font Times-BoldItalic
%%IncludeResource: font Courier
%%IncludeResource: font Times-Italic
%%IncludeResource: font Times-Bold
%%IncludeResource: font Symbol
%%IncludeResource: font ZapfDingbats
%FOPEndFontDict
%%BeginResource: encoding WinAnsiEncoding
/WinAnsiEncoding [
/.notdef /.notdef /.notdef /.notdef /.notdef
/.notdef /.notdef /.notdef /.notdef /.notdef
/.notdef /.notdef /.notdef /.notdef /.notdef
/.notdef /.notdef /.notdef /.notdef /.notdef
/.notdef /.notdef /.notdef /.notdef /.notdef
/.notdef /.notdef /.notdef /.notdef /.notdef
/.notdef /.notdef /space /exclam /quotedbl
/numbersign /dollar /percent /ampersand /quotesingle
/parenleft /parenright /asterisk /plus /comma
/hyphen /period /slash /zero /one
/two /three /four /five /six
/seven /eight /nine /colon /semicolon
/less /equal /greater /question /at
/A /B /C /D /E
/F /G /H /I /J
/K /L /M /N /O
/P /Q /R /S /T
/U /V /W /X /Y
/Z /bracketleft /backslash /bracketright /asciicircum
/underscore /quoteleft /a /b /c
/d /e /f /g /h
/i /j /k /l /m
/n /o /p /q /r
/s /t /u /v /w
/x /y /z /braceleft /bar
/braceright /asciitilde /bullet /Euro /bullet
/quotesinglbase /florin /quotedblbase /ellipsis /dagger
/daggerdbl /circumflex /perthousand /Scaron /guilsinglleft
/OE /bullet /Zcaron /bullet /bullet
/quoteleft /quoteright /quotedblleft /quotedblright /bullet
/endash /emdash /asciitilde /trademark /scaron
/guilsinglright /oe /bullet /zcaron /Ydieresis
/space /exclamdown /cent /sterling /currency
/yen /brokenbar /section /dieresis /copyright
/ordfeminine /guillemotleft /logicalnot /sfthyphen /registered
/macron /degree /plusminus /twosuperior /threesuperior
/acute /mu /paragraph /middot /cedilla
/onesuperior /ordmasculine /guillemotright /onequarter /onehalf
/threequarters /questiondown /Agrave /Aacute /Acircumflex
/Atilde /Adieresis /Aring /AE /Ccedilla
/Egrave /Eacute /Ecircumflex /Edieresis /Igrave
/Iacute /Icircumflex /Idieresis /Eth /Ntilde
/Ograve /Oacute /Ocircumflex /Otilde /Odieresis
/multiply /Oslash /Ugrave /Uacute /Ucircumflex
/Udieresis /Yacute /Thorn /germandbls /agrave
/aacute /acircumflex /atilde /adieresis /aring
/ae /ccedilla /egrave /eacute /ecircumflex
/edieresis /igrave /iacute /icircumflex /idieresis
/eth /ntilde /ograve /oacute /ocircumflex
/otilde /odieresis /divide /oslash /ugrave
/uacute /ucircumflex /udieresis /yacute /thorn
/ydieresis
] def
%%EndResource
%FOPBeginFontReencode
/Courier-Bold findfont
dup length dict begin
  {1 index /FID ne {def} {pop pop} ifelse} forall
  /Encoding WinAnsiEncoding def
  currentdict
end
/Courier-Bold exch definefont pop
/Helvetica findfont
dup length dict begin
  {1 index /FID ne {def} {pop pop} ifelse} forall
  /Encoding WinAnsiEncoding def
  currentdict
end
/Helvetica exch definefont pop
/Courier-BoldOblique findfont
dup length dict begin
  {1 index /FID ne {def} {pop pop} ifelse} forall
  /Encoding WinAnsiEncoding def
  currentdict
end
/Courier-BoldOblique exch definefont pop
/Courier-Oblique findfont
dup length dict begin
  {1 index /FID ne {def} {pop pop} ifelse} forall
  /Encoding WinAnsiEncoding def
  currentdict
end
/Courier-Oblique exch definefont pop
/Times-Roman findfont
dup length dict begin
  {1 index /FID ne {def} {pop pop} ifelse} forall
  /Encoding WinAnsiEncoding def
  currentdict
end
/Times-Roman exch definefont pop
/Helvetica-BoldOblique findfont
dup length dict begin
  {1 index /FID ne {def} {pop pop} ifelse} forall
  /Encoding WinAnsiEncoding def
  currentdict
end
/Helvetica-BoldOblique exch definefont pop
/Helvetica-Bold findfont
dup length dict begin
  {1 index /FID ne {def} {pop pop} ifelse} forall
  /Encoding WinAnsiEncoding def
  currentdict
end
/Helvetica-Bold exch definefont pop
/Helvetica-Oblique findfont
dup length dict begin
  {1 index /FID ne {def} {pop pop} ifelse} forall
  /Encoding WinAnsiEncoding def
  currentdict
end
/Helvetica-Oblique exch definefont pop
/Times-BoldItalic findfont
dup length dict begin
  {1 index /FID ne {def} {pop pop} ifelse} forall
  /Encoding WinAnsiEncoding def
  currentdict
end
/Times-BoldItalic exch definefont pop
/Courier findfont
dup length dict begin
  {1 index /FID ne {def} {pop pop} ifelse} forall
  /Encoding WinAnsiEncoding def
  currentdict
end
/Courier exch definefont pop
/Times-Italic findfont
dup length dict begin
  {1 index /FID ne {def} {pop pop} ifelse} forall
  /Encoding WinAnsiEncoding def
  currentdict
end
/Times-Italic exch definefont pop
/Times-Bold findfont
dup length dict begin
  {1 index /FID ne {def} {pop pop} ifelse} forall
  /Encoding WinAnsiEncoding def
  currentdict
end
/Times-Bold exch definefont pop
%FOPEndFontReencode
%%EndProlog
%%Page: 1 1
%%PageBoundingBox: 0 0 420 315
%%BeginPageSetup
[1 0 0 -1 0 315] CT
%%EndPageSetup
GS
[0.3 0 0 0.3 0 0] CT
1 GC
N
0 0 1400 1050 re
f
GR
GS
[0.3 0 0 0.3 0 0] CT
1 GC
N
0 0 1400 1050 re
f
GR
GS
[0.3 0 0 0.3 0 0] CT
1 GC
N
182 782 M
1267 782 L
1267 79 L
182 79 L
cp
f
GR
GS
[0.3 0 0 0.3 0 0] CT
0.149 GC
2 setlinecap
1 LJ
1.667 LW
N
182 782 M
1267 782 L
S
GR
GS
[0.3 0 0 0.3 0 0] CT
0.149 GC
2 setlinecap
1 LJ
1.667 LW
N
182 79 M
1267 79 L
S
GR
GS
[0.3 0 0 0.3 0 0] CT
0.149 GC
2 setlinecap
1 LJ
1.667 LW
N
182 782 M
182 79 L
S
GR
GS
[0.3 0 0 0.3 0 0] CT
0.149 GC
2 setlinecap
1 LJ
1.667 LW
N
1267 782 M
1267 79 L
S
GR
GS
[0.3 0 0 0.3 0 0] CT
0.149 GC
2 setlinecap
1 LJ
1.667 LW
N
182 782 M
192.85 782 L
S
GR
GS
[0.3 0 0 0.3 0 0] CT
0.149 GC
2 setlinecap
1 LJ
1.667 LW
N
182 641.4 M
192.85 641.4 L
S
GR
GS
[0.3 0 0 0.3 0 0] CT
0.149 GC
2 setlinecap
1 LJ
1.667 LW
N
182 500.8 M
192.85 500.8 L
S
GR
GS
[0.3 0 0 0.3 0 0] CT
0.149 GC
2 setlinecap
1 LJ
1.667 LW
N
182 360.2 M
192.85 360.2 L
S
GR
GS
[0.3 0 0 0.3 0 0] CT
0.149 GC
2 setlinecap
1 LJ
1.667 LW
N
182 219.6 M
192.85 219.6 L
S
GR
GS
[0.3 0 0 0.3 0 0] CT
0.149 GC
2 setlinecap
1 LJ
1.667 LW
N
182 79 M
192.85 79 L
S
GR
GS
[0.3 0 0 0.3 0 0] CT
0.149 GC
2 setlinecap
1 LJ
1.667 LW
N
1267 782 M
1256.15 782 L
S
GR
GS
[0.3 0 0 0.3 0 0] CT
0.149 GC
2 setlinecap
1 LJ
1.667 LW
N
1267 641.4 M
1256.15 641.4 L
S
GR
GS
[0.3 0 0 0.3 0 0] CT
0.149 GC
2 setlinecap
1 LJ
1.667 LW
N
1267 500.8 M
1256.15 500.8 L
S
GR
GS
[0.3 0 0 0.3 0 0] CT
0.149 GC
2 setlinecap
1 LJ
1.667 LW
N
1267 360.2 M
1256.15 360.2 L
S
GR
GS
[0.3 0 0 0.3 0 0] CT
0.149 GC
2 setlinecap
1 LJ
1.667 LW
N
1267 219.6 M
1256.15 219.6 L
S
GR
GS
[0.3 0 0 0.3 0 0] CT
0.149 GC
2 setlinecap
1 LJ
1.667 LW
N
1267 79 M
1256.15 79 L
S
GR
GS
[0.3 0 0 0.3 50.6 234.6] CT
0.149 GC
/Helvetica 33 F
GS
[1 0 0 1 0 0] CT
-37 13 moveto 
1 -1 scale
(40) t 
GR
GR
GS
[0.3 0 0 0.3 50.6 192.42001] CT
0.149 GC
/Helvetica 33 F
GS
[1 0 0 1 0 0] CT
-37 13 moveto 
1 -1 scale
(45) t 
GR
GR
GS
[0.3 0 0 0.3 50.6 150.24] CT
0.149 GC
/Helvetica 33 F
GS
[1 0 0 1 0 0] CT
-37 13 moveto 
1 -1 scale
(50) t 
GR
GR
GS
[0.3 0 0 0.3 50.6 108.06] CT
0.149 GC
/Helvetica 33 F
GS
[1 0 0 1 0 0] CT
-37 13 moveto 
1 -1 scale
(55) t 
GR
GR
GS
[0.3 0 0 0.3 50.6 65.88] CT
0.149 GC
/Helvetica 33 F
GS
[1 0 0 1 0 0] CT
-37 13 moveto 
1 -1 scale
(60) t 
GR
GR
GS
[0.3 0 0 0.3 50.6 23.7] CT
0.149 GC
/Helvetica 33 F
GS
[1 0 0 1 0 0] CT
-37 13 moveto 
1 -1 scale
(65) t 
GR
GR
GS
[0 -0.3 0.3 0 36.5 129.1499] CT
0.149 GC
/Helvetica 37 F
GS
[1 0 0 1 0 0] CT
-194.5 -9 moveto 
1 -1 scale
(Visited environment [%]) t 
GR
GR
GS
[0.3 0 0 0.3 0 0] CT
[10 6] 0 setdash
2 LJ
1.667 LW
N
242.278 268.81 M
242.278 184.45 L
S
GR
GS
[0.3 0 0 0.3 0 0] CT
[10 6] 0 setdash
2 LJ
1.667 LW
N
362.833 339.11 M
362.833 325.05 L
S
GR
GS
[0.3 0 0 0.3 0 0] CT
[10 6] 0 setdash
2 LJ
1.667 LW
N
483.389 409.41 M
483.389 332.08 L
S
GR
GS
[0.3 0 0 0.3 0 0] CT
[10 6] 0 setdash
2 LJ
1.667 LW
N
603.944 353.17 M
603.944 339.11 L
S
GR
GS
[0.3 0 0 0.3 0 0] CT
[10 6] 0 setdash
2 LJ
1.667 LW
N
724.5 479.71 M
724.5 479.71 L
S
GR
GS
[0.3 0 0 0.3 0 0] CT
[10 6] 0 setdash
2 LJ
1.667 LW
N
845.056 507.83 M
845.056 493.77 L
S
GR
GS
[0.3 0 0 0.3 0 0] CT
[10 6] 0 setdash
2 LJ
1.667 LW
N
965.611 282.87 M
965.611 261.78 L
S
GR
GS
[0.3 0 0 0.3 0 0] CT
[10 6] 0 setdash
2 LJ
1.667 LW
N
1086.167 360.2 M
1086.167 310.99 L
S
GR
GS
[0.3 0 0 0.3 0 0] CT
[10 6] 0 setdash
2 LJ
1.667 LW
N
1206.722 310.99 M
1206.722 303.96 L
S
GR
GS
[0.3 0 0 0.3 0 0] CT
[10 6] 0 setdash
2 LJ
1.667 LW
N
242.278 395.35 M
242.278 346.14 L
S
GR
GS
[0.3 0 0 0.3 0 0] CT
[10 6] 0 setdash
2 LJ
1.667 LW
N
362.833 388.32 M
362.833 367.23 L
S
GR
GS
[0.3 0 0 0.3 0 0] CT
[10 6] 0 setdash
2 LJ
1.667 LW
N
483.389 479.71 M
483.389 465.65 L
S
GR
GS
[0.3 0 0 0.3 0 0] CT
[10 6] 0 setdash
2 LJ
1.667 LW
N
603.944 465.65 M
603.944 451.59 L
S
GR
GS
[0.3 0 0 0.3 0 0] CT
[10 6] 0 setdash
2 LJ
1.667 LW
N
724.5 500.8 M
724.5 500.8 L
S
GR
GS
[0.3 0 0 0.3 0 0] CT
[10 6] 0 setdash
2 LJ
1.667 LW
N
845.056 620.31 M
845.056 564.07 L
S
GR
GS
[0.3 0 0 0.3 0 0] CT
[10 6] 0 setdash
2 LJ
1.667 LW
N
965.611 409.41 M
965.611 353.17 L
S
GR
GS
[0.3 0 0 0.3 0 0] CT
[10 6] 0 setdash
2 LJ
1.667 LW
N
1086.167 416.44 M
1086.167 395.35 L
S
GR
GS
[0.3 0 0 0.3 0 0] CT
[10 6] 0 setdash
2 LJ
1.667 LW
N
1206.722 360.2 M
1206.722 332.08 L
S
GR
GS
[0.3 0 0 0.3 0 0] CT
1 LJ
1.667 LW
N
227.208 184.45 M
257.347 184.45 L
S
GR
GS
[0.3 0 0 0.3 0 0] CT
1 LJ
1.667 LW
N
347.764 325.05 M
377.903 325.05 L
S
GR
GS
[0.3 0 0 0.3 0 0] CT
1 LJ
1.667 LW
N
468.319 332.08 M
498.458 332.08 L
S
GR
GS
[0.3 0 0 0.3 0 0] CT
1 LJ
1.667 LW
N
588.875 339.11 M
619.014 339.11 L
S
GR
GS
[0.3 0 0 0.3 0 0] CT
1 LJ
1.667 LW
N
709.431 479.71 M
739.569 479.71 L
S
GR
GS
[0.3 0 0 0.3 0 0] CT
1 LJ
1.667 LW
N
829.986 493.77 M
860.125 493.77 L
S
GR
GS
[0.3 0 0 0.3 0 0] CT
1 LJ
1.667 LW
N
950.542 261.78 M
980.681 261.78 L
S
GR
GS
[0.3 0 0 0.3 0 0] CT
1 LJ
1.667 LW
N
1071.097 310.99 M
1101.236 310.99 L
S
GR
GS
[0.3 0 0 0.3 0 0] CT
1 LJ
1.667 LW
N
1191.653 303.96 M
1221.792 303.96 L
S
GR
GS
[0.3 0 0 0.3 0 0] CT
1 LJ
1.667 LW
N
227.208 395.35 M
257.347 395.35 L
S
GR
GS
[0.3 0 0 0.3 0 0] CT
1 LJ
1.667 LW
N
347.764 388.32 M
377.903 388.32 L
S
GR
GS
[0.3 0 0 0.3 0 0] CT
1 LJ
1.667 LW
N
468.319 479.71 M
498.458 479.71 L
S
GR
GS
[0.3 0 0 0.3 0 0] CT
1 LJ
1.667 LW
N
588.875 465.65 M
619.014 465.65 L
S
GR
GS
[0.3 0 0 0.3 0 0] CT
1 LJ
1.667 LW
N
709.431 500.8 M
739.569 500.8 L
S
GR
GS
[0.3 0 0 0.3 0 0] CT
1 LJ
1.667 LW
N
829.986 620.31 M
860.125 620.31 L
S
GR
GS
[0.3 0 0 0.3 0 0] CT
1 LJ
1.667 LW
N
950.542 409.41 M
980.681 409.41 L
S
GR
GS
[0.3 0 0 0.3 0 0] CT
1 LJ
1.667 LW
N
1071.097 416.44 M
1101.236 416.44 L
S
GR
GS
[0.3 0 0 0.3 0 0] CT
1 LJ
1.667 LW
N
1191.653 360.2 M
1221.792 360.2 L
S
GR
GS
[0.3 0 0 0.3 0 0] CT
0 0 1 RC
1 LJ
1.667 LW
N
212.139 346.14 M
212.139 268.81 L
272.417 268.81 L
272.417 346.14 L
212.139 346.14 L
S
GR
GS
[0.3 0 0 0.3 0 0] CT
0 0 1 RC
1 LJ
1.667 LW
N
332.694 367.23 M
332.694 339.11 L
392.972 339.11 L
392.972 367.23 L
332.694 367.23 L
S
GR
GS
[0.3 0 0 0.3 0 0] CT
0 0 1 RC
1 LJ
1.667 LW
N
453.25 465.65 M
453.25 409.41 L
513.528 409.41 L
513.528 465.65 L
453.25 465.65 L
S
GR
GS
[0.3 0 0 0.3 0 0] CT
0 0 1 RC
1 LJ
1.667 LW
N
573.806 451.59 M
573.806 353.17 L
634.083 353.17 L
634.083 451.59 L
573.806 451.59 L
S
GR
GS
[0.3 0 0 0.3 0 0] CT
0 0 1 RC
1 LJ
1.667 LW
N
694.361 500.8 M
694.361 479.71 L
754.639 479.71 L
754.639 500.8 L
694.361 500.8 L
S
GR
GS
[0.3 0 0 0.3 0 0] CT
0 0 1 RC
1 LJ
1.667 LW
N
814.917 564.07 M
814.917 507.83 L
875.194 507.83 L
875.194 564.07 L
814.917 564.07 L
S
GR
GS
[0.3 0 0 0.3 0 0] CT
0 0 1 RC
1 LJ
1.667 LW
N
935.472 353.17 M
935.472 282.87 L
995.75 282.87 L
995.75 353.17 L
935.472 353.17 L
S
GR
GS
[0.3 0 0 0.3 0 0] CT
0 0 1 RC
1 LJ
1.667 LW
N
1056.028 395.35 M
1056.028 360.2 L
1116.306 360.2 L
1116.306 395.35 L
1056.028 395.35 L
S
GR
GS
[0.3 0 0 0.3 0 0] CT
0 0 1 RC
1 LJ
1.667 LW
N
1176.583 332.08 M
1176.583 310.99 L
1236.861 310.99 L
1236.861 332.08 L
1176.583 332.08 L
S
GR
GS
[0.3 0 0 0.3 0 0] CT
1 0 0 RC
1 LJ
1.667 LW
N
212.139 321.535 M
272.417 321.535 L
S
GR
GS
[0.3 0 0 0.3 0 0] CT
1 0 0 RC
1 LJ
1.667 LW
N
332.694 346.14 M
392.972 346.14 L
S
GR
GS
[0.3 0 0 0.3 0 0] CT
1 0 0 RC
1 LJ
1.667 LW
N
453.25 423.47 M
513.528 423.47 L
S
GR
GS
[0.3 0 0 0.3 0 0] CT
1 0 0 RC
1 LJ
1.667 LW
N
573.806 419.955 M
634.083 419.955 L
S
GR
GS
[0.3 0 0 0.3 0 0] CT
1 0 0 RC
1 LJ
1.667 LW
N
694.361 486.74 M
754.639 486.74 L
S
GR
GS
[0.3 0 0 0.3 0 0] CT
1 0 0 RC
1 LJ
1.667 LW
N
814.917 518.375 M
875.194 518.375 L
S
GR
GS
[0.3 0 0 0.3 0 0] CT
1 0 0 RC
1 LJ
1.667 LW
N
935.472 325.05 M
995.75 325.05 L
S
GR
GS
[0.3 0 0 0.3 0 0] CT
1 0 0 RC
1 LJ
1.667 LW
N
1056.028 363.715 M
1116.306 363.715 L
S
GR
GS
[0.3 0 0 0.3 0 0] CT
1 0 0 RC
1 LJ
1.667 LW
N
1176.583 332.08 M
1236.861 332.08 L
S
GR
GS
[0.3 0 0 0.3 0 0] CT
1 0 0 RC
1 LJ
1.667 LW
N
352.833 430.5 M
372.833 430.5 L
S
GR
GS
[0.3 0 0 0.3 0 0] CT
1 0 0 RC
1 LJ
1.667 LW
N
362.833 440.5 M
362.833 420.5 L
S
GR
GS
[0.3 0 0 0.3 0 0] CT
1 0 0 RC
1 LJ
1.667 LW
N
352.833 226.63 M
372.833 226.63 L
S
GR
GS
[0.3 0 0 0.3 0 0] CT
1 0 0 RC
1 LJ
1.667 LW
N
362.833 236.63 M
362.833 216.63 L
S
GR
GS
[0.3 0 0 0.3 0 0] CT
1 0 0 RC
1 LJ
1.667 LW
N
714.5 430.5 M
734.5 430.5 L
S
GR
GS
[0.3 0 0 0.3 0 0] CT
1 0 0 RC
1 LJ
1.667 LW
N
724.5 440.5 M
724.5 420.5 L
S
GR
GS
[0.3 0 0 0.3 0 0] CT
1 0 0 RC
1 LJ
1.667 LW
N
714.5 416.44 M
734.5 416.44 L
S
GR
GS
[0.3 0 0 0.3 0 0] CT
1 0 0 RC
1 LJ
1.667 LW
N
724.5 426.44 M
724.5 406.44 L
S
GR
GS
[0.3 0 0 0.3 0 0] CT
1 0 0 RC
1 LJ
1.667 LW
N
1196.722 275.84 M
1216.722 275.84 L
S
GR
GS
[0.3 0 0 0.3 0 0] CT
1 0 0 RC
1 LJ
1.667 LW
N
1206.722 285.84 M
1206.722 265.84 L
S
GR
GS
[0.3 0 0 0.3 0 0] CT
1 0 1 RC
1 LJ
3.333 LW
N
181.892 500.8 M
1267.109 500.8 L
S
GR
GS
[0 -0.3 0.3 0 72.68333 280.2] CT
/Helvetica 33 F
GS
[1 0 0 1 0 0] CT
0 13 moveto 
1 -1 scale
(Cross) t 
GR
GR
GS
[0 -0.3 0.3 0 108.84999 280.2] CT
/Helvetica 33 F
GS
[1 0 0 1 0 0] CT
0 13 moveto 
1 -1 scale
(Cross_1) t 
GR
GR
GS
[0 -0.3 0.3 0 145.01667 280.2] CT
/Helvetica 33 F
GS
[1 0 0 1 0 0] CT
0 13 moveto 
1 -1 scale
(Cross_2) t 
GR
GR
GS
[0 -0.3 0.3 0 181.18334 280.2] CT
/Helvetica 33 F
GS
[1 0 0 1 0 0] CT
0 13 moveto 
1 -1 scale
(Cross_3) t 
GR
GR
GS
[0 -0.3 0.3 0 217.35 280.2] CT
/Helvetica 33 F
GS
[1 0 0 1 0 0] CT
0 13 moveto 
1 -1 scale
(Cross_5) t 
GR
GR
GS
[0 -0.3 0.3 0 253.51666 280.2] CT
/Helvetica 33 F
GS
[1 0 0 1 0 0] CT
0 13 moveto 
1 -1 scale
(Cross_8) t 
GR
GR
GS
[0 -0.3 0.3 0 289.68333 280.2] CT
/Helvetica 33 F
GS
[1 0 0 1 0 0] CT
0 13 moveto 
1 -1 scale
(Cross_9) t 
GR
GR
GS
[0 -0.3 0.3 0 325.85002 280.2] CT
/Helvetica 33 F
GS
[1 0 0 1 0 0] CT
0 13 moveto 
1 -1 scale
(Cross_10) t 
GR
GR
GS
[0 -0.3 0.3 0 362.01665 280.2] CT
/Helvetica 33 F
GS
[1 0 0 1 0 0] CT
0 13 moveto 
1 -1 scale
(Cross_12) t 
GR
GR
%%Trailer
%%Pages: 1
%%EOF
